User:4728
Util:26272
Insert:1032
Than:230
Iterator:1712
Anchorizer:982
Opaque:324
Runnable:946
Tasks:1176
visit:264
Singleton:416
Comparable:164
Path:2268
Single:1004
Hash:83362
Fire:28
event:1664
Timestamps:1648
Combo:3240
Thread:7292
Point:112
Platform:2836
openapi:270807
Swing:90
Extension_3:70
sleep:1750
Mode:7143
Extension_2:372
Toolbar:4122
project:27798
Filter:1634
Intelligence:230
Disposer_1:264
editor:454
Index:14056
Widget_:462
Node:1482
Request_1_1:72
Hard:164
retain:492
components:24210
Being:1146
Nanos:182
Comparing:424
Adapter:4902
Limit:264
Animated:644
Sensitive:34
idea:3472
Parser:344
Decorator:650
Mock:1022
Todo:56
Widget:462
before:1098
access$1100:264
access$1200:120
debug:2
Cached:3316
execution:588
Usage:594
Logging:22
Inline:780
Appenders:2
Action:33576
Tree:8264
Builder:280
current:424
Content:4654
ensure:2616
safe:814
Place:326
Range:4
Configurations:164
Flag:346
Intelli:3848
Rendered:2
Mappings:324
Strategy:514
access$1000:264
Alarm:988
Modification:1538
Async:252
starts:8
Link:22
Indexing:4278
Preferred:1960
Greater:236
Stack:528
Impl:110659
access$800:956
Reached:264
Reader:1590
apache:60
Records:2324
poll:728
Build:160
Queue:22450
Sequence:28
Extensions:224
append:1138
execute:2186
Change:180
Border:924
Ascii:14
Containing:162
Utils:4410
Initialized:984
Visit:264
Updater:526
access$500:354
Timed_1:10
Antialiasing:162
Stream:1754
String:9502
Insensitive:614
Application:61441
Pattern:16
Reference:1146
access$400:162
access$2500:164
access$402:326
Impl_12:492
Command:454
update:2658
jetbrains:320
Field:530
Flush:700
Synchronizer:164
Records_:88
Loader_:1004
Protected:4
Lock:6856
Proxy14:32
Unindexed:264
Main:162
Region:640
Threshold:6
History:164
Runnable_1:164
Write:6564
Manager:103214
Mutable:2886
Indicator_3:140
Indicator_2:144
Watcher_:154
Tokens:172
Detected:86
Hashing:514
Attachable:2
Feel:534
trim:6688
List:6024
Disposed:6510
Processor:196
Opened:984
access$3100:262
Armed:164
Impl_26:264
Action_1:1886
Creation:1194
Match:162
Dialog:2
equal:424
nano:362
Appender:14
ignores:2
Typeahead:164
flush:1552
Writer:4
access$3900:264
retrieve:982
Variant:444
Volatile:486
Icon:9828
Skeleton:8
cached:62
Switch:324
darcula:224
Building:56
Hook:4196
Backed:6366
Module:2940
Requests:2784
Object_:164
Files:2730
deliver:818
lifecycle:814
concurrency:4608
Safely:196
Based:6994
Inplace:280
Global:656
move:1116
diagnostic:3946
Entry:24870
maybe:162
Painting:280
Caching:656
startup:3936
Color:816
access$2200:328
Active:1634
Linked:6972
Flushing:326
Plain:24
Persistent:2478
delay:182
Second:1628
Roots:1312
Awareness:2124
Background:972
Common:818
Table:1176
Finder:264
space:2
clear:336
Impl_:11876
Stamp:5030
trove:54346
Font:920
Suspend:3356
None:1138
Converter:8
internal:908
Invokator:270
Future:362
Corrected:210
access$000:1216
access$002:8
Message:2024
Running:3348
Everywhere:1394
Independent:162
Timer:656
Pointers:982
access$100:1812
access$102:72
Keys:182
Priority:8
access$5300:524
Windows:1394
Providers:4248
persistent:4072
Animator_2_1:252
projectlevelman:324
Sleep:6
nodes:1964
Address:560
Watcher:384
force:656
log4j:60
Definition:344
Lazy:6046
Timeout:1750
save:24
Tool:6220
Text2:140
Performed:164
access$600:236
Workspace:264
Detector:1664
contains:8508
varia:4
access$700:1684
Ready:492
python:320
Virtual:29374
Loaded:2698
Sleeping:6
Context:6698
Process:580
request:270
action:71346
value:294
Callback:264
Graphics:162
Manager_:1394
Frame:978
Grouper:602
Aqua:534
Size:2490
iterator:3082
minus:262
Shutdown:3164
Lower:264
Event:42118
Cache:3014
Factory:4036
enter:1394
Custom:420
Meaningless:656
depth:264
Limited:4
jsr166e:28
Visibility:140
Nodes:2124
util:153028
Type:7918
Timer_1:162
Insets:630
layout:140
Startup:2952
Done:264
read:3486
Remove:162
compute:1246
Checkin:164
Owner:820
application:44893
Writable:22
impl:160025
Atomic:526
list:32
Visited:240
Button_:328
print:28
Progress:5752
Indexable:1856
Presentation:23252
Canonical:164
Root:7566
Unregistered:264
Gradient:164
Level:1646
local:350
spread:4844
smart:982
Queue_:1422
changes:162
Selection:984
Impl_7:164
Special:22
Statistics:28
Model:820
Visible:4240
Array:13788
Impl_2:164
Property:3592
Impl_1:2794
Offscreen:486
validated:1636
Parser_:6
validate:70
Impl_6:92
Impl_5:8
matches:162
defaults:656
Test:3951
Delegating:3218
Stamp_:1648
Holder:2364
concurrent:908
Page:3388
Focus:12440
List_:1130
Slightly:324
Attribute:1336
Project:22178
Matches:162
Window:6548
copy:324
roots:7860
Heavy:184
Selected:3612
Components:1394
available:1194
Happened:1664
Rules:3772
When:164
Animator_2:886
content:1950
Byte:1194
Frequent:1664
Layout:352
_add:196
Invocator_:792
Task:2192
Weak:328
Executor:1200
Modality:4556
Throwable:4
Provider:8446
Null:6046
Indicator_:72
Base:10322
Scheduled:362
Keyed:180
Pair:1646
data:3772
Soft:1146
Wrapper:1510
Code:21204
Logger:5062
messages:818
Macro:2788
Implicit:162
Control:164
Available:1654
Down:3328
Scheduler:426
proxy:32
Indeterminate:140
Image:1448
Equal:6
customization:420
With:272
Targets:328
Client:3592
pico:2886
From:15650
Input:2838
Settings:696
Modules:164
netty:2544
Adaptive:6
Debug:3468
invalidate:1962
helpers:12
Assignable:2124
Promise:2
string:264
assert:7916
Language:1376
Label:706
actions:4658
progress:3468
Panel_7:74
queue:148
Attributes:582
Reader_:6
perform:3594
Panel_2:102
Output:1606
cancel:332
Settles:164
after:2814
Extension:1620
Memory:102
Button:1212
Layered:826
Pico:8658
Cancelled0:2
expand:980
Internal:650
Invalid:210
Scheduler_1:3672
Current:666
Adopted:4
Base_1:894
text:8982
Value:12934
index:898
Literal:6
access$4000:1594
select:182
Pool:3392
Counter:22
Repaint:1790
Merger:72
size:1404
Entries:492
navigation:1558
Expired:72
True:1852
usages:164
Read:1474
Dirty:884
Aware:3430
Enabled:9430
Start:6694
Passed:984
Update:8980
Health:16
Monitor_3:16
lang:456
Cursor:454
Visitor:792
Alarm_:590
dispatch:5576
Handler_:32
Mapping:810
Performance:90
Addr:14
Bytes:590
System:91328
Local:1174
Shared:772
Resizeable:1410
Smart:1572
Tabbed:164
reference:1146
Request_1:124
Listener:328
Status:1180
State:4286
invoke:846
Registered:56
Reflection:2128
Execute:3672
Info:2970
Directory:13358
Look:534
Service:20094
Search:1394
accept:1628
indexing:21808
access$3800:230
Child:1120
Postpocessor:1394
Constants:230
Action_:932
extensions:168
Group:1190
Free:6564
info:2
Empty:3692
draw:416
Data:107802
Sync:656
tree:3266
Under:3038
Connection_3:88
file:7446
Severe:6
Actions:420
config:162
Pool_:602
Default:8298
platform:2124
Parent:1056
Long:2270
plus:264
Pane:4798
unlock:14
Transferred:1146
Repositories:162
equals:7382
extra:28
Show:164
compare:1200
Comment:172
Hidden:22
prepare:492
create:3588
Activity:1146
Policy:330
Access:1680
registry:4504
dereference:1146
Darker:324
Drawing:486
Equality:264
Config:1968
Alpha:164
remove:1366
Finalization:1124
Request:882
Invocator:1590
Index_:818
Fraction:280
Unit:3787
Idea:3472
Infrastructure:1194
Mapped:1410
Panel:11122
Target:164
Time:1598
Tracker:3164
Panes:2616
Object:24120
containers:39098
expire:164
Pane_:70
module:162
post:2184
cache:950
Large:230
Schema:420
Pointer:982
Mpsc:908
Dispatch:8044
should:162
Enumerator:28
process:558
Next:1174
Focused:1886
Page_1:4
Structure:6372
Length:970
Minimum:70
Intellisense:230
Loop:730
Element:7368
Rollback:162
Abstract:15318
Types:3948
Editor:454
Indexed:1446
Area:56
intellij:484215
Indexer:56
uninjected:6688
Immediately:818
access$200:7028
Dumb:21568
Case:648
access$300:1576
Map_:1296
Component:46278
Width:1092
Cheap:656
Indicator:3592
Optimized:486
Idle:1174
hash:24072
status:2450
mark:44
property:164
paint:2288
format:6
Append:2
newvfs:27062
Quiet:2
Stub:320
Concurrent:19344
Names:264
Darcula:2476
Transfer:492
Storage:1120
Needed:1794
Queue_2:94
default:1538
Simple:5928
Exists:210
Later:3196
Paint:326
Elements:508
images:28
Valid:5400
filter:2286
Small:444
alloc:4
decide:4
Instance:32390
Sticky:1394
Panel_:214
Count:1522
allow:264
Supressor:1394
state:328
calc:1464
Handler_4:32
Buffer:486
object:528
Connection:818
push:264
Copy:6564
Unsync:1194
View:27110
Registry:6122
picocontainer:3542
setup:162
Python:320
Container:13584
find:1520
detect:324
Shut:3164
check:760
Vcss:652
Core:1796
Anchorizer_2:982
File:59390
lock:14
Cancelable:140
Rule:19936
tasks:1134
Periodical:814
Children:1064
Collector:180
Name:6002
Layer:504
Pooled:8
Closer:814
Text:1312
Merging:660
Record:280
Canceled:298
Identity:264
alternatives:2886
Processed:4
Selections:328
Latch:184
Random:1680
channel:728
storage:1864
Total count of tokens: 3559547
