User:18
Util:4
Model2:50
Fonts:2
Changes:8
Iterator:84148
store:648
Implies:56
Storage_:650
predicate:90
Visibilities:2
Package_:250
Relevant:552
Leaf:82
Browser_1:8
Singleton:242
Dependency:8
Diagram:624
Kind:650
Path:3328
Evaluator:90
Inner:144
Combo:68
Thread:2
Point:24
decrement:70892
Swing:2
jmiimpl:6264
Follower:2
Edge:2
Mode:92
Utility:12
project:2
Index:402278
Dock:8
Node:142
Changed:4674
Instructions:14
Model_:56
Adapter:5487
Parser:3990
Decorator:2
Cell:160
Todo:14
Guillemets:2
Practices:6
Localizer:4
Details:42
Specialization_:8
Constraint:744
Cached:180
debug:602
drawing:4
Usage:2
Generalizes_:4608
Renderer:152
_lock:1558
leave:70896
Action:332
Tree:388
Create:80
write:15804
Expression:7340
foundation:74
parse:30
Content:20
notation:24
Behavioral:72
look:2
Strategy:82
Evaluate:180
fire:42
register:4
Link:48
Reception:48
Behavior:60
Split:6
base:236
Trash:2
configuration:966
Preferred:18
Line:1002
Literals:48
Helper:50
storagemodel:683566
Impl:419304
toolbar:330
drop:492
apache:682
Primary:1774
memoryimpl:175180
Illegal:8
Into:8
component:12
Prop:46
Should:4
Stimuli:48
Horizontal:2
Src_:4
Sequence:98
Annotated:4
critics:898
initialize:2
execute:6
Storable:158070
Home:14
Head:60
Change:4164
Border:14
Classifier:769
Heap:36
Containing:4
Utils:15144
_handle:27498
Shown:2
Dependencies:882
Assoc:29732
preferred:2
Strategies:6
node:10610
String:4304
Analysis:1926
Application:2
Predicate:112
Struct:2552
Reference:15542
Multiple:141782
access$400:2
make:474
Translator:672
Formating:36
collect:1206
Blank:180
Command:2
update:20
Field:2
Import:52
instantiate:36
Operation_1:4
Repository:578020
Set_:50490
Query:29280
Upper:638
analysis:5487
Remover:8
Browser:36
Descriptor:15714
Threshold:6
History:6
Manager:334
name:18
Mutable:46
Allowed:8
Notifier_:32
Package:8138
disable:2
Feel:2
List:556
_pre:27498
Parameter:214
Removed:38
Designer:138
Proportional:8
Transaction:5114
Template:24
Logical:662
Exposed:660
Exposes:330
static_structure:48
Generation:4
still:12
Dialog:54
Notation:28
Boolean:146
Error:18
Props:16
Position:6
Refers:330
Icon:116
verify:4
Objects:13698
Operator:114
Resized:8
determine:8
Shadow:2
activate:28
toolbutton:162
empty:2
reset:32
Identifier:4
modelmanagement:64
Composition:4
Entry:48
Clustered:54
Edges:4
Singular:2
Unary:492
sequence2:2
Active:76
Linked:90
Minimal:4
Will:4080
Implementation_:2
Context_:4
Featured:15192
evaluate:34
Member:64
Structural:48
swingext:26
Roots:26
Arrows:2
vetoable:4
build:8
Stereotype:332
Generalizable:5596
Figure:2
clear:18
Impl_:61130
Colon:352
openide:18
Font:4
Machines:16
internal:366
Goals:552
access$002:2
Message:48
Clazz:2
Aggregation:748
Unconventional:56
access$100:16
Priority:136
Relational:846
Wait:70890
force:62
Mouse:4
insert:8
Definition:48
log4j:682
Critics:20
apply:3096
Loader:198
Tool:382
Attr:434
Wizard:62
Performed:34
Explorer:124
checklist:6
Back:304
handlers:265928
Loaded:2
Box_:4
Context:1257
Enum:638
action:34
Manager_:14
_query:10078
Delete:6
Contains_:3090
Begin:1734
Size:42
Interaction:96
wrap:13598
Standard:140
Body:681
iterator:14280
Actual:190
Lower:638
Added:10
Number:4718
Event:7424
Support_:10672
Height:6
Cache:10756
Main_1:448
enter:70892
Factory:138
_post:27498
Editable:4
Exited:2
Collaboration:192
Derived:394
layouts:8
Nodes:30
Postfix:2454
Bidirectional:2
util:157080
Perspective:38
Descriptors:1138
Agency:6
Documentation:4
Buttons:4
Multiplicative:864
Pump_:6
Type:3892
Specialization:16
Depth:3561
Help:2
selected:4
layout:16
Constraints:4
Lexer:4800
compute:14
peek:4140
Remove:512
Include:2
_all:28
Modify:10
constructor:4
Transient:2
Owner:8
application:630
Document:12
Packages:12
Declarator:144
Inserted:4
Button_:4
behavioralelements:12
Trans:141426
Owned:112
Root:14
Meta:5608
Selection:14
Resolved:4
handle:2552
Model:4424
Persistence:36
Classes:6
Supertypes2:4368
Generalization:12
Array:144
Poster:16
manage:12
Property:38
Class_:22718
Tree_:6
Qualified:8
Aliases_:54
Item:330
Adaptor_:6
Immediate:6842
Attribute:29002
Project:368
recompute:12
Binding:16
Values:8494
Signal:50
Referenced:330
Labels:144
Checklist:6
Reference_:990
Selected:10
Profile:272
Spacer:18
_set:42
always:74
Junk:4
Messages:48
Layout:54
Class:15668
Good:6
Base:138114
Overflow:2
Splitter:18
Association:58622
Pair:6
events:30
next:37824
Applicable:66
Wrapper:156812
Exposes_:330
Logger:18
Code:177144
external2internal:4
Image:20
Singlevalued:86236
Defined:18
Equal:72
Logged:504
From:26
Targets:12
Submachine:48
Scope:300
Items:246
Settings:42
Offenders:104
Debug:36
Multiplicities:4
Title:8
invalidate:10
helpers:158
Proxies:36
Facility:84
Popup:16
i18n:622
Label:18
Decorated:4
Bar_:6
End2:488
End1:7582
Attributes:10
Tagged:4
Unique:650
Pack:56
Elements_1:4
Menu:16
Extension:48
Button:192
commit:16
Association_:1062
javax:30518
Attribute_:1350
Graph:108
expand:30
Manager_3:2
Internal:56
Version:4
Current:10
Value:7210
index:2070
localize:676
Multivalued:75246
Call:1082
Readers:141782
select:4
use_case:6
Pump:52
init:1338
Browser_:2
Outgoing:48
Import_:164
Implementation:1350
Multiplicity:5104
size:37274
Collection_:80
Interface:640
Mutex:283564
More:26
Headline:44
Associations:88
Dirty:3598
case:6379
Composite:434
Exception:2
Enabled:668
mouse:4
model:40752
generate:240
Start:244
Update:2
tigris:706
Immut:56156
Full:2026
Cancel:4
Configured:2
profile:402
lexer:4800
Resource:188
Description:6
_get:34530
Lost:48
Events:1552
Suggestion:14
Enumeration:236
Configuration:1100
Listener:138
Status:26
Category:682
State:6450
Bold:2
invoke:30
Registered:2
Extent:16
core:74
Integer:6
Save:30
Reset:4
Look:2
Search:2
Superclass:1318
Child:82
First:3561
lookup:62
Adaptor:2
Feature:1848
info:44
Empty:16
center:2
Data:714
tudresden:26867
Init:4
Actions:32
Facade:3590
Outermost:790
Interpreter:30
Default:160
Long:3736
Parent:18
Pane:70
unlock:41018
swidgets:74
Additive:864
equals:3246
Show:18
compare:18
Comment:34
Hidden:2
Planned:8
Declaration:342
create:1854
Left:8
Snooze:552
Activity:48
Inheritance:8
Drawing:2
Subvertex:48
Management:46
remove:596
Many:12
_unlock:1550
Labelled:4
End_:5138
Mechanisms:8
Properties:2
value2:30
Panel:72
Time:226
Close:2
Target:256
Monitor:36
Editor_:4
Stimulus:48
Changeable:150
delete:1010
Coll:432
Object:238574
Collection:362
Entered:2
resolve:3332
post:8
Fields:4
persistence:449718
Delegate:21580
Validity:62
Dispatch:2
kernel:328
Globals:42
should:34
_immediate:100
Critic:1366
Next:46636
i18nlocalize:448
Vetoable:4
Datatype:16
Structure:2
Rollover:216
Minimum:2
Namespace:168
Selector:2
Wrapper_:33552
Figs:6
Handler:192700
Element:5868
Abstract:290
statemachines:12
Types:154
Parameters:156
Exit:48
Operation:96
Editor:46
Multivalue:2
Hgap:2
undo:12
enable:1562
Style:4
Supertypes:5836
show:8
Snoozed:552
resize:2
Typed:90
explorer:1692
Unchecked:2
access$200:16
argouml:12922
access$300:2
Case:30
Width:6
Component:96
Initial:4
Modal:6
Type_:4326
access$302:2
targetmanager:114
Box2:2
Recursive:1004
hash:177140
Renderer2:20
Find:12
Display:114
paint:38
property:24
strip:4
format:6
Tag_:864
Element_:48
Names:8
Design:552
Storage:714896
Ordered:27982
Serial:4718
cognitive:2976
Simple:282
Argument:30
Profiles:30
Imported:54
Exists:85536
presentation:28
Elements:102
Valid:16
Contents:2424
Attribute_1:4
diagram:322
parser:31937
filter:930
Instance:39544
Bar_1:6
other:330
Count:66
Started:6
Arrow:152
Then:22
state:2
Order:574
convert:88
object:8738
Realization:2
push:510
Incoming:48
View:2
Statemachine:48
Proxy:10666
Registry:4
graph:46
Support:19988
Listeners:18
Argo:112
Critiquing:6
find:4
Container:684
Check:64
Permission:2
Machine:96
check:74
Undo:14
File:16
Core:30
predicate2:88
Navigate:22
Notifier:7252
Token:4290
Children:672
netbeans:1831926
Conflict:12
Interchange:4
rules:1552
Contained:48
begin:70396
Name:37480
Layer:44
Text:538
target:60
Generic:8
Comma:12
Tail:2430
Circular:8
storage:1286
Total count of tokens: 9800050
