Util:34
Iterator:38
Lookups:52
store:2
Array:28
System_1:72
Property:228
wait:8
Utilities:1450
Single:14
Path:528
Hash:8
Delegating:260
Item:224
Separate:2
Fire:2
finalize:2
Attribute:610
Implementator:8
Thread:2
Lookup_:3276
Finished:12
Excluded:20
template:228
Clipboard_:2
Subclasses:20
extract:418
Tick:12
Filter:547
Messages:2
Index:4
Changed:94
Class:220
Task:232
Weak:458
load:52
Stamps:74
Resolver:16
Computed:58
Null:34
array:38
Base:1910
before:560
Pair:42
next:1668
Cached:18
Localizing:6
Logger:4
Code:194
Control:2
Action:70
Post:26
proxy:52
Image:28
publish:2
Content:4
preferences:126
Items:106
Input:4
Flavor:2
Locale:30
fire:16
register:8
construct:1112
Sequences_:10
transferable:2
checked:547
actions:84
queue:152
Impl:152
Classpath:88
Attributes:126
Load:12
Instances:52
Output:4
cancel:112
Disk:2
close:4
Utilities_:6
Queue:184
Internal:70
iterable:2
instance:12
Binary:2486
Collections:549
Change:202
Pool:4
Storage_3:2
Storage_2:2
init:18
Storage_1:4
Collection_1:12
Parallel:8
size:26
Source:132
Mutex:28
access$500:106
Last:44
Real:54
More:1956
Storage_4:32
Stream:24
String:14
active:6
Read:1148
Reference:50
Notify:32
access$400:12
Resolve:8
Resources:74
update:70
Enabled:14
result:8
weight:90
Set_:8
Repository:56
Daemon:24
Fixed_8_15:10
Loader_:4
Lock:2
Super:2
normalize:6
Main:194
Services:4
Write:6
Manager:716
System:5170
Processor:58
Dispatching:6
Archive:2
Locks:4
Resource:472
Local:828
Shared:50
Template:2212
Lost:2
Suffixes:6
Always:20
Enumeration:547
Listener:490
Status:4
invoke:92
Lookup:2390
weak:2
core:3180
Ownership:2
attributes:34
Icon:6
Multi:4748
Formatter:4
test:2
Properties_:2
Objects:2
layers:2748
Pools:4
Child:1634
Before:204
Action_:28
First:14
Module:36
lookup:3382
Empty:56
Data:296
Watch:4
Statistics_:4
Clipboard:12
Manager_1:8
Modified:56
file:80
empty:276
Pool_:6
refresh:48
Global:40
Relative:74
Default:204
Parent:4
Result:152
equals:232
singleton:2
compare:28
devoidify:2
Char:10
create:302
startup:3180
exit:64
Proxy1:40
Active:176
obtain:34
declmime:24
Convertors:2
Pairs:6
Access:242
Config:14
Member:100
remove:44
Comparator:28
Union2_:2
Request:306
self:12
This:20
Stop:4
filesystems:9494
Properties:158
clear:10
Impl_:164
openide:21741
Just:4
Object:3882
Mapper:4
access$000:20
Collection:76
post:6
Message:54
Delegate:104
access$100:2
should:100
Priority:10
process:72
Windows:80
Next:40
Immutable:2
attach:36
translate:48
Element:1658
Handler:8
Abstract:4564
Types:8
Lazy:88
Parameters:34
last:2
Loader:98
Tool:6
Attr:44
access$600:4
Installer:100
contains:14
Performer:8
Enumerations:322
Context:8
access$200:2
Callback:70
Manager_:28
Excluding:20
Matching:24
wrap:44
Sort:2
iterator:12
hash:194
Event:70
Support_:18
Content_:12
topological:2
Cache:100
mark:10
enter:198
logging:12
property:94
Only:1058
Union2:2
Storage:554
Editable:48
Preferences_1:2
Security:694
Bundle:92
Simple:84
Elements:1956
Valid:152
Contents:4
output:2
Results:34
util:12247
stop:4
Instance:14
implspi:176
Delegates:222
Type:1864
datatransfer:4
state:2
convert:50
Proxy:1506
Preferences:40
Support:16
Listeners:120
notify:2
read:28
compute:2
find:448
Without:6
Operating:1290
Empty_1:66
Writable:222
Folder:3570
Permission:388
check:2324
Atomic:2
File:7820
Enumerations_:3610
Processor_:290
netbeans:4090
concat:6
Bundle_:30
Name:2530
schedule:102
image2:4
Root:720
entry:26
Meta:4
modules:24
Queue_:24
Total count of tokens: 152386
