Model2:50
Util:4
Changes:8
Fonts:2
Iterator:82738
store:648
Storage_:650
Package_:50
Visibilities:2
Leaf:82
Browser_1:8
Singleton:242
Dependency:8
Diagram:420
Kind:650
Inner:144
Combo:68
Thread:2
Point:24
decrement:65466
Swing:2
jmiimpl:6264
Follower:2
Edge:2
Mode:92
Utility:12
project:2
Index:362954
Node:142
Dock:8
Changed:4674
Cell:160
Decorator:2
Practices:6
Guillemets:2
Todo:14
Details:40
Localizer:4
Cached:180
debug:500
drawing:4
Usage:2
Generalizes_:4608
Renderer:152
_lock:1558
leave:65470
Action:332
Tree:388
Create:80
write:15804
Content:20
notation:24
Behavioral:72
look:2
Strategy:82
fire:42
register:4
Link:48
Reception:48
Behavior:60
Split:6
base:32
Trash:2
configuration:864
Preferred:18
Literals:48
storagemodel:632828
Impl:390172
toolbar:326
drop:492
apache:174
memoryimpl:167142
Into:8
component:12
Prop:46
Should:4
Horizontal:2
Stimuli:48
Src_:4
Sequence:98
Annotated:4
initialize:2
Storable:151238
execute:6
Home:14
Change:4164
Border:14
Utils:15144
Containing:4
_handle:24882
Dependencies:882
Shown:2
preferred:2
Assoc:29130
Strategies:6
String:3442
Application:2
Predicate:112
Reference:14938
Struct:2552
access$400:2
Multiple:130930
make:474
Translator:66
collect:1206
Formating:36
update:20
Command:2
instantiate:36
Import:52
Field:2
Operation_1:4
Set_:49988
Repository:533014
Query:27168
Upper:638
Remover:8
Browser:36
Descriptor:15110
History:6
Manager:332
Allowed:8
Mutable:46
name:18
Notifier_:32
disable:2
Package:6136
Feel:2
_pre:24882
Removed:38
Transaction:5114
Proportional:8
Template:24
Exposed:660
Exposes:330
Dialog:54
Generation:4
static_structure:48
Boolean:44
Notation:28
Error:18
Props:16
Position:6
Refers:330
Icon:116
Objects:13196
verify:4
Resized:8
Shadow:2
activate:28
toolbutton:160
empty:2
Identifier:4
Composition:4
Entry:48
Clustered:54
Edges:4
Singular:2
sequence2:2
Minimal:4
Will:4080
Implementation_:2
Context_:4
Featured:12976
Member:64
Structural:48
swingext:26
Roots:26
Arrows:2
vetoable:4
build:8
Generalizable:5596
Figure:2
clear:18
Impl_:60426
openide:18
Font:4
Machines:16
access$002:2
Message:48
Clazz:2
Aggregation:748
access$100:16
Wait:65464
Mouse:2
insert:8
Definition:48
log4j:174
Loader:198
Tool:378
Attr:434
Explorer:124
checklist:6
handlers:245428
Loaded:2
Box_:4
Enum:638
Manager_:14
_query:9474
Delete:6
Contains_:3090
Size:42
Interaction:96
wrap:13598
iterator:13276
Lower:638
Added:10
Number:4718
Event:6720
Support_:10672
Height:6
Cache:10756
Main_1:246
enter:65466
_post:24882
Editable:4
Exited:2
Collaboration:192
Derived:394
layouts:8
Nodes:30
Bidirectional:2
util:145822
Perspective:38
Descriptors:1138
Documentation:4
Buttons:4
Pump_:6
Help:2
selected:4
layout:16
Constraints:4
Remove:512
Include:2
_all:28
Modify:10
constructor:4
Transient:2
Owner:8
application:428
Document:12
Packages:12
Inserted:4
Button_:2
behavioralelements:12
Trans:130574
Root:14
Meta:5008
Selection:14
Resolved:4
handle:2552
Persistence:36
Supertypes2:4368
Array:144
manage:12
Property:38
Class_:21814
Tree_:6
Qualified:8
Aliases_:54
Adaptor_:6
Immediate:4434
Attribute:27894
Project:268
Binding:16
Values:8494
Signal:50
Referenced:330
Labels:144
Checklist:6
Reference_:990
Selected:10
Profile:272
Spacer:18
_set:42
always:72
Junk:4
Messages:48
Layout:54
Class:14862
Good:6
Base:129982
Overflow:2
Splitter:18
Association:53998
Pair:6
events:30
next:33380
Wrapper:153696
Exposes_:330
Logger:18
Code:167596
external2internal:4
Image:20
Singlevalued:79404
Logged:504
From:26
Targets:12
Submachine:48
Scope:300
Items:246
Settings:42
Multiplicities:4
invalidate:10
Title:8
helpers:158
Proxies:36
Facility:84
Popup:16
i18n:218
Label:18
Decorated:4
Bar_:6
End2:488
End1:6878
Attributes:10
Tagged:4
Unique:650
Elements_1:4
Menu:16
Extension:48
Button:192
commit:16
javax:30218
Association_:1062
Attribute_:1350
Graph:108
Internal:56
Manager_3:2
Version:4
Current:10
Value:6806
localize:70
Multivalued:74040
select:4
Readers:130930
Pump:52
use_case:6
init:1136
Outgoing:48
Browser_:2
Import_:164
Implementation:1350
Multiplicity:5104
size:35562
Interface:640
Collection_:80
Mutex:261860
Associations:88
Dirty:3598
Enabled:262
Exception:2
model:26238
generate:240
Update:2
tigris:498
Immut:54950
Full:2026
Cancel:4
Configured:2
Description:6
Resource:188
_get:31618
Lost:48
Configuration:998
Listener:136
Status:26
Category:174
State:6450
Bold:2
Extent:16
Registered:2
Integer:6
Save:30
Reset:4
Look:2
Search:2
Superclass:1318
lookup:62
Adaptor:2
info:44
center:2
Data:714
Init:4
Actions:32
Outermost:590
Pane:68
Long:3736
swidgets:74
unlock:39812
equals:3044
compare:18
Show:18
Comment:34
Hidden:2
Planned:8
create:1854
Left:8
Activity:48
Drawing:2
Subvertex:48
Management:46
remove:596
End_:5138
Labelled:4
Mechanisms:8
Properties:2
Panel:72
Target:256
Close:2
Stimulus:48
Editor_:4
delete:1010
Changeable:150
Object:221198
Coll:432
resolve:3332
Fields:4
Delegate:18268
persistence:425506
Dispatch:2
kernel:228
should:34
Globals:42
Next:45632
i18nlocalize:246
Structure:2
Datatype:16
Vetoable:4
Rollover:214
Minimum:2
Selector:2
Figs:6
Wrapper_:33050
Element:5264
Handler:171000
Abstract:190
Types:154
statemachines:12
Editor:46
Operation:96
Exit:48
Multivalue:2
undo:12
Hgap:2
Style:4
show:8
Supertypes:5836
resize:2
explorer:1692
Unchecked:2
access$200:16
Case:30
access$300:2
Component:96
Width:6
Modal:6
Initial:4
Type_:4326
access$302:2
targetmanager:114
Box2:2
hash:167592
Recursive:1004
Find:12
Renderer2:20
Display:114
property:24
paint:38
format:6
strip:4
Tag_:864
Names:8
Storage:656824
Ordered:26978
Serial:4718
presentation:28
Exists:78704
Imported:54
Profiles:30
Attribute_1:4
Contents:2424
diagram:322
Instance:31404
Bar_1:6
Count:66
other:330
Then:22
state:2
convert:88
object:8738
Realization:2
Incoming:48
Proxy:8662
Statemachine:48
View:2
graph:46
Registry:4
Support:19988
Critiquing:6
Argo:112
Listeners:18
Container:684
find:4
Permission:2
Machine:96
Undo:14
File:16
Navigate:22
Notifier:6548
netbeans:1705734
Children:672
rules:1552
Interchange:4
begin:64970
Contained:48
Generic:8
target:60
storage:1286
Total count of tokens :8890704
