Util:60760
Changes:16
Than:228
Anchorizer:2836
That:2
diff:48
calculate:404
Expire:6
Storage_:1008
Tasks:1952
Delim:60
Hash:165714
event:2452
Percent:2
Timestamps:1966
Click:96
Combo:920
Wrap:246
Swing:650
Deactivated:2
Wide:588
Deferrer:14
Toolbar:954
Intelligence:228
Disposer_1:412
Focusable:146
Log_:4
access$1800:28
Associated:4
Hard:196
Changed:202
components:28478
Nanos:840
Subtree:6
Finish:18
Util_:138
debug:448
Quick:8
Tooltip:196
access$1002:2
access$8600:6
Overlapping:74
Action:38560
Header:830
Normal:8
Builder:154
Content:18900
canonical:2
Range:1342
Enforced:4
Strategy:762
Options:2
Docutils:6
access$1000:172
Alarm:1028
Modification:1126
Indexing:5868
Tracker_:8
Load:2
change:18
Wildcard:4
enumerate:32
access$2102:4
access$900:24
compact:6
Into:18
Suggest:2
North:2
append:2248
Analyzer:58
execute:4674
Utils:2162
Shown:338
Gray:34
Initiate:48
access$500:950
Sheduled:2
Antialiasing:104
Insensitive:906
String:25562
Stream:2662
active:4
Stripper:2
access$2500:78
Fragment:110
Command:2654
update:2344
Flush:748
Retina:28
connect:2
Store:172
Records_:1382
Proxy15:4
Lock:18402
Proxy16:4
Adjustable:8
Signature:24
Proxy13:6
Super:8
Proxy14:1998
Proxy12:2
normalize:184
Proxy11:4
Threshold:1286
Runnable_1:90
Manager:165486
Colored:924
Notifier_:4
Partner:2
access$3100:424
Action_1:2284
Action_2:4
injected:218
Template:276
Undoable:8
Match:14
injection:4
equal:874
Join:36
Boolean:136
Stripe:32
Typeahead:62
flush:2882
Tabs:270
access$12400:2
access$2100:2
Become:2
Serializer:54
Switch:120
Method:164
darcula:178
Building:16
Shadow:28
Proxy30:2
Module:1354
Affected:4
Proxy36:32
Coverage:24
empty:6
reset:28
Safely:40
Updater_4:4
Cases:2
increment:4
Updater_2:6
Updater_3:2
Updater_1:6
Autohide:8
menu:4
Hint:24
Generator:8
Proxy22:4
Proxy23:2
Publisher:16
Active:1324
Proxy24:2
Reformatting:28
Will:4
Proxy29:2
folding:38
Builder_2:38
Builder_1:4
Bean:54
Background:1016
Awareness:6110
Roots:76
space:428
build:10
Outdated:4
Order_1:8
Listener_4:2
Listener_3:2
adjust:26
Analyzer_:8
Listener_2:8
Listener_1:32
Converter:1712
Running:2166
Proxy45:2
Window_1:2
Watched:2
Proxy40:8
Pointers:6396
Priority:1714
access$5300:446
Animator_2_1:148
Existing:76
projectlevelman:40
Address:442
Proxy46:8
Watcher:5444
Gateway:28
Equals:4
Buttonless:138
Inspect:6
patch:44
apply:332
Proxy73:2
single:16
Proxy75:4
Text2:8
Offset:438
contains:36476
Externalizer:712
Filter_2:2
Stretch:2
python:1414
Context:3778
postpone:2
Disabled:502
action:108900
Callback:320
focused:4
Manager_:2114
Program:12
Desktop:26
Listeners_4:2
Proxy63:4
Committed:6
scroll:2
Listeners_3:2
Height:96
Cache:7904
Node_1:66
Level_1:18
Listeners_9:4
Editable:12
console:4
Limited:66
Github:16
Hang:32
restore:1274
Documents:12
util:305085
Sorted:24
Type:13304
Scopes:414
Stored:2
Groups:16
Help:14
overlapping:34
uninstall:2
Startup:2766
Producer:136
Checkin:58
Unforced:6
Uncommited:4
hint:34
access$6400:2
offer:4
Viewport:60
Delegator_:12
Readable:12
schedule:156
Canonical:284
Gradient:112
spread:7246
advance:172
Visual:74
Expand:744
Statistics:20
Visible:2480
Classes:40
Unknown:18
Offscreen:206
Property:1936
validated:2120
Tree_:48
Callback_:2
_find:4
Stamp_:2572
hide:50
concurrent:4172
Library:96
Page:5910
feature:6
Window:14000
access$1400:6
Values:10
Impl_8_1:2
Callbacks:14
access$1402:2
Iconable:2
Happened:1938
suggest:18
Functions:12
Messages:274
Tracker_1:2
preview:4
Dispose:2
Weak:260
Stamps:2
invalidates:2
Provider:35810
Null:8168
Indicator_:12
Base:34745
sort:26
Pair:8600
Clean:12
Soft:4458
Applicable:48
Clear:2
Possible:4
Code:40032
Control:120
extapi:4036
Down:1838
access$4700:2
unquote:2
Expirable:8
customization:38
Expanded:280
pico:1950
From:38770
Targets:1676
Scope:592
Modules:320
Accurately:2
Peer:152
Flatten:18
Track:28
Languages:30
helpers:2570
Assignable:9516
Promise:2
Listeners_4_1:2
Annotation:10
Classic:36
Popup:346
Family:2
chars:2
Changelist:12
Capacity:1834
Generate:20
Scope_1:34
progress:14052
deref:26
Rendering:206
perform:1700
Gist:4
Settles:94
Infos:2
Extension:1556
Removal:16
Pico:5796
Browsers:2
Graph:8
Internal:4848
Light:14
Adopted:1202
Base_1:1942
Value:22060
Pool:5360
xmlbeans:16
Repaint:6290
init:318
Merger:26
Interface:4
instantiated:2
Impl_4_1:2
navigation:528
Merged:86
attempt:14
valid:2
mouse:146
Passed:922
Health:64
Generated:14
child:16
Visitor:1132
Hide:22
Performance:520
Ampersand:2
Over:8
Description:50
Resource:4
Shared:2166
Resizeable:4946
Balloon:262
Lost:24
Framework:2
junit:18
Request_1:104
Dots:10
Reflection:10380
scan:4
Info:3020
Directory:14922
Look:1250
access$12502:2
Constants:228
Free:13364
After:16
info:430
annotation:10
draw:666
xdebugger:4
customize:58
Connection_3:350
Locator:2
Long:1550
Pane:9448
Parent:2482
Transferred:514
Iconable_:6
Repositories:58
Gateway_2:4
Hidden:22
Decorator_:24
Connection_:402
Effect:48
Activity:1090
visual:262
start:22
map2:16
Enter:54
dereference:4166
Trailing:122
This:2
Properties:128
Insight:482
Component_1:6
options:4768
Markers:12
containers:61742
Scheme:2058
resolve:18
Schema:52
Mpsc:4180
Painter_:94
Timestamp:22
Token_1:4
process:8396
Ui_29_2_1:2
rehash:4
Loop:3790
Win32:50
skip:4
Forward:10
Width:1736
Sort:20
Indicator:4422
Filtering:30
mark:856
Viewport_2:4
Viewport_1:14
newvfs:51574
deleted:2
Only:14
Quiet:428
Symbol:12
refactoring:58
xmlb:210
call:2
decide:858
Listener_:12
Count:3166
Started:54
state:192
Aspect:14
Map_2:258
Original:54
calc:7536
Wrapper_12:2
Buffer:2354
Map_1:1556
Copy:13456
Requested:28
Proxy:238
Yield:12
Listeners:44
Map_5:1796
quote:48
Map_6:18
Keymap:2812
Annotations:84
Container:11612
check:2782
Anchorizer_1:12
Vcss:232
Closed:40
Core:2396
Anchorizer_2:2772
dvcs:8
Regions:8
Consumed:8
tasks:406
soft:4
Layer:276
Scrollable:2
Section:402
Closer:254
Unbuffered:8
Ui_29_2_1_1:2
Utils_1:72
Managing:60
Transmitter_1_1_1:2
disconnect:6
Postponed:2
Utils_4:4
Utils_2:36
Iterator:17940
Runner:492
Opaque:274
Runnable:1594
visit:680
wait:2
Comparable:64
insertion:10
search:1060
Busy:60
unhold:22
Rectangular:6
Stacks:2
Thread:7226
clone:6
Impl_10:820
Filter:23170
Impl_11:50
editor:14032
Legacy:6
Request_1_1:4
Tooltips:4
Being:514
Comparing:3818
Adapter:15402
access$1700:18
before:6222
Warning:2
Slashes:60
execution:8514
Inline:860
Nearest:146
Descent:30
Patch:4
sync:12
Tree:26068
Question:2
Merge:4
Expression:56
Guess_1:2
Apply:10
Flag:292
Proportion:6
Painter:110
Point_1:2
fire:100
history:184
Flat:2
Header_:24
Additional:62
Preferred:230
Utils_:72
access$800:440
Reader:8523
storages:2
close:416
poll:3360
Records:10684
Build:2
Horizontal:94
Space:956
git4idea:6
Binary:14
Change:1846
Border:858
Timed_1:40
Analysis:10
Paths:50
access$400:168
access$402:154
Impl_12:202
Impl_13:4
Service_:68
Impl_15:4
instantiate:4
advertise:2
Impl_16:2
Encoding:32
Repository:26
Loader_:994
Protected:10
Browser:250
Iterable:6
Main:70
monitors:30
Write:13826
Attachable:430
roaming:2
Impl_25:4
Armed:62
Impl_26:222
Archive:4
Impl_23:24
Creation:408
Logical:282
Loaders:4
Hints:280
Dialog:936
message:284
ignores:428
access$3900:224
access$7000:6
access$2000:2
Variant:84
Appendable:212
Aspect_1:12
unsplit:2
Aspect_6:2
Objects:4
Resized:12
persist:2
Requests:1352
Listener_2_1:2
Object_:102
Files:1356
deliver:560
Remote:24
import:24
Engraved:6
Inplace:50
fetch:4
Thumb:8
Deletion:70
Animation:14
Char:360
access$2400:208
Notification:24
Flushing:122
Mirrored:6
Guess:4
Environment:228
merge:8
access$4300:2
Common:458
Dead:38
Splitters_3:2
Facade_:2
Impl_:22904
trove:131718
Differs:258
files:4
Glass:156
External:168
Speed:182
persistent:8400
Immutable:734
nodes:5728
Wait:2
Numbers:200
save:1000
char:692
Performed:160
Attr:402
Workspace:262
Projects:20
Sleeping:298
Process:9966
Grouper:3540
Setting:24
Added:56
Chars:24
Other:2
Factory:4142
favorites:68
Select:2
Exited:22
Anchor:46
Provider_1:10
release:20
Bidirectional:2
Marker:156
stubs:2
Buttons:2
scope:340
Motion:22
Timer_1:94
Members:4
from:88
smaller:10
Icons:8
Lexer:490
read:8687
Remove:120
Foldings:2
Btree:1022
Keystroke:228
application:56764
Composed:4
Folder:6
impl:320270
Preview:4
Placeholder:6
Descriptive:6
Visited:222
Rejected:40
Inserted:6
Spacing:2
Button_:122
print:14
async:6
Progress:15918
Forced:70
Indexable:744
Accessors:6
Substituted:222
access$5200:2
Root:15344
wrong:4
Productivity:2
Updater_1_1:2
cleanup:8
Special:32
handle:2
Array:27328
Lists:12
Container_6:2
Able:676
defaults:370
Item:2232
pytest:12
List_:8310
Attribute:4372
Reject:2
murmur:6
Matcher:64
Binding:170
Matches:14
Excluded:4
Finished:82
Tokenizer:612
ends:18
Commit:8
roots:1858
Components:2262
Producer_:4
available:8
Rules:14336
access$1300:6
revalidate:58
Byte:2976
_add:218
decode:8
serialization:96
split:4
Executor:2882
Component_:20
Interval:152
Keyed:104
Splitter:136
Loading:230
common:76
next:498
Finalizable:12
Multicaster:26
Three:152
Logger:7422
Macro:11092
Manager_2_1:2
Unused:2
defer:2
document:2
Ui_51_3:2
Impl_13_1:4
Equal:4250
With:1834
Scroll:232
access$4600:2
Input:2848
docking:104
netty:11712
Adaptive:302
invalidate:842
assert:6596
reclaim:408
Language:3986
Dockable:200
actions:4366
queue:14
Iterator_1:8
after:14536
Button:492
commit:10
Dialog_3:2
Version:8
Dialog_1:2
Dialog_2:6
Current:1286
index:2018
Literal:1308
Anchors:20
size:3616
deserialize:60
Plugins:64
Problem:42
Watcher_1:74
Expired:52
Starting:8
Notify:90
access$4200:2
Enabled:12198
Containers:28
model:96
dump:638
Update:4440
Statement:24
Accelerator:96
Cancel:40
Handler_:1998
Cache_1:4
Bytes:2120
Adapters:64
Local:4050
Readonly:14
Container_:2
Shape:24
resume:14
invoke:2452
Handler_3_1:2
Btree_:822
deinstall:302
Search:2366
Sheet:6
Moving:8
accept:1076
Bulk:30
Images:4
Feature:8
Data:282412
Date:3804
file:8120
repo:8
config:58
Guard:2
Pool_:3540
Separator:44
Default:4622
Deleted:68
compare:3076
Show:106
table:36
create:13104
Controller:20
Policy:752
Access:6478
registry:4156
Complementary:724
google:76
Iteration:966
plugins:72
access$6800:2
Finalization:1754
Comparator:1460
Dark:30
Dialog_:40
Deprecated:2
Time:3522
Tracker:1846
length:1544
_init:2
Expands:16
Pointer:4054
Shift:12
access:2
directory:4
Intellisense:228
Externally:12
Wrapper_:2
Types:2426
Vcses:8
Operation:2
Indexed:650
Supported:4
Style:138
Menu_:2
Markup:280
Activated:6
intellij:912553
Floating:8
Decrease:10
Recent:6
Indexer:238
Constant:4
tools:44
Immediately:440
Dumb:26074
Map_:2348
Initial:6
Type_:24
Protocol:92
Cheap:16
Runnable_:8
Directories:44
property:184
Ctrl:14
Editors:92
Stub:168
Transfer:226
Deferred:18
Needed:2326
Simple:12254
Argument:2
window:16
Vertical:60
Exists:14
Later:1464
Impl_6_4_1:2
Elements:1690
rest:12
underlined:2
alloc:60
stop:8
Optimise:2
allow:224
Arrow:260
South:2
View:93652
Registry:5854
Mark:28
graph:8
sphinx:6
picocontainer:2334
Sweep:86
notify:46
Producers:2
Highlight:46
notification:8
Strikeout:4
unescape:2
find:7948
Check:824
with:36
Shut:1744
fill:10
Rule:60844
Periodical:254
Children:2518
Collector:108
Canceled:1876
entry:2
alternatives:1934
Latch:430
Connector_1:2
Pending:136
channel:3360
User:4006
Collector_2:4
Insert:472
Printing:62
Attrs:10
Stamp_1:4
Leaf:280
Draw:32
Point:882
Dragging:2
Ui_3:6
Ui_4:34
Messages_:8
View_:2
Ui_9:4
Jars:8
extract:66
Defaults:168
Drag:24
project:54658
shorten:12
Widget_:232
Cache_:6
Node:5556
Used:2
Pane_2:8
Pane_1:8
Bookmark:6
Native:10
Collector_1:10
Animated:266
Decorator:3742
keymap:2308
access$1200:294
access$5100:6
Cached:6878
Beneath:12
Divider_1:16
Usage:2914
Renderer:518
Appenders:430
Locatable:12
Reveal:8
popup:66
softwrap:4
ensure:7132
Place:180
Configurations:144
Rendered:428
Mappings:32
Tracking:402
Async:244
register:216
Displayed:144
Behavior:28
Enable:6
Configuration_:20
base:62
testing:274
Helper:334
Updated:10
State_:98
Stack:250
Hold:2
access$010:2
Util_12:2
Unbuilt:2
apache:12888
Ui_29:2
Recursion:4
Ui_25:2
Wraps:50
Ui_26:2
component:250
Side:36
Stable:242
Ui_20:4
initialize:4
Extensions:1150
Home:98
colors:1440
Ascii:16
Initialized:918
Containing:344
Shortcuts:596
code:554
Visit:224
Updater:588
Updates:46
names:16
Application:76858
Pattern:3426
Customization:2
Outline:62
Reference:4224
factory:2
Flyweight:112
jetbrains:1546
Field:2136
Each:214
analysis:58
Contains:2
Label_2:20
Label_1:8
released:8
Ui_41:2
Region:1826
Supply_1:4
Allowed:1526
Indicator_3:8
Watcher_:4262
Tokens:306
Indicator_2:8
Hashing:750
Unsaved:6
offset:40
Highlighter:608
Processor:104
Opened:950
Delivery:152
Reduce:2096
Attached:2
Enabling:2
Connector:4
Ui_38:80
nano:1680
Bindings:2
Error:6
Appender:3204
source:10606
retrieve:2844
Position:404
Volatile:206
Skeleton:1716
Associate:4
cached:20
Decorator_2:8
Usages:14
Hook:2208
package:544
Scrolling:56
Mutual:2
Util_7_1:492
Manager_1:14
Sibling:104
Cidr:2
Wolf:24
Fold:72
configure:2
Global:690
diagnostic:8376
Dispatcher_1:40
Lines:8
Already:8
Bounds:190
Caching:122
startup:3688
Persistable:6
Every:4
Color:2066
Features:2
Linked:17808
will:2
Plain:4
Striped:678
clear:698
clean:22
Stamp:4794
subscribe:2
Suspend:2908
Font:3160
tracker:32
None:534
Clicked:4
Support2:8
hierarchy:8
Prev:4
Invokator:144
Corrected:20
access$000:822
access$002:66
Weighing:20
Independent:222
Layout_:6
exclude:8
Helper_1:4
force:238
Mouse:478
_select:2
log4j:12888
Loader:70
access$702:2
Inactive:4
Recursively:1668
Set_1:6
access$700:416
varia:858
type:22
Sphinx:6
Virtual:52976
Loaded:7142
request:154
Something:2
Exposing:1072
Frame:4564
Resizable:212
Overlayed:8
Hashed:2
Aqua:524
Standard:162
minus:232
relayout:2
Number:110
Event:68518
enter:2110
Custom:318
depth:224
access$2300:12
Scanner:4
State_1_2:2
Callback_3:14
Called:2
quick:20
Scanned:2
Indices:2
Launcher:36
Fork:36
Batch:2
Insets:172
Ancestors:10
path:2
Headless:230
Yeild:2
compute:4878
Traversal:8
Document:1602
Packages:30
List_1:3394
Atomic:540
validation:10
Completed:2
modify:4
Location:426
Replace:4032
Updating:16
Presentation:12734
Composite_4:2
Unregistered:288
Envs:124
doctest:18
Nose:16
plaf:1240
changes:130
Condition:6
Threads:450
Model:1114
validate:28
Qualified:4
Delegating:2192
matches:18518
Focus:7548
Factory_:16
Highlighters:26
copy:232
template:6
Sequences:2
Heavy:430
Selected:10036
Tabless:30
Refactoring:18
Broadcast:64
Timestamps_2:402
Animator_1:12
Animator_2:5154
unittest:16
Layout:578
Timestamps_1:204
Processing:22
Invocator_:380
Class:106
Modality:2338
Computed:6
access$1600:416
Good:2
Dotted:6
Wrapper:692
Compare:36
Smaller:26
messages:1412
Item_:38
Direction:64
Available:12577
Drop:62
Image:1352
Indeterminate:8
proxy:2124
Client:1666
Right:80
Items:32
Settings:1562
allocate:806
Debug:4554
Title:4
Descendant:40
Decode:4
Ghost:6
Highlighter_:336
debugger:4
Delegator:12
Indent:56
Name2:2
Attributes:1890
Open:202
Foreground:578
Html:52
Reader_:298
Output:12647
Validation:208
Menu:2886
Dirs:4
values:20
Unfocused:12
Scheduler_1:20206
Accessor:8
Registry_:48
select:840
Overwrite:8
Tools:12
Entries:208
optimize:2
Invoke:2
Postprocess:32
Subscription:2
Writing:10
True:1620
Dirty:2922
Aware:2268
Families:676
generate:2
Daemon:146
Void:36
children:6
Cursor:3318
Animator:32
Concatenation:2
Transform:12
Margin:28
Restore:2
Events:102
Configuration:2754
reference:4166
Basic:2
usage:4
Execute:20208
core:88
Integer:16
Save:4
Service:21720
assign:4
Option:32
access$3800:226
Diff:16
Child:1980
extensions:1140
Separators:6
Util_3:4
Sync:234
tree:12120
Severe:1286
Copyable:28
focus:52
Util_5:2
Relative:92
Util_7:60
platform:6088
Result:162
unlock:2232
Variable:2
Flyweight_:112
equals:14496
extra:3660
highlighting:4
logical:8
Index_1:400
Index_4:2
Ignore:1216
Buffering:450
Drawing:200
Execution:94
Config:3602
Gained:28
remove:4690
Effect_2:36
switch:4
Invocator:728
Index_:420
Console:4
Unit:8480
Moved:40
Sent:38
switcher:4
Close:16
Descending:30
delete:26
capacity:12
Hovered:32
module:268
post:2196
Entered:20
cache:1734
Popups:26
Injected:4098
Computable:448
Traffic:14
Next:20234
Length:1746
Minimum:18
Showing:4
stores:226
Handler:76
Element:66700
Rollback:58
Abstract:33778
Editor:8662
unwrap:10
undo:10
nosetest:12
Self:1196
Above:2
Assert:2
uninjected:16834
Impl_2_1:72
access$300:2194
Auto:38
Plugin:92
Named:136
Modal:424
Parents:4
access$302:6
Middle:14
status:1200
Power:4
Transmitter:2
paint:2028
Append:480
format:1284
Names:254
Padding:12
Storage:4150
Queue_2:30
Queue_1:18
Substitutor:2
Instance:26860
Roaming:6
Panel_:20
Handler_1:10
convert:28
Handler_2:2
Handler_3:28
Handler_4:1998
Configurable:70
Inside:36
Deadzone:4
Unsync:878
Paste:60
Preferences:676
Vista:2
Pressed:30
access$6702:2
zmlx:6
Python:756
detect:8
Undo:66
Navigate:28
Token:280
Templates:16
Cleanuper_2:380
begin:4
Name:33690
Graphics2:6
Pooled:38
Presentable:196
Record:1214
Identity:404
Same:6
Condition_2:22
Condition_3:4
Handler_5:2
storage:7646
Lang:2
Fonts:724
store:16
Emulation:4
columns:28
Singleton:3090
Dependency:206
Utilities:6
Single:16038
Path:8404
Inner:44
Fire:38
Trivial:8
Platform:6124
openapi:410910
Extension_4:4
Mode:11394
Extension_3:6
sleep:8638
Extension_2:76
Occurred:24
Index:28480
pyqt:8
Dock:104
retain:202
unprocess:104
Macros:100
Gutter:358
Limit:224
Parser:4
idea:5406
Sensitive:2676
Cell:352
Mock:444
Todo:16
Widget:268
access$1100:118
Logging:4712
modification:16
Trackback:58
leave:404
Create:114
write:4390
current:318
Part:88
install:214
safe:252
Intelli:3772
needs:12
Stroke:336
Preprocessed:22
starts:806
Link:42
Cvs2:8
Duplicate:64
Dimmed:12
exists:64
Flags:20
lazy:2
Greater:1514
Pass:206
configuration:172
Line:1300
Guard_2:400
Transmitter_1:2
Impl:189516
Reached:224
Cancelled:2
aware:20
Primary:92
Towards:8
bookmarks:4
Ui_75_2:2
Queue:25304
Deactivation:2
Sequence:4768
Hierarchy:144
Editing:4
Safe:6390
Mnemonics:64
Runtime:18
Gesture:12
Storage_2:242
Dependencies:272
Source:348
Last:142
Multiple:4
breakpoints:4
collect:48
tokenize:60
Backgrounds:6
Zipper:12
Synchronizer:134
Disposer:72
Unindexed:222
Ui_29_1:2
Descriptor:1796
Outs:8
Ui_29_2:2
History:230
integration:86
Mutable:1934
Centered:84
Detected:20
Package:76
Feel:1226
List:15346
trim:17866
Removed:240
Disposed:8624
Nullable:2
speed:60
Always:4
Sets:2
Traceable:12
memory:34
Requestor:36
Dependent:2
Writer:856
Lookup:16
github:16
Icon:7908
Base_:6
Backed:8640
Painter_1:2
Before:128
Clock:6
postprocess:4
Breakpoint:4
activate:2
lifecycle:254
concurrency:21708
Center:18
Based:14788
Listeners_:24
move:1740
Entry:43752
maybe:80
Ignored:68
Increase:10
Painting:24
Errors:6
Navigation:12
Text_1:2
Redo:2
access$2200:12
Proxy0:18
Ultimate:156
committed:6
Proxy5:16
preprocess:22
Transparent:4
Preprocessor:4
delay:840
Persistent:6698
actionholder:388
Whitespaces:24
Button_1:24
Others:2
Second:886
Handling:12
Absent:114
deselect:2
Finder:222
Table:5860
Solver:24
Refs:2
Text_2:2
Segment:1950
Timed:4
internal:4180
Window_:4
Future:1680
Released:56
Message:9228
Everywhere:2112
Synchronize:8
Timer:334
access$100:2786
Favorites:72
Keys:842
access$102:28
Windows:2234
extension:14
Providers:12184
Index_1_1:400
Sleep:298
insert:818
iter:2
Definition:4
Lazy:8334
markup:704
Timeout:8678
Tool:13612
last:2
access$600:3276
Detector:1950
access$602:12
Ready:300
Provider_:8
Uncommitted:12
Anchorizer_:26
value:1300
Graphics:168
Delete:110
Concurrency:2
Begin:2
Formatting:2
Size:2560
iterator:7134
Shutdown:1744
Square:8
Lower:274
Adapter_1:4
Meaningless:372
Movement:8
jsr166e:3660
Processor_1:6
Whitespace:2
dominates:18
Visibility:8
Caret:376
Nodes:6122
Documentation:4
Confirmation:4
Highlighting:158
commands:14
Descriptor_:108
Queues:2
layout:102
Impl_6_4:2
Done:286
unregister:36
access$5000:12
Keyboard:486
Impl_6_2:22
Trackback_3:2
Owner:788
Writable:66
dispose:192
Refresh:18
list:10
access$5400:12
Level:4462
local:10446
smart:6392
Compute:4
Queue_:2146
Selection:6330
Impl_8:6
Impl_7:80
Impl_9:398
Working:4
Impl_2:302
Impl_1:15234
Counting:8
Impl_4:156
Impl_3:62
Arrays:8
Impl_6:368
Parser_:1284
Impl_5:78
Test:8846
Holder:2142
Impl_1_1:4
Slightly:142
Translate:4
Project:45932
Colors:600
access$10400:2
Spaces:98
_set:12
Align:12
When:188
Frequent:1938
content:11310
access$1500:6
Collapsed:80
Task:4818
Move:24
Cycle:2
access$1508:2
load:82
Cleared:34
Throwable:856
Double:2
Scheduled:1794
Major:2
Builder_:4
Connected:24
events:58
data:14336
Versioned:14
Implicit:58
Scheduler:1346
Topic:128
Broken:4
Block:14
Thumbnails:4
intersection:2
Script:16
Dumper:426
suggested:16
selection:36
Most:6
replace:1144
Potentially:14
Navigatable:8
Defer:2
string:378
documentation:8
Label:386
Requestors:2
Panel_7:4
Classpath:6
Panel_3:2
Unique:4
Panel_6:2
substitute:1822
cancel:396
Panel_2:378
Panel_1:36
docutils:6
Filename:222
Memory:778
_accept:90
Command_:870
Info_1:1196
Layered:460
Manager_5:2
expand:412
Invalid:52
Manager_2:4
Manager_7:2
collapse:16
Manager_6:6
text:24822
Ancestor:12
submit:448
Checker:2
access$4000:304
Call:8
width:8
Validate:10
Pump:180
Counter:40
pump:82
Implementation:3424
Release:14
finish:24
More:312
Compile:8
browsers:246
repaint:64
Read:5642
usages:852
Toggle:10
Chunk:4
Composite:136
Survive:4
Start:18364
Folding:648
repeat:12
lang:104
Monitor_3:64
consume:8
Allocation:406
Worker:8
Full:60
Alarm_:464
dispatch:8584
Mapping:170
Hardcoded:24
System:145672
conflicts:12
Expandable:30
_get:20
Smart:7602
Tabbed:266
Overlay:10
Listener:862
Status:802
State:3254
Registered:16
hg4idea:6
daemon:346
Until:4
Primitive:58
win32:64
Effective:680
Ui_79:2
Multi:42
Ui_76:4
relax:10
indexing:43282
Replacements:144
Postpocessor:2100
First:7642
Action_:272
lookup:12
Trackback_:4
Group:648
Empty:5810
Splitter_:16
open:2
Preconditions:2
Under:3220
Modified:2
Libraries:6
Actions:120
Dispatched:446
Facade:78
plus:234
Screen:92
Substitutor_2:2
problems:24
Splitters:170
Comment:6
Ui_81:8
prepare:174
Left:6
Instantiating:30
Darker:142
Equality:408
Alpha:94
Ui_52:2
access$2600:2
attest:12
Unmark:4
Request:986
Ascent:30
Ui_51:2
Fraction:16
Idea:5680
Infrastructure:408
Mapped:5158
Panel:21062
Target:916
Monitor:114
command:202
acquired:10
Eldest:294
Panes:7106
Object:66550
Ui_64:2
acquire:24
Dispatcher:142
expire:90
trigger:2
Direct:2
Pane_:24
Large:228
Fake:32
Delegate:1396
Dispatch:5928
should:498
Enumerator:1260
Focused:2878
Page_1:10
Structure:18718
Namespace:20
Yeilding:10
tabs:570
Shortcut:1198
Parseable:2
Exit:2
Area:462
kill:12
show:10
pack:2650
Widget_2:10
Modifiers:16
access$3700:228
Wrapper_1:2
access$202:2
Wrapper_2:6
access$200:8440
executors:56
jdom:42386
Case:4700
Predefined:136
Component:52958
Wrapper_7:90
Optimized:206
Idle:532
Mnemonic:572
hash:43258
Recursive:144
font:150
Find:22
Display:740
Decorating:64
Proper:150
Concurrent:22376
Darcula:1330
Bound:38
Bundle:300
default:2112
Paint:446
Valid:11978
images:24
Schemes:730
Small:84
filter:24638
Ahead:14
Sticky:2146
Supressor:2108
Order:212
Assignment:24
Acceptable:8
object:1018
Bloom:2
Connection:1144
push:120
Replacement:128
Decoration:4
Support:8
setup:118
Tree_1:78
Fill:16
Externalizable:284
Disposable:30
Edit:12
File:133984
lock:1830
Dimension:2
Cancelable:410
Conflict:14
Physical:24
Text:11592
White:74
Nimbus:228
Merging:180
Generic:4
Processed:18
Selections:1888
context:6
configurations:616
Renderers:6
Random:5000
Total count of tokens: 7106219
