Model:33106

Iterator:14632

determine:8

Child:112

First:21954

Path:436832

Feature:21344

Empty:794

Item:459202

Attribute:7306

Project:972

Default:382

Pane:54

Parent:384

unlock:2650

equals:184590

Active:144

Index:29507686

Linked:750

Class:422

Adapter:42638

Base:3214

Parser:299922818

Splitter:4

Wrapper:18

debug:26

Code:104776

Logger:54

Time:170

Impl_:1812

Monitor:24

parse:66

internal:110

Object:226920

Delegate:4

Next:9100

Popup:90

Namespace:15056

Line:814

Element:659774

Handler:15496

log4j:104

Abstract:20

apply:7794

Parameters:48

Editor:18

Tool:70

Performed:4

apache:13754

Button:50

Context:6728

javax:14

action:710

expand:4

Internal:2

Component:451752

Hierarchy:14

Version:6

Standard:352

index:1048

iterator:2750

Value:672

Change:108

hash:100392

Event:30872

Readers:248

init:276

property:60

Factory:926

enter:2688

paint:478

size:6756

Storage:12184

Simple:768

String:846

Application:38

Valid:8

Reference:18

parser:9296

filter:72640

Composite:520

Instance:5758

Enabled:156

mouse:2

model:136

Start:23892

Repository:4

Set_:18

Type:6518372

Arrow:2

Order:14

push:1872

Help:34

Proxy:9288

Descriptor:230

Manager:15670

compute:12

peek:23558

List:34924

Check:16

application:72

_get:476

check:24

Token:42

Configuration:8

Listener:10

Name:89761850

Text:1871628

Category:2

Icon:194

