Base:action:0.051106885
Class:Parameter:0.07738815
Splitter:Tree:7.4074073
Dialog:Preferred:0.6862281
apache:Model:0.032612815
Type:Types:8.668848
log4j:create:0.009315296
Value:Class:0.02325942
Tree:Tree:35.2029
First:Logical:2.0775328
Object:equals:2.2452699E-4
log4j:List:0.010479709
List:Child:0.0024280685
Cache:Values:0.05978261
action:Base:0.39720005
Type:Size:0.002012688
State:Code:6.666667
Base:Element:3.483678
File:Types:6.3546815
String:Storage:0.021604106
Object:Index:0.49508196
Cell:Tree:30.303032
List:Iterator:2.5810368
String:paint:0.01620308
iterator:Storage:0.18229695
action:Path:0.013022953
State:Class:53.333336
Load:Type:7.8431377
Size:Parent:0.18484288
lexer:Parser:12.165917
Component:Value:30.376556
Tool:Tool:0.22681451
Index:Lexer:2.3604152
Index:Type:1.1340421
Default:apache:13.196814
Manager:Logger:1.1389107
Object:Event:0.02194751
Model:Element:0.031584084
Delegate:Object:18.69159
apache:apache:30.991068
Loader:Base:26.373629
Storage:Impl_:3.310425E-4
Code:Object:83.37392
Code:Index:2.1529272
Dialog:Button:0.3076195
Value:write:4.225461
hash:Valid:0.0049490826
init:Model:0.23419203
Type:First:0.0051323543
Node:Tree:94.68196
property:Project:14.117648
hash:Impl_:0.001855906
Name:First:0.019585116
Index:lexer:0.022268068
Storage:Instance:0.03773885
Tool:Manager:12.298388
Code:Default:0.0014037996
Size:Panel:0.55452865
Object:String:0.011319902
File:Object:4.2155504
Name:Time:0.007843554
Descriptor:Types:1.1078287
Project:Search:0.0041548945
Contains:Class:100.0
Types:Type:25.684818
Project:Count:0.016619578
custom:Type:100.0
internal:Context:1.8854748
size:Object:0.14814228
String:Line:0.22144209
Impl_:Code:4.1339436
Wrapper:Index:4.7903223
Equal:node:33.333336
Model:List:0.15217787
Name:Descriptor:0.024528932
Model:Type:0.13160037
Value:Base:4.151807
Logical:Logical:49.02345
Loader:Cache:17.582418
internal:First:26.396646
Delegate:Base:1.1805214
Attribute:Impl_:0.08339056
internal:Path:1.2569833
Preferred:Type:0.6756757
Index:Support:3.8794544E-5
Holder:File:0.23877746
Performed:Manager:43.726234
Model:create:0.27372873
Width:Component:5.975395
Proxy:Instance:0.022192633
Class:File:0.043530837
Pool:Base:45.16129
Handler:Item:0.0052715926
Type:Base:0.46734613
hash:Handler:0.055639684
action:Valid:0.01953443
Code:Valid:0.0043450943
hash:Storage:5.623957E-4
Enabled:List:2.5911708
Name:Type:0.9514944
Performed:Index:1.5209125
File:Wrap:0.020903556
write:Order:0.00980873
Listener:action:5.1505547
String:Model:7.2589793
log4j:Hierarchy:0.055891782
Adapter:Start:0.25905067
Index:hash:0.60131544
check:Base:3.0858245
File:Handler:1.7079947
hash:File:0.018690284
internal:Start:1.6061453
Size:Size:25.970427
Code:Class:0.14494231
Descriptor:File:1.366322
Empty:hash:45.217392
File:Class:8.709815E-4
Storage:String:0.3128352
Model:String:0.18184777
hash:Value:0.03520597
Wrapper:Base:6.2419357
Code:Handler:0.088573076
internal:Model:3.9106145
Type:Layout:7.044408E-4
Button_:Manager:78.205124
Instance:action:0.2219196
Value:String:26.104822
Model:Handler:0.23257372
Parser:Feature:1.8043607
Line:Panel:0.24752475
Tree:Text:3.5847347
Iterator:Index:76.86442
Object:check:2.6194815E-4
Handler:Storage:2.6906207
Base:Item:0.022642292
Name:Namespace:0.17336631
Cache:Value:9.021739
Component:Text:1.1974161
hash:Object:91.4417
File:model:0.003483926
Project:Manager:59.531326
Debug:Layer:5.904059
Factory:Instance:92.06349
Descriptor:Value:16.838997
code:Info:2.0
Storage:State:0.00132417
Model:Base:1.2116804
paint:Icon:10.390668
Base:Valid:0.06727995
List:Project:0.027518108
Facade:Type:15.789473
Element:Instance:1.2195121
Feature:Feature:36.871952
Storage:storage:0.0048001166
Count:paint:1.688693
Monitor:Adapter:39.024387
Tool:paint:0.22681451
Code:Value:0.0063170986
Renderer:Tree:22.900763
Descriptor:Handler:0.55391437
application:Model:90.024826
paint:Type:0.21703744
Pool:Bytes:45.16129
Type:lexer:0.014088817
paint:Renderer:1.3022246
Dialog:message:0.023663038
Descriptor:Index:4.800591
Hierarchy:application:0.5181347
mouse:Manager:85.71429
enter:Instance:4.9122734
File:Holder:12.730267
File:Dispatch:0.02395199
Type:Lexer:1.2679935
Project:List:0.09140768
Start:Start:47.53927
paint:Cell:1.3022246
Abstract:Count:97.196266
Instance:Default:0.7061078
Item:hash:0.045047946
apache:List:0.0076237754
internal:Type:14.455307
Utils:Base:27.118645
write:Value:0.45120156
Custom:File:53.846157
Layout:Preferred:43.333332
parser:Parser:49.61011
preferred:Size:50.0
Code:List:0.0010528497
List:Performed:0.004856137
Logger:Logger:3.8247223
Object:Valid:1.1226349E-4
List:Instance:3.1160212
hash:Dirty:3.749305E-5
Object:Wrapper:3.3679046E-4
log4j:Model:0.008150884
action:Button_:0.20836724
Reference:Instance:0.9521542
hash:Default:2.249583E-4
Parser:Parser:30.597803
Composite:List:8.366534
State:hash:6.666667
Splitter:paint:59.25926
Name:load:6.338226E-5
Button:Dialog:0.48367596
Impl_:Value:0.004071848
File:Value:0.76036686
Index:write:0.046863813
Editor:Component:52.1519
hash:List:0.0011810311
Storage:action:3.310425E-4
Index:Name:0.8255479
Listener:Monitor:0.07923931
Wait:application:100.0
List:Search:8.0935616E-4
Type:Name:2.738564
Type:Token:0.20851448
String:invoke:0.2268431
Lexer:Adapter:0.008457681
preferred:Preferred:50.0
select:Count:100.0
Generator:Base:12.048193
Line:Size:81.930695
Manager:debug:0.01042481
File:Base:1.4545392
log4j:Instance:0.0052398546
Simple:Index:2.5055928
write:write:7.376165
Mouse:action:1.6018307
debug:create:2.6455026
action:Handler:0.01953443
Descriptor:Name:0.18463811
Container:Instance:99.64386
Reference:Element:0.047607712
internal:String:13.68715
String:Base:0.7021334
Parser:Lexer:0.26277098
hash:Index:0.6654266
Project:Logger:0.18697025
Wrap:File:40.0
hash:equals:0.84674305
Model:Model:41.07223
Base:check:1.236916
Cache:Base:2.7880435
Manager:Mouse:0.12509772
Token:Lexer:44.071682
Node:Component:2.189781
Name:internal:2.0599231E-4
apache:create:0.009741491
Adapter:internal:0.01850362
Tool:Listener:0.025201611
hash:Cache:1.499722E-4
Lexer:Token:31.910831
Order:Value:98.73418
Base:Next:0.031052286
Mouse:Manager:81.46453
Iterator:Impl_:3.059507
Values:Base:61.11111
Class:Bytes:0.08706167
Multiple:Reference:20.0
Count:action:0.14684288
Parent:Listener:4.6511626
paint:Width:5.832881
Handler:Base:6.234185
First:Simple:0.36410365
Logger:apache:28.841438
Base:Impl_:0.046578426
Iterator:Model:0.0020704987
Instance:init:0.006304534
Storage:Event:0.10974059
apache:log4j:17.570683
Attribute:File:16.815462
File:Bytes:5.1579523
First:Model:0.042835724
hash:unlock:0.059126537
Pool:Object:6.4516125
Iterator:Next:0.0072467453
hash:Element:0.0029057113
Code:Dirty:3.34238E-5
Adapter:Feature:0.3049075
equals:Value:0.078002274
Long:Base:91.46342
hash:Iterator:1.3679152
Name:Base:0.046173967
Types:create:0.09162242
Object:Name:0.019084793
Base:Delegate:0.08539378
Context:Context:49.053185
Enabled:Layer:1.5355086
Object:Reference:9.35529E-5
Dialog:Listener:0.047326077
enter:Container:0.025629252
Path:Adapter:0.11272697
hash:Base:0.4761055
Instance:Monitor:0.12104706
Feature:List:0.64759284
equals:Base:0.3055089
Impl_:Base:0.033592746
Bytes:Info:0.044367213
configuration:Base:14.285715
Model:Instance:5.2941628
Model:Tree:0.009570935
Object:action:9.2617376E-4
Value:Model:0.1938285
Name:Element:0.014229315
Button:Pane:2.4183798
Base:Base:8.707578
Element:Handler:0.2804878
Object:size:0.009383356
Arrow:paint:66.66667
Store:Type:16.393442
Code:create:0.0033089563
apply:Type:6.1810155
internal:Name:1.2569833
hash:Reference:0.07558599
Index:Attribute:0.00170696
Time:First:7.3660717
Slash:File:100.0
Dialog:Tool:0.023663038
Object:Storage:3.6638591
Instance:Dialog:0.0025218136
action:Find:0.03906886
Text:lexer:3.665309
Internal:Editor:100.0
File:Index:12.270388
Horizontal:Dialog:100.0
Code:Storage:5.01357E-4
paint:Component:2.9842649
paint:Splitter:0.43407488
Value:Code:2.651574
Value:hash:1.0776864
Default:Base:4.550626
Item:Item:45.047943
Dialog:Find:1.3724562
Proxy:Base:1.6777629
write:Number:0.07846984
Storage:Index:0.33269775
Text:Lexer:35.838577
Storage_:write:100.0
Find:Model:12.665406
Base:Index:1.0674223
Factory:Handler:7.936508
enter:Base:0.06834467
Simple:Path:0.1342282
Class:Reference:0.019347038
Boolean:Base:100.0
User:Iterator:1.1811024
Dispatch:File:50.0
Button_:action:0.64102566
size:Iterator:0.45789433
hash:Name:0.68342334
Cache:equals:0.19565217
Path:Time:0.018446231
Logger:application:0.013373156
Tree:Value:0.36250126
Token:Type:0.4914327
Type:Change:1.00634395E-4
hash:create:0.006223846
unlock:Storage:65.65379
Descriptor:Pool:0.03692762
Code:iterator:2.0054281E-4
Value:Info:0.02325942
apache:application:6.353146E-4
Listener:Tool:0.6339145
Parser:parser:3.4911003
Instance:Model:0.080698036
Generator:File:87.95181
write:List:0.23540953
File:Attribute:1.3064723
Base:Monitor:6.4692256E-4
Storage:hash:6.62085E-4
Storage:write:0.70280325
Parent:Mouse:51.162792
Name:Declaration:4.7536687E-5
String:List:1.4636781
Help:Dialog:33.333336
Type:Bytes:0.0051323543
Size:Type:0.27726433
Change:List:58.154858
Reference:Storage:0.69031185
action:force:0.5990558
Code:Name:0.8156076
create:Object:2.352528
Attribute:Type:0.029431965
Index:Iterator:0.37789765
Object:Object:0.013995514
Impl_:Index:42.377247
List:Change:0.02104326
Adapter:Path:1.7699115
Storage:Cache:0.13208596
Arrow:Component:33.333336
Wrapper:unlock:7.935484
Index:Value:2.3276727E-4
Text:Model:8.37785
Class:Storage:0.9480048
Type:Type:35.56601
Type:Model:0.024554795
Descriptor:Class:1.5509601
Types:Types:0.4939388
hash:Next:1.367184
apply:Name:10.463576
hash:Support:0.0023995552
Configuration:determine:64.28571
Adapter:Simple:0.6427997
Name:Name:47.34217
First:Context:40.8867
Tool:Action:0.15120967
Next:Impl_:6.5697064
hash:Changed:1.8746525E-5
Project:Iterator:0.46119326
parse:parser:100.0
Item:Object:1.8019177
Core:Model:3.5714288
Index:size:0.009659842
List:Adapter:57.479668
String:Project:0.010802053
Impl_:Support:0.0030538857
Manager:action:13.294241
File:File:6.75272
write:Check:0.029426191
apache:Dialog:0.31384543
Facade:Types:10.526316
Readers:Handler:100.0
Base:Handler:3.08388
Code:Delegate:0.013921012
Count:Abstract:0.44052863
Handler:Next:0.002108637
Name:Search:3.169113E-5
Icon:paint:69.34673
apache:Default:0.018212352
Model:Core:0.0014356402
Code:Element:0.0025903445
Index:Logical:0.009776225
Model:Order:9.570935E-4
Iterator:Storage:0.08463164
Performed:Find:0.38022813
Empty:Model:9.565217
Size:Dialog:0.36968577
Storage:Object:0.015890041
size:Value:0.31450525
Item:Base:0.09009589
Mouse:Action:0.9153318
Code:equals:0.6593847
Parent:Tool:39.534885
hash:_get:0.10578664
Name:equals:0.001521174
Class:code:0.2128174
hash:Class:0.15707713
Namespace:Handler:17.038218
Reference:Iterator:0.05950964
Dialog:Model:0.40227166
File:Store:0.03919417
message:String:28.57143
Loader:Class:17.582418
create:Model:9.209471
Support:Base:79.941216
log4j:Dialog:0.4314147
Child:Enabled:73.057
Base:Utils:0.0116446065
Component:paint:1.890657
Start:Adapter:3.141361
Handler:List:0.018977733
Name:File:0.02253239
Base:Iterator:0.643041
Base:String:0.021995367
Type:Handler:1.3947928
Type:Object:0.0018114191
Action:Instance:95.134384
Object:Monitor:3.7421163E-5
Child:Model:0.20725389
apache:Composite:8.470861E-4
Types:File:4.4589577
hash:size:0.001855906
Component:Model:6.5227666
Impl_:Iterator:0.08652677
Loader:Object:32.967033
Object:Base:0.07474877
Component:Editor:6.8063655
Code:Attribute:0.0072195404
File:code:0.47903982
Wrapper:Model:1.6774194
Code:unlock:1.1055089
Class:Cache:0.07738815
Delegate:Storage:9.247417
Project:message:0.033239156
List:List:2.2095423
Type:Manager:0.11502511
code:File:61.333336
Tool:action:67.08669
Reference:Value:0.7855273
Listener:Manager:80.507126
apache:Item:0.0012706292
Container:Handler:0.30526584
Class:Object:6.964933
Model:Iterator:0.0014356402
String:Item:0.05401026
Component:Tree:19.410746
Proxy:Object:0.1997337
Instance:Storage:3.427145
hash:Item:9.3732626E-5
Name:model:0.0053241095
Value:File:9.931772
Info:code:20.754717
Model:Text:0.5570284
Button:Component:0.16122532
enter:Object:0.017086167
Class:Instance:0.32889965
internal:Call:0.9776536
Width:paint:55.88752
Storage:Storage:3.407586
Type:Load:0.0153970625
Project:debug:0.747881
Base:Priority:0.019407678
Descriptor:Parameter:0.36927623
Instance:Facade:0.035305392
write:Storage:2.3540952
filter:Name:100.0
Base:List:2.497768
Core:Handler:92.85714
Handler:Element:0.047444332
action:Tool:0.07813772
Class:Descriptor:0.18379685
action:Project:5.274296
Descriptor:Instance:1.3293945
action:Adapter:0.01627869
Base:Cache:0.043990735
Dialog:Dialog:29.152864
mouse:action:7.1428576
Object:Code:1.14186
Types:Class:0.009397171
Object:Type:0.004097617
Handler:Valid:0.004217274
Wrapper:hash:0.96774197
log4j:Item:0.0017466182
Icon:Component:3.0150754
Handler:Active:0.037955467
log4j:log4j:24.152817
write:Item:0.13732222
Custom:Class:30.769232
Descriptor:Element:6.1299853
Panel:Dialog:29.166666
File:Name:1.3326017
File:Descriptor:0.08361422
Element:Object:0.5243903
Search:Model:55.555557
log4j:apache:24.152817
Index:Object:2.255321
Index:Index:4.393715
Proxy:Handler:98.10031
Monitor:Project:2.0325203
Impl_:Object:0.013233506
Base:Class:0.0038815357
Cache:hash:0.2173913
Code:_get:0.094305255
Helper:Model:100.0
Cache:Cache:0.06521739
init:Item:99.18033
Enabled:Project:28.21497
Base:Active:0.1746691
Name:Parser:0.003549406
Button:paint:0.6449013
Object:hash:1.1049533
First:Type:2.184622
Type:Simple:0.015296429
Iterator:Iterator:0.48518687
Find:Dialog:16.25709
Store:Class:59.016396
Adapter:Parameter:0.031375706
Feature:Name:12.74416
compute:Item:100.0
Size:String:2.2181146
Loader:release:1.0989012
hash:Loader:3.749305E-5
Item:Text:0.7143317
Context:internal:0.0087622795
Lexer:Parser:6.9401317
Event:Handler:4.608295
Iterator:size:5.0910974
Base:Storage:3.4584482
Element:Base:1.0487806
Simple:Type:5.279642
Name:Index:0.0077326344
List:First:0.06312978
log4j:Composite:0.001164412
List:Feature:0.072842054
Tree:Renderer:0.1510422
action:Index:0.058603287
Bytes:Type:0.022183606
String:Component:1.026195
Long:Storage:3.6585364
Attribute:Index:0.088295884
Button_:Action:0.64102566
Renderer:Text:13.740458
Name:Reference:0.0014894829
create:Find:0.050160516
Base:_get:0.0019407679
Reference:Next:0.05950964
log4j:Default:0.0064042667
Index:File:1.6000422
Action:Dialog:0.4170528
paint:Pane:4.639175
Configuration:Base:7.1428576
Class:Class:1.064087
File:Load:0.14893784
Parameter:Adapter:75.0
Handler:Changed:0.0010543185
Load:File:49.673203
Path:Path:47.259617
Dialog:Help:0.047326077
enter:Next:0.075819865
paint:Editor:2.9842649
code:Class:1.3333334
Adapter:Lexer:8.920354
Name:Object:0.003089885
String:String:4.6448827
Code:Cache:6.68476E-5
action:Object:10.489988
Class:Index:0.05804111
write:Active:0.01961746
Ordered:hash:50.0
Attribute:Name:61.80712
Component:Button:0.8192847
action:Manager:27.957026
Feature:Parser:2.4830227
Monitor:List:0.81300807
Change:Project:7.413509
Size:Count:3.2347505
Tree:List:4.1687646
size:unlock:0.064960785
write:Base:14.006866
String:Manager:19.173643
Name:Feature:0.0878478
Wrapper:Value:0.032258067
Model:Configuration:0.001914187
State:Custom:6.666667
Manager:Listener:0.104248114
action:Listener:0.2311574
Performed:Base:0.38022813
List:Monitor:0.0072842054
Name:action:0.00760587
String:Values:0.010802053
Type:Project:0.0022139568
create:Dialog:0.010032102
Next:Index:66.246376
Values:String:24.444445
write:Utils:0.01961746
internal:Active:1.2569833
Code:Support:0.0021391232
Change:Manager:28.912683
Name:Attribute:0.0071463487
Code:Reference:0.06738238
Object:Item:0.0019178345
Index:Simple:0.0016293708
Manager:Tool:3.9562159
Manager:Performed:0.044305447
Manager:Monitor:0.023455825
Code:Loader:3.34238E-5
String:internal:0.07561436
Logger:Hierarchy:0.855882
Impl_:unlock:0.16694576
storage:String:3.3333335
Object:List:0.018074421
Class:Holder:0.06771463
hash:Attribute:0.006073874
Object:Instance:4.8647512E-4
Empty:Code:44.223602
Code:Impl_:0.002205971
Performed:Dialog:0.38022813
Token:push:0.1638109
Node:Renderer:1.0427529
Splitter:Editor:3.7037036
Code:Base:0.43611372
Contents:Instance:100.0
Pane:Width:0.82644624
Code:size:5.5149273E-4
Class:Base:4.004837
Element:Model:0.048780486
Adapter:Value:2.7369268
Pane:paint:2.0661156
Descriptor:Reference:0.07385524
File:Storage:0.48731416
Storage:Code:0.069849975
property:Manager:85.882355
Token:lexer:8.118467
Impl_:hash:0.41023865
Change:hash:0.9884679
Cache:Code:2.1956522
List:action:1.1581887
Results:message:100.0
action:internal:0.03906886
Name:Standard:0.001521174
Name:Path:0.13833177
Object:Iterator:7.4842326E-5
Code:Next:1.2194507
Button:Button:45.949215
Object:File:0.04741261
Code:Composite:0.003810313
hash:Delegate:0.008923346
Storage:Base:0.047670122
Base:equals:0.03687459
User:Elements:97.44095
Dialog:Types:0.023663038
profile:Model:100.0
Editor:paint:1.6877637
Base:Code:0.31052285
Impl_:Handler:0.023413125
Path:Name:3.3054154
apache:Logger:0.6984225
Dialog:Panel:0.21296735
Child:Debug:26.42487
Tree:Model:6.555231
Change:Count:0.9884679
Handler:Handler:0.63259107
Cache:Object:35.070652
Storage:Class:0.00264834
Empty:Storage:0.9937888
Manager:log4j:0.065155074
resolve:Base:60.000004
Value:Type:0.3488913
Manager:Parser:0.04691165
Name:Storage:8.081237E-4
Index:unlock:0.022268068
action:Name:0.0065114764
Priority:Name:31.818182
Base:Event:4.5530415
First:Name:9.61662
Type:Line:0.0031196666
Logger:Default:0.0980698
Base:Wrapper:0.0019407679
Dialog:Size:0.16564128
Base:write:0.046578426
Next:Storage:0.043679796
Name:Model:7.922781E-4
paint:Tree:12.045578
Path:action:0.002981209
Default:Object:0.22753128
action:configuration:0.01953443
log4j:Logger:0.9600578
Find:Find:24.385633
Ordered:Code:50.0
enter:iterator:94.657364
write:Object:0.8631682
Iterator:Wrapper:0.012681805
size:Index:1.3332806
Code:Wrapper:0.0023062422
Content:Panel:100.0
Count:application:5.873715
Layout:Size:48.88889
Pane:Icon:0.82644624
check:Model:3.3751204
First:Time:4.240737
action:Dialog:0.013022953
Object:Next:4.677645E-5
Component:Display:0.0630219
enter:Iterator:0.2434779
Tree:Component:2.5576477
Parameters:Adapter:100.0
String:Object:3.6132865
Adapter:Name:2.4215608
Base:Object:2.4654222
Code:Changed:3.175261E-4
Change:Code:1.3179572
Wrapper:Iterator:1.6451612
Preferred:String:16.216215
Wrapper:Wrapper:26.45161
Model:Node:0.011485121
Project:Project:15.094731
Performed:Instance:44.86692
action:List:1.8427478
size:Storage:2.151628
application:Count:9.110968
Tree:Cell:0.1510422
Bytes:File:55.836136
Listener:Action:4.3581614
resolve:Storage:40.0
equals:Storage:7.4037156
Handler:action:0.014760459
apply:Simple:1.8543046
Name:Item:0.017525192
First:User:0.14992504
Pane:Editor:0.82644624
Handler:Event:0.53770244
Node:Cell:1.0427529
Size:Preferred:3.9741223
Logger:log4j:28.841438
Node:Support:0.20855057
Impl_:Attribute:0.033592746
Action:Find:1.0194625
Renderer:Display:10.687022
log4j:application:8.733091E-4
Base:hash:0.659861
Adapter:List:22.684633
paint:Button:1.1937059
Type:Adapter:0.023850353
Preferred:Dialog:7.4324327
Multiple:iterator:80.0
Time:Call:4.241071
Start:First:0.20942408
Method:File:100.0
paint:paint:7.3792725
Standard:Name:93.67589
Type:Index:0.011271053
Value:Object:1.4730966
Handler:Iterator:0.002108637
Value:Primitive:1.5118623
apache:Instance:0.004658974
Find:Instance:2.646503
apache:Hierarchy:0.040660135
Handler:Code:1.0880567
hash:iterator:2.249583E-4
Index:Base:0.14679855
Active:Base:1.8072288
Code:Iterator:1.2203197
Base:Changed:0.009056916
Tree:Leaf:0.43802235
String:Tree:0.021604106
Object:Cache:0.07808861
Adapter:Type:0.77393407
equals:Object:0.29900873
internal:Adapter:26.396646
Index:Storage:0.063467875
Leaf:Tree:28.688522
equals:Support:0.00433346
Equal:Equal:33.333336
Simple:Simple:21.118568
apply:Index:81.5011
Index:Impl_:0.06657144
Manager:apache:0.5994266
create:Types:81.84691
Load:Class:6.5359483
Monitor:Manager:8.9430895
Storage:Utils:0.010924403
size:hash:0.99817795
Next:size:7.800153
hash:Wrapper:0.007761061
Long:Object:4.8780484
Adapter:Time:0.31858408
Impl_:Wrapper:0.37562796
Value:Storage:0.124050245
apache:Handler:0.22956035
Index:Code:14.611965
True:Iterator:100.0
Object:Element:0.0100101605
Buttons:Find:100.0
Iterator:apache:3.4508313E-4
Instance:Object:1.0036819
Lexer:Text:3.380253
Model:Object:0.017227683
Manager:index:0.01042481
Handler:File:3.4982285
action:Instance:10.988116
Monitor:Base:0.40650403
Cache:Handler:0.010869565
Object:Impl_:0.14682193
lexer:Token:46.27341
Simple:Name:2.774049
action:Storage:0.01953443
Code:File:0.027073279
Instance:internal:0.035305392
mouse:Action:7.1428576
hash:Composite:0.0042742076
