Tree:cognitive:0.76986945
Primary:Object:0.053276505
Facility:persistence:4.166667
paint:cognitive:0.28571427
Item:Designer:8.477237
hash:memoryimpl:0.049017496
create:Facade:0.016051365
handlers:Type:0.014405206
tigris:Buttons:0.0051474753
Monitor:Check:1.4492754
equals:Repository:2.9579885
Facade:Element:0.37524983
i18n:Name:1.9206378
resolve:storagemodel:7.952335
End_:netbeans:16.839275
List:Child:1.0178117
Type:Meta:8.391258
create:localize:0.0053504547
Cache:Values:4.4351997
Model:Edges:8.6265645E-4
Descriptor:Refers:0.13826275
Type:Storable:0.89622325
action:Base:2.0408163
model:Handler:12.544484
Project:Category:2.1871984
memoryimpl:persistence:6.348674
Component:tigris:0.55917984
Generalizable:javax:10.4298
Perspective:paint:10.958904
Name:Refers:0.103721514
decrement:netbeans:27.000595
argouml:tudresden:1.5195017E-4
Find:Button:2.4691358
Association_:netbeans:13.962661
tigris:base:0.32943842
Support:Storable:12.447651
Container:netbeans:12.537538
Primary:netbeans:17.82987
debug:Browser_1:0.13582343
create:storagemodel:3.306581
argouml:Decorated:7.5975084E-5
Size:Parent:0.78125
log4j:Repository:0.1994018
Heap:Arrow:1.4492754
argouml:Renderer:0.0053182556
argouml:Number:0.0015195017
Button:name:2.525651
Class:javax:3.8709427E-4
Model:Element:0.0793644
Full:netbeans:13.264372
Assoc:memoryimpl:9.3839
Code:Index:3.2138393
debug:Change:0.13582343
Mouse:Rollover:12.5
Cancel:Button:11.111112
mouse:Standard:10.0
Dialog:Button:8.183454
netbeans:helpers:2.9972778E-6
memoryimpl:storagemodel:1.641141
Cell:Text:9.986505
cognitive:Base:0.03634098
netbeans:String:0.003117169
Immut:netbeans:1.6560254
Object:Priority:3.5032554E-6
Tool:Manager:1.4504431
decrement:Model:6.2584825E-4
swingext:Dialog:0.66225165
Reference_:_pre:16.535433
Check:Serial:2.5641026
Heap:argouml:34.782608
create:Association:0.64205456
decrement:Instance:0.0040769544
Reference:Repository:7.255424E-4
Types:Type:11.661204
Storable:foundation:1.5605485E-5
size:Object:1.8707912
String:Line:0.0020715084
Editor:swidgets:3.846154
Model:Type:1.4471062
netbeans:Immediate:0.005881885
other:netbeans:10.0
storagemodel:Name:0.048791014
persistence:Superclass:8.7680237E-4
netbeans:Dirty:4.9019116E-4
Preferred:Type:1.5151515
model:_lock:0.062355418
Model:create:1.2111696
preferred:swingext:10.0
Impl_:storagemodel:1.813412
enter:Supertypes2:0.027202748
Feature:argouml:50.0
Dialog:Buttons:0.04496403
netbeans:Long:0.002035969
netbeans:_lock:0.0013797014
persistence:Code:1.5134821
Readers:Object:9.302124E-4
Node:tigris:0.09182736
Diagram:base:1.0848508
Descriptor:Contains_:3.2366052
Impl_:_get:0.0025040838
Category:Offenders:0.261704
Target:argouml:50.526314
Heap:List:2.8985507
Spacer:center:1.5151515
storagemodel:write:0.079382546
String:Size:0.0010357542
write:Boolean:0.002931703
netbeans:End_:0.008400007
Button_:Manager:12.5
Dialog:i18n:2.877698
Line:Panel:5.555556
Tree:Text:1.1170654
Primary:Storable:8.8439
Handler:Supertypes2:0.056184787
Association:Class:4.1265337E-4
tigris:graph:0.082359605
Perspective:Component:2.739726
Base:Item:6.1668743E-6
Handler:Storable:0.06911087
Cache:Value:0.49870768
Component:Text:6.8965516
hash:Object:1.7879221
handlers:jmiimpl:0.013929646
object:Storage:2.8765671
jmiimpl:Base:3.325736
Overflow:Internal:7.692308
Base:handlers:0.52383894
Type:kernel:0.005469907
Type:netbeans:23.03925
Facade:Trans:0.14683689
base:diagram:7.2812686
Storage:State:0.039160173
toolbar:Manager:1.4002334
Priority:Designer:4.535349
Translator:Cancel:0.033486813
Code:object:0.0055692983
List:Project:0.29686174
Class_:Handler:2.6788492
Graph:paint:0.2002002
First:argouml:100.0
Category:Handler:0.08723466
diagram:Graph:2.010969
i18n:Wrapper:0.68853056
Configuration:Storage:1.1352419
wrap:Object:10.0
argouml:Priority:0.020969123
tigris:tigris:11.720801
paint:Arrow:0.14285713
Name:foundation:2.095384E-4
application:Model:6.3593006
Category:property:0.11631288
Code:Generalizable:0.037591565
cognitive:Support:0.0103831375
Impl_:handlers:0.021065824
argouml:Title:1.5195017E-4
object:Association:0.11551718
netbeans:Iterator:0.3678657
netbeans:generate:6.539515E-5
Project:List:0.16082342
netbeans:Priority:1.3623989E-7
Exposed:Handler:7.1428576
Descriptor:foundation:2.793187E-4
netbeans:object:0.003571393
preferred:Size:10.0
Model:Association:0.0025879694
Name:_query:16.557253
Full:Base:13.264372
Handler:cognitive:2.1471893E-5
toolbar:Rollover:4.006223
Translator:Category:0.008371703
Wait:hash:0.4583646
Code:Association:0.23752123
Icon:swidgets:1.6949153
_query:Handler:6.5571947
toolbar:Pane:0.038895372
Composite:List:7.300885
i18n:Title:0.009059612
State:hash:6.4574747
Tree:model:4.5286436
Splitter:explorer:2.6845639
storagemodel:Singlevalued:0.14078857
Editor:Component:3.846154
name:Translator:3.3333335
Name:modelmanagement:1.047692E-4
Factory:argouml:36.0
Project:argouml:29.495016
Heap:Object:1.4492754
Explorer:Icon:0.19569471
preferred:Preferred:10.0
Manager:debug:1.4054813
Class_:Generalizes_:0.91275775
Supertypes2:javax:11.414038
Designer:cognitive:3.1578946
Repository:apache:7.808331E-5
size:Support:0.047270097
Model:Explorer:0.028467664
persistence:Handler:0.22902724
Graph:Support:2.4024024
netbeans:Singlevalued:0.017365957
model:Class_:0.07909723
argouml:cognitive:0.6441547
Overflow:Pane:7.692308
Base:check:2.590087E-4
presentation:tigris:22.448978
Import_:netbeans:19.248827
Translator:toolbar:0.008371703
Designer:convert:2.631579
next:netbeans:16.511173
Model:Repository:0.0017253129
Association:Handler:5.0768747
Iterator:Impl_:5.6080394
Values:write:1.9758276E-4
Number:Long:15.674429
hash:Values:0.18584125
Translator:Name:1.7748011
Handler:object:0.0017177515
Boolean:netbeans:18.0
Base:Supertypes2:0.04840996
_query:_pre:6.5571947
core:Query:7.4074073
paint:Width:0.14285713
memoryimpl:Object:0.25961435
Attribute:netbeans:35.164585
Repository:Base:1.9017968
Number:Utils:15.674429
persistence:Repository:0.052430358
argouml:helpers:0.0051663057
javax:model:0.015229739
Facade:Leaf:0.07749725
parser:action:11.111112
model:Trans:8.866574E-4
Attribute:_pre:3.1588456E-4
Code:Query:0.15297133
localize:Abstract:0.018221576
swidgets:Tree:0.6144393
Class_:Import_:1.3205409E-4
argouml:Validity:5.698131E-4
Code:Dirty:0.017229866
Performed:Validity:2.0408163
swidgets:Buttons:0.051203277
End_:Instance:3.480598
netbeans:Value:0.016416363
Package:Storage:15.543932
netbeans:Set_:0.14914018
persistence:Set_:0.32899216
Reference_:netbeans:16.535433
netbeans:jmiimpl:0.007680252
Ordered:netbeans:20.51756
Wrapper:storagemodel:9.384838
enter:Container:0.08772221
Diagram:Support:1.0848508
Dialog:tigris:1.6187049
mouse:toolbar:10.0
i18n:tigris:0.48921904
Composite:cognitive:9.292035
Model:Tree:0.08799096
Code:Wrapper_:0.004424791
Button:Pane:0.07892659
log4j:Browser_1:0.0997009
force:cognitive:4.054054
Object:object:0.001975836
Cache:storagemodel:0.0020923077
tudresden:Monitor:11.111112
Repository:Iterator:2.075291
Object:Storage:2.979841
handlers:Storable:2.7965584
Browser_1:argouml:41.37931
Cache:Support:7.918154
persistence:Package:0.001306449
argouml:model:3.7170808
Class:Handler:5.5194807
Multiple:_get:0.005581274
Node:Leaf:1.1019284
Explorer:paint:0.19569471
localize:Button:0.08199708
Kind:netbeans:41.973682
next:Impl_:6.1197605
wrap:storagemodel:10.0
cognitive:Designer:0.32706884
Code:Storage:0.41633257
Values:Utils:1.9758276E-4
Name:Contains_:2.4280262
paint:Component:4.2857146
paint:Splitter:0.57142854
netbeans:Exists:0.015744701
Support_:Values:5.1511497
Standard:argouml:0.7117438
write:Number:0.7231534
Check:Child:3.846154
model:explorer:0.018915357
Loader:Storable:2.3489933
Exposed:netbeans:7.1428576
Base:Index:0.2995559
Find:Translator:7.4074073
Monitor:netbeans:1.4492754
Primary:Association:2.0955424
Multiple:javax:0.08770574
Support:handlers:0.021486428
Storable:argouml:3.901371E-6
Boolean:Base:5.3333335
Cell:argouml:12.685559
Storage:Values:0.0023807606
Code:Superclass:0.0020064798
Featured:Storage:0.005880047
localize:Resource:0.6924198
hash:Name:0.008466484
decrement:handlers:21.505987
Priority:argouml:25.611383
Set_:Impl_:8.814393
i18n:Button:0.08153651
storagemodel:_get:0.0017055534
argouml:i18n:0.08433234
tigris:explorer:0.082359605
tigris:Dialog:0.617697
Translator:Wrapper:0.6362495
argouml:Spacer:3.7987542E-5
Generalizable:model:10.4298
Storage:hash:0.014232647
resolve:netbeans:19.760979
Repository:Supertypes:0.0043584676
String:List:0.0062145256
Attribute:size:4.6048074
Validity:netbeans:16.216215
Multivalued:Assoc:0.7834918
Designer:force:0.5263158
Size:Type:0.78125
Multiplicity:Struct:11.387095
Performed:cognitive:8.163265
Reference:Storage:0.5996608
create:Object:0.66345644
Storable:Repository:1.2650976
tigris:Panel:0.1029495
Index:Iterator:0.15909214
persistence:Object:0.9953862
Will:netbeans:15.700762
Heap:tudresden:1.4492754
Contents:handlers:11.328344
Class_:model:19.859613
cognitive:Number:0.04153255
Index:Value:0.0011982048
Text:Model:15.895954
storagemodel:Full:0.0010306416
Type:Model:1.1596203
netbeans:Package:0.007299461
Priority:Display:0.04446421
tigris:swingext:0.1029495
Descriptor:core:2.793187E-4
helpers:Facade:13.201321
Text:argouml:17.34104
argouml:persistence:0.0072176326
argouml:Parent:3.7987542E-5
argouml:Transaction:1.8993771E-4
Find:argouml:14.814815
tudresden:argouml:33.333336
Node:String:0.13774104
cognitive:force:0.015574707
Multiple:Iterator:12.98829
Utils:Object:0.49227396
Explorer:Cell:10.176126
storagemodel:model:0.4083521
parser:Monitor:11.111112
Code:Item:4.7887343E-6
Close:Dialog:11.111112
Leaf:argouml:24.30144
write:Check:0.0010749578
Node:Composite:1.1019284
next:memoryimpl:6.1197605
persistence:Base:0.20105173
toolbutton:presentation:0.11841326
Object:Singlevalued:0.11207614
name:Help:0.20833334
Category:create:0.05815644
handle:Association:8.982973
swidgets:toolbar:0.40962622
Code:Element:0.03768734
Storage:Changed:0.008647872
Type_:handle:14.113482
persistence:_set:5.6567893E-5
Exited:toolbar:11.111112
hash:_get:0.16699278
Wait:Implementation:5.3647538E-5
Full:storagemodel:13.264372
size:Attribute:1.5851623
always:Tool:11.3879
Line:Spacer:5.555556
netbeans:Transaction:0.001042644
netbeans:force:2.861038E-6
localize:Wrapper:0.6924198
swidgets:Model:0.102406554
jmiimpl:Supertypes:4.3033915
create:Model:7.367576
Facade:Profile:0.061182037
Support:Meta:0.26077056
Translator:log4j:0.008371703
Translator:application:1.0046045
Layout:argouml:27.272728
Exposed:model:7.1428576
Argo:Dialog:1.7222819
Name:File:0.0025144608
Exposed:javax:7.1428576
Diagram:diagram:1.9372337
Multiple:Assoc:11.769269
explorer:paint:0.010580331
Explorer:Tree:10.176126
decrement:Aggregation:0.052356675
swidgets:Argo:4.1474657
foundation:handlers:7.4074073
storagemodel:Exists:0.14078857
Arrow:Splitter:12.5
Object:Base:0.03290958
Wrapper:Repository:1.2271209
Pane:tigris:1.3793104
Long:configuration:0.025782885
Icon:argouml:20.762712
Nodes:base:8.695652
wrap:Storable:10.0
netbeans:Order:2.7247978E-7
i18n:String:0.036238447
argouml:Profile:0.008889085
kernel:argouml:17.974323
Offenders:argouml:17.307693
hash:argouml:9.098597E-5
Storable:Generalizes_:0.05393255
Repository:Handler:2.1312482
Boolean:Storable:7.0
Model:Graph:0.010351878
size:netbeans:17.009562
Element:netbeans:1.3100622
Instance:Storage:1.6982939
paint:tigris:6.8571424
persistence:wrap:0.39376238
decrement:hash:0.45847857
foundation:netbeans:7.4074073
Impl_:Storable:0.21660325
presentation:paint:4.0816326
Button:Component:0.07892659
enter:Object:9.3038706E-4
evaluate:model:16.666668
_get:Repository:0.07394505
Priority:String:0.08892842
Storage:Storage:0.4785551
Storable:Storage:3.696955
Name:i18n:7.8576896E-4
cognitive:Project:0.0051915688
Designer:Validity:0.5263158
netbeans:Element:0.003452864
i18n:toolbar:0.009059612
Base:Priority:6.1668743E-6
mouse:Tool:10.0
Wait:Association_:0.06158738
Repository:End_:0.045231525
Base:Meta:2.590087E-4
Index:Storable:0.99651366
Handler:Element:0.05639951
argouml:Translator:0.11183532
Diagram:Mutable:1.0848508
Model:Meta:0.0034506258
Facade:Tree:0.3181466
Diagram:argouml:37.96978
Object:Code:0.25691122
cognitive:critics:0.02336206
model:jmiimpl:0.01219154
Display:model:16.164818
Heap:netbeans:1.4492754
Monitor:argouml:34.782608
Component:Overflow:0.046598323
Association:Base:0.251667
swidgets:Dialog:6.1443934
Mutex:End_:0.08770574
check:Storable:9.012876
localize:Dialog:0.38265306
handlers:cognitive:7.0979086E-6
Composite:Priority:7.300885
Class:_get:0.0019354713
Translator:Explorer:0.016743407
Repository:Implementation:2.1295446E-5
Mutex:Base:9.302124E-4
Model:Then:0.0077639082
force:Number:2.7027028
Class:Meta:0.013161205
Descriptor:Exposes_:0.13826275
swingext:paint:5.298013
Editor:Splitter:3.846154
tigris:init:0.0051474753
argouml:Arrow:1.5195017E-4
Supertypes2:model:11.414038
persistence:object:0.0015690855
Name:argouml:0.13515227
Find:Dialog:4.9382715
Mutex:Immut:0.12119338
storagemodel:Class:1.0964272E-5
netbeans:storage:8.760225E-5
Storable:Package:1.1704114E-5
Item:Text:0.07849294
Aggregation:_pre:9.090909
Mutex:Handler:0.024362704
netbeans:Model_:8.1743934E-7
localize:log4j:0.009110788
Import_:Query:0.46948358
Diagram:tigris:1.8209996
argouml:paint:0.0018234019
Reference_:Handler:16.535433
Content:Preferred:10.0
Wait:next:5.228078
Content:Spacer:10.0
Code:memoryimpl:0.049017485
Monitor:handlers:1.4492754
Rollover:Tool:14.233841
Referenced:Handler:10.0
storagemodel:_query:0.38505426
create:Find:0.0026752274
Overflow:paint:7.692308
Wait:Object:4.2374406
Descriptor:Singlevalued:1.4405861
Storage:Change:0.010976716
Predicate:Layout:0.0034804398
Change:kernel:0.1361934
action:Expression:2.0408163
End_:Handler:16.839275
handlers:object:4.2587455E-4
Support_:handlers:14.446118
Priority:Tree:3.1124945
Wrapper:argouml:0.0011083107
Perspective:Decorated:2.739726
Width:Splitter:13.333334
Help:Button:10.0
Graph:Diagram:3.0030031
argouml:Find:3.4188788E-4
Argo:tigris:8.61141
force:netbeans:16.216215
_query:netbeans:8.37552
Dialog:Help:0.04496403
netbeans:resolve:9.079027E-4
argouml:Target:0.0034188787
Predicate:localize:0.0034804398
storagemodel:size:0.1066373
Browser_1:Manager:10.344828
Graph:diagram:4.404404
other:Handler:10.0
Storage_:Utils:0.30581042
Multivalued:Object:0.24229887
Order:localize:3.3898306
handlers:Support_:0.007310846
Storable:Support_:0.25198954
hash:Set_:0.18825476
Code:Cache:0.019729586
Profile:cognitive:5.421687
Facade:Configuration:0.053024434
cognitive:Arrow:0.0025957844
model:String:0.0017240562
Mutex:Container:0.08770574
Model:Trans:0.062111266
model:Then:1.10832174E-4
Object:memoryimpl:0.9772821
Will:hash:13.845918
write:Base:0.46008193
String:Manager:0.009321788
Type:preferred:4.2076208E-4
Descriptor:persistence:7.9666576
storagemodel:handlers:0.4598562
Manager:Listener:0.28109628
Reference:netbeans:12.719001
convert:Model:15.224913
handlers:Changed:1.7744771E-6
Width:tigris:13.333334
Model:Child:0.0025879694
Will:persistence:15.700762
Category:argouml:51.701077
Model_:handlers:22.222223
Change:Manager:0.1361934
memoryimpl:Iterator:0.5277449
netbeans:Type:0.007459952
Class_:Contains_:3.0603533
Element:Supertypes:9.229599
handlers:Generalizable:0.013929646
Refers:_pre:7.692308
Utils:Serial:0.7737526
Diagram:Edges:0.038744673
base:tigris:3.758074
localize:String:0.018221576
Project:kernel:3.3772917
Repository:Reference_:0.004684998
next:Storage:2.507186
netbeans:Storable:0.6144201
storagemodel:Wrapper:1.6117651
enter:javax:0.08772221
Multiplicity:netbeans:22.77419
localize:Instance:0.40998542
String:preferred:0.0010357542
netbeans:Wrapper:0.74577725
Handler:Wrapper_:0.0043659518
Base:object:0.0014800497
parser:Heap:11.111112
List:critics:0.2544529
Association:Object:0.251667
toolbutton:graph:0.11841326
Pane:paint:1.3793104
handlers:argouml:1.3486027E-4
Class_:netbeans:9.137548
i18n:Target:0.009059612
Type:argouml:2.1105425
Exited:Tool:11.111112
decrement:Association:0.35104722
Cache:Code:0.0051692305
Attribute_:Handler:20.454546
netbeans:Base:0.77976525
Category:Change:0.11631288
Cell:Value:9.986505
Overflow:Component:7.692308
Referenced:handlers:10.0
enter:handlers:0.05945617
Handler:Index:0.0043659518
Performed:Handler:2.0408163
storagemodel:modelmanagement:3.6547576E-6
Repository:Model:2.484469E-4
String:Perspective:0.0031072628
decrement:Association_:0.061583467
i18n:argouml:70.202934
Resource:model:13.22314
modelmanagement:Handler:20.348837
hash:storagemodel:4.1206446
Leaf:Item:2.7942421
Contains_:netbeans:7.692308
Utils:memoryimpl:0.025512924
Primary:storagemodel:8.879417
Dialog:Panel:0.04496403
Translator:Target:0.008371703
Handler:Handler:0.0020756165
i18n:helpers:0.68853056
Profile:argouml:35.542168
Translator:Abstract:0.016743407
cognitive:storagemodel:0.057107255
Value:model:0.086882174
Argo:Help:0.10764262
Leaf:Priority:2.7942421
Type:tigris:0.0012622862
Readers:Immut:0.12119338
Long:Configuration:0.025782885
Configuration:Translator:1.1846002
Facility:handlers:4.166667
other:Object:10.0
Storable:Type:0.00330056
action:handlers:2.0408163
Wait:Class_:0.09978443
Multivalued:hash:6.4743223
enter:Assoc:11.77148
paint:Tree:3.4285712
create:name:0.0026752274
parser:argouml:33.333336
Handler:Wrapper:0.0043659518
tigris:Rollover:1.0603799
Wrapper:Assoc:0.3274946
Object:handlers:1.1200538
cognitive:Tree:0.80469316
Multiple:jmiimpl:0.027197637
Class_:Refers:0.13073355
Iterator:Wrapper:5.616502
name:swidgets:5.208333
Exited:always:11.111112
size:Index:6.276307
Priority:Perspective:0.08892842
Association_:Handler:13.962661
jmiimpl:netbeans:3.325736
Storable:Refers:0.0077247145
Tree:convert:1.1170654
Predicate:swidgets:0.0069608795
storagemodel:Featured:5.262851E-4
javax:Query:1.7899098
Category:cognitive:0.6106427
Class_:Element:2.6410818E-4
Aggregation:Featured:9.090909
name:Button:5.208333
netbeans:Ordered:4.5367888E-5
enter:Iterator:12.990729
netbeans:Association:0.055105228
Values:Object:7.120093
Renderer:Value:10.437235
_get:_pre:0.012324176
netbeans:Enum:4.3460528E-5
Change:Code:13.611773
tigris:swidgets:0.07206465
Wait:Reference:0.056061678
Preferred:String:1.5151515
Model:Node:0.14147566
Multiple:Index:14.13821
netbeans:Kind:4.3460528E-5
Icon:Splitter:1.6949153
Meta:Predicate:2.8427548
model:handlers:14.11821
debug:handlers:0.13582343
Generalizes_:handlers:7.692308
String:storagemodel:0.58105814
resolve:Storage:1.7440245
argouml:kernel:0.037683643
Index:storagemodel:4.7492547
Delegate:storagemodel:0.8746356
base:Graph:5.637111
String:Splitter:0.004143017
Node:Cell:1.4692378
Impl_:Attribute:0.19348863
Exited:tigris:11.111112
storagemodel:Refers:0.00241214
Renderer:Display:10.437235
Graph:Graph:7.207207
Descriptor:_query:22.071133
paint:Button:0.28571427
force:critics:4.054054
paint:Overflow:0.14285713
Container:_pre:12.537538
Import_:_pre:19.248827
Contents:_pre:11.328344
Preferred:Dialog:1.5151515
persistence:Default:8.0811275E-5
argouml:Cell:0.0065338574
Mouse:Tool:12.5
paint:toolbutton:0.28571427
Multiple:Container:0.08770574
Attribute:handlers:3.8016706
jmiimpl:Handler:3.325736
Utils:Validity:0.0011501728
Readers:next:12.950195
Wait:Association:0.3510695
Storage:persistence:0.65838045
String:swidgets:0.024858102
Association:Featured:0.93280303
Model_:_pre:22.222223
storagemodel:Support_:0.07868692
Storable:hash:0.28657523
Wait:End_:0.11394738
Tool:toolbutton:2.9411764
argouml:Explorer:0.0055841687
Base:Changed:6.1668743E-6
Implementation:Base:11.914204
Ordered:handle:19.654959
Panel:swidgets:1.7621145
Leaf:Tree:0.59271806
Index:Storage:2.2924256
model:Iterator:4.6180075E-4
swidgets:Size:0.81925243
Monitor:Icon:1.4492754
netbeans:Resource:2.9972778E-6
netbeans:iterator:8.446874E-6
Import_:Handler:19.248827
_lock:Storage:13.20494
Wait:Instance:0.004077213
Index:Impl_:1.3009341
convert:model:15.224913
Mutex:jmiimpl:0.027197637
Delegate:Storable:0.7653061
model:Object:0.07930658
Check:netbeans:15.384616
Repository:_get:0.020273264
property:kernel:13.548388
Index:netbeans:22.094948
Long:netbeans:7.8036203
memoryimpl:Storable:0.2758047
hash:Wrapper:1.6274804
Component:toolbutton:0.093196645
model:Type:0.020657886
persistence:persistence:1.9407501
Storage:netbeans:7.8520155
Predicate:Facade:0.08353056
Horizontal:Argo:12.5
Repository:Storage:0.005480028
argouml:swidgets:0.019829497
Support:base:7.6193E-4
Validity:argouml:8.108108
Monitor:parser:1.4492754
Monitor:Base:1.4492754
Cache:Handler:0.0051692305
paint:explorer:0.57142854
localize:application:1.0932945
log4j:property:0.0997009
netbeans:Name:0.01677958
write:configuration:0.002931703
Object:Class:2.9427346E-4
Category:Project:2.3262577
Predicate:argouml:12.059725
cognitive:memoryimpl:0.0051915688
argouml:begin:3.7987542E-5
State:Storable:0.7958273
Facility:Handler:4.166667
Tool:always:1.4504431
Instance:Argo:2.6159795E-4
javax:handle:0.029444162
Repository:netbeans:12.486926
storagemodel:Exposes_:0.00241214
i18n:Abstract:0.018119223
Support:paint:7.6193006E-5
handlers:handlers:0.26966375
Dialog:Preferred:0.04496403
Wait:Resource:3.934153E-4
log4j:create:0.04985045
tigris:name:0.4169455
Project:apache:2.733998
List:Number:0.16963528
State:handlers:0.9539833
hash:Storable:0.7649143
Graph:argouml:13.213213
Layout:Spacer:7.272727
Model:Leaf:0.10351878
swingext:center:0.66225165
Generalizable:Handler:0.4886979
Cache:Support_:0.5070769
Supertypes:handlers:11.515261
decrement:Name:0.0010013572
Class:model:0.004451584
Count:Translator:3.7037036
netbeans:Delegate:5.651231E-4
String:Storage:0.1967933
enter:Element:0.027202748
Cell:Tree:9.986505
decrement:Implementation:5.3644137E-5
Default:netbeans:11.3970585
netbeans:Aggregation:5.983657E-4
memoryimpl:Class:0.0020081487
argouml:swingext:3.4188788E-4
State:Class:0.3937074
argouml:Composite:0.0065338574
Value:Association:0.02330022
Splitter:argouml:18.791946
Repository:Wrapper_:2.075291
tigris:Explorer:0.082359605
create:Translator:0.0053504547
argouml:Configuration:0.022032773
Delegate:Object:0.8746356
Loader:Base:2.3489933
Facade:Explorer:0.13460048
Storage:Impl_:1.5575069E-4
Code:Object:1.787922
Model:netbeans:0.06599322
Object:Meta:1.4713673E-4
Exposes_:jmiimpl:8.333334
action:cognitive:8.163265
apache:handlers:0.0997009
Value:write:0.09872974
Manager:Category:2.8109627
Spacer:Type:1.5151515
swidgets:toolbutton:0.20481311
Support:Object:12.311075
Decorated:argouml:16.666668
storagemodel:Cache:0.10064227
Dirty:Code:12.5
Package:handlers:0.008887507
model:Association:1.4346117
Text:model:15.895954
Name:Exposes_:0.103721514
netbeans:Contains_:0.006314719
Generalizable:Class_:10.214899
handlers:Cache:0.009138558
Size:Panel:0.78125
Superclass:netbeans:19.494158
model:Priority:4.0638464E-4
write:Transaction:0.023844518
argouml:Meta:0.15012677
Utils:configuration:0.0031368348
Object:_get:0.0032510208
cognitive:Storable:0.04153255
Attribute:Handler:0.069494605
Name:Handler:0.6303963
argouml:Component:0.012763814
Node:Model:2.571166
Reference:Contains_:2.8024075
Instance:argouml:0.08331895
action:argouml:30.612246
argouml:Help:3.7987542E-5
argouml:Monitor:4.5585047E-4
Profile:Translator:3.3132532
Package:persistence:15.259213
Width:Component:13.333334
Buttons:Buttons:6.25
Handler:Item:7.1572977E-6
Rollover:argouml:0.6535948
storagemodel:argouml:1.7055534E-5
Loader:Model:8.948545
hash:Handler:0.74060667
Generalizes_:Handler:7.692308
model:javax:0.5224629
handlers:Multiplicity:0.0019146608
Storable:netbeans:35.19683
Reference:modelmanagement:1.2092373E-4
debug:Handler:0.10186757
Multivalued:Code:6.4743223
Support:argouml:0.001371474
enter:Association:0.08772221
Code:Class:0.1649719
Size:Size:2.34375
argouml:Next:1.1396262E-4
base:Edges:0.117439814
Code:Handler:0.74060655
Association:Utils:0.014597614
base:Nodes:0.117439814
Reference:foundation:2.4184746E-4
Graph:tigris:6.3063064
enter:_get:0.005582323
persistence:Storable:0.5732213
localize:Category:0.009110788
Model:Handler:0.021135084
Upper:netbeans:16.666668
tigris:Component:0.0617697
Long:Storable:6.7551165
Iterator:Index:5.616502
argouml:Feature:0.0022792525
argouml:explorer:0.15498917
netbeans:Change:5.569487E-4
Heap:Icon:1.4492754
Diagram:Nodes:0.038744673
Base:Generalizable:0.04840996
Boolean:Storage:7.666667
decrement:Object:4.237887
Class:Storable:0.07316082
Delegate:netbeans:0.8746356
Support:Component:7.6193006E-5
enter:next:12.952627
Immediate:persistence:15.274376
Find:tigris:2.4691358
Attribute:Association:5.2647432E-5
persistence:Query:0.043023925
decrement:javax:2.6464798
Mutex:Generalizable:0.027197637
Performed:Object:2.0408163
Serial:Utils:15.674429
decrement:Iterator:5.227746
model:Element:0.0011329512
Descriptor:memoryimpl:1.4405861
Code:jmiimpl:0.037591565
diagram:Diagram:5.484461
object:Class:0.21967201
Explorer:Renderer:10.176126
cognitive:Model:0.28034472
netbeans:Number:0.0012757503
paint:Renderer:0.57142854
Panel:argouml:35.24229
base:Component:0.23487963
Panel:Type:0.44052863
Storable:Name:0.15624991
Wait:Name:0.0010014208
tigris:diagram:0.8441859
Component:argouml:16.402609
Wait:Iterator:5.228078
Leaf:Component:0.59271806
Configuration:Storable:1.0365251
netbeans:handlers:2.1653085
create:Meta:6.554307
Component:convert:6.8965516
Button:Internal:0.07892659
State:storagemodel:0.9876335
write:Value:9.772343E-5
Reference:persistence:7.2938776
netbeans:action:2.7247978E-7
tigris:Model:0.17501415
Code:_set:2.0112684E-4
next:Repository:2.5005658
Check:critics:3.846154
Composite:argouml:25.221237
Repository:Contents:0.14578862
Element:handlers:1.3100622
localize:Explorer:0.018221576
decrement:application:3.9339034E-4
Splitter:paint:10.7382555
Button:Dialog:6.156275
Class_:core:2.6410818E-4
Multiplicity:handle:11.387095
argouml:Display:0.023248376
Monitor:tudresden:1.4492754
storagemodel:Type:0.0010306416
persistence:Dirty:0.004845983
Storable:Full:0.00330056
Association:Storage:0.06292964
hash:cognitive:9.577471E-6
Project:i18n:0.28948215
tigris:toolbutton:1.5442425
handlers:Wrapper:0.0010824311
String:Support:0.0020715084
Mouse:always:12.5
netbeans:core:5.4495956E-7
tigris:Size:0.1235394
decrement:Supertypes:4.8279722E-4
Index:Set_:0.15909214
name:localize:3.3333335
Line:Size:5.555556
Manager:tigris:6.1841183
String:localize:0.053859223
decrement:_unlock:0.18664584
write:write:0.0813059
i18n:Tool:0.018119223
memoryimpl:netbeans:15.530014
Object:Repository:2.318237
Button:argouml:10.77348
check:netbeans:9.44206
argouml:Heap:4.5585047E-4
Content:swingext:10.0
hash:Index:3.21384
other:_lock:10.0
Model:Model:0.5667653
Code:Primary:0.0023943672
Cache:Base:0.014030769
Model_:netbeans:22.222223
argouml:Preferred:3.7987542E-5
apache:create:0.04985045
Tool:Listener:0.080580175
Repository:Association:0.13969813
hash:Cache:0.01972959
Base:Next:0.003761793
Designer:argouml:19.736843
Designer:List:0.877193
Element:argouml:0.14650157
Mutable:base:5.524862
Type:storagemodel:0.8987478
Assoc:netbeans:10.165892
argouml:Order:0.0010256637
Code:Descriptor:0.0027583109
Code:Package:0.003409579
argouml:Count:0.022032773
write:storagemodel:4.1477737
persistence:memoryimpl:0.01980415
Handler:Base:0.07111491
Values:Immediate:7.120093
Cell:Display:9.986505
Button_:tigris:12.5
String:Number:7.6645813
decrement:Base:4.237887
Set_:memoryimpl:8.814393
Long:Base:4.744051
localize:helpers:0.6924198
Object:Name:0.15328492
Storable:Association:9.5193455E-4
Exposes_:netbeans:8.333334
argouml:Expression:7.5975084E-5
Category:Item:0.523408
Association:_lock:0.102131724
Configuration:cognitive:20.631786
Wait:Reference_:0.011802459
paint:Left:0.14285713
Monitor:Arrow:1.4492754
Repository:helpers:1.5616661E-4
configuration:Base:5.3333335
Changed:netbeans:27.68417
Storable:Code:0.28657523
Package:netbeans:17.068457
cognitive:Width:0.0025957844
Object:size:0.30641222
swidgets:explorer:0.30721965
Code:create:0.0035628185
Index:Class:0.0026400506
Category:handlers:0.11631288
Utils:Value:1.0456117E-4
swidgets:paint:0.81925243
hash:Package:0.0034095796
argouml:Model:3.9078546
netbeans:Featured:5.967308E-5
always:toolbar:11.7437725
Multiple:netbeans:19.843956
Reference:_get:3.627712E-4
Code:Storable:0.76491416
tigris:Support:0.43238792
Descriptor:handlers:0.003980291
Internal:Editor:10.526316
Type:i18n:0.0037868586
swidgets:Spacer:0.81925243
Model:explorer:1.3422934
Transaction:hash:16.26073
String:i18n:0.004143017
modelmanagement:Association:0.5813953
decrement:Wrapper:6.056208
swidgets:Find:0.15360983
Value:hash:7.898379E-4
Horizontal:init:12.5
Dialog:Find:0.13489209
debug:Project:0.5432937
Exposes:javax:12.5
tigris:Action:0.09780203
Perspective:Icon:2.739726
Splitter:toolbutton:1.3422819
Supertypes2:Class_:11.178859
cognitive:action:0.0025957844
application:Facade:6.3593006
argouml:Left:1.5195017E-4
mouse:tigris:10.0
Wait:Facade:0.00305791
Standard:Tool:11.3879
argouml:memoryimpl:2.659128E-4
Class:persistence:4.7181954
Meta:Type:2.8427548
argouml:Serial:0.0015195017
model:handle:0.023570308
Object:cognitive:1.0509765E-5
size:Iterator:6.276307
storagemodel:foundation:4.87301E-6
Proxy:Storage:40.881058
Long:cognitive:0.022560026
Tree:Value:1.1170654
explorer:swidgets:0.010580331
Supertypes:Instance:7.7933497
hash:create:0.0035628192
Leaf:Cell:0.59271806
Reference:Refers:0.1197145
netbeans:Item:4.0871967E-7
explorer:Component:0.6559805
End_:handlers:16.839275
persistence:String:0.020127395
Project:log4j:2.733998
netbeans:Container:5.460495E-4
Handler:Performed:7.1572977E-6
Repository:Element:0.0044294526
hash:Immediate:3.5436644E-4
persistence:next:0.11780264
toolbutton:paint:0.23682652
Attribute:Type:0.044539724
tigris:Splitter:0.020589901
localize:swidgets:0.27332363
Object:Object:0.035214722
_get:Storage:0.12324175
Impl_:Index:0.76610076
log4j:cognitive:0.5234297
Name:_pre:0.42326757
Arrow:Component:12.5
Implementation:netbeans:23.900505
Object:Exists:0.11207614
storagemodel:Generalizes_:0.016841123
argouml:Instance:0.013523565
Storable:modelmanagement:7.802742E-6
Preferred:tigris:6.060606
Base:persistence:2.2014012
memoryimpl:Value:0.0037489233
Panel:center:0.44052863
Storage:Facility:1.5575069E-4
hash:Next:0.26158947
Performed:tudresden:2.0408163
Object:Multivalued:0.30647177
Utils:Storable:0.726491
Class:check:0.00406449
hash:Support:0.45849267
Name:Featured:0.42326757
Argo:Translator:3.2292788
Multivalued:Set_:0.7837964
Tool:Action:0.060435135
_set:storagemodel:11.111112
model:Next:4.6180075E-4
argouml:Offenders:1.8993771E-4
cognitive:Display:0.17132176
Code:Immediate:3.5436635E-4
Multiple:Association:0.08770574
Contains_:Handler:7.692308
tigris:Edges:0.010294951
argouml:Leaf:0.01868987
hash:Support_:0.01972959
Listener:Rollover:1.320132
Handler:netbeans:6.1463943
Readers:Element:0.027197637
Support:Splitter:7.6193006E-5
Icon:paint:3.3898306
Reference:model:23.641438
argouml:Storable:0.003304916
core:Association:11.111112
Storable:Singlevalued:0.4504679
Exited:Rollover:11.111112
i18n:Loader:0.68853056
Translator:Panel:0.06697363
handlers:Next:0.0010824311
String:cognitive:0.13671957
node:argouml:100.0
kernel:Translator:1.9020448
Icon:Type:0.42372882
next:Wrapper:6.1197605
Icon:tigris:1.6949153
hash:Class:0.16497193
write:memoryimpl:0.023844518
Element:Facade:0.14368424
cognitive:Check:0.020766275
Model:Types:0.0034506258
Base:memoryimpl:0.19743864
Monitor:Left:1.4492754
Utils:Storage:10.115247
Heap:Expression:1.4492754
Repository:Generalizable:0.0043584676
Size:Predicate:0.78125
name:argouml:3.3333335
_set:Storable:11.111112
jmiimpl:Reference_:0.6502378
jmiimpl:Referenced:0.6502378
apache:property:0.0997009
netbeans:Storage:1.733966
apache:cognitive:0.5234297
Index:Association:0.0011018394
Package:Association:6.348219E-4
Type:Object:0.8987478
Refers:handlers:7.692308
Utils:Boolean:0.0031368348
argouml:Listener:0.0031909535
log4j:netbeans:1.2711864
javax:Handler:13.43809
Storable:Wrapper:0.34600872
netbeans:Wrapper_:0.048154265
model:Model:0.003054042
Repository:Index:2.27835
i18n:Explorer:0.018119223
argouml:Dialog:0.007445558
Cache:persistence:0.0051692305
model:Text:1.3546155E-4
swingext:swidgets:11.920529
Internal:base:10.526316
Storable:String:0.0015371402
Mouse:Standard:12.5
Iterator:memoryimpl:5.6080394
Wrapper:Model:5.9908687E-4
Number:netbeans:19.79442
Dialog:argouml:17.086332
tigris:Spacer:0.082359605
storagemodel:Facility:2.0466642E-4
Listener:Manager:7.920792
model:Types:4.9258746E-5
Name:Storable:2.230222
netbeans:Generalizable:0.0026683947
Repository:hash:0.22899704
explorer:Translator:0.021160662
Order:netbeans:1.6949153
hash:Generalizable:0.037591573
Name:model:16.336662
Code:Full:0.0035005647
netbeans:Upper:1.7384211E-4
cognitive:Leaf:0.11421451
Storage:Association:9.048374E-4
swidgets:Tool:0.102406554
resolve:object:0.8337965
Element:javax:9.246503
Attribute:memoryimpl:4.6048074
Then:localize:4.0816326
argouml:toolbutton:3.0390033E-4
Set_:persistence:8.814393
Name:Import_:1.047692E-4
State:netbeans:19.988222
tigris:Manager:0.5250425
explorer:Icon:0.010580331
Translator:helpers:0.6362495
Resource:argouml:23.140495
Code:Repository:0.24974209
argouml:Value:0.018803833
Storage_:netbeans:99.38838
Base:Cache:0.45362908
Dialog:Dialog:10.701439
Element:Association:0.0028173379
localize:argouml:63.19242
Repository:Wrapper:2.4041708
cognitive:Validity:0.015574707
Line:Preferred:5.555556
argouml:Types:0.15502715
swidgets:Explorer:0.30721965
Wrapper:hash:2.6790416
log4j:Item:0.44865403
Element:model:12.903407
Explorer:swidgets:0.19569471
argouml:Handler:0.0019753522
netbeans:wrap:0.03983069
Element:Object:0.43387002
Search:Model:38.46154
Index:Object:0.95431834
Index:Index:2.4072063
Proxy:Handler:0.08810573
persistence:Values:0.0012054349
List:cognitive:13.358779
Impl_:Object:0.27237603
Base:Class:2.590087E-4
Cache:hash:0.0051692305
Size:argouml:25.78125
object:storagemodel:0.55580807
Component:explorer:0.18639329
Monitor:Object:1.4492754
Exposes:model:12.5
persistence:Immut:0.053012196
Button:paint:0.07892659
Implementation:Repository:0.036049027
Base:Repository:4.08038
argouml:Project:0.039507043
enter:model:0.4486681
persistence:Next:0.06309744
explorer:localize:0.021160662
Tool:argouml:2.296535
Name:Singlevalued:1.0806943
hash:Loader:2.0112688E-4
Check:cognitive:3.846154
Mutex:storagemodel:14.273533
Exposed:handlers:7.1428576
model:Leaf:2.3397904E-4
persistence:File:1.0774837E-5
handlers:Priority:1.7744771E-6
netbeans:argouml:7.3433307E-4
argouml:Tree:0.117837355
Readers:End_:0.08770574
handlers:Package:0.06404265
netbeans:Values:0.006936791
Wait:Handler:4.915009
netbeans:Will:5.558588E-4
_get:handlers:0.012324176
Meta:argouml:3.5534434
Association:netbeans:10.710213
Proxy:netbeans:51.98238
Facade:Priority:0.13460048
Storable:_get:0.005415103
persistence:netbeans:24.516724
netbeans:check:5.9945555E-6
kernel:localize:1.9020448
Handler:Changed:7.1572977E-6
Name:Generalizes_:0.7241647
helpers:model:13.201321
Translator:Instance:0.37672666
netbeans:Object:1.2119933
persistence:Descriptor:7.7578827E-4
force:persistence:4.7297297
netbeans:Referenced:2.6975502E-4
netbeans:Reference_:0.0010790201
parser:Performed:11.111112
Storage:Repository:1.1700363
Type_:Struct:14.113482
Mouse:toolbar:12.5
Button:localize:0.789266
Index:persistence:5.5765
javax:jmiimpl:0.015229739
apache:netbeans:1.2711864
Attribute:Name:2.5517156
toolbar:always:1.4002334
Component:Button:0.093196645
Wrapper:Facade:5.9908687E-4
memoryimpl:Code:6.3926024
argouml:String:0.021273023
preferred:Panel:10.0
Tree:List:0.4981508
decrement:model:5.4739013
_get:storagemodel:0.12324175
Implementation:storagemodel:11.878155
Facade:handlers:0.020394012
storagemodel:Storage:2.036153
Model:handlers:0.021135084
Designer:Display:2.631579
Utils:Check:0.0011501728
argouml:storagemodel:0.0049003926
Type:Project:8.4152416E-4
create:Dialog:0.0026752274
Wrapper:Code:2.6790416
hash:handlers:9.94581
Attribute:Wrapper:4.9439096
Exposed:_pre:7.1428576
persistence:Long:0.020127395
Repository:application:1.5616661E-4
Mutable:tigris:5.524862
i18n:Instance:0.40768254
base:Support:4.4627132
Code:Reference:0.002111832
Object:Item:3.5032554E-6
Class_:javax:19.859613
Class_:Storage:6.6027045E-5
Mutex:handlers:0.059444997
Close:Argo:11.111112
modelmanagement:handlers:20.348837
tigris:Tree:0.16471921
Utils:Transaction:0.025512924
Explorer:argouml:20.352251
Configuration:localize:1.1846002
Target:Translator:0.5263158
Predicate:tigris:0.013921759
Multivalued:Support:0.005903174
Facade:argouml:34.215034
netbeans:Index:2.0837746
Object:Instance:7.0065107E-6
Panel:Predicate:0.88105726
Set_:netbeans:8.814393
Value:Facade:0.086882174
Count:localize:3.7037036
Wrapper_:Storage:12.15967
Facility:netbeans:16.666668
Class:Association:0.0017419243
netbeans:Multivalued:0.18196774
force:Serial:2.7027028
Argo:argouml:27.125942
argouml:Node:0.016106717
Explorer:Decorated:0.19569471
apache:Project:1.9940178
Change:persistence:15.435251
Wait:other:0.035407376
Element:Model:0.14368424
Storable:Import_:7.802742E-6
persistence:Iterator:0.35344294
Repository:argouml:0.01005145
i18n:Perspective:0.018119223
Reference:memoryimpl:1.2473283
Argo:swidgets:1.7222819
Facility:Code:4.166667
Generalizable:netbeans:0.4886979
Index:Assoc:0.15903033
List:Designer:4.3257
property:Manager:11.612904
apache:Offenders:0.22432701
Impl_:hash:6.4848065
Change:netbeans:15.465516
Splitter:Button:1.3422819
Validity:Number:2.7027028
storagemodel:persistence:10.111084
Generalizes_:Query:7.692308
Storable:size:0.34123343
Object:Iterator:0.0021369858
Priority:cognitive:8.5371275
Button:Button:5.682715
next:persistence:6.128998
Support_:Support_:0.5889315
Spacer:tigris:6.060606
handlers:Index:0.0010824311
toolbar:presentation:0.038895372
Loader:storagemodel:2.3489933
Mutex:model:0.44858387
argouml:Loader:0.0050903307
Predicate:Model:10.336906
Editor:paint:3.846154
Base:Code:0.45224774
Multiple:model:0.44858387
Attribute:Class:1.05294865E-4
Tree:Model:5.615518
Exposes_:Exposed:8.333334
Wait:Wrapper_:5.228078
Rollover:Listener:0.14524329
Leaf:Designer:2.7942421
persistence:storage:7.69054E-4
netbeans:memoryimpl:0.45675245
Facade:Order:0.036709223
netbeans:Check:2.861038E-6
Translator:Resource:0.6362495
Type:Facade:0.0025245724
Validity:Child:4.054054
Mutex:Assoc:11.769269
Base:Storable:0.046837408
Repository:Instance:0.0016184538
Model:Support:0.010351878
create:netbeans:4.633494
Graph:Nodes:0.2002002
Repository:javax:1.0505896
Wait:Index:5.739625
Utils:storagemodel:4.437994
Repository:Reference:0.02225374
model:Order:1.10832174E-4
Storable:Exists:0.4504679
handlers:Iterator:0.0010824311
Search:model:23.076923
Mutable:Graph:1.6574585
write:Object:0.46008193
State:Association:0.20863128
Preferred:swidgets:6.060606
Buttons:name:6.25
Storage:Handler:1.1694207
storagemodel:Repository:0.42395186
Assoc:Multivalued:9.3839
tigris:Argo:0.74123645
Exposes_:Exposes:8.333334
swidgets:init:0.051203277
_handle:argouml:100.0
Handler:Repository:0.63940436
netbeans:Cache:0.017584758
Leaf:Leaf:2.7942421
check:storagemodel:9.012876
Multiple:Object:9.302124E-4
Cancel:Argo:11.111112
Tree:Component:0.78496486
netbeans:Class:0.03946189
Model:diagram:0.05693533
netbeans:javax:0.26283622
Base:Object:0.05728409
Code:Changed:0.0055692983
toolbar:paint:0.077790745
Code:_post:0.15481022
Name:Meta:0.35857257
Featured:Repository:0.005880047
action:List:4.0816326
Struct:Multiplicity:4.40405
Repository:Loader:1.5616661E-4
Name:Facade:0.0013619997
i18n:Horizontal:0.009059612
Handler:action:7.1572977E-6
Overflow:tigris:7.692308
kernel:Category:3.4236803
Dialog:swidgets:1.3489208
cognitive:Performed:0.0025957844
Multiple:Set_:12.915911
Wrapper:Set_:0.32762188
toolbar:toolbutton:2.8393621
Object:netbeans:29.70795
Left:swidgets:12.5
enter:Immut:0.12121615
hash:resolve:3.0169034E-4
Generalizes_:_pre:7.692308
Base:hash:0.45224774
memoryimpl:Assoc:0.49757144
memoryimpl:Set_:0.49776486
Handler:Class:0.026138453
Pane:swingext:2.0689654
paint:paint:11.428572
Storage:storagemodel:0.014840816
cognitive:Left:0.0025957844
Implementation:Storable:11.878155
Tree:Item:0.4981508
Cell:convert:9.986505
argouml:Storage:0.0051663057
Attribute_:_pre:20.454546
toolbutton:Action:0.3552398
Priority:Value:0.04446421
argouml:center:3.7987542E-5
size:Set_:6.276307
netbeans:Descriptor:0.0060899234
hash:iterator:9.577471E-6
Index:Base:0.58856404
argouml:Change:0.0024312027
String:force:0.0051787714
Base:Singlevalued:0.19729063
Close:Button:11.111112
Object:Cache:0.25769594
decrement:jmiimpl:0.045561753
javax:handlers:15.130284
create:i18n:0.0053504547
netbeans:Performed:2.7247978E-7
name:Dialog:5.208333
Button:Help:0.039463297
Changed:Storage:7.5956135
argouml:application:0.042090196
Multiple:Element:0.027197637
Index:Code:1.4603916
Readers:Index:14.13821
Storable:Index:1.6996012
storagemodel:Element:4.87301E-6
netbeans:Attribute:0.011395105
Object:Element:0.027605653
Tree:Facade:4.5286436
memoryimpl:Association:0.008282902
Index:Wrapper:1.3009341
argouml:Mouse:7.5975084E-5
argouml:handlers:0.0041026548
base:Splitter:0.23487963
Translator:tigris:0.452072
argouml:Panel:0.0022792525
model:critics:6.1573433E-6
hash:model:0.05724933
foundation:Association:11.111112
modelmanagement:_pre:20.348837
create:argouml:8.081862
Dirty:netbeans:12.5
Value:argouml:0.08885677
Loader:model:8.948545
localize:toolbar:0.009110788
explorer:tigris:0.03703116
Facade:Node:0.5384019
argouml:Tool:0.0012915764
Repository:other:0.014054995
Cancel:Dialog:11.111112
Splitter:Tree:5.3691278
toolbutton:Standard:4.2628775
Storable:Class:3.5112338E-5
graph:Editor:15.277778
Readers:handlers:0.059444997
Type:Types:1.0514845
Translator:Loader:0.6362495
Readers:netbeans:19.843956
Size:tigris:7.03125
Changed:Association:0.36254495
Tree:Tree:3.804061
Multivalued:Attribute:0.19795787
Descriptor:Exists:1.4405861
argouml:base:0.017322319
Configuration:storagemodel:1.4807503
debug:tigris:0.10186757
Contains_:Query:7.692308
persistence:write:0.09663412
Impl_:next:0.76580316
Serial:netbeans:19.79442
Type:Size:4.2076208E-4
_set:Base:11.111112
Base:Element:0.048594967
handle:model:5.8720665
graph:paint:2.777778
Object:Index:1.0430522
Association:_pre:3.1803198
argouml:Critic:0.0152330045
netbeans:Code:0.32549825
_query:Query:6.5571947
swingext:Component:6.622516
Configuration:netbeans:2.6653504
Size:swidgets:3.90625
hash:Priority:4.7887356E-6
handle:Multiplicity:4.40405
Heap:swingext:1.4492754
Tool:Tool:11.442385
Utils:argouml:0.03429606
List:persistence:0.29686174
persistence:Delegate:7.3807634E-4
Size:swingext:0.78125
toolbutton:toolbar:8.170515
cognitive:Object:0.057107255
cognitive:Value:0.1998754
i18n:explorer:0.018119223
resolve:Object:14.820734
Performed:Expression:2.0408163
Model:model:0.20703755
Wait:Base:4.2374406
Object:argouml:1.2611719E-4
Rollover:tigris:14.379086
Priority:swidgets:0.04446421
Tree:Display:1.1170654
Type:localize:0.0037868586
Repository:Object:1.9042956
Code:Default:2.8732407E-4
Translator:Content:0.008371703
argouml:Close:3.7987542E-5
Layout:Panel:7.272727
storagemodel:Index:2.7734857
handlers:Base:2.6259954
Support:swidgets:7.6193006E-5
Mutex:Object:9.302124E-4
Predicate:Size:0.0034804398
Wrapper:Index:0.32762188
handlers:Performed:1.7744771E-6
Composite:Item:7.300885
Close:argouml:11.111112
Value:Base:5.852107
argouml:Type:0.1927108
String:critics:0.0010357542
Package:_pre:0.0012696438
netbeans:other:2.6975502E-4
Utils:force:0.0011501728
Contains_:_pre:7.692308
Association:storagemodel:0.03146482
Category:tigris:0.08723466
hash:Full:0.0035005654
localize:Name:1.9314868
Primary:write:8.879417
localize:apache:0.009110788
Model_:Handler:22.222223
Handler:check:3.006065E-4
Multiple:next:12.950195
Reference:javax:23.641438
i18n:apache:0.009059612
Index:hash:1.4603916
storagemodel:Handler:0.60193855
handlers:Class:0.10891741
check:Base:9.012876
Button_:Rollover:12.5
paint:base:0.57142854
Storable:Facility:1.6385759E-4
Manager:toolbar:4.6380887
Base:storagemodel:0.54042166
storagemodel:Contains_:0.056466002
Class_:Instance:2.4878988
swidgets:Overflow:0.051203277
Model:Name:0.03623157
Storage:String:0.062344775
write:Configuration:0.002931703
_lock:storagemodel:13.20494
persistence:_post:0.04357344
Type:Layout:4.2076208E-4
argouml:Object:0.010180661
Repository:Class_:0.03960953
wrap:Base:10.0
Readers:storagemodel:14.273533
Monitor:Handler:1.4492754
handlers:Storage:4.207101
handlers:Values:0.06535044
Object:check:1.4713673E-4
Support_:Value:0.5792113
core:netbeans:7.4074073
Proxy:_get:0.35242292
Heap:force:1.4492754
handlers:resolve:0.001669783
tudresden:Performed:11.111112
object:Code:3.6340568
argouml:Base:0.010788462
convert:Facade:15.224913
graph:tigris:23.61111
Supertypes:Handler:11.515261
End_:Featured:4.9390407
Item:argouml:26.923079
Mutex:Element:0.027197637
paint:Icon:0.14285713
action:Validity:2.0408163
base:argouml:26.071638
Tool:paint:0.020145044
localize:init:0.03644315
netbeans:Facility:2.2888304E-5
Code:Value:0.05375833
memoryimpl:next:0.49757144
javax:Featured:0.58296055
Descriptor:Handler:0.0031423352
Renderer:Tree:10.437235
tigris:Editor:0.1235394
Monitor:cognitive:8.695652
model:Node:0.0020196084
Item:Display:0.07849294
Name:localize:7.8576896E-4
Descriptor:Index:1.4405861
Repository:Association_:0.024447171
model:model:0.78629273
toolbutton:Manager:4.2628775
mouse:Manager:10.0
Model:Facade:0.07246314
Support:Model:3.80965E-4
Splitter:Overflow:0.67114097
Iterator:storagemodel:2.2907057
Heap:Left:1.4492754
cognitive:tigris:0.01817049
cognitive:cognitive:2.554252
localize:Close:0.009110788
Mutex:netbeans:19.843956
argouml:Abstract:4.5585047E-4
storagemodel:Association:2.972536E-4
cognitive:argouml:39.520817
Utils:Base:0.49227396
resolve:Storable:7.0872707
Layout:Preferred:7.272727
Value:netbeans:24.499786
write:persistence:5.0333433
argouml:Support:3.0390033E-4
Handler:Object:0.1654982
Attribute:Featured:3.1588456E-4
Object:persistence:5.074031
Help:name:10.0
Name:handlers:0.6870764
Descriptor:model:21.003368
Performed:netbeans:2.0408163
Object:Wrapper:0.36744243
hash:Dirty:0.01722987
hash:Immut:0.1883697
hash:Default:2.8732413E-4
cognitive:Perspective:0.0051915688
Impl_:Value:0.0057698996
Button:Translator:0.9865825
netbeans:Assoc:0.10182352
Changed:handlers:1.6671125
Preferred:Predicate:1.5151515
_query:model:0.052467734
Rollover:toolbar:14.379086
handlers:Association:0.007793504
Transaction:netbeans:16.26073
toolbar:Action:0.11668611
Mutable:argouml:7.18232
Then:i18n:4.0816326
Translator:Find:0.05023022
Storable:_query:1.2331103
jmiimpl:javax:13.909178
swingext:Parent:0.66225165
object:handlers:0.5311897
debug:create:0.033955857
handlers:check:7.452804E-5
Reference:Element:2.4184746E-4
Element:_pre:0.0056346757
Model:Predicate:1.2111696
decrement:next:5.227746
Priority:Composite:2.3121386
Wait:netbeans:27.000309
Buttons:Button:6.25
Readers:Set_:12.915911
handlers:Support:0.114160985
Overflow:Graph:7.692308
Featured:netbeans:0.005880047
preferred:Spacer:10.0
netbeans:_query:0.04306148
Code:Set_:0.18825473
Standard:toolbar:11.7437725
Values:Base:7.120093
Attribute:Storage:2.3092215
Translator:argouml:64.87233
Performed:handlers:2.0408163
paint:presentation:0.28571427
Heap:Check:1.4492754
debug:Item:0.61120546
Model:_pre:0.008626564
Browser_1:Project:10.344828
Name:memoryimpl:1.0806943
Item:cognitive:16.012558
model:Struct:0.023570308
Storable:Handler:1.8731263
handlers:Wrapper_:0.0010824311
tudresden:Heap:11.111112
log4j:Change:0.0997009
action:parser:2.0408163
Multiple:Immut:0.12119338
Priority:tigris:0.04446421
handlers:Value:0.0071901814
hash:Element:0.037687346
equals:netbeans:23.450079
Resource:Facade:13.22314
_set:Object:11.111112
equals:Value:2.8315072
Class_:_pre:2.6788492
init:Translator:10.526316
Supertypes:netbeans:11.515261
hash:Iterator:0.26158947
decrement:Index:5.7392607
Name:Base:1.6765168
Pane:argouml:19.310345
argouml:Wrapper:0.008091346
argouml:Check:6.8377575E-4
Attribute_:netbeans:20.454546
Storage:memoryimpl:0.05707892
Multivalued:netbeans:16.24301
Repository:handlers:8.933873
hash:Base:0.531133
Exposes_:model:8.333334
Left:tigris:12.5
equals:handlers:3.7231665
Manager:argouml:5.832748
Storable:write:0.06342068
Value:Model:0.086882174
Element:Handler:1.3100622
Argo:Button:1.7222819
Ordered:Struct:19.654959
Support:storagemodel:12.540911
kernel:apache:4.2796006
Attribute:persistence:13.396033
storagemodel:Impl_:1.6889803
String:netbeans:14.848572
jmiimpl:handlers:3.325736
Instance:model:0.030868558
Index:Attribute:0.040180773
Wait:model:5.474249
Instance:storagemodel:0.0062783505
toolbar:Tool:11.046286
Descriptor:Import_:1.3965934E-4
Wrapper:netbeans:22.752245
Instance:Dialog:1.3079897E-4
Buttons:tigris:6.25
Display:Model:16.164818
Implementation:object:4.325883
write:Storable:0.67898244
Descriptor:Generalizes_:0.96532536
paint:swingext:0.14285713
create:Buttons:0.0026752274
Multiple:handlers:0.059444997
Value:Code:7.898379E-4
Default:Base:11.029412
Internal:paint:10.526316
netbeans:write:0.03767987
Renderer:convert:10.437235
Tool:tigris:11.764706
i18n:Resource:0.68853056
model:cognitive:6.4652105E-4
Base:Wrapper_:0.003761793
Storage_:write:0.30581042
argouml:force:5.698131E-4
argouml:Facade:0.82964796
argouml:critics:0.0015195017
diagram:argouml:22.120657
Generalizable:handlers:0.4886979
Facade:cognitive:0.1590733
enter:Base:9.3038706E-4
argouml:Exited:7.5975084E-5
Exposes:Referenced:12.5
netbeans:Refers:2.6975502E-4
Upper:handlers:16.666668
base:paint:0.23487963
Cache:equals:0.5070769
Explorer:tigris:0.48923677
Exposes:Reference_:12.5
Type:Change:0.0012622862
Dirty:persistence:12.5
Code:iterator:9.5774685E-6
Then:Translator:4.0816326
generate:netbeans:50.0
foundation:Handler:7.4074073
Assoc:Index:9.3839
toolbar:Internal:0.038895372
Buttons:swidgets:6.25
mouse:always:10.0
String:Leaf:0.024858102
netbeans:Reference:0.007541696
Predicate:model:10.336906
paint:toolbar:0.28571427
Configuration:Object:0.83909184
Translator:Dialog:0.35161155
persistence:Attribute:0.029823402
Then:argouml:14.285715
Left:Component:12.5
configuration:Object:5.666667
Help:Dialog:10.0
Code:Priority:4.7887343E-6
argouml:Index:2.659128E-4
Change:List:0.0075662998
Reference:Exposes_:0.1197145
Multivalued:Value:0.005903174
Multiple:Generalizable:0.027197637
model:argouml:0.43667877
netbeans:_post:0.0046495954
i18n:swidgets:0.27178836
Translator:Close:0.008371703
Facility:Object:4.166667
hash:Association:0.23752128
Support_:Cache:0.5889315
apache:argouml:50.648056
evaluate:argouml:29.166666
Class:Storage:5.0596128
Class_:persistence:1.5005305
argouml:Graph:0.0019753522
javax:Instance:2.313536
wrap:Storage:10.0
decrement:Class_:0.09977809
hash:Changed:0.005569299
jmiimpl:Object:3.325736
cognitive:Pane:0.077873535
cognitive:Icon:0.0025957844
Reference:_query:19.110243
Button_:Tool:12.5
cognitive:Exited:0.0051915688
Support:Class:0.025105592
Impl_:Support:0.0057698996
Help:argouml:10.0
Support_:netbeans:14.49229
storagemodel:core:4.87301E-6
Storable:Contains_:0.18082854
localize:Title:0.018221576
Readers:Handler:0.024362704
Base:Handler:1.943737
Code:Delegate:0.0013504231
argouml:profile:0.0017854145
netbeans:Multiplicity:0.0010430528
Wrapper:Storage:4.6655765
Display:argouml:16.164818
Nodes:tigris:8.695652
Exited:Standard:11.111112
Object:Support_:0.22627525
Iterator:Storage:2.29677
paint:swidgets:0.57142854
Code:equals:0.019729586
Handler:model:0.067529105
Facade:model:0.6526084
convert:argouml:15.224913
cognitive:Details:0.0077873534
_query:Association:6.5571947
tigris:String:0.010294951
argouml:Wrapper_:1.1396262E-4
Impl_:Assoc:0.76580316
Refers:Handler:7.692308
Wait:persistence:7.510656E-4
Loader:Class:0.5033557
persistence:Wrapper:0.4299591
argouml:Details:7.217633E-4
persistence:storagemodel:3.2039366
Wait:handlers:21.50562
swidgets:argouml:30.414745
Repository:Repository:0.003535044
argouml:parser:1.5195017E-4
decrement:other:0.03540513
Element:Query:0.0028173379
Arrow:tigris:12.5
paint:Graph:0.28571427
Count:argouml:47.839508
persistence:hash:1.5134821
Reference:Import_:1.2092373E-4
Component:paint:1.3979497
Base:Utils:0.04488251
Priority:Model:2.3121386
Item:Tree:0.6279435
critics:argouml:11.627908
Facade:Model:0.8239181
Performed:parser:2.0408163
Predicate:Translator:0.0034804398
model:Index:4.6180075E-4
Model:Item:0.031055633
explorer:Renderer:0.6559805
size:Assoc:6.273868
Instance:Repository:0.0018311855
diagram:Model:6.9469833
Impl_:Iterator:0.76610076
Object:model:0.04153109
Search:argouml:38.46154
End_:_pre:16.839275
hash:Primary:0.0023943677
Support:Handler:0.010743214
model:kernel:3.2018183E-4
Perspective:Splitter:2.739726
Readers:_get:0.005581274
Component:Editor:0.18639329
model:Base:0.07364182
localize:Tool:0.018221576
Support_:equals:0.5889315
Designer:Tree:5.701754
write:argouml:0.032053284
Base:cognitive:3.083437E-5
Contents:Handler:11.328344
Button_:Standard:12.5
Class:Object:0.86283314
Class:Types:0.010064451
Repository:Facade:0.0012138404
Listener:tigris:10.561056
Content:argouml:10.0
Class_:modelmanagement:1.3205409E-4
Wait:Generalizable:4.8282786E-4
Type_:netbeans:23.924345
Leaf:Renderer:0.59271806
Check:Number:2.5641026
Validity:critics:4.054054
i18n:Types:0.009059612
Code:Immut:0.18836965
Support:netbeans:13.665368
toolbar:toolbar:11.124076
Values:model:3.9516552E-4
Heap:parser:1.4492754
Width:paint:13.333334
Storable:model:1.2862821
Object:Support:0.1212827
base:Diagram:1.879037
Project:debug:0.6432937
Utils:persistence:5.3855276
Referenced:Instance:10.0
Instance:Facade:0.030868558
Find:i18n:7.4074073
Handler:Meta:3.006065E-4
Validity:persistence:4.7297297
Assoc:Impl_:9.3839
Graph:Edges:0.2002002
Instance:netbeans:1.6982939
swidgets:Preferred:0.81925243
String:Serial:7.6645813
Heap:Validity:1.4492754
netbeans:Impl_:0.18889348
cognitive:String:0.0051915688
argouml:internal:9.4968855E-4
Values:Package:7.120093
Close:name:11.111112
Object:Type:0.004266965
Association_:Instance:7.546674
Wait:helpers:3.934153E-4
argouml:convert:0.016714519
Icon:Component:1.6949153
log4j:Project:1.9940178
Values:netbeans:10.062495
Panel:Dialog:0.44052863
netbeans:Model:1.1716632E-5
Monitor:Validity:1.4492754
Translator:apache:0.008371703
Predicate:Line:0.0034804398
Loader:netbeans:4.6979866
Cache:Cache:0.5070769
String:Validity:0.0051787714
Priority:Leaf:1.7785683
Spacer:String:1.5151515
Model:critics:4.3132823E-4
Facade:netbeans:0.040788025
tigris:Translator:0.025737375
Repository:model:2.452185
hash:Repository:0.24974214
paint:graph:0.28571427
Contents:netbeans:11.328344
Preferred:argouml:15.151516
netbeans:_unlock:0.0014961866
Repository:Code:0.22899704
Base:Storage:2.383805
Handler:handlers:0.016189808
i18n:Close:0.009059612
log4j:handlers:0.0997009
Dialog:swingext:0.04496403
Tree:Renderer:0.78496486
Repository:Class:0.0030097563
cognitive:Composite:0.14536393
core:Handler:7.4074073
Long:Storage:4.744051
Attribute:Index:4.875678
Graph:base:6.0060062
Graph:Editor:1.101101
Impl_:netbeans:16.403368
argouml:Defined:1.8993771E-4
Struct:javax:5.8720665
swidgets:Panel:0.81925243
model:create:0.017289821
Class_:_query:20.869232
helpers:argouml:23.10231
next:Index:6.1197605
Repository:next:2.075291
paint:Pane:0.28571427
Class:Class:0.013161205
argouml:Manager:0.015195017
Default:storagemodel:11.029412
persistence:create:0.0019933449
debug:cognitive:0.713073
paint:Editor:0.57142854
storagemodel:memoryimpl:3.3648987
argouml:Performed:1.5195017E-4
Nodes:Diagram:8.695652
Readers:Iterator:12.98829
Project:Translator:0.28948215
evaluate:Facade:16.666668
Association_:handlers:13.962661
Multivalued:Index:0.79323786
cognitive:mouse:0.0051915688
Browser_1:kernel:10.344828
netbeans:_get:0.017244702
Heap:handlers:1.4492754
size:next:6.273868
Priority:convert:0.04446421
configuration:Storable:7.0
Repository:persistence:0.0019591812
model:Profile:2.0934967E-4
Change:Project:0.1815912
Object:Utils:0.034079667
hash:object:0.005569299
Changed:storagemodel:1.7443762
Wrapper:Value:0.002467489
Splitter:Explorer:2.6845639
explorer:Tree:0.6559805
String:Storable:0.38530058
Object:Association:0.002564383
argouml:javax:0.002735103
apache:Browser_1:0.0997009
write:Utils:0.06508381
localize:Cancel:0.03644315
Code:Support:0.45849258
enter:Generalizable:0.027202748
Translator:debug:0.008371703
Association_:_pre:13.962661
decrement:Handler:4.915591
Reference:Generalizes_:0.83582485
Featured:storagemodel:0.005880047
netbeans:Repository:0.41984355
Storable:memoryimpl:1.6998
persistence:Class:0.07302107
Utils:Number:0.7737526
Predicate:Types:8.527078
Node:Renderer:1.4692378
netbeans:Support:0.048869796
Wait:Supertypes:4.8282786E-4
Facade:Then:0.036709223
Cancel:argouml:11.111112
debug:netbeans:1.7317487
Values:storagemodel:7.120093
localize:Argo:0.03644315
String:Layout:0.0020715084
_query:handlers:6.5571947
Horizontal:argouml:12.5
netbeans:Instance:0.001955315
Package:Handler:0.013966082
Assoc:Wrapper:9.3839
Translator:Types:0.008371703
Name:storagemodel:2.2830255
toolbutton:Rollover:4.2628775
List:argouml:30.322308
size:handlers:0.056021165
decrement:Attribute:6.794924E-4
argouml:Button_:7.5975084E-5
Reference_:Featured:0.78740156
Explorer:Component:10.176126
Code:Next:0.2615894
tigris:Graph:0.77212125
netbeans:Next:0.0080302525
hash:Delegate:0.0013504233
Default:Storable:11.029412
cognitive:Storage:0.04672412
storagemodel:Support:0.0421759
apache:Change:0.0997009
Name:resolve:0.04929391
cognitive:persistence:0.090852454
Name:javax:15.768812
action:netbeans:2.0408163
Iterator:Repository:2.2907057
swingext:String:0.66225165
Impl_:Handler:0.0025040838
Object:Handler:1.3553394
Wait:Attribute:6.795355E-4
netbeans:Utils:0.03402959
Button:graph:0.07892659
argouml:Then:6.8377575E-4
Wrapper:next:0.3274946
Button:swidgets:0.63141274
localize:Perspective:0.018221576
force:argouml:8.108108
Multivalued:Storable:0.2362882
Storage:Class:8.640455E-4
Wrapper:Support:0.002467489
argouml:Diagram:0.07962189
Handler:jmiimpl:0.056184787
init:argouml:15.789473
Name:Storage:0.016553534
Dialog:name:3.6420863
Readers:model:0.44858387
Generalizable:Supertypes:10.4298
Model:cognitive:0.17943254
Descriptor:Package:1.3965934E-4
Handler:argouml:5.4395467E-4
Pane:base:1.3793104
persistence:iterator:2.6937093E-6
Type:Line:4.2076208E-4
netbeans:next:0.2630151
name:i18n:3.3333335
Contains_:Association:7.692308
Base:Wrapper:0.003761793
Base:Support_:0.39831838
Base:write:0.04488251
Argo:i18n:3.2292788
Readers:Assoc:11.769269
Name:Model:0.0022001532
Default:Object:11.029412
hash:Query:0.15297136
Types:argouml:14.856823
Descriptor:netbeans:13.971381
argouml:Pane:0.0023552277
i18n:Dialog:0.3805037
argouml:Trans:0.0057741064
Content:Size:10.0
debug:argouml:53.95586
equals:storagemodel:3.1599395
argouml:Iterator:3.4188788E-4
Code:Wrapper:1.62748
Layout:Size:7.272727
resolve:Meta:0.14591439
storagemodel:Utils:0.079382546
localize:explorer:0.018221576
Reference:Singlevalued:1.2473283
swingext:argouml:9.271523
Object:Next:0.0021369858
Component:Display:6.8965516
Upper:Struct:16.666668
handlers:Element:0.01398288
Name:Translator:7.8576896E-4
Title:argouml:42.857143
Item:Value:0.07849294
String:Object:0.33558437
Name:Package:1.047692E-4
Repository:Name:4.2590892E-4
cognitive:Serial:0.04153255
Wrapper:Iterator:0.32762188
netbeans:Facade:2.3297023E-5
Project:Project:5.596655
Support_:Support:9.196338
cognitive:Text:0.17132176
Descriptor:_get:4.1897802E-4
explorer:Cell:0.6559805
equals:Storage:2.9579885
storagemodel:netbeans:23.201721
Object:jmiimpl:0.027500553
Pane:Editor:1.3793104
Profile:localize:3.3132532
model:Repository:2.4629373E-5
Multivalued:next:0.7834918
Overflow:presentation:7.692308
Supertypes2:Supertypes:11.414038
Translator:swidgets:0.2511511
Node:Support:0.09182736
Supertypes:_pre:7.7933497
swingext:Type:0.66225165
Association:persistence:0.06292964
netbeans:storagemodel:3.0135248
Index:next:0.15903033
Changed:Storable:1.4056046
Splitter:toolbar:1.3422819
Struct:model:5.8720665
Number:write:15.674429
Value:Object:6.5082645
log4j:tigris:0.07477567
diagram:tigris:7.129799
Facility:_get:4.166667
swidgets:swingext:1.0240655
Composite:Leaf:7.300885
Object:write:0.034079667
Listener:Standard:0.660066
argouml:evaluate:3.7987542E-4
netbeans:List:3.8147173E-6
Generalizable:Object:0.4886979
cognitive:netbeans:0.43609178
Class_:Exposes_:0.13073355
Association:Instance:0.65735686
Code:Iterator:0.2615894
toolbutton:argouml:0.9473061
persistence:Transaction:0.0062143872
Storage:Storable:0.0035785576
Validity:Serial:2.7027028
Wait:Aggregation:0.052360002
cognitive:Facade:0.0025957844
Mutex:_get:0.005581274
Type:handlers:11.233086
base:swidgets:0.23487963
Priority:Support:0.08892842
Button:tigris:14.601421
argouml:Content:3.7987542E-5
Attribute:Multivalued:4.6048074
Heap:Base:1.4492754
Storage:Utils:0.39755735
netbeans:Validity:2.861038E-6
Utils:cognitive:0.00805121
Long:Object:4.744051
create:Storable:3.29588
Readers:Container:0.08770574
apache:Handler:0.07477567
toolbar:graph:0.038895372
apache:Repository:0.1994018
persistence:Assoc:0.124732204
Dirty:hash:12.5
Wait:_unlock:0.18665767
Index:memoryimpl:1.3009341
Buttons:Find:6.25
decrement:Code:0.45847857
write:netbeans:20.664988
Instance:Object:0.0013079897
hash:Superclass:0.00200648
Configuration:argouml:28.529123
Code:resolve:3.0169025E-4
Object:Impl_:0.3438585
cognitive:Heap:0.0025957844
decrement:Element:6.6161103E-4
Translator:Button:0.07534534
Spacer:argouml:15.151516
i18n:debug:0.009059612
recompute:argouml:62.5
Support:Immediate:1.3728454
Facade:Display:0.024472814
log4j:Offenders:0.22432701
Reference_:Instance:9.448819
Dialog:Spacer:0.04496403
toolbar:Graph:0.038895372
other:handlers:10.0
Value:Class:0.14217083
netbeans:Exposes_:2.6975502E-4
model:Tree:9.6054556E-4
create:write:1.3376137
argouml:Factory:6.0780067E-4
toolbar:argouml:0.75845975
tigris:paint:0.46327278
Value:persistence:7.898379E-4
Generalizes_:Association:7.692308
Dialog:localize:2.5179856
model:Meta:4.9258746E-5
_get:Handler:0.0147890095
Type:property:4.2076208E-4
Code:Supertypes2:0.037591565
Type:Translator:0.0037868586
Action:argouml:76.88442
String:Offenders:0.0020715084
State:Code:6.4574747
Mutex:Set_:12.915911
configuration:netbeans:18.0
i18n:Content:0.009059612
model:Name:0.0012930421
Descriptor:javax:21.003368
netbeans:Changed:0.0012697559
Manager:toolbutton:4.4975405
Handler:storagemodel:1.2379979
argouml:Cancel:1.5195017E-4
String:paint:0.012429051
Class:Repository:0.006290282
Changed:persistence:6.9180703
Class_:memoryimpl:1.3621379
argouml:localize:0.107124865
Component:Value:6.8965516
Tool:Rollover:4.149879
Name:Exists:1.0806943
_query:jmiimpl:0.052467734
netbeans:cognitive:2.3978222E-5
argouml:log4j:0.058120936
Perspective:swidgets:10.958904
_lock:Repository:13.20494
Base:model:0.073046625
Translator:String:0.033486813
swidgets:Button:4.608295
netbeans:Type_:8.840607E-4
Designer:Text:2.631579
argouml:init:1.5195017E-4
String:persistence:7.6645813
Node:Tree:6.060606
property:Project:13.548388
Container:handlers:12.537538
argouml:apache:0.058120936
Superclass:Storage:19.494158
kernel:debug:0.9510224
argouml:Designer:0.0059260563
Internal:tigris:10.526316
storagemodel:javax:0.4083521
argouml:Splitter:0.0010636512
Object:String:3.3631249E-4
Graph:Mutable:2.4024024
argouml:Name:0.13827465
Implementation:Object:11.914204
Class_:Singlevalued:1.3621379
Types:Predicate:11.661204
tigris:Diagram:0.31914344
Node:swidgets:0.04591368
Impl_:Code:6.4848065
Graph:Model:1.6016016
Model:List:0.06469923
i18n:Category:0.009059612
Buttons:Dialog:25.0
debug:property:0.13582343
Enum:Object:16.052631
storagemodel:hash:0.11334986
Boolean:Object:5.666667
handlers:Immediate:0.063945055
Translator:Title:0.008371703
tigris:Overflow:0.0051474753
tigris:always:0.37061822
Delegate:Base:0.7653061
Attribute:Impl_:4.6048074
localize:Horizontal:0.009110788
Index:Support:0.0011982048
_get:Featured:0.002464835
write:force:0.0010749578
handlers:javax:0.0028214187
argouml:Horizontal:3.7987542E-5
_get:netbeans:0.27606153
Type:Base:0.8987478
tigris:Tool:4.272404
hash:Storage:0.41633266
swingext:Splitter:6.622516
String:Model:0.033144135
Full:Storable:13.264372
Model:argouml:41.5024
argouml:mouse:1.5195017E-4
Immut:persistence:1.2250599
Order:i18n:3.3898306
Item:convert:0.07849294
hash:Value:0.05375834
Model:String:0.12077191
Wrapper:Base:1.1529539
Object:Facility:1.4713673E-4
enter:Handler:0.02436728
Immediate:Storage:15.3114605
Object:Generalizable:0.027500553
Class_:Package:1.3205409E-4
Abstract:argouml:59.090908
Wrapper_:Repository:12.15967
model:_pre:10.663656
Handler:Storage:0.7468354
netbeans:Meta:0.0031655342
tigris:Button:3.8451638
Value:storagemodel:18.889172
argouml:preferred:3.7987542E-5
persistence:resolve:1.1717635E-4
toolbar:tigris:14.585765
File:model:3.4482758
argouml:tigris:0.13037324
Readers:Generalizable:0.027197637
Project:Manager:2.4123511
Storable:Impl_:0.3829352
persistence:Value:0.023852795
Contains_:handlers:7.692308
Facade:Name:0.42827427
tigris:Standard:0.37061822
Category:netbeans:1.4829893
Facade:Type:0.055063836
Storage:storage:0.0011829636
Wrapper_:netbeans:12.15967
cognitive:swingext:0.0025957844
persistence:Full:9.845508E-4
Loader:Facade:8.948545
storagemodel:Package:4.87301E-6
Component:toolbar:0.093196645
Wrapper:Attribute:0.08274513
netbeans:Contents:0.0029722096
Wait:Contents:0.36727107
decrement:Resource:3.9339034E-4
core:_pre:7.4074073
write:Validity:0.0010749578
Name:netbeans:15.046952
paint:Cell:0.57142854
hash:Descriptor:0.0027583116
Referenced:netbeans:10.0
storagemodel:Changed:0.0028385282
Import_:handlers:19.248827
object:Storable:0.44786575
Iterator:persistence:5.616502
argouml:property:4.5585047E-4
Class_:foundation:2.6410818E-4
Model:Priority:0.11387066
localize:Types:0.009110788
Node:argouml:21.854914
javax:Object:9.3839807E-4
cognitive:convert:0.17132176
Translator:Perspective:0.016743407
Boolean:storagemodel:10.0
handle:javax:5.8720665
decrement:Reference:0.056058124
netbeans:application:2.9972778E-6
write:cognitive:0.0075247046
decrement:Wrapper_:5.227746
persistence:handlers:1.9510752
netbeans:Loader:2.6158059E-5
netbeans:size:0.011925488
Code:Transaction:0.02209522
argouml:debug:0.043875612
String:argouml:0.6835978
_query:Exposed:0.052467734
Preferred:Parent:1.5151515
Meta:create:2.8427548
Button_:always:12.5
Index:write:9.091083E-4
Supertypes:_lock:0.34614563
Object:Supertypes2:0.027500553
_query:Exposes:0.052467734
toolbar:Standard:1.4002334
Storable:Multivalued:0.34129977
Path:argouml:100.0
Designer:Value:2.631579
application:model:6.3593006
Wait:application:3.934153E-4
netbeans:Superclass:1.7956419E-4
netbeans:Full:5.520441E-4
Editor:tigris:19.23077
argouml:recompute:1.1396262E-4
write:Serial:0.7231534
argouml:Line:1.8993771E-4
action:Handler:2.0408163
Container:Instance:12.537538
decrement:persistence:7.510179E-4
action:Check:2.0408163
toolbutton:tigris:12.611012
String:Base:0.21750839
netbeans:Immut:0.008954776
hash:equals:0.01972959
Node:Component:2.2038567
localize:tigris:0.49198252
Iterator:Multivalued:5.6080394
storagemodel:Will:0.004383272
netbeans:modelmanagement:4.7683966E-6
model:Wrapper_:4.6180075E-4
Button:presentation:0.07892659
jmiimpl:Class_:4.2186637
argouml:Icon:0.0056981314
Mouse:Manager:12.5
Association:argouml:8.2530675E-4
Impl_:Set_:0.76610076
netbeans:Class_:0.0066441474
netbeans:Implementation:1.8119907E-4
Standard:tigris:11.7437725
memoryimpl:Support:0.0037489233
Model:Mutable:0.010351878
Aggregation:Handler:13.636364
i18n:log4j:0.009059612
foundation:_pre:7.4074073
String:Icon:0.0020715084
Base:Impl_:2.590087E-4
toolbar:Listener:0.038895372
Instance:init:1.3079897E-4
argouml:Element:0.007141658
Index:Repository:0.5836658
netbeans:Serial:0.0012757503
Defined:argouml:50.0
Check:persistence:4.4871798
Class_:handlers:2.6788492
Class_:Exists:1.3621379
Upper:handle:16.666668
Repository:Resource:1.5616661E-4
modelmanagement:netbeans:20.348837
Element:Class_:9.047881
object:hash:3.6340568
Types:create:11.661204
hash:Transaction:0.022095226
Referenced:_pre:10.0
Standard:toolbutton:11.3879
Translator:Argo:0.033486813
swingext:tigris:11.920529
Utils:List:0.0011501728
netbeans:netbeans:31.08687
model:Referenced:0.01219154
Dialog:Translator:2.877698
Reference:Package:1.2092373E-4
handlers:action:1.7744771E-6
tigris:toolbar:4.540073
Loader:argouml:15.659955
toolbutton:Pane:0.11841326
hash:wrap:1.4000204
model:Reference_:0.02438308
Monitor:Expression:1.4492754
Impl_:Base:0.006706742
apply:argouml:100.0
decrement:End_:0.11394015
Name:Element:2.095384E-4
netbeans:_set:5.722076E-6
Repository:Attribute:2.6974233E-4
Base:Base:0.05322629
paint:Explorer:0.57142854
Arrow:paint:25.0
always:toolbutton:11.3879
Predicate:i18n:0.0034804398
argouml:Button:0.0041026548
Package:Query:6.348219E-4
Repository:Aggregation:0.020784356
hash:Reference:0.0021118324
storagemodel:Code:0.11334986
Wait:Wrapper:6.0565925
Button:i18n:0.9865825
argouml:Category:0.048434116
decrement:Repository:1.7881379E-5
Base:Exists:0.19729063
persistence:Support:0.027209157
model:Query:1.4328384
Name:core:2.095384E-4
Spacer:Parent:1.5151515
Long:storagemodel:6.7594132
model:Supertypes:0.080685824
Ordered:handlers:19.654959
Mutable:Diagram:6.629834
Horizontal:Dialog:12.5
Tree:argouml:29.239944
Type:model:1.1596203
tigris:Pane:0.010294951
Wrapper:model:0.0060807317
argouml:toolbar:0.0011396263
tigris:Mutable:0.3912081
State:persistence:6.053672
Reference:Object:0.0018138561
argouml:Perspective:8.357259E-4
Spacer:swidgets:6.060606
toolbutton:Internal:0.11841326
Left:paint:25.0
localize:Content:0.009110788
netbeans:hash:0.32549825
Reference:Handler:0.0014510849
Struct:Association:8.982973
netbeans:Default:8.446874E-6
i18n:init:0.036238447
Storable:handlers:1.4514973
Listener:argouml:29.70297
persistence:Utils:0.08050958
Panel:String:1.3215859
List:netbeans:1.2298558
persistence:Loader:8.485184E-5
toolbar:Component:0.038895372
Order:Translator:3.3898306
Facility:Base:4.166667
Repository:_unlock:0.07409396
Listener:Tool:2.640264
Instance:Model:0.030868558
write:List:0.0010749578
enter:netbeans:19.837227
Node:Perspective:0.09182736
Heap:Handler:1.4492754
Order:argouml:17.79661
Storable:core:1.5605485E-5
Storage:write:0.39755735
Set_:Index:8.814393
Set_:Multivalued:8.814393
Monitor:Width:1.4492754
Long:argouml:0.13321158
handlers:Supertypes2:0.013929646
preferred:argouml:10.0
action:force:2.0408163
Code:Name:0.008466482
Model:Display:0.005175939
hash:netbeans:33.735683
Cache:_get:0.0051692305
Reference:Index:1.3720613
Full:Object:13.264372
netbeans:model:0.41101602
Facade:kernel:0.08973365
explorer:argouml:26.471987
localize:Loader:0.6924198
argouml:argouml:38.64169
Storage:Cache:1.5575069E-4
Utils:Configuration:0.0031368348
netbeans:equals:0.0045719384
swingext:Predicate:0.66225165
persistence:_get:0.05126667
create:model:7.367576
enter:Index:14.140865
name:tigris:5.208333
Wrapper:persistence:2.6790416
graph:base:23.61111
cognitive:model:0.0103831375
memoryimpl:Attribute:0.12571692
Readers:Supertypes2:0.027197637
Project:cognitive:0.03216468
Overflow:graph:7.692308
Target:localize:0.5263158
Readers:jmiimpl:0.027197637
cognitive:swidgets:0.012978922
Code:wrap:1.4000201
argouml:List:0.025071777
Code:persistence:0.049017485
explorer:Decorated:0.010580331
Diagram:Diagram:3.4095314
Facade:Types:0.008157605
Support:Package:1.3728454
Values:Storable:7.120093
Handler:Next:0.0043659518
Generalizable:Base:0.4886979
presentation:base:20.408163
Index:Multivalued:1.3009341
handlers:model:0.03367603
Element:_lock:0.43246135
Index:handlers:0.0014218454
Model:Order:0.0077639082
handlers:Object:3.0512135
Wait:javax:2.6466477
hash:jmiimpl:0.037591573
next:Multivalued:6.1197605
Size:Dialog:0.78125
Mutex:Supertypes2:0.027197637
Buttons:argouml:6.25
tigris:argouml:18.067636
storagemodel:State:0.014443601
size:Value:0.047270097
Attribute:Support:1.822654
Wrapper:Storable:1.8294315
Translator:Tool:0.016743407
Button_:toolbar:12.5
Code:model:0.05724932
String:Composite:0.024858102
Splitter:tigris:2.6845639
argouml:User:1.8993771E-4
argouml:Resource:0.0050903307
Wait:argouml:0.018454753
log4j:Handler:0.07477567
Performed:argouml:30.612246
size:storagemodel:14.854431
Wrapper_:storagemodel:12.15967
argouml:Layout:5.318256E-4
netbeans:Boolean:7.4931945E-6
model:Explorer:4.0638464E-4
Code:Values:0.1858412
Changed:Class:0.68942976
Size:Spacer:0.78125
Support:Base:11.255839
toolbutton:Component:0.11841326
Handler:Generalizable:0.056184787
core:handlers:7.4074073
User:argouml:50.0
Storable:Element:1.5605485E-5
Listener:toolbar:1.980198
Wait:Model:6.2588794E-4
decrement:Reference_:0.011801709
String:Translator:0.053859223
argouml:Item:0.00957286
Base:Iterator:0.003761793
tigris:presentation:0.036032327
Base:String:5.673524E-4
storagemodel:object:0.014443601
Type:Handler:11.233086
Attribute_:Featured:18.181818
Transaction:Code:16.26073
Action:Instance:6.030151
Child:Model:4.778157
Heap:Width:1.4492754
Storable:Cache:0.28698096
Argo:localize:3.2292788
apache:tigris:0.07477567
i18n:Argo:0.036238447
javax:Exposes:0.015229739
model:Wrapper:5.541609E-4
javax:Association:1.7899098
Loader:Object:2.3489933
Width:swidgets:13.333334
String:Decorated:0.0020715084
handlers:Meta:0.029960271
decrement:equals:0.1726626
base:Mutable:4.4627132
memoryimpl:Index:0.5395435
Generalizes_:netbeans:7.692308
apache:Item:0.44865403
Supertypes:Base:0.34614563
enter:Set_:12.918337
Code:argouml:1.0056342E-4
Multiple:Handler:0.024362704
Serial:write:15.674429
configuration:Storage:7.666667
Container:Handler:12.537538
javax:Exposed:0.015229739
Layout:swingext:10.909091
String:Item:0.004143017
Component:Tree:14.538677
Storable:Exposes_:0.0077247145
Find:swidgets:2.4691358
evaluate:Model:16.666668
hash:Item:4.7887356E-6
Facility:hash:4.166667
Readers:Association:0.08770574
Model:Text:0.009489221
Priority:Text:0.04446421
netbeans:persistence:2.6057131
Wait:equals:0.17267355
memoryimpl:write:0.0028444033
argouml:netbeans:0.059716415
netbeans:create:2.3596751E-4
Handler:Type:0.029287664
argouml:select:7.5975084E-5
decrement:Contents:0.36724776
decrement:Facade:0.0030577157
persistence:Association:0.089749
explorer:i18n:0.021160662
Designer:Model:0.2631579
write:Storage:9.453765
wrap:netbeans:10.0
tigris:Find:0.03088485
handlers:Implementation:1.7744771E-6
Diagram:Graph:1.5497869
Resource:Model:13.22314
Storable:persistence:10.915647
Attribute:Full:0.044539724
argouml:Size:5.318256E-4
Code:netbeans:33.735676
toolbutton:Tool:8.170515
Storage:handlers:0.0024067191
Listener:always:0.660066
Translator:Horizontal:0.008371703
Monitor:force:1.4492754
Kind:Object:16.052631
decrement:Generalizable:4.8279722E-4
Class:handlers:6.029961
handlers:netbeans:19.410233
Storable:Support:0.13506547
model:Display:7.388811E-5
Assoc:persistence:9.3839
Reference:core:2.4184746E-4
Descriptor:Element:2.793187E-4
modelmanagement:Query:0.5813953
Designer:Pane:0.2631579
Storage:object:0.03918984
persistence:Primary:0.001352242
Exposed:Referenced:7.1428576
Code:_get:0.16699275
Panel:tigris:3.524229
Association:Storable:0.03146482
Type:swidgets:4.2076208E-4
Code:storagemodel:4.1206436
Predicate:Meta:8.527078
Wrapper:Object:1.8688589
swidgets:name:4.1474657
Help:Argo:10.0
paint:Internal:0.28571427
Cache:handlers:13.801846
Exposed:Reference_:7.1428576
i18n:Cancel:0.036238447
argouml:create:0.11457043
Mutex:next:12.950195
Component:base:0.18639329
kernel:cognitive:1.0461246
Object:hash:0.25691122
Facade:explorer:6.2650404
Code:handlers:9.945809
Serial:Long:15.674429
localize:debug:0.009110788
Refers:Association:7.692308
Readers:Base:9.302124E-4
cognitive:Child:0.16353442
Base:argouml:2.5284183E-4
Size:String:0.78125
Diagram:Name:0.81363815
netbeans:Supertypes2:0.0017852877
Element:Base:0.43387002
init:i18n:10.526316
Name:Index:1.0806943
Leaf:cognitive:11.176969
javax:Struct:0.029444162
argouml:action:1.5195017E-4
Mouse:tigris:12.5
javax:netbeans:16.794481
Multiple:End_:0.08770574
Exposed:Instance:7.1428576
String:Component:0.004143017
enter:End_:0.08772221
Wait:jmiimpl:0.045564644
Renderer:Text:10.437235
Multiplicity:handlers:22.77419
persistence:Storage:0.18778521
Object:Changed:3.5032554E-6
Multiple:storagemodel:14.273533
Import_:Association:0.46948358
Long:Boolean:0.025782885
String:tigris:0.045573186
action:tudresden:2.0408163
Configuration:Base:0.7897335
netbeans:Association_:8.681206E-4
Refers:Query:7.692308
Iterator:netbeans:15.143226
Spacer:Predicate:1.5151515
hash:Wrapper_:0.0044247913
Full:Meta:2.1572607
Find:localize:7.4074073
Line:swingext:5.555556
Model:kernel:0.035368916
Code:Support_:0.019729586
Supertypes:Object:0.34614563
Refers:netbeans:7.692308
model:Configuration:1.724056E-4
Facade:String:0.5098503
Name:Object:2.095646
Model:Nodes:0.010351878
persistence:Name:0.002215576
String:String:0.0020715084
Designer:Check:0.5263158
action:Object:2.0408163
Class:storagemodel:0.16490217
Utils:netbeans:19.602604
Class:Index:0.0011612829
Object:storagemodel:0.30700076
Model:Profile:0.021566411
Readers:javax:0.08770574
Tool:toolbar:11.522965
Monitor:List:2.8985507
always:tigris:11.7437725
size:Storable:1.7737405
Value:Storable:7.6934166
Transaction:persistence:16.26073
Will:Code:13.845918
Model:Configuration:0.020703755
localize:Find:0.054664724
Mutex:Association:0.08770574
Superclass:persistence:19.494158
swidgets:String:0.102406554
Performed:Base:2.0408163
Support:resolve:0.035848808
Wait:Repository:1.7882514E-5
tigris:Internal:0.010294951
Multivalued:persistence:6.474859
_lock:netbeans:13.20494
Component:Explorer:0.18639329
Exited:Manager:11.111112
object:persistence:12.134985
next:storagemodel:2.5005658
Facade:Wrapper:0.030591018
Cache:Storable:0.0020923077
Reference:Exists:1.2473283
Manager:Tool:4.4975405
presentation:Editor:20.408163
Code:Loader:2.0112684E-4
javax:_pre:13.316099
model:netbeans:15.725424
Display:Facade:16.164818
Enum:netbeans:41.973682
jmiimpl:_lock:3.325736
Performed:List:4.0816326
Translator:explorer:0.016743407
modelmanagement:Featured:3.4883723
Check:argouml:9.615385
Support:Graph:2.2857901E-4
Base:netbeans:25.176085
Code:Base:0.5311329
Contents:Instance:11.328344
memoryimpl:hash:6.3926024
Rollover:toolbutton:5.2287583
Wait:Code:0.4583646
Class:Base:0.5612867
cognitive:Monitor:0.0025957844
Predicate:preferred:0.0034804398
Dialog:Argo:2.877698
Storage:Code:0.014232647
Tree:Priority:0.4981508
hash:Supertypes2:0.037591573
Attribute_:handlers:20.454546
Change:hash:13.611773
model:Predicate:0.016969638
argouml:Repository:0.0011396263
decrement:Loader:3.9339034E-4
tigris:Listener:0.20075154
Heap:cognitive:8.695652
handlers:Handler:0.0014337775
netbeans:Primary:1.3678486E-4
Code:cognitive:1.9154937E-5
Multivalued:Iterator:0.7837964
Tool:Standard:1.4504431
Storable:javax:1.2862821
Immediate:netbeans:15.390266
Support:tigris:0.001371474
Category:Browser_1:0.11631288
netbeans:Handler:0.65911996
debug:Offenders:0.30560273
jmiimpl:model:13.909178
Panel:Parent:0.44052863
toolbutton:Graph:0.11841326
check:Object:9.012876
Object:Wrapper_:0.0021369858
other:Base:10.0
Object:Full:0.0029637539
Facade:Text:0.044866826
cognitive:Component:0.0103831375
netbeans:Supertypes:0.0027828363
Leaf:List:2.7942421
Impl_:persistence:6.4848065
Storable:Utils:0.06342068
Cache:Object:0.014030769
argouml:Width:2.2792524E-4
Renderer:argouml:11.0014105
Reference_:handlers:16.535433
argouml:Child:0.006381907
Model_:Featured:7.4074073
Manager:log4j:3.5137036
Association:Meta:0.002063267
resolve:Base:13.955669
model:Exposed:0.02438308
handlers:equals:0.007310846
Object:Storable:0.026607223
Arrow:swidgets:12.5
enter:storagemodel:14.267885
tudresden:action:11.111112
Spacer:Dialog:1.5151515
model:Exposes:0.01219154
model:Featured:0.46734232
mouse:Rollover:10.0
always:argouml:0.7117438
Dialog:Size:0.04496403
Facade:javax:0.14683689
Type_:handlers:23.924345
Multivalued:storagemodel:1.8926704
Types:netbeans:0.10350181
handlers:Item:1.7744771E-6
Performed:Check:2.0408163
Preferred:center:1.5151515
Change:argouml:0.7944615
netbeans:State:0.00161853
Class:netbeans:29.800648
localize:Panel:0.045553934
handlers:Repository:1.5420207
cognitive:List:0.14536393
Monitor:swingext:1.4492754
tigris:Preferred:0.082359605
storagemodel:Import_:2.436505E-6
tigris:i18n:0.025737375
Repository:equals:0.06854294
Repository:jmiimpl:0.07225545
netbeans:Query:0.004358587
Multiple:Supertypes2:0.027197637
Class_:Index:1.3621379
i18n:Panel:0.07247689
argouml:Text:0.026439328
Content:Panel:10.0
Association:write:0.014597614
Multivalued:handlers:0.0069960225
Name:Diagram:0.0015715379
Aggregation:handlers:13.636364
storagemodel:Multivalued:1.6017278
Handler:Association:0.003507076
persistence:Reference:5.939629E-4
argouml:Predicate:0.12953752
_set:netbeans:11.111112
log4j:argouml:50.648056
Name:persistence:1.3339739
Reference:handlers:0.0016324704
i18n:Find:0.054357674
swidgets:tigris:0.6144393
Cancel:name:11.111112
handlers:storagemodel:9.142654
memoryimpl:handlers:0.015268756
Tree:Cell:0.78496486
Repository:log4j:7.808331E-5
decrement:helpers:3.9339034E-4
kernel:log4j:4.2796006
persistence:Immediate:9.966724E-5
Translator:init:0.033486813
paint:argouml:12.857143
Size:Preferred:0.78125
enter:jmiimpl:0.027202748
Facade:Meta:0.008157605
Mutable:Model:2.762431
netbeans:Import_:1.1171672E-5
Cache:netbeans:15.885785
Wait:Loader:3.934153E-4
model:Instance:1.8638277
hash:_post:0.15481023
Handler:Priority:7.1572977E-6
persistence:Changed:0.0015677387
Wrapper:handlers:0.0029242928
List:Serial:0.16963528
foundation:Query:7.4074073
Base:Facility:2.590087E-4
Multiple:Base:9.302124E-4
hash:_set:2.0112688E-4
Handler:Iterator:0.0043659518
diagram:base:4.753199
Base:jmiimpl:0.04840996
Left:Splitter:12.5
helpers:Model:13.201321
decrement:argouml:0.018453581
Perspective:tigris:16.438356
Line:argouml:22.222223
argouml:Argo:0.0028870532
Storage:Will:0.010947049
Mutex:Iterator:12.98829
tigris:Nodes:0.020589901
Set_:Wrapper:8.814393
storagemodel:Change:0.0043930183
force:Child:4.054054
Tree:Leaf:0.4981508
String:Tree:0.024858102
netbeans:Support_:0.013812546
Button:Argo:2.8413575
Text:Facade:15.895954
equals:Support:2.8315072
Association:handlers:5.0768747
configuration:storagemodel:10.0
Wait:Element:6.61653E-4
application:argouml:19.077902
Name:Predicate:1.047692E-4
property:argouml:42.580647
Mutex:Index:14.13821
Descriptor:Storage:0.49243885
persistence:Index:1.763807
Manager:apache:3.5137036
create:Types:6.554307
Proxy:persistence:6.696035
Name:Class:0.24201687
Support:Diagram:9.1431604E-4
Descriptor:modelmanagement:1.3965934E-4
netbeans:foundation:5.4495956E-7
i18n:application:1.0871534
Button:Graph:0.07892659
hash:persistence:0.049017496
Performed:force:2.0408163
netbeans:Generalizes_:0.0018833803
Size:center:0.78125
Aggregation:netbeans:13.636364
init:localize:10.526316
netbeans:Configuration:7.4931945E-6
toolbutton:always:4.2628775
Generalizable:_lock:0.4886979
Validity:cognitive:4.054054
object:netbeans:24.821043
netbeans:configuration:7.4931945E-6
Mutex:javax:0.08770574
storagemodel:String:7.199872E-4
String:Check:0.0051787714
