Instance:apache:0.060222823:3.9506176
Separator:Data:83.33333:0.007553897
Editor:Listener:0.029312618:0.24600245
create:Facade:4.532886E-4:0.1754386
Style:Default:0.81300807:15.000001
Enabled:Document:0.0050762063:1.4440433
Type:Types:0.061182126:38.095238
Event:Pane:0.0501002:0.54225034
apache:Node:0.4938272:0.19841272
Debug:fire:0.16939582:6.9767447
log4j:create:3.0716722:0.0040795975
Undo:Instance:7.4487896:0.15055706
equals:Iterator:3.1746035:0.018447349
log4j:List:4.43686:0.100673735
List:Object:2.4626346:0.54157156
Action:Base:0.10685206:0.3996358
Container:Size:0.42194092:0.07637475
Browser:Event:36.363636:0.06680027
String:core:0.006798559:0.026968716
next:next:46.673096:46.673096
Model:Logger:0.10353916:1.1398964
Element:Node:0.030878605:8.531746
Debug:Enabled:0.11293054:0.0025381031
Name:create:0.44707754:0.38756177
Change:Enabled:4.2735043:0.031726293
Text:should:0.309119:66.66667
Color:Width:0.4784689:0.3267974
Selection:Text:27.64732:13.777876
Abstract:Element:3.24159:0.038059674
Base:Element:2.5698097:0.1823992
Manager:Added:6.7463977E-4:44.444447
paint:Tool:1.1560693:0.05077431
Object:Index:8.157635:5.0429015
Node:Selection:0.09920636:0.0443066
Enabled:Default:0.0050762063:20.0
List:Iterator:0.6272749:0.1245196
Iterator:Facade:0.004611837:0.5263158
Code:Instance:0.55288213:0.20325202
Pane:mouse:31.766832:42.273
compute:Facade:100.0:1.0526316
remove:Node:2.3619049:6.1507936
debug:Base:11.111112:0.0050586807
Node:Node:14.880952:14.880952
mouse:Mouse:7.937463:26.086956
Line:Manager:42.480213:0.027154252
Released:Event:14.444445:0.054275215
Manager:remove:0.02934683:6.6285715
Logger:Manager:3.6787565:0.011974856
Only:Object:100.0:0.066419154
Read:Object:7.692308:0.066419154
mouse:Event:2.5255563:0.17535071
Listener:Base:7.195572:0.59186566
remove:Base:8.0:1.062323
log4j:Object:0.3412969:0.0017030552
Implementation:Event:24.050634:0.15865064
Editor:Active:0.014656309:0.7633588
Button:Manager:32.600548:0.22010124
apache:apache:5.9259257:5.9259257
Manager:Layout:0.003541859:1.703163
Code:Index:60.489403:6.2199297
Code:Object:5.733593:0.9537109
debug:Index:11.111112:0.0010527978
Event:Types:0.037575148:6.122449
Pane:Released:0.49706283:12.222222
Adapter:Editor:0.7100957:0.16854756
Instance:Copy:0.007527853:3.3333335
Node:Manager:5.15873:0.008770317
contains:Factory:2.777778:0.023815194
create:Type:0.31548887:0.76040643
Width:Element:0.3267974:0.0014362141
hash:Impl_:1.388889:3.264418
Feel:Simple:2.3518345:7.4626865
access$000:Manager:79.16667:0.0064090784
Enabled:Manager:80.1368:10.65037
core:Abstract:0.18878102:0.21406728
Manager:Element:0.0045538186:0.009694445
Tool:Manager:74.67631:0.9922265
Panel:Panel:5.068638:5.068638
Model:Manager:19.277107:0.6908311
Mode:action:2.2222223:0.059585877
Listener:Node:0.061500613:0.09920636
Event:Name:0.11272546:0.014118237
Repository:Object:29.62963:0.013624442
Object:String:0.7629687:3.0457544
Icon:Item:72.50438:16.83269
Adapter:Mouse:0.030873727:0.19762847
Debug:Manager:20.327497:0.060717583
Read:Base:92.30769:2.3674626
apache:Element:2.9629629:0.0043086424
Factory:Type:30.388187:1.3940784
Mode:process:1.6666667:2.8301888
Types:Type:13.605443:0.02185076
Selection:Changed:0.7089056:9.411765
Allowed:Manager:100.0:0.005397118
Border:Preferred:9.473684:1.105651
Base:Dependency:0.015176043:8.108108
Manager:Mode:5.059798E-4:1.6666667
Instance:Style:0.18066847:13.008129
Instance:Linked:0.015055706:15.384616
Debug:List:0.5081875:0.06969721
Impl_:Code:30.467901:2.8667965
register:Event:3.7151701:0.0501002
Model:List:0.3576807:0.5885542
Manager_:Manager:0.9269988:0.0013492795
Base:Client:0.015176043:100.0
Mode:Internal:1.1111112:0.68728524
impl:Mode:0.022711787:13.333334
Enabled:impl:5.903628:4.4023013
Pane:Listener:0.27112517:0.36900368
Manager:Factory:0.02900951:4.0962133
Splitter:Panel:100.0:1.2671595
Factory:Manager:7.7399383:0.05481448
Node:Model:0.19841272:0.00941265
List:Debug:0.06969721:0.5081875
Model:Image:0.014118975:50.0
Create:Factory:23.636364:0.30959752
Manager:Dock:0.005397118:20.125786
Element:Index:0.008617285:0.025267148
Adapter:Under:0.030873727:50.0
Event:Debug:0.43837675:5.928854
Instance:Active:0.09786209:9.923664
Data:Name:0.13597015:0.09412158
Control:Event:100.0:0.0041750167
Copy:Data:90.0:0.040791042
Manager:Border:0.0015179395:9.473684
Element:Settings:0.025851855:90.0
Handler:Item:1.0479043:0.14230534
enter:Array:100.0:0.074794315
Listener:Instance:0.4920049:0.030111412
Editor:History:0.058625236:18.181818
Name:Template:0.001568693:20.0
hash:Handler:0.46296296:1.4970059
Visible:Manager:70.27027:0.030696109
action:Event:2.0706093:0.58032733
Event:Owner:0.0041750167:2.3809524
hash:Storage:0.6944445:0.03982054
Simple:Feel:8.955224:2.8222013
Enabled:List:0.034264393:0.2090916
Listener:action:1.4760147:0.35751528
Event:Project:16.032064:8.895478
Mode:Enabled:6.666667:0.01522862
Strategy:remove:8.571429:0.22857143
internal:Project:9.523809:0.013899185
Index:hash:0.3000474:13.194445
Abstract:Object:33.394493:1.8597364
History:Manager:68.181816:0.0050597982
Tree:Object:14.728682:0.09707415
Tool:Editor:0.06346789:0.036640774
Enabled:Component:0.47208723:8.118726
Event:mouse:0.54275215:7.817198
action:Pane:0.07448235:0.22593765
Check:Manager:77.198:0.18215273
Size:Size:33.095722:33.095722
Component:Types:0.08729812:2.7210884
Width:Width:8.823529:8.823529
log4j:Component:4.0955634:0.26189438
application:Helper:0.41948265:3.7037036
Registry:Simple:0.2754821:1.4925373
Code:Handler:0.10238559:1.4970059
Type:Layout:0.008740304:0.648824
Enabled:Listener:0.0012690516:0.061500613
undo:Manager:79.591835:0.0065777376
Mode:Pane:2.2222223:0.1807501
Container:layout:4.2194095:38.46154
Mode:Logger:3.3333335:0.31088084
Size:Action:0.02545825:0.0013525577
Debug:impl:5.420666:0.09084715
Editor:Dock:0.31511065:27.044025
Layout:Icon:0.486618:0.525394
Data:core:0.17525041:6.256742
Removed:Enabled:0.8:0.0012690516
Iterator:Index:98.3997:67.388535
Visible:Panel:3.088803:0.844773
impl:Debug:0.06435007:3.8396385
Event:Listener:2.3797596:35.05535
Size:Enabled:0.07637475:0.003807155
Base:Check:0.015176043:0.21443889
Abstract:Tool:0.061162077:0.025387155
Base:Item:0.1062323:0.42691603
Item:Element:0.32526937:0.0057448563
remove:Logger:0.114285715:0.15544042
hash:Object:24.074074:0.88558877
Manager:Data:0.0812941:0.36409783
Label:Size:18.543047:0.71283096
impl:apache:0.005677947:1.4814814
Listener:Mouse:0.4920049:1.5810277
Project:Action:0.069495924:0.04057673
check:action:14.285715:0.014896469
Owner:Event:2.3809524:0.0041750167
Project:Manager:72.159935:5.253757
Base:Factory:0.12140834:0.5715647
Manager:Target:0.022263113:26.4
Manager:Swing:5.059798E-4:2.4
Factory:Instance:13.717551:2.1680217
Preferred:Layout:8.353808:5.515004
Editor:Target:0.21984465:6.0
Model:Base:12.631777:13.577498
Value:Handler:18.181818:7.185629
Focus:Editor:2.5751073:0.04396893
Manager:analysis:0.0023612392:77.77778
Data:Factory:0.3739179:11.788521
Registry:List:0.9917355:0.13939442
Listener:Line:0.061500613:0.26385224
paint:Icon:16.473988:4.9912434
Selection:impl:0.93043864:0.019872814
Manager:Changed:0.0016865996:5.882353
Action:Object:0.010820461:0.013624442
Facade:Type:0.7017544:0.004370152
Element:Instance:0.08868622:0.9296899
impl:Logger:0.73624045:40.31088
Item:paint:0.5692214:8.092485
Manager:Types:0.002698559:10.884354
Change:Change:8.888889:8.888889
Monitor:Adapter:34.88372:0.4631059
Logger:Configuration:0.051813472:0.2604167
impl:Boolean:0.022711787:100.0
Manager:Class:3.3731989E-4:100.0
Button:Action:18.735949:1.0144182
Types:Abstract:0.6802721:0.030581038
Wrapper:Factory:2.5531914:0.42867348
Internal:Manager:53.608246:0.02631095
Data:log4j:0.0015107794:0.6825938
application:Model:88.74388:17.921686
core:Data:27.93959:0.7825838
Panel:Type:0.4223865:0.004370152
register:Manager:0.92879254:5.059798E-4
Manager:update:0.030358791:88.2353
Data:Text:0.052877277:1.545595
mouse:Editor:1.2026458:0.1465631
Listener:Event:6.2730627:0.4258517
Instance:Editor:0.22583559:0.4396893
Enabled:Template:0.0050762063:26.666668
Manager:layout:5.059798E-4:3.846154
Panel:Base:1.9007392:0.09105625
fire:Event:18.60465:0.033400133
Pane:Pressed:0.99412566:20.952381
Node:Instance:2.1825397:0.08280638
Logger:Label:0.20725389:2.6490066
Event:Panel:0.1002004:2.534319
apache:List:3.2098765:0.100673735
Component:Facade:0.21824531:1.754386
Node:Editor:1.388889:0.10259417
Layout:Preferred:19.870235:30.09828
Icon:Object:0.087565675:0.0017030552
Data:Model:0.027194029:0.16942772
hash:Instance:1.6666667:0.13550135
Code:List:0.6655063:0.5033687
Clicked:action:25.0:0.014896469
log4j:Node:0.6825938:0.19841272
Logger:Logger:2.5906737:2.5906737
Manager:Event:0.041153025:1.018704
Element:equals:0.0014362141:1.0582011
Base:Combo:0.0050586807:4.347826
Model:hash:0.9647967:9.490741
List:Instance:2.602029:1.2646793
Event:Action:1.7034068:0.5518435
find:Factory:0.87370926:0.26196715
Action:Factory:0.12984554:2.2862587
create:Data:0.4337972:0.72290796
Composite:List:100.0:0.046464805
Group:Instance:45.238094:0.1430292
Selection:Tool:1.7279575:0.4950495
Logger:Enabled:0.31088084:0.00761431
Enabled:Enabled:0.57868755:0.57868755
Type:create:97.187805:40.322742
Preferred:Component:0.98280096:0.17459624
Manager:Navigate:0.0016865996:41.666664
hash:List:3.0092592:0.5033687
Project:Enabled:0.13899185:0.0761431
Event:Changed:0.075150296:10.588236
impl:Configuration:0.22806421:62.760418
create:Manager:0.38076243:0.14167435
Element:Target:0.0129259275:7.2
Facade:Instance:1.0526316:0.02258356
List:Code:0.232324:0.30715674
Link:action:100.0:0.029792938
Panel:Listener:0.844773:0.4920049
Action:remove:0.024346039:0.6857143
Wait:application:100.0:0.023304591
Performed:Event:5.882353:0.0041750167
Swing:Panel:0.8:0.105596624
Attribute:Debug:23.529411:1.1293055
Selection:Pane:3.9875944:4.0668774
Panel:Tool:1.689546:0.20309724
Instance:Action:0.36133695:0.12984554
Visible:Width:5.4054055:1.1437908
Event:Node:0.01252505:0.29761904
List:Index:0.7744134:0.10527977
Simple:Look:8.955224:2.7598896
Mouse:action:1.1857708:0.08937882
action:Item:1.623715:2.2158976
Change:Menu:6.1538463:4.4280443
Model:Default:0.06118223:65.0
Model:Event:0.7624247:0.67635274
Reference:Element:100.0:5.11005
Action:Enabled:0.037871614:0.035533447
List:Name:0.6969721:0.04706079
String:Base:15.419131:11.473088
Manager:Index:0.018215274:0.113702156
Base:Target:0.06070417:2.4
Drag:impl:31.746033:0.01892649
Event:Instance:0.250501:0.22583559
Model:application:1.0871612:5.3833604
hash:Index:14.259259:0.32426172
From:Instance:1.8518518:0.007527853
Model:Model:13.554217:13.554217
Object:Enabled:0.04257638:0.031726293
core:Instance:10.032363:1.4001806
impl:Enabled:4.6350975:6.215815
Manager:Mouse:0.002698559:3.1620555
Line:Line:2.110818:2.110818
Pane:Exited:0.045187525:10.0
apache:create:2.2222223:0.0040795975
Expression:First:33.333336:40.0
Action:List:0.18935807:1.0841788
Facade:List:4.5614033:0.20134747
Base:log4j:0.025293402:1.7064847
Layer:Model:45.454548:0.047063254
Status:Instance:26.984129:0.06398675
hash:Cache:0.046296295:0.66225165
Item:Instance:11.486074:2.1266184
impl:Facade:0.009463245:1.754386
Event:Target:0.21292585:10.2
Swing:Factory:11.200001:0.3334127
Manager:Utils:6.7463977E-4:100.0
Iterator:Impl_:0.26287472:18.607182
Target:Project:1.6:0.018532246
Icon:Model:5.2539406:0.2823795
Action:Action:25.806799:25.806799
Debug:Element:0.6775833:0.0043086424
Registry:Helper:1.7630855:6.584362
impl:Changed:0.036906656:22.941177
paint:Width:6.3583813:1.7973857
Project:Undo:0.069495924:5.586592
Enabled:Target:0.02284293:3.6
Combo:application:17.391304:0.093218364
Panel:Component:2.534319:0.52378875
Model:Document:0.2823795:21.66065
register:Helper:66.87307:44.444447
Logger:apache:2.4870467:11.851851
String:Icon:0.006798559:0.087565675
Iterator:Model:0.009223674:0.02823795
Graphics:Editor:19.67213:0.08793786
Enabled:Focus:0.0050762063:1.7167382
invalidate:Manager:66.66667:3.3731989E-4
Event:Released:0.0501002:13.333334
Name:Configuration:0.06065613:30.208334
From:Editor:0.9259259:0.0073281545
Change:Element:0.17094018:3.5905352E-4
Change:Visible:0.17094018:0.38610038
apache:Icon:0.4938272:0.17513135
apache:log4j:1.9753088:2.7303753
Base:apache:0.025293402:1.2345679
Enabled:Mode:0.00761431:3.3333335
Name:Component:0.032942556:1.3749454
Data:Event:0.22510614:1.2441549
Base:Tree:0.2934035:14.98708
Registry:Event:9.586777:0.7264529
Dispatch:action:96.52174:1.6535081
Model:Editor:0.00941265:0.014656309
impl:configuration:0.022711787:100.0
Name:Exited:5.228977E-4:10.0
hash:Element:1.8518518:0.014362141
apache:action:0.2469136:0.014896469
Action:Element:1.6338896:0.43373668
Core:hash:1.764706:0.1388889
Editor:Under:0.0073281545:50.0
Dock:Container:52.83019:11.814346
List:Mouse:0.030976534:0.7905139
Manager:Owner:0.003541859:50.0
Manager:Active:0.014336096:32.44275
Property:Type:0.37593985:0.004370152
Instance:Instance:0.6473954:0.6473954
apache:Listener:0.9876544:0.24600245
Line:Model:0.7915568:0.014118975
hash:Base:4.398148:0.48057464
Logger:fire:0.20725389:9.302325
Base:Visible:0.025293402:1.9305018
log4j:Base:2.3890786:0.035410766
Manager:Elements:1.6865994E-4:20.0
Model:Instance:0.4235693:0.33875337
Enabled:Debug:0.10152413:4.517222
List:hash:0.5111128:3.0555556
Core:Code:1.764706:0.030715676
Instance:Command:0.056458898:100.0
Popup:impl:39.024387:0.015141192
Logger:impl:35.854923:0.65485656
Manager:Look:0.039803747:21.711132
Name:Element:96.20481:66.060104
List:Element:20.506468:0.95077384
Model:Root:0.0188253:100.0
Element:Handler:0.058884777:24.550898
Code:Enabled:0.7166991:0.088833615
log4j:Event:2.3890786:0.029225118
Name:mouse:0.0041831816:0.48105833
Arrow:paint:100.0:17.34104
Editor:Line:0.19053203:6.8601584
Enabled:Node:0.0025381031:0.19841272
Action:Target:0.0351665:5.2000003
Valid:Base:66.66667:0.050586805
Panel:remove:0.4223865:0.15238094
lookup:Factory:100.0:0.21433674
Dispatch:Menu:3.4782608:0.4920049
From:Action:14.814815:0.021640923
Removed:Tree:7.2:2.3255813
Object:Node:0.010218332:0.5952381
Model:Changed:0.0188253:2.3529413
Node:Base:1.1904762:0.06070417
Tree:hash:3.875969:0.6944445
Component:Layout:0.32736796:1.2165451
Object:Storage:43.279743:67.46397
Logger:Scroll:0.15544042:2.586207
List:Manager:1.7811507:0.038791787
Name:core:0.08314073:4.288026
Action:Added:0.0013525577:11.111112
Data:Separator:0.0015107794:16.666668
Changed:Event:17.647058:0.1252505
Internal:Editor:3.4364262:0.07328155
Manager:Containing:5.059798E-4:50.0
Abstract:Base:40.550457:6.7078104
True:List:35.114502:1.0686905
Element:impl:0.7665793:2.020403
Label:Event:0.66225165:0.0041750167
Code:Storage:0.15357837:0.03982054
Element:Enabled:0.0035905351:0.012690516
Project:contains:0.009266123:11.111112
Modal:Manager:0.5:0.0033731991
hash:Tree:1.0185184:5.684755
log4j:Icon:0.6825938:0.17513135
Internal:paint:0.68728524:0.57803464
Factory:Enabled:0.071445584:0.003807155
Manager:Property:0.02664827:14.849624
Item:Item:6.668022:6.668022
Manager:Document:0.0089389775:19.133574
Adapter:Monitor:0.3704847:27.906979
contains:equals:2.777778:0.26455027
action:Internal:0.014896469:0.34364262
Registry:Action:0.11019284:0.0027051154
Data:debug:7.553897E-4:11.111112
Model:remove:0.70594877:5.714286
Action:Navigate:0.0054102307:16.666668
impl:Released:0.010409569:12.222222
Project:Editor:0.009266123:0.029312618
Pane:Event:0.6326254:0.058450237
Element:Iterator:0.0014362141:0.0061491164
analysis:action:11.111112:0.029792938
impl:Size:0.005677947:0.1527495
Editor:Object:0.058625236:0.013624442
Panel:Event:1.5839493:0.06262525
Base:Index:0.8599757:0.17897563
remove:Object:28.8:1.2875098
Monitor:Instance:34.88372:0.056458898
Base:select:0.0050586807:100.0
Label:Layout:19.86755:2.4330902
Instance:Project:0.15055706:0.09266123
apache:Component:2.9629629:0.26189438
Create:Data:47.272728:0.019640133
hash:core:3.0555556:1.7799354
Enabled:Panel:0.006345258:0.5279831
Item:Selection:0.04065867:0.0886132
Active:Editor:2.6717556:0.051297083
Property:create:72.74436:0.35084537
paint:Base:5.202312:0.09105625
Selection:Node:2.4811697:5.555556
Layout:Label:0.973236:7.94702
Mode:Node:2.2222223:0.39682543
Editor:Instance:0.6448776:0.3312255
Index:Array:0.22740431:1.7950635
String:Enabled:0.14956829:0.027919136
Data:Create:0.012086235:29.090908
apache:application:1.9753088:0.18643673
Target:Layout:0.4:0.162206
Manager:Action:2.7680469:22.198177
Delete:Manager:85.71429:0.0020239193
Listener:Tool:0.123001225:0.025387155
Instance:Undo:0.037639264:1.8621974
Factory:Name:9.430817:0.20706749
Delete:Instance:14.285715:0.007527853
Editor:Container:0.16854756:3.2348804
Instance:Name:0.02258356:0.003137386
Debug:Size:0.11293054:0.0509165
Array:Storage:97.23261:31.060022
Pane:Manager:16.26751:0.060717583
Layout:layout:0.324412:5.1282053
Mouse:Listener:0.39525694:0.123001225
Data:Document:7.553897E-4:0.36101082
Pane:Size:0.54225034:0.305499
Handler:Pane:0.29940122:0.09037505
Document:Model:37.906136:0.49416414
Manager:Node:0.015179396:8.928572
Look:Simple:2.299908:7.4626865
Text:Event:0.5299183:0.1002004
Object:Object:0.2554583:0.2554583
Impl_:Index:15.669206:0.1516029
Event:Pressed:0.0501002:11.428572
Repository:Event:70.37037:0.07932532
register:List:27.863777:0.6969721
hash:Debug:0.6944445:0.84697914
Container:Container:17.72152:17.72152
Code:Tree:0.29691818:7.49354
fire:Change:9.302325:0.6837607
Selection:Mouse:0.0886132:0.39525694
Text:Model:2.1196733:0.4518072
layout:Size:2.5641026:0.0509165
Enabled:Attribute:0.0025381031:2.3529413
Enabled:contains:0.0025381031:5.555556
Factory:Facade:0.023815194:0.1754386
Event:log4j:0.31312624:25.59727
Types:Types:4.0816326:4.0816326
Undo:Manager:57.35568:0.051947266
Change:action:3.5897439:0.31282586
Abstract:Enabled:0.09174312:0.003807155
impl:mouse:0.17507003:11.124474
Enabled:Change:0.010152413:1.3675214
Helper:Base:33.744858:0.82962364
Name:Name:0.21334225:0.21334225
Data:Component:0.42830598:12.374509
Action:Selection:0.0054102307:0.1772264
Factory:Data:3.5008333:0.11104229
Tool:Action:1.0662605:0.11361485
mouse:mouse:0.48105833:0.48105833
Manager:Navigation:1.6865994E-4:100.0
Action:Selected:0.1054995:9.027778
Action:Node:0.0054102307:0.39682543
Listener:impl:24.600246:0.3785298
Settings:Style:7.5000005:1.6260161
Pane:Tree_:0.09037505:25.0
Manager:access$000:0.0013492795:16.666668
contains:Base:2.777778:0.0050586807
impl:Active:0.1315391:53.053432
Manager:Simple:0.008432997:14.925373
Selection:Border:1.2848915:30.526316
paint:Graphics:3.1791906:18.032785
Manager:Pane:0.07555965:20.244013
Manager:action:0.29751614:26.277372
Mouse:Mouse:4.743083:4.743083
find:Model:27.79984:1.6472138
Base:Instance:1.3961959:1.0388438
Wrapper:Tool:0.4255319:0.038080733
Node:Action:0.39682543:0.0054102307
Changed:Change:5.882353:1.7094018
equals:List:0.52910054:0.015488267
From:Added:1.8518518:22.222223
Element:Factory:7.1810704E-4:0.04763039
Object:Text:0.005109166:0.06623979
create:core:0.015411813:0.91693634
Mouse:Editor:6.916996:0.25648543
Types:Editor:1.3605442:0.014656309
Icon:paint:4.203152:13.872832
Moved:Mouse:3.9106145:1.3833992
Node:remove:6.746032:2.5904763
Layout:Component:0.324412:0.08729812
List:Data:2.7878883:0.2719403
Manager_:Instance:0.2317497:0.007527853
Attribute:Enabled:70.588234:0.0761431
Color:Line:6.6985645:14.775726
Code:Element:0.122862704:0.0043086424
State:State:44.444447:44.444447
Property:impl:9.868422:0.09936407
Enabled:Selection:0.01522862:0.5316792
Object:access$400:0.0034061105:5.263158
Registry:Swing:0.05509642:0.8
Iterator:Storage:0.32129133:0.55483294
check:Action:71.42857:0.0067627886
Abstract:core:0.67278284:0.5933118
impl:Scroll:0.019872814:18.103447
Manager:Focus:0.026985593:68.669525
Enabled:Factory:0.20558636:3.8580616
clear:Instance:11.111112:0.007527853
Text:Listener:0.02207993:0.061500613
impl:impl:37.302216:37.302216
Tree:Removed:2.8423774:8.8
hash:_get:1.388889:50.0
Name:equals:0.020915907:10.58201
Object:Actions:0.027248884:66.66667
Manager:History:0.0010119596:13.636364
Enabled:fire:0.00761431:13.953489
Layout:Container:0.162206:0.28129396
find:Pane:10.484511:5.9647536
Object:Check:0.03576416:1.5010722
Preferred:Size:30.466831:6.313646
Manager:Text:0.16393746:21.46169
Border:Size:12.631578:0.305499
Manager:Facade:0.028334873:29.473682
Enabled:Event:0.06091448:0.2004008
core:create:1.05178:0.017678255
impl:Panel:0.04447725:4.9630413
Impl_:apache:0.10881393:0.2469136
Action:equals:0.0013525577:0.26455027
String:Valid:0.020395676:20.0
Name:Swing:0.0041831816:6.4
Manager:Child:0.0050597982:100.0
Selection:Manager_:0.443066:1.1587486
Released:Pane:8.888889:0.3615002
create:Model:0.0018131544:0.0188253
Removed:Removed:9.6:9.6
Wrapper:Array:1.2765957:0.074794315
hash:Factory:0.18518518:0.09526078
Debug:create:2.03275:0.01631839
Element:Helper:0.0028724282:1.6460905
remove:Target:0.22857143:1.2
Property:Swing:0.56390977:4.8
Lexer:Event:0.7751938:0.0041750167
Container:Icon:0.5625879:0.3502627
equals:remove:1.5873017:0.22857143
Debug:internal:0.11293054:3.1746035
Base:Iterator:0.34399027:0.104534976
Base:String:4.815864:6.4722276
Facade:Action:1.0526316:0.008115347
Performed:process:5.882353:0.9433962
Exited:Mouse:40.0:0.7905139
Manager:Model:0.22263113:6.2123494
Logger:Debug:0.20725389:0.22586109
Action:Instance:2.901236:8.073623
Logger:Model:0.25906736:0.023531627
Editor:Mouse:0.036640774:0.9881423
Property:Event:0.09398496:0.0041750167
apache:Base:1.728395:0.035410766
Model:Data:0.4518072:0.07251741
Visible:Types:0.77220076:1.3605442
Menu:Instance:31.98032:0.9786209
Value:Instance:81.818184:0.81300807
Owner:impl:30.952381:0.012302218
Manager:filter:5.059798E-4:100.0
Component:Model:6.5473595:1.4118975
hash:size:2.0833335:29.411766
Owner:remove:14.285715:0.22857143
Enabled:internal:0.003807155:4.7619047
Base:Node:0.06576285:1.2896825
Instance:Data:0.018819632:0.0037769484
apache:impl:1.9753088:0.007570596
Mouse:Exited:0.19762847:10.0
Pane:Instance:0.3615002:0.030111412
Enabled:remove:0.02284293:0.6857143
Tool:action:0.025387155:0.029792938
Listener:Manager:15.129152:0.041490346
Element:action:0.014362141:0.5958588
Look:Linked:0.18399264:7.692308
apache:Item:0.4938272:0.04065867
Model:Tool:0.04235693:0.114242196
create:Feel:0.3263678:67.73283
Data:Panel:0.084603645:11.826821
Size:Layout:1.9093686:6.082725
Icon:Base:0.788091:0.045528125
Text:Manager:24.9724:0.1907544
event:Action:95.89041:0.18935807
Manager:Container:0.052790564:44.022503
Name:List:0.004706079:0.06969721
Event:Clicked:0.0041750167:25.0
Panel:paint:0.63357973:1.734104
Mode:Debug:1.6666667:0.16939582
size:Array:17.647058:0.22438294
hash:Item:0.32407406:0.14230534
Manager:Modal:0.66789335:99.0
Target:Action:3.6:0.024346039
Template:Instance:53.333336:0.030111412
Event:Text:0.054275215:0.2870391
Enabled:Instance:0.25381035:0.75278527
Name:model:0.8701017:75.36232
Layout:Manager:2.919708:0.006071758
apache:Manager_:0.2469136:0.11587485
Model:Text:1.6378012:7.683815
List:apache:0.13939442:4.4444447
List:Enabled:0.4181832:0.06852879
Size:Component:0.1527495:0.13094719
String:Editor:0.027194235:0.029312618
Tree:Base:11.36951:0.22258195
should:Manager:14.285715:5.059798E-4
Monitor:Event:2.3255813:0.0041750167
Code:Editor:0.8907545:0.63754946
Manager:Undo:0.008095677:8.938547
Object:Editor:0.013624442:0.058625236
log4j:Manager:11.262798:0.0055657784
Base:Mutable:0.0050586807:100.0
Event:List:0.13360053:0.24781227
Data:List:0.8294179:8.503059
Base:Elements:0.020234723:80.0
Button:Enabled:0.39970022:0.020304825
Cache:Label:0.66225165:0.66225165
layout:Layout:3.846154:0.243309
Removed:Event:24.0:0.1252505
Update:application:77.77778:0.16313213
contains:Object:16.666668:0.010218332
core:String:0.026968716:0.006798559
Factory:Types:0.26196715:7.4829926
Instance:Facade:0.5081301:23.684212
List:Wrapper:0.061953068:1.1347518
Manager:Panel:0.016191354:10.137276
Action:Editor:0.0040576733:0.021984465
Enabled:Logger:0.10406224:4.248705
Instance:access$000:0.007527853:4.166667
Action:Project:0.029756268:0.050963677
Core:Handler:91.17647:23.203594
Base:List:21.600567:33.06745
List:Facade:0.13939442:3.1578946
contains:Instance:55.555557:0.07527853
Mode:Location:0.5555556:6.25
Data:apache:0.0015107794:0.4938272
Action:Standard:0.5193822:100.0
Model:Component:0.1129518:0.52378875
Size:Base:0.0509165:0.010117361
action:Adapter:0.014896469:0.030873727
apache:Event:1.728395:0.029225118
List:Entered:0.015488267:28.57143
paint:action:3.7572253:0.1936541
core:List:4.045307:1.1616201
impl:Pressed:0.041638277:41.904762
action:Notify:0.029792938:100.0
mouse:action:0.48105833:0.11917175
Manager:Save:8.432998E-4:55.555557
Analysis:action:100.0:0.029792938
Event:remove:0.3966266:3.6190476
Action:Manager:16.17659:2.017173
Event:Combo:0.033400133:34.782608
Base:access$400:0.17199513:89.47369
log4j:Item:0.3412969:0.020329336
Descriptor:Element:100.0:0.043086424
Manager:Adapter:0.0013492795:0.24698982
Enabled:From:0.04060965:29.62963
Enabled:Size:0.0025381031:0.0509165
Event:Browser:0.116900474:63.636364
Handler:Instance:0.4491018:0.01129178
Element:Object:0.17809056:0.8447154
Editor:Element:0.4396893:0.021543212
Group:Name:1.1904762:5.228977E-4
Manager:selection:3.3731989E-4:33.333336
Abstract:List:0.42813456:0.10841787
Moved:Pane:6.703911:0.54225034
Index:Object:8.80139:14.237542
Factory:Factory:0.04763039:0.04763039
Index:Index:3.8911407:3.8911407
Listener:Listener:1.6605166:1.6605166
Editor:Base:0.26381359:0.1821125
Debug:Node:0.45172217:0.79365087
Text:Abstract:0.13247958:0.18348624
Code:_get:0.30715674:50.0
Cache:hash:5.298013:0.37037036
Model:State:0.02823795:11.111112
From:Manager:13.888889:0.0025298991
Wrapper:Object:2.6950355:0.03235805
Content:Width:100.0:0.9803922
Manager:Location:0.0025298991:93.75
init:Item:100.0:3.6592803
Manager:Manager:33.268513:33.268513
Pane:Linked:0.09037505:7.692308
Base:Debug:0.10117361:1.1293055
Pane:List:0.09037505:0.015488267
Update:Instance:22.222223:0.007527853
Panel:Property:1.2671595:1.1278195
Base:Enabled:0.22764064:0.057107326
Impl_:Facade:1.0881393:1.754386
Event:Base:16.090513:19.496155
Mouse:Pressed:2.173913:10.476191
action:Linked:0.2383435:61.538464
impl:Drag:0.031228706:52.380955
Code:Model:0.28667966:0.13177711
Iterator:Iterator:0.3013067:0.3013067
Cache:Factory:0.66225165:0.023815194
Removed:Manager:8.0:0.0016865996
Event:Abstract:1.1105545:8.134557
List:Listener:0.07744134:0.61500615
Object:Factory:0.006812221:0.09526078
Event:Tree:0.24215098:14.98708
Event:Handler:1.0270542:36.826347
Enabled:Action:0.6294496:0.67086864
Listener:Panel:0.36900368:0.63357973
Base:Storage:0.22764064:0.11946163
Element:Base:0.06068005:0.85491705
Base:Panel:0.10117361:2.1119325
core:Manager:0.37756205:0.0023612392
Pane:Entered:0.09037505:28.57143
Listener:Removed:0.061500613:0.8
Debug:remove:0.9599096:0.64761907
Model:Settings:0.00941265:2.5
Text:Selection:1.1481564:2.3039432
Image:application:50.0:0.069913775
core:Document:0.026968716:0.36101082
action:process:1.0278563:65.09434
Border:Panel:15.789473:1.5839493
log4j:Manager_:0.3412969:0.11587485
Registry:Manager:4.738292:0.014504755
Model:find:0.07059488:1.1914217
Pane:Preferred:0.54225034:1.4742014
impl:fire:0.0047316225:11.627908
Manager:Manager_:0.0047224783:3.2444959
List:core:0.89057535:3.1014023
Editor:equals:0.029312618:1.0582011
Selection:Action:1.2405849:0.037871614
Debug:Debug:0.22586109:0.22586109
check:From:14.285715:0.9259259
Instance:Helper:0.03387534:1.8518518
next:Index:6.6538086:0.07264305
fire:Changed:11.627908:2.9411764
paint:Pane:5.202312:0.81337553
Navigate:Action:16.666668:0.0054102307
Tree:Handler:0.5167959:0.29940122
Logger:Layout:0.051813472:0.081103
apache:Manager:8.888889:0.006071758
impl:Popup:0.019872814:51.219513
impl:Layout:0.019872814:1.703163
Event:Event:18.399298:18.399298
Action:Item:0.0892688:1.3417361
Component:Panel:0.9166303:4.435058
Visible:mouse:0.38610038:0.06013229
Node:Element:5.059524:0.01831173
Manager:Feature:6.7463977E-4:100.0
remove:impl:29.142857:0.7239382
Released:Mouse:6.666667:1.1857708
Component:Manager:67.21956:0.51947266
Bounds:Width:48.35165:3.5947714
Action:Button:0.53020257:9.792656
Code:Factory:0.08190847:0.19052155
Changed:Editor:3.529412:0.04396893
Logger:Changed:0.103626944:1.1764706
Selected:Manager:90.27778:0.13155477
property:Visible:100.0:0.38610038
Enabled:Model:0.09517887:0.35297439
Editor:Text:0.96731645:2.9145508
Manager:Debug:0.024793012:8.300395
Code:Cache:0.010238559:0.66225165
Project:Containing:0.0069495924:50.0
impl:Target:0.036906656:7.8
Copy:core:6.666667:0.10787486
Pane:Selection:1.1748757:1.1519716
impl:Item:0.05204785:1.1181135
Handler:Tree:0.4491018:0.7751938
Model:impl:0.33885545:0.06813536
Object:Panel:0.034061108:2.1119325
impl:Manager:9.543683:1.7009355
Style:Style:22.764229:22.764229
Manager:Instance:0.98666066:22.01897
Manager:Change:0.0016865996:1.7094018
fire:Tree_:4.6511626:25.0
Pane:Clicked:0.045187525:25.0
Facade:Manager:22.105263:0.021251153
Event:Editor:9.623413:16.891396
Manager:Listener:5.059798E-4:0.18450184
Abstract:Factory:0.09174312:0.071445584
contains:Check:2.777778:0.07147963
Core:Base:5.294118:0.045528125
Enabled:Registry:1.0913844:47.38292
Cache:create:70.19867:0.048048593
Enabled:Button:0.012690516:0.24981263
Panel:application:2.745512:0.60591936
Pane:Panel:1.7623136:4.118268
Mode:Tool:0.5555556:0.012693577
Panel:Manager:17.423443:0.02782889
hash:Model:2.9166667:0.29649848
Visible:Icon:16.988417:3.8528898
Manager:List:0.041321684:1.8973126
Feel:Check:3.010348:2.2873483
Object:Item:0.08344971:0.9961374
Debug:Event:1.3551666:0.1002004
Debug:action:0.05646527:0.014896469
Debug:Panel:0.05646527:0.105596624
Manager:Performed:0.0020239193:70.588234
String:Show:0.006798559:50.0
Manager:Tool:0.040984366:3.0845392
Base:Size:0.0050586807:0.02545825
Manager:Feel:0.039803747:22.201317
Navigate:Instance:8.333334:0.007527853
Logger:Panel:0.103626944:0.21119325
Selection:Event:0.7089056:0.06680027
Group:Manager:51.19048:0.0072523775
Feel:Linked:0.18814676:7.692308
Object:List:1.9312646:8.781848
Editor:Manager_:5.950462:94.090385
Manager:apply:3.3731989E-4:100.0
Size:core:3.8187373:4.045307
remove:Instance:0.114285715:0.01129178
Look:Check:2.9438822:2.2873483
Object:Instance:0.1481658:0.3274616
Code:Impl_:0.40954235:4.352557
Impl_:Model:0.4352557:0.0188253
Manager:Editor:0.05869366:2.5501978
Look:Action:2.2079117:0.032461386
log4j:Focus:0.3412969:0.42918456
Simple:Instance:32.83582:0.41403192
application:Factory:0.8389653:0.85734695
List:log4j:0.13939442:6.1433444
Status:mouse:1.5873017:0.06013229
Code:Base:1.3310126:0.6576285
Selection:Lexer:5.6269383:98.449615
Status:Manager:71.42857:0.007589698
Layout:Layout:4.379562:4.379562
Event:Plain:0.008350033:100.0
Node:impl:7.7380953:0.07381331
Event:Exited:0.0041750167:10.0
Change:Debug:4.2735043:1.411632
Code:size:0.55288213:35.294117
Tree_:Event:50.0:0.016700067
Name:Project:0.004706079:0.020848777
Strategy:Manager:55.714287:0.0065777376
Event:Enabled:1.2274549:0.37310117
Element:Model:0.0064629638:0.08471386
Name:Manager:0.59767205:0.19277832
Color:Color:46.411484:46.411484
Document:Event:9.7472925:0.11272546
Manager:Selection:0.07589698:19.937971
Adapter:action:98.1167:47.34098
Text:Name:0.22079928:0.0052289767
Pane:paint:0.3615002:2.3121386
Element:Component:0.0010771606:0.065473594
Mouse:Entered:0.39525694:28.57143
Drag:Pane:15.873016:0.4518753
model:application:1.4492754:0.7457469
Moved:Event:2.2346368:0.016700067
Menu:Added:0.123001225:11.111112
Debug:Focus:0.22586109:1.7167382
Editor:Editor:15.389125:15.389125
Editor:From:0.029312618:3.7037036
Facade:Document:0.3508772:0.72202164
Abstract:Active:0.09174312:1.1450382
Expression:Expression:33.333336:33.333336
Editor:action:3.1877472:6.4799643
Base:Text:0.035410766:0.1545595
apache:Focus:0.2469136:0.42918456
impl:Label:0.06624271:46.357616
List:Base:1.4868737:0.97126675
Cache:Code:21.192053:0.3276339
Enabled:create:0.1599005:0.057114363
Listener:Object:2.398524:0.066419154
Mouse:Clicked:0.19762847:25.0
Element:Logger:0.0043086424:0.6217617
Object:Iterator:0.108995534:0.09838586
Selection:Editor:5.6712446:0.9380038
find:create:0.07942812:4.532886E-4
Type:List:0.2359882:1.6727328
Item:action:6.3834114:4.677491
Visible:Attribute:0.38610038:1.1764706
log4j:Element:4.0955634:0.0043086424
Width:Item:61.764706:15.368978
Tool:Enabled:7.590759:0.75889283
Editor:Group:0.014656309:2.3809524
Style:Manager:16.260162:0.0101195965
Line:Width:19.525066:6.0457516
Editor:Handler:0.021984465:0.4491018
Undo:Undo:2.793296:2.793296
Element:Change:0.0014362141:0.6837607
Manager:Bounds:5.059798E-4:3.2967036
model:Path:1.4492754:100.0
Panel:Instance:8.870116:0.31616983
Impl_:log4j:0.10881393:0.3412969
Target:Event:1.6:0.033400133
Registry:Instance:1.9283748:0.13173743
impl:Style:0.022711787:6.5040646
impl:Model:0.31039444:1.5436747
Editor:paint:0.07328155:2.8901734
Enabled:Element:0.01522862:0.0043086424
debug:Panel:55.555557:0.5279831
Enabled:Navigate:0.0025381031:8.333334
apache:Logger:3.9506176:0.82901555
Scroll:Instance:69.82758:0.30487803
Code:core:0.67574483:1.7799354
Model:Renderer:0.014118975:100.0
internal:Manager:69.84127:0.007421037
selection:Event:66.66667:0.016700067
Tool:Focus:0.72353387:24.46352
Base:Property:0.020234723:0.37593985
Label:Pane:0.66225165:0.045187525
Manager:log4j:0.006071758:12.286689
Name:Abstract:0.09987346:5.8409786
Height:Selection:100.0:0.3987594
equals:Node:7.4074073:2.777778
Manager:Internal:0.020239193:41.237114
Handler:Editor:0.29940122:0.014656309
Panel:Change:1.0559663:1.7094018
Element:remove:7.1810704E-4:0.07619047
log4j:action:0.3412969:0.014896469
Support:Manager:100.0:6.7463977E-4
Instance:Navigate:0.007527853:8.333334
Name:Text:0.010457953:0.44159856
Manager:Style:0.0101195965:16.260162
process:Editor:9.433963:0.07328155
Manager:Project:0.57023925:7.8321905
Text:Editor:6.4694195:2.1471493
hash:Enabled:2.0833335:0.057107326
Scroll:impl:9.4827585:0.010409569
Node:Object:0.9920635:0.017030554
Selected:Target:0.6944445:1.2
Combo:Base:17.391304:0.020234723
log4j:Listener:1.3651876:0.24600245
should:Text:19.047619:0.08831972
Editor:Project:0.0806097:0.025481839
Actions:Pane:16.666668:0.1807501
action:Editor:0.2383435:0.11725047
Selection:Logger:0.0443066:0.051813472
action:First:0.4022047:60.000004
Instance:Manager:45.46823:2.0374122
Type:debug:0.001092538:11.111112
internal:Action:12.698414:0.010820461
invalidate:Selection:33.333336:0.0443066
Mode:Event:5.555556:0.041750167
List:Types:0.030976534:2.7210884
Model:Abstract:0.77183735:5.0152907
hash:Editor:4.7222223:0.74747175
Iterator:Wrapper:0.035357416:3.2624114
paint:Object:0.867052:0.005109166
Graph:Base:100.0:0.010117361
size:Index:17.647058:0.028425539
Code:Wrapper:0.5733593:7.943262
Layout:Size:44.282238:13.900204
Manager:Lexer:1.6865994E-4:0.7751938
Released:impl:20.0:0.01703384
Object:Debug:0.017030554:0.56465274
Factory:Feel:0.42867348:1.6933209
Editor:Border:0.15389125:22.105263
Combo:Event:8.695652:0.008350033
List:True:1.9747541:64.8855
Show:Base:50.0:0.0050586807
Selection:Width:3.455915:6.3725495
action:analysis:0.029792938:11.111112
Button:Tool:15.288533:7.7684693
apache:Object:0.2469136:0.0017030552
Name:Pane:0.0041831816:0.3615002
Undo:undo:1.8621974:20.408163
Tools:Action:100.0:0.0054102307
String:Object:74.83854:18.747232
Base:Object:0.7588021:0.2554583
Object:Tree:0.10558943:16.020672
mouse:Pane:3.7282019:2.8016267
hash:Check:0.1388889:0.21443889
Object:remove:0.07323138:1.6380953
Wrapper:Wrapper:29.361702:29.361702
Tree:Code:4.3927646:0.17405549
Project:Project:3.9381022:3.9381022
Base:Manager_:0.0050586807:0.11587485
Selection:Manager:17.058043:0.06493408
Type:Factory:0.3135584:6.834961
Performed:Instance:17.647058:0.01129178
action:List:0.476687:0.24781227
Manager:Check:0.03592457:15.225161
Project:Event:0.050963677:0.09185037
Instance:Simple:0.22583559:17.910448
Save:Manager:44.444447:6.7463977E-4
impl:log4j:0.001892649:0.6825938
register:Instance:0.30959752:0.0037639264
Event:Element:0.09185037:0.007899177
equals:Storage:52.380955:0.5256311
List:Exited:0.015488267:20.0
Name:Item:0.44289437:17.218948
Name:Event:0.054381356:0.43420172
Menu:Manager:62.976627:0.08635389
Pane:Editor:0.4518753:0.07328155
process:mouse:4.7169814:0.30066144
Enabled:Impl_:0.006345258:0.54406965
Node:Provider:0.29761904:6.382979
Event:Object:3.252338:1.3266801
Project:Facade:0.08802817:6.666667
Action:From:0.0446344:30.555555
Layout:Type:0.162206:0.002185076
Mouse:Released:2.173913:12.222222
Size:Label:0.101833:2.6490066
Handler:Enabled:0.74850297:0.006345258
Size:Preferred:5.7026477:27.518427
Impl_:Array:7.834603:0.5983545
Instance:log4j:0.060222823:5.4607506
Logger:log4j:0.82901555:5.4607506
remove:Listener:0.038095236:0.061500613
Factory:core:1.2860205:1.4563107
Event:apache:0.31312624:18.518518
Code:Debug:0.35834956:1.9762846
Enabled:action:0.057107326:0.67034113
Pane:Moved:7.0492544:87.15083
Logger:Size:0.051813472:0.02545825
log4j:application:2.7303753:0.18643673
Base:Model:0.040469445:0.0376506
Base:Editor:0.08093889:0.11725047
equals:access$400:0.52910054:5.263158
clear:Manager:88.88889:0.002698559
Project:Model:0.018532246:0.0376506
Added:core:11.111112:0.026968716
Modal:Action:0.5:0.027051155
Instance:equals:0.015055706:1.0582011
core:core:15.96548:15.96548
Types:List:2.7210884:0.030976534
Mouse:mouse:40.316208:12.266988
register:Action:0.30959752:0.0013525577
Change:impl:41.88034:0.23184949
mouse:impl:7.937463:0.124914825
Debug:Component:2.03275:0.7856831
Manager:Button:0.15482983:22.9328
Enabled:Configuration:0.032995343:6.7708335
Element:Provider:0.015439303:91.489365
Item:Panel:0.08131734:0.4223865
Event:Document:0.1002004:8.66426
Name:Editor:0.0052289767:0.07328155
Mode:Editor:2.2222223:0.029312618
Bounds:Icon:48.35165:3.8528898
Instance:List:0.14679313:0.30202124
Handler:Iterator:1.1976049:0.012298233
Abstract:Model:1.9571865:0.3012048
Changed:Changed:8.823529:8.823529
Debug:Attribute:0.11293054:2.3529413
find:Text:56.235104:15.63259
update:Node:11.764706:2.3809524
equals:Text:0.26455027:0.02207993
Model:Index:0.16942772:0.037900724
From:Undo:0.9259259:0.18621974
List:mouse:0.09292961:0.7215875
Manager:Enabled:0.13830116:1.0406224
Manager:Removed:6.7463977E-4:3.2
Index:Base:0.8001263:3.844597
Change:Logger:8.5470085:2.5906737
Model:Project:0.0753012:0.037064493
Factory:Cache:0.023815194:0.66225165
event:Instance:4.109589:0.02258356
remove:Manager:0.57142854:0.0025298991
Implementation:Base:75.94936:0.6070417
Line:find:11.081794:3.3359811
create:Look:0.3263678:66.23735
Layout:Target:1.946472:4.8
equals:Object:19.84127:0.12772915
Index:Storage:0.07790703:0.19644801
Project:Instance:2.3674943:3.8467329
Debug:Registry:33.992092:33.168045
Editor:Manager:29.810932:0.68610865
Undo:Project:11.173184:0.13899185
Name:Listener:5.228977E-4:0.061500613
Action:Combo:0.0054102307:17.391304
Check:Data:0.42887777:0.004532338
Selection:Selection:1.0633584:1.0633584
Selection:mouse:0.0886132:0.12026458
Index:Impl_:0.060009472:6.2023935
Instance:Item:0.7904245:4.2691603
Manager:process:0.003035879:16.981133
model:Manager:21.73913:0.08095677
Base:remove:0.99656016:7.504762
Model:Action:0.07059488:0.020288365
create:Types:0.0013598659:2.0408163
Manager:apache:0.006071758:8.888889
Enabled:Popup:0.0025381031:4.8780484
Helper:Project:0.82304525:0.009266123
insert:application:100.0:0.023304591
hash:Wrapper:2.5925925:7.943262
Impl_:Wrapper:10.772579:14.042553
fire:Listener:4.6511626:0.123001225
Item:Action:3.9845495:0.26510128
Index:Code:2.260357:21.982185
Resource:Factory:100.0:0.21433674
Enabled:Check:0.010152413:0.57183707
application:Tool:2.516896:1.3709064
Target:Element:16.8:0.030160498
Object:Element:2.956504:0.62331694
Mode:impl:51.666664:0.08800818
Model:Object:0.57417166:0.20777273
Strategy:Instance:35.714287:0.09409816
action:Instance:4.275287:1.0802469
Valid:Object:13.333334:0.0034061105
create:Instance:0.012238792:0.10162601
layout:Icon:46.153847:3.152364
Manager:Name:0.07910152:0.24523902
Enabled:Tool:0.26650083:2.6656513
Factory:Look:0.42867348:1.6559339
Manager:Layer:0.0020239193:54.545456
Editor:Model:0.41770482:0.26826054
Popup:Enabled:4.8780484:0.0025381031
Dependencies:Dependency:100.0:91.89189
From:Provider:0.9259259:2.1276596
Option:Name:100.0:0.0020915908
Graphics:paint:62.29508:10.982658
Debug:Impl_:0.28232637:0.54406965
Element:Element:12.571183:12.571183
Helper:Removed:7.2016463:28.0
action:Change:0.46179056:5.299145
Event:Entered:0.0041750167:14.285715
Action:Data:0.4084724:0.2281277
Data:Swing:0.06949586:73.6
Actions:fire:16.666668:9.302325
Pressed:impl:15.238096:0.015141192
Types:Event:2.0408163:0.01252505
Data:create:94.95022:56.977016
