Splitter:Tree:7.4074073
Class:Parameter:0.2063185
Loader:Class:17.582418
Dialog:Preferred:1.0568514
Type:Types:20.992262
create:Model:40.790936
log4j:create:1.5564202
Tree:Tree:20.659899
Value:Class:0.041963913
List:Child:0.11867088
Support:Base:79.941216
Cache:Values:0.31241125
Base:Utils:0.08193363
Component:paint:2.2030475
Name:File:0.8805032
Base:Iterator:0.23669717
action:Base:3.033367
Base:String:0.109244846
Type:Size:0.092131935
Type:Handler:63.847427
Type:Object:0.08291874
State:Code:6.666667
Action:Instance:63.286716
Base:Element:0.72829896
File:Types:1.3266859
apache:Composite:0.0030625993
Child:Model:40.0
String:Storage:0.09367681
Object:Index:30.387262
Cell:Tree:30.303032
Types:File:10.468187
Component:Model:7.600514
String:paint:0.07025761
Impl_:Iterator:1.2549831
Loader:Object:32.967033
action:Path:0.13481632
Object:Base:0.1168099
State:Class:53.333336
Component:Editor:7.930971
File:code:1.1472913
Wrapper:Model:10.601427
Class:Cache:0.2063185
Project:message:0.24405125
Load:Type:7.8431377
Size:Parent:0.38535646
Type:Manager:1.4372581
code:File:61.333336
Tool:action:1.1940298
Component:Value:18.872774
Reference:Value:2.1414666
Listener:Manager:61.217945
Tool:Tool:1.7910447
apache:Item:0.004593899
Default:apache:40.13841
Container:Handler:26.086956
Manager:Logger:2.8629856
Class:Object:2.321083
Model:Element:0.025295109
Delegate:Object:8.0
apache:apache:48.71677
Loader:Base:26.373629
Storage:Impl_:0.004132573
Code:Index:14.338615
Code:Object:7.398492
Component:Tree:22.617956
String:Item:0.23419203
Instance:Storage:8.167895
hash:Item:5.9779297E-4
Dialog:Button:0.47376096
Value:write:7.6234436
init:Model:28.57143
Node:Tree:58.536583
property:Project:50.0
Name:model:1.2997904
Value:File:14.7712965
Info:code:20.754717
Model:Text:4.9072514
Button:Component:0.16522098
enter:Object:0.2898551
Class:Instance:0.8768536
Tool:Manager:72.83582
Code:Default:0.032301106
Size:Panel:1.1560693
Object:String:0.004767751
Width:paint:12.38938
File:Object:4.3023424
Storage:Storage:0.5496322
Descriptor:Types:1.1078287
Project:Search:0.030506406
Contains:Class:100.0
Types:Type:6.242497
Project:Count:0.122025624
custom:Type:100.0
Type:Load:0.7048093
Project:debug:5.4911532
size:Object:8.637413
String:Line:0.9601873
Base:Priority:0.009103737
Descriptor:Parameter:0.36927623
Wrapper:Index:5.1987767
Impl_:Code:59.95866
Instance:Facade:1.5882019
Model:List:1.3406408
write:Storage:2.3540952
Name:Descriptor:8.113208
Model:Type:1.1593592
Value:Base:7.490558
Loader:Cache:17.582418
Handler:Element:0.17033195
Class:Descriptor:0.49000645
action:Tool:0.8088979
action:Project:0.10111224
Descriptor:Instance:1.3293945
Delegate:Base:48.0
Attribute:Impl_:0.109458506
action:Adapter:0.16852039
Preferred:Type:1.2195121
Index:Support:1.7265223E-4
Holder:File:0.9276438
Performed:Manager:12.903225
Base:Cache:0.30952707
Dialog:Dialog:44.897957
Model:create:2.4114673
Object:Code:2.9947436
mouse:action:12.5
Width:Component:30.088497
Proxy:Instance:0.9633912
Class:File:0.116054155
Pool:Base:25.0
Types:Class:0.19207683
Object:Type:0.26103437
Handler:Item:0.0037851548
Type:Base:2.9574351
Wrapper:hash:6.116208
log4j:Item:0.29182878
hash:Handler:0.45193145
action:Valid:0.20222448
Icon:Component:24.852072
log4j:log4j:12.451362
hash:Storage:0.01793379
Custom:Class:30.769232
write:Item:0.13732222
Descriptor:Element:6.1299853
Panel:Dialog:29.166666
File:Name:1.852354
File:Wrap:0.050063625
String:Model:3.9344263
Element:Object:2.4613624
File:Descriptor:0.2002545
write:Order:0.00980873
Listener:action:10.416666
log4j:Hierarchy:6.225681
Search:Model:55.555557
log4j:apache:12.451362
Index:hash:0.22099486
Index:Object:7.444764
Index:Index:3.0443769
Proxy:Handler:99.03661
check:Base:53.333336
Monitor:Project:2.1551723
Impl_:Object:0.19193858
Base:Class:0.027311211
File:Handler:4.090615
Cache:hash:1.1360409
Code:_get:0.52604663
hash:File:0.18830478
Size:Size:6.743738
Code:Class:1.2024472
Descriptor:File:1.366322
Empty:hash:50.0
File:Class:0.0020859842
Storage:String:3.9052815
hash:Value:1.1226552
Model:String:1.6020236
Code:Handler:0.5191249
Wrapper:Base:39.449543
Cache:Cache:0.34081227
Type:Layout:0.032246176
Instance:action:3.0629609
Model:Handler:0.025295109
Button:paint:0.6608839
Line:Panel:0.24752475
Object:hash:0.6436464
Tree:Text:9.035533
Iterator:Index:67.98665
Object:check:0.016687129
Find:Dialog:16.25709
Handler:Storage:0.46935916
Store:Class:59.016396
Base:Item:0.03186308
Loader:release:1.0989012
hash:Loader:0.0011955859
Cache:Value:47.1457
Item:Text:73.50993
Component:Text:1.3952634
hash:Object:2.9530973
File:model:0.008343937
Base:Storage:2.5035276
Element:Base:4.751002
Project:Manager:57.29103
Name:Index:0.2096436
log4j:Composite:0.19455253
Descriptor:Value:16.838997
code:Info:2.0
Storage:State:0.016530292
Tree:Renderer:0.38071066
paint:Icon:4.1644135
List:Project:1.3449367
Facade:Type:15.789473
String:Component:4.449649
Bytes:Type:0.024128363
Long:Storage:3.6585364
Attribute:Index:0.11589724
Storage:storage:0.053723447
Button_:Action:33.333336
Renderer:Text:13.740458
create:Find:0.22217284
Name:Reference:0.49266246
Count:paint:1.688693
Monitor:Adapter:41.37931
Tool:paint:2.6865673
Code:Value:0.14535499
Reference:Next:0.16223232
Descriptor:Handler:0.55391437
Renderer:Tree:22.900763
log4j:Default:0.68093383
Index:File:2.2769377
Action:Dialog:3.1468532
paint:Pane:0.757166
Pool:Bytes:60.000004
paint:Type:0.4326663
application:Model:90.07451
Configuration:Base:20.0
paint:Renderer:2.5959978
Dialog:message:0.03644315
Descriptor:Index:4.800591
mouse:Manager:75.0
Class:Class:2.8368793
File:Load:0.3567033
Handler:Changed:0.0037851548
File:Dispatch:0.057364568
Load:File:49.673203
File:Holder:7.7828074
enter:Instance:66.66667
Project:List:0.67114097
Dialog:Help:0.0728863
paint:Cell:2.5959978
Abstract:Count:97.196266
paint:Editor:5.9491615
Utils:Base:27.118645
code:Class:1.3333334
write:Value:0.45120156
Layout:Preferred:44.0678
Custom:File:53.846157
Name:Object:0.23584905
preferred:Size:50.0
String:String:4.7775173
Code:Cache:0.001538148
action:Object:0.23592855
Class:Index:0.15473887
write:Active:0.01961746
Logger:Logger:21.114683
Attribute:Name:81.12807
Component:Button:0.954654
action:Manager:48.837208
hash:Dirty:0.0011955859
Object:Wrapper:0.02145488
Monitor:List:0.86206895
Change:Project:26.31579
action:Button_:0.06740816
Size:Count:6.743738
Reference:Instance:2.5957172
Tree:List:10.507614
hash:Default:0.007173515
Composite:List:91.30435
write:Base:14.006866
String:Manager:1.0538641
State:hash:6.666667
Splitter:paint:59.25926
Wrapper:Value:0.20387359
Name:load:0.02096436
Button:Dialog:0.49566296
Impl_:Value:0.05905802
Model:Configuration:0.016863408
File:Value:1.8085483
State:Custom:6.666667
Manager:Listener:0.62922764
action:Listener:2.3929896
Index:write:0.2085639
Editor:Component:52.1519
Performed:Base:3.2258062
Name:action:0.12578616
String:Values:0.046838406
Type:Project:0.10134512
create:Dialog:0.04443457
write:Utils:0.01961746
Values:String:24.444445
Listener:Monitor:0.16025642
Wait:application:100.0
List:Search:0.03955696
Code:Support:0.049220737
Change:Manager:49.122807
Name:Attribute:2.3637316
Code:Reference:0.52758473
Object:Item:0.024434723
preferred:Preferred:50.0
select:Count:100.0
Generator:Base:12.048193
Manager:Tool:1.1326097
Manager:Performed:0.26742172
Line:Size:81.930695
Manager:debug:0.06292276
Manager:Monitor:0.14157622
Code:Loader:7.69074E-4
File:Base:1.0398632
Logger:Hierarchy:3.4297962
log4j:Instance:0.8754863
write:write:7.376165
storage:String:3.7037036
Mouse:action:2.7027028
debug:create:2.6455026
action:Handler:0.20222448
Descriptor:Name:0.18463811
Class:Holder:0.18052869
Container:Instance:69.565216
Reference:Element:0.12978585
Empty:Code:36.95652
Object:Instance:0.03099038
Performed:Dialog:3.2258062
String:Base:2.9039812
Node:Renderer:8.130081
hash:Index:0.7759353
Splitter:Editor:3.7037036
Project:Logger:1.3727883
Wrap:File:40.0
hash:equals:0.007173515
Model:Model:5.084317
Base:check:0.12745231
Cache:Base:5.964215
Manager:Mouse:0.75507313
Node:Component:17.073172
Code:Base:0.5710375
apache:create:0.035219897
Contents:Instance:100.0
Pane:Width:8.0
Tool:Listener:0.29850745
hash:Cache:0.0047823437
Class:Base:0.92843324
Element:Model:0.22896393
Order:Value:98.73418
Base:Next:0.21848969
Mouse:Manager:68.72587
Iterator:Impl_:0.37414986
Values:Base:61.11111
Class:Bytes:0.23210831
Pane:paint:20.0
Descriptor:Reference:0.07385524
Multiple:Reference:100.0
Count:action:0.14684288
File:Storage:0.59241956
Storage:Code:0.8719729
Parent:Listener:4.6511626
paint:Width:3.407247
property:Manager:50.0
Impl_:hash:5.9500957
Change:hash:3.508772
Handler:Base:0.9197926
Cache:Code:11.474013
Logger:apache:13.719185
Iterator:Model:0.00482774
Base:Impl_:0.32773453
Instance:init:0.28360748
Results:message:100.0
action:internal:0.40444896
apache:log4j:0.19600636
Object:Iterator:0.004767751
Code:Next:28.05928
Button:Button:47.08798
Object:File:1.1085021
hash:Delegate:0.0047823437
Attribute:File:7.520443
File:Bytes:11.226768
First:Model:22.222223
Pool:Object:10.0
hash:Element:0.09265791
Code:Dirty:7.69074E-4
equals:Value:0.9516257
Long:Base:91.46342
hash:Iterator:43.620354
Dialog:Types:0.03644315
Name:Base:2.8301888
Types:create:1.8727491
Object:Name:0.3218232
Editor:paint:1.6877637
Base:Code:2.184897
Impl_:Handler:0.33958364
apache:Logger:0.20519416
Object:Reference:0.0059596887
Dialog:Panel:0.32798833
Dialog:Listener:0.0728863
enter:Container:6.9565215
hash:Base:0.55236065
Change:Count:3.508772
Tree:Model:16.522842
Handler:Handler:0.113554634
Cache:Object:1.5336552
Instance:Monitor:5.445264
Impl_:Base:0.4576997
Storage:Class:0.033060584
Empty:Storage:13.043478
Manager:log4j:0.39326724
Bytes:Info:0.048256725
configuration:Base:100.0
resolve:Base:60.000004
Model:Tree:0.084317036
Value:Type:0.62945867
Manager:Parser:0.28315243
Value:Model:0.34969926
Name:Element:4.706499
Name:Storage:0.00524109
Base:Base:7.6152763
Element:Handler:0.17172295
Object:size:0.5977568
Arrow:paint:66.66667
Store:Type:16.393442
Code:create:0.076138325
action:Name:0.06740816
Type:Line:0.1428045
hash:Reference:0.82017195
Logger:Default:0.375134
Base:Wrapper:0.013655606
Dialog:Size:0.25510204
Index:Attribute:0.0075966986
Base:write:0.32773453
Slash:File:100.0
Dialog:Tool:0.03644315
Name:Model:0.03144654
Object:Storage:18.343922
paint:Tree:24.01298
Path:action:80.0
Default:Object:0.6920415
Instance:Dialog:0.113442995
action:Find:0.40444896
Internal:Editor:100.0
File:Index:11.076576
Horizontal:Dialog:100.0
log4j:Logger:13.035019
Code:Storage:0.01153611
Find:Find:24.385633
paint:Component:5.9491615
write:Object:0.8631682
paint:Splitter:0.8653326
Value:Code:4.783886
Value:hash:1.944328
Iterator:Wrapper:0.01206935
Code:Wrapper:0.016919628
Default:Base:7.6124563
Content:Panel:100.0
Count:application:5.873715
Layout:Size:44.0678
Dialog:Find:2.1137028
Pane:Icon:8.0
write:Number:0.07846984
action:Dialog:0.13481632
Object:Next:0.0029798443
Component:Display:0.07343492
Storage_:write:100.0
enter:Iterator:24.927536
Find:Model:12.665406
Base:Index:7.510583
Tree:Component:6.4467006
String:Object:15.667447
Base:Object:1.178934
Code:Changed:0.0073062032
enter:Base:1.1594204
Change:Code:4.678363
Wrapper:Iterator:10.397553
Model:Node:0.101180434
Project:Project:14.460036
Class:Reference:0.051579624
action:List:3.7748568
Performed:Instance:22.580645
Boolean:Base:100.0
application:Count:9.115997
Dispatch:File:50.0
Tree:Cell:0.38071066
Button_:action:33.333336
size:Iterator:26.69746
hash:Name:0.0011955859
Cache:equals:1.0224369
Listener:Action:8.814102
Bytes:File:56.3156
Tree:Value:0.9137056
resolve:Storage:40.0
Type:Change:0.0046065967
hash:create:0.19846725
equals:Storage:90.32514
Handler:action:0.026496084
Descriptor:Pool:0.03692762
First:User:77.77778
Pane:Editor:8.0
Code:iterator:0.004614444
Value:Info:0.041963913
Listener:Tool:0.64102566
Instance:Model:3.6301758
Generator:File:87.95181
write:List:0.23540953
File:Attribute:1.2109139
Node:Cell:8.130081
Size:Preferred:2.6974952
Logger:log4j:13.719185
Storage:hash:0.008265146
Node:Support:1.6260161
Impl_:Attribute:0.48722872
Storage:write:8.773452
Action:Find:7.692308
Renderer:Display:10.687022
Parent:Mouse:51.162792
Base:hash:4.642906
String:List:6.3466043
Help:Dialog:33.333336
Type:Bytes:0.23493643
paint:Button:2.3796647
Size:Type:0.57803464
Change:List:4.9707603
Preferred:Dialog:13.414635
Reference:Storage:1.8818948
Code:Name:0.03307018
create:Object:10.419907
Attribute:Type:0.03863241
paint:paint:14.710654
Method:File:100.0
Index:Iterator:1.6818054
Object:Object:0.033374257
Impl_:Index:0.87848806
Value:Object:2.6577144
Handler:Iterator:0.0075703096
List:Change:1.028481
apache:Instance:0.016844297
Value:Primitive:2.7276542
Find:Instance:2.646503
Storage:Cache:1.6488966
Arrow:Component:33.333336
apache:Hierarchy:0.09800318
hash:iterator:0.007173515
Index:Base:0.5122592
Index:Value:0.0010359134
Text:Model:52.019703
Class:Storage:2.5274017
Active:Base:75.0
Type:Model:0.95817214
Code:Iterator:28.079277
Base:Changed:0.06372616
Tree:Leaf:1.1040609
String:Tree:0.09367681
Descriptor:Class:1.5509601
Types:Types:0.12004802
hash:Next:43.59704
Object:Cache:0.10131471
Index:Storage:0.062154803
Leaf:Tree:28.688522
hash:Support:0.0765175
equals:Support:0.05286809
Tool:Action:1.7910447
hash:Changed:5.9779297E-4
Index:Impl_:0.12430961
create:Types:19.595646
Manager:apache:3.618059
Load:Class:6.5359483
Monitor:Manager:9.4827585
String:Project:0.046838406
Storage:Utils:0.1363749
Impl_:Support:0.04429352
File:File:3.7443419
Manager:action:11.640711
write:Check:0.029426191
hash:Wrapper:0.07890867
Long:Object:4.8780484
Value:Storage:0.22380753
Facade:Types:10.526316
Readers:Handler:100.0
apache:Handler:0.8299645
Base:Handler:4.1103373
Code:Delegate:0.005383518
Count:Abstract:0.44052863
Index:Code:5.370175
Handler:Next:0.0075703096
True:Iterator:100.0
Name:Search:0.01048218
Icon:paint:28.402367
Object:Element:0.014899221
Buttons:Find:100.0
apache:Default:0.059720695
Instance:Object:2.2688599
Code:Element:0.059603237
Model:Order:0.008431704
Manager:index:0.06292276
Handler:File:12.559143
Performed:Find:3.2258062
Iterator:Storage:0.07784731
action:Instance:7.751938
Size:Dialog:0.7707129
Monitor:Base:0.43103448
Cache:Handler:0.056802046
Object:Impl_:0.860579
size:Value:18.337183
action:Storage:0.06740816
Mouse:Action:1.5444015
Code:File:0.28532645
Code:equals:0.2337985
Parent:Tool:39.534885
hash:_get:0.81778073
Class:code:0.5673759
hash:Class:1.8059324
mouse:Action:12.5
Reference:Iterator:0.16223232
Dialog:Model:0.61953354
message:String:28.57143
File:Store:0.09386929
