User:4828
Util:27876
Insert:1032
Than:230
Anchorizer:982
Implies:800
Tasks:1176
Package_:200
Relevant:9213
Hash:83376
event:1664
Timestamps:1648
Implementator:6
Combo:3240
Point:112
decrement:5426
Swing:90
extract:2168
Toolbar:4122
project:27798
Intelligence:230
Disposer_1:264
Widget_:462
Node:1482
Changed:2
Hard:164
components:24210
Nanos:182
Model_:604
array:114
Animated:644
Decorator:650
Specialization_:100
Constraint:9972
access$1200:122
Cached:6374
debug:106
Usage:594
Appenders:2
Action:33792
Builder:280
foundation:804
Content:4656
parse:418
ensure:2616
Place:326
Range:4
Configurations:164
Rendered:2
Mappings:324
Nbinst:14
Strategy:514
Locale:404
access$1000:264
Alarm:988
Modification:1538
register:58
Async:252
Indexing:4278
base:204
Helper:100
storagemodel:50738
Stack:528
Load:40
change:6
Instances:38
apache:568
Utilities_:22
memoryimpl:8038
initialize:14
Extensions:224
append:1138
execute:2186
Head:808
Classifier:7456
Heap:514
Ascii:14
Containing:162
Utils:4410
Initialized:984
Collection_1:162
_handle:2616
Visit:264
Assoc:602
access$500:500
Updater:526
node:146384
Antialiasing:162
Stream:1786
String:10394
Insensitive:614
Application:61441
active:364
Pattern:16
Reference:2180
access$2500:164
Translator:606
update:3798
Command:454
jetbrains:320
Field:530
Flush:700
Records_:88
Lock:6882
analysis:77404
Super:8
Proxy14:32
Region:640
Threshold:106
Runnable_1:164
Manager:106362
Indicator_3:140
Indicator_2:144
Watcher_:154
Tokens:172
Hashing:514
Parameter:2800
Processor:638
Dispatching:110
Opened:984
access$3100:262
Action_1:1886
Template:7752
Match:162
equal:424
nano:362
Boolean:120
Error:6
Appender:14
Typeahead:164
flush:1552
Override:2
retrieve:982
attributes:330
Volatile:486
Skeleton:8
cached:62
Switch:324
Method:6
Callable:2
darcula:224
layers:37578
Operator:1800
Building:56
Hook:4196
Module:3110
empty:2628
reset:404
Safely:196
refresh:144
Global:680
diagnostic:3946
Caching:656
startup:43574
Color:816
Active:4660
Linked:8184
Plain:24
Featured:2216
Union2_:234
Roots:1312
Awareness:2124
Background:972
space:2
filesystems:124290
clear:466
Colon:4744
Stamp:5030
openide:218525
Font:920
Suspend:3356
None:1138
Converter:8
Invokator:270
Goals:9213
access$000:1224
Corrected:210
access$002:8
Running:3350
Independent:162
Pointers:982
Priority:444
access$5300:524
Animator_2_1:252
Relational:12140
projectlevelman:324
Address:560
Watcher:384
translate:212
force:756
Mouse:2
log4j:568
apply:41600
Loader:808
Wizard:910
Text2:140
contains:10046
varia:4
access$700:1684
Back:4040
python:320
Virtual:29374
Loaded:2698
Context:23342
request:270
action:71860
Callback:264
Manager_:1536
Frame:978
Aqua:534
Standard:1002
wrap:120
Body:9164
Actual:2800
minus:262
Event:42822
Support_:3058
Main_1:202
Cache:3956
enter:7896
Object_1:136
Custom:420
_post:2616
depth:264
Security:3124
Limited:4
Results:16
util:258507
Multiplicative:12440
Type:25786
Prio:4
Depth:50828
Help:10
Insets:630
Startup:2952
compute:1460
Checkin:164
Atomic:526
task:36
Processor_:566
schedule:150
Trans:10852
Presentation:23252
Canonical:164
Unregistered:264
Meta:634
Gradient:164
modules:3900
spread:4844
changes:162
Lookups:32
Model:15538
Statistics:28
Classes:100
Visible:4240
Property:4936
Offscreen:486
validated:1636
Class_:904
validate:70
Delegating:4662
matches:162
Stamp_:1648
concurrent:908
Page:3388
Focus:12440
Window:6548
Lookup_:9722
copy:324
template:408
Heavy:184
Selected:3612
Happened:1664
always:2
Animator_2:886
Messages:6
Layout:352
Invocator_:792
Class:2438
Weak:4058
Stamps:950
Modality:4556
Provider:8446
Null:7138
Resolver:2588
Indicator_:72
Base:44972
Association:4624
Pair:1680
Soft:1148
Applicable:900
Wrapper:4626
Code:31288
messages:818
Control:164
Down:3328
Available:1654
Indeterminate:140
proxy:120
Image:1698
Defined:100
customization:420
publish:66
From:15650
pico:2886
Client:3592
Targets:328
Items:82
Settings:696
Offenders:1316
Modules:164
Debug:3874
Assignable:2124
helpers:12
Promise:2
progress:3468
Attributes:1282
Reader_:6
Pack:808
Output:1606
perform:3594
Settles:164
Menu:6
Extension:1620
Pico:8658
javax:300
Internal:670
iterable:20
Scheduler_1:3672
Adopted:4
Base_1:894
Value:13498
localize:606
Collections:6739
select:182
Readers:10852
Pool:3392
Repaint:1790
init:1508
Merger:72
Entries:492
Mutex:21756
navigation:1558
Headline:608
True:1852
Dirty:884
case:88524
Aware:3430
Resolve:1294
mouse:4
Passed:984
Daemon:48
Health:16
Cursor:454
Visitor:792
Performance:90
profile:4132
Resource:9714
Shared:1262
Resizeable:1410
Events:4822
Suffixes:70
Forwarder:6
Configuration:102
reference:1146
Request_1:124
Category:508
Reflection:2128
Info:2970
Execute:3672
weak:14
core:40442
Directory:13358
Look:534
Service:20094
Formatter:28
access$3800:230
Child:18230
Constants:230
extensions:168
Free:6564
info:2
draw:416
tree:3266
Sync:656
Connection_3:88
Severe:6
Interpreter:404
Relative:950
Long:2270
platform:2124
Pane:4800
Parent:1500
Result:168
unlock:1220
Transferred:1146
Repositories:162
equals:10396
extra:28
Hidden:22
Snooze:9214
Activity:1146
Inheritance:100
dereference:1146
Drawing:486
Config:2256
remove:1374
self:40
Invocator:1590
Index_:818
Unit:3787
value2:404
Just:6
containers:39098
Collection:2596
module:162
Entered:4
post:2300
resolve:6
cache:950
Schema:420
persistence:24212
Mpsc:908
kernel:100
Critic:2268
process:980
Next:2744
Length:970
Rollover:2
Minimum:70
Params:4
Loop:730
Handler:21848
Element:24734
Rollback:162
Abstract:56984
Editor:454
enable:4822
Installer:802
uninjected:6688
access$300:1578
Width:1092
Sort:16
Indicator:3592
status:2450
paint:2288
mark:44
logging:144
newvfs:27062
Append:2
format:6
Quiet:2
Only:14464
Names:264
Storage:61792
cognitive:28613
Queue_2:94
parser:437100
Presenter:6
decide:4
Instance:40534
Count:1522
Panel_:214
Started:102
state:328
convert:212
calc:1464
Buffer:486
Handler_4:32
Copy:6564
Unsync:1194
Proxy:6734
Listeners:1592
Python:320
Container:13584
detect:324
Permission:1762
check:21012
Vcss:652
Anchorizer_2:982
Core:2096
predicate2:1204
Notifier:704
Enumerations_:37532
tasks:1134
Token:57772
netbeans:174702
begin:5426
Name:122148
Layer:708
Closer:814
Pooled:8
Record:280
Identity:264
Comma:200
storage:1864
Iterator:3526
Opaque:324
predicate:1204
Runnable:946
visit:264
wait:26
Singleton:416
Utilities:19880
Diagram:204
Comparable:164
Single:1020
Path:57756
Evaluator:1266
search:4
Fire:34
Thread:7330
Platform:2836
openapi:270807
Extension_3:70
sleep:1750
Mode:7143
Extension_2:372
Tick:110
Filter:8353
editor:454
Index:53380
Request_1_1:72
Instructions:202
retain:492
Being:1146
Comparing:424
Adapter:82306
Limit:264
Parser:54076
Sensitive:34
idea:3472
Mock:1022
Todo:56
Widget:462
before:3004
Details:2
access$1100:264
Localizing:70
execution:588
Logging:22
Inline:780
leave:5432
Tree:8264
current:424
Expression:104380
Part:2
safe:814
Flag:346
Intelli:3848
Evaluate:2424
fire:12
starts:8
Link:22
construct:13860
configuration:102
Preferred:1960
Greater:236
Line:13332
Impl:144037
toolbar:4
access$800:956
Reached:264
Reader:1590
Primary:11040
Illegal:100
Records:2324
poll:728
Build:160
Queue:24944
Sequence:28
critics:13950
Storable:6832
Binary:34442
Change:950
Border:924
Storage_1:6
Parallel:60
Source:1706
Timed_1:10
Analysis:26576
access$400:180
Multiple:10852
access$402:326
Resources:308
Entity:14
Blank:2424
Impl_12:492
Set_:516
Repository:47196
Query:2112
Synchronizer:164
Loader_:1074
Protected:4
Unindexed:264
Main:1244
Descriptor:604
Services:34
History:164
Write:6564
Mutable:2886
Package:2002
Detected:86
Attachable:2
Feel:534
_pre:2616
List:10942
trim:6688
Disposed:6510
Armed:164
Archive:14
Impl_26:264
Designer:608
Creation:1194
Logical:9336
still:204
Dialog:2
ignores:2
Writer:4
access$3900:264
Lookup:9350
Variant:444
Icon:9934
Objects:502
determine:102
Backed:6366
Before:422
toolbutton:2
Requests:2784
Object_:172
Files:2730
deliver:818
lifecycle:814
concurrency:4608
Based:6994
modelmanagement:604
Inplace:280
move:1116
Entry:24878
maybe:162
devoidify:184
Painting:280
Unary:7028
access$2200:328
Proxy1:10
declmime:3882
Nbfs:2
Proxy3:78
Flushing:326
Persistent:2478
delay:182
evaluate:404
Member:324
Second:1628
Common:818
Table:1176
Finder:264
Stereotype:3728
Impl_:15378
trove:54346
Timed:2
internal:5040
Future:362
Message:2244
Everywhere:1394
Unconventional:808
Timer:656
access$100:1826
access$102:72
Keys:182
Windows:2344
Providers:4248
persistent:4072
Immutable:6
Sleep:6
nodes:1964
Wait:5426
Critics:102
Definition:344
Lazy:6584
Timeout:1750
Tool:6246
last:14
save:24
Performed:678
Attr:124
access$600:290
Workspace:264
Detector:1664
Ready:492
handlers:20500
Sleeping:6
Process:580
value:294
Graphics:162
_query:604
Grouper:602
Begin:24488
Catalog_:6
Matching:20
Size:2490
iterator:4450
Shutdown:3164
Lower:264
topological:16
Factory:5242
Meaningless:656
jsr166e:28
Visibility:140
Nodes:2124
Postfix:34824
Agency:102
implspi:2126
Delegates:2778
Timer_1:162
Specialization:200
layout:140
Lexer:64640
Done:264
read:3532
peek:55752
unregister:2
Remove:162
Without:14
Owner:820
application:45095
Folder:37338
Writable:2800
impl:160025
Declarator:2200
list:32
Visited:240
Button_:330
concat:264
Progress:5754
Bundle_:420
print:28
Indexable:1856
Owned:1208
Root:15934
Level:1646
local:350
Queue_:1470
smart:982
Selection:984
Impl_7:164
handle:16
Special:22
Generalization:100
Array:13814
Poster:200
Impl_2:164
System_1:288
Impl_1:2794
Parser_:6
Impl_6:92
Impl_5:8
defaults:656
Test:3951
Item:4254
Holder:2364
Slightly:324
List_:1130
Immediate:2408
finalize:2
Attribute:11474
Catalog:2
Factory_1:2
recompute:102
Project:22278
Matches:162
Finished:90
roots:7860
eval:54
Components:1394
available:1194
Rules:3772
When:164
Frequent:1664
Byte:1194
content:1950
_add:196
decode:2
Task:2418
load:334
Executor:1200
Throwable:4
Scheduled:362
Keyed:180
next:21206
data:3772
Logger:5090
Macro:2788
Implicit:162
Scheduler:426
Singlevalued:6832
logger:4
Equal:1206
With:406
Input:2850
netty:2544
Adaptive:6
invalidate:1962
string:264
assert:7916
i18n:404
Label:706
Language:1376
checked:6719
actions:4898
Panel_7:74
queue:2224
End1:704
Classpath:762
Panel_2:102
cancel:352
after:2814
Button:1212
Memory:102
Layered:826
Cancelled0:2
expand:1384
Invalid:210
Current:666
text:8982
index:28774
Literal:6
Multivalued:1206
access$4000:1594
Call:15340
Counter:22
size:3118
finish:134
Real:8
More:21048
Expired:72
usages:164
Read:15970
Notify:2
Composite:4016
result:2
Enabled:9866
model:14514
weight:1834
Start:9916
Update:8980
lang:456
Monitor_3:16
tigris:208
Immut:1206
Alarm_:590
dispatch:5576
Mapping:810
Handler_:32
Addr:14
Bytes:590
System:161934
icon:2
lexer:64640
Local:12586
_get:2912
Smart:1572
Tabbed:164
Suggestion:202
Enumeration:7105
Listener:2734
Status:1188
State:4304
invoke:1432
Registered:56
Search:1394
Multi:63046
accept:1628
indexing:21808
Postpocessor:1394
Action_:932
First:51392
lookup:13942
Group:1190
Feature:24576
Empty:3898
open:8
Data:108918
Under:3038
tudresden:368824
Modified:14
file:7446
config:162
Actions:420
Facade:12910
Outermost:200
Pool_:602
Default:11456
plus:264
Additive:12440
singleton:244
Show:164
compare:1230
Comment:172
Declaration:4532
prepare:492
create:7608
exit:390
obtain:144
Policy:330
Pairs:12
Access:3052
registry:4504
Darker:324
Equality:264
Alpha:164
Finalization:1124
Comparator:18
Many:200
_unlock:1604
Request:1626
Fraction:280
Idea:3472
Mapped:1410
Infrastructure:1194
Panel:11122
Target:164
Time:4898
Tracker:3164
Monitor:514
Panes:2616
Object:94722
expire:164
Mapper:42
Pane_:70
Large:230
Pointer:982
Validity:100
Delegate:4114
Dispatch:8044
should:964
Enumerator:28
_immediate:1204
Focused:1886
i18nlocalize:202
Page_1:4
Structure:6372
attach:198
Namespace:604
Intellisense:230
Wrapper_:502
Types:5242
Parameters:3392
Indexed:1446
Area:56
intellij:484215
Indexer:56
Snoozed:9214
Typed:1212
access$202:2
Immediately:818
Enumerations:3248
access$200:7030
Dumb:21568
argouml:49551
Case:648
Map_:1296
Component:46278
Optimized:486
Cheap:656
Idle:1174
hash:34168
property:574
Stub:320
Element_:604
Transfer:492
Darcula:2476
Concurrent:19344
Union2:234
Design:9213
Needed:1794
Ordered:1004
Bundle:1018
Simple:9836
Argument:404
default:1544
Later:3196
Exists:7042
Paint:326
Elements:21556
images:28
Valid:8044
Small:444
filter:14810
alloc:4
Sticky:1394
Supressor:1394
allow:264
Arrow:2000
Order:9214
Bridge:2
object:528
Connection:826
push:7132
View:27110
Registry:6122
picocontainer:3542
Support:20
setup:162
notify:26
find:12192
Check:100
Operating:18136
Shut:3164
File:164344
lock:14
Rule:19936
Cancelable:140
Periodical:814
Conflict:200
Children:1264
Collector:180
Text:5756
image2:14
Merging:660
Canceled:298
alternatives:2886
entry:42
Selections:328
Processed:4
Latch:184
Logging_:30
Random:1680
Tail:34700
channel:728
Circular:100
