Changes:34
Than:236
diff:64
That:2
calculate:770
Storage_:2140
Expire:4
Tasks:2636
Relevant:24
Delim:18
Kind:26
Hash:91132
event:4232
Percent:14
Timestamps:2292
Click:94
Wrap:4164
Swing:1422
Deactivated:2
Wide:510
jmiimpl:62
Asynchronously:12
Deferrer:24
Impl_18_1:2
Disposer_1:448
Intelligence:224
Log_:18
Focusable:66
Setings:2
access$1800:4
Again:2
Changed:932
Hard:138
Enforce8:20
components:13328
Nanos:1418
array:98
Domination:8
Subtree:4
Methods:2
Segments:20
Finish:68
Util_:986
debug:1614
Subst:4
Quick:24
Generalizes_:12
Tooltip:188
_lock:26
access$1002:2
Action:5356
Overlapping:642
Header:1546
Normal:16
I$$$:2
access$1812:2
Content:5088
canonical:4
ignore:12
Range:5996
Strategy:2430
Backgroundable:14
Parsing:6
join:2
Locale:10
Options:66
recurse:972
access$1000:172
Modification:1748
Alarm:1186
Restarting:10
Tracker_:42
Indexing:6850
guess:180
Generator_:90
root:16
Load:280
change:44
tool:2
Instances:104
leaf:16
access$2102:2
enumerate:28
access$900:66
compact:36
Blue:2
Into:136
Normalization:826
North:2
append:5168
Analyzer:132
execute:6850
Versioning:8
Utils:66
Shown:392
preferred:4
Gray:106
Initiate:8
access$500:1654
node:12
Sheduled:2
jaxp:54
Antialiasing:60
String:14720
Stream:4626
Insensitive:1020
Passive:2
active:144
Distraction:4
Have:4
access$504:8
make:50
Fragment:794
update:1956
Command:4976
Import:6
Flush:1520
connect:20
Retina:146
Store:252
Kill:12
Proxy19:40
Upper:8
Records_:2520
Lock:32798
access$11802:2
Adjustable:8
Runnable_7:2
Super:44
Signature:56
Proxy13:60
Runnable_6:2
atomic:2
Proxy14:3516
Proxy12:56
normalize:66
Pipeline:6
Proxy11:4
Characters:214
Support_1:16
Threshold:4440
Runnable_1:64
Manager:75098
Colored:518
Partner:4
access$3100:560
Skip:4
Action_1:3112
Action_2:4
Dependants:4
injected:444
Template:168
injection:14
equal:2712
Boolean:144
Whole:60
Stripe:314
Tabs:642
flush:5114
access$12400:2
access$7100:4
Refers:24
Serializer:384
Method:428
darcula:1330
Shadow:60
Proxy30:8
Module:82
Affected:12
Unwrap:12
Proxy36:62
empty:198
tokens:582
reset:182
border:48
increment:2
element:42
Updater_1:12
menu:18
Hint:66
Generator:316
Proxy22:10
Proxy23:2
Proxy20:44
Proxy27:56
Publisher:54
Active:1680
Proxy25:24
Proxy24:4
Declared:428
Augmentations:830
Will:6
Proxy29:8
Reformatting:146
folding:2
Monitoring:6
Builder_2:16
Tracker_1_1:12
swingext:10
Bean:376
Union2_:326
Background:1852
space:1480
build:72
Documents_3:12
formatter:2
Order_1:46
Grid:16
adjust:42
encoding:392
Analyzer_:48
Listener_2:14
Listener_1:270
Converter:5920
Running:1494
Window_1:2
Proxy45:16
Proxy40:24
recalc:14
Window_3:2
Priority:5928
access$5300:346
Animator_2_1:110
Address:358
Proxy46:48
Watcher:8216
Equals:6
Buttonless:464
patch:56
Proxy71:4
apply:346
Proxy73:8
Offset:4704
Explorer:10
contains:15218
Prioritized:240
Back:2
Really:12
Stretch:2
python:52
Context:120
postpone:2
Disabled:950
focused:4
Callback:386
action:1764
Accumulated:4
none:4
Manager_:4314
Contains_:60
Desktop:206
Proxy63:16
Listeners_4:8
wrap:90
Committed:70
Actual:8
scroll:12
Listeners_1:12
Listeners_2:12
Listeners_3:16
Must:2
Cache:5440
Height:370
Exclusion:32
Holders:2
Node_1:116
Listeners_9:4
Editable:8
Security:516
Limited:376
Hang:70
restore:132
Prolog:24
Documents:98
Proxy68:2
Jobs:4
Black:28
Group_:22
Type:9034
Scopes:216
Stored:44
Depth:10
Groups:2
Help:20
overlapping:282
uninstall:4
Processor_1_1:4
Startup:1002
Include:82
Unforced:6
Uncommited:4
Held:24
hint:42
Processor_:1104
offer:36
Playing:2
Viewport:104
Readable:4
Delegator_:6
schedule:1248
Delimiter:18
Canonical:126
Gradient:66
modules:1596
spread:1746
Browse:22
Visual:1900
advance:556
Expand:632
Statistics:426
Classes:2
Trees:14
Observers:16
Unknown:42
Property:428
Offscreen:2
Tree_:24
_find:22
hide:58
Stamp_:3392
concurrent:7050
Page:7944
Library:8
feature:358
Window:844
access$1400:16
Values:5924
Impl_8_1:2
Callbacks:4
access$1402:16
Happened:2600
suggest:6
Messages:1022
Tracker_1:12
Tracker_2:12
Tracker_3:4
preview:20
Tracker_4:12
Dispose:2
Tables:6
Weak:1344
Stamps:262
invalidates:10
access$10302:2
Provider:2958
Null:792
access$10300:2
Resolver:1060
Overflow:2
Base:24029
sort:44
Pair:18170
Clean:2
Soft:5702
Value_:2
Possible:2
Code:44796
Control:68
Down:882
unquote:14
Post:12
Expirable:4
Underline:2
Expanded:274
Targets:96
pico:1294
From:3552
Scope:474
Trace:74
Peer:228
Oval:20
Track:28
Languages:26
Assignable:716
helpers:8888
narrow:24
Facility:8
Listeners_4_1:4
Annotation:16
Classic:16
Popup:850
Family:76
Changelist:228
Capacity:3506
High:46
Slash:86
Bar_:2
Scope_1:18
progress:24012
Scope_2:2
Rendering:274
exported:2
Settles:14
Infos:24
Extension:2012
Pico:3682
Graph:62
Light:542
Internal:2858
iterable:40
Adopted:2
Base_1:2878
Value:12296
Base_2:4
Pool:7474
Repaint:10668
init:1444
Merger:90
Multiplicity:6
Interface:146
Tracks:2
instantiated:50
Mandatory:30
Merged:214
attempt:4
mouse:107
Passed:342
Health:74
Separator_1:66
Generated:68
Types_1:16
child:32
Revalidate:8
Once:2
Visitor:864
Hide:10
Performance:854
Ampersand:14
Over:2
Description:70
Resource:74
Bang:4
Shared:1214
Handler_2_1:26
Resizeable:8310
Balloon:166
Lost:44
Framework:540
Request_1:102
Reflection:3780
Info:2160
scan:3022
Directory:18
Look:780
Formatter:26
Superclass:4
access$12502:2
Constants:212
Free:22454
After:162
info:1480
draw:654
annotation:30
customize:48
xdebugger:66
Connection_3:558
access$3600:4
Init:48
Locator:228
Pane:3
Long:926
Parent:5762
Transferred:110
Toolwindow:4
Connection_:766
Decorator_:46
Effect:190
visual:2498
Activity:648
start:440
Injectors:4
Enter:142
dereference:1404
Restoring:2
Exact:12
Trailing:36
This:76
escape:2
delegate:8
Properties:152
Insight:1708
formatting:12
Markers:66
options:2306
Collection:6
containers:63356
Scheme:8284
resolve:38
Mpsc:7066
Blink:136
Painter_:658
Timestamp:38
process:15402
rehash:2
Keep:2
Loop:7150
transaction:24
Win32:132
Zero:6
skip:4534
Forward:24
Chooser:108
Width:3760
Sort:116
Indicator:5940
Filtering:10
Incremental:12
Suffix:12
mark:1668
Viewport_2:10
Viewport_1:44
newvfs:27160
Quiet:1480
Only:228
presentation:2
diagram:8
parser:18
characters:250
refactoring:40
xmlb:1572
call:12
decide:2960
Listener_:26
Started:306
Count:13986
Then:4
state:272
Aspect:118
Field_5:14
Original:96
calc:2178
Map_2:756
Wrapper_12:2
Buffer:5454
Map_1:756
Starter:12
Copy:22584
Requested:8
Proxy:5096
Field_3:12
Map_5:4744
Listeners:336
Field_4:12
Keymap:8134
Map_6:136
Annotations:30
Container:10944
Permission:336
Empty_1:144
Anchorizer_1:4
check:4940
Consumed:10
soft:8
Layer:238
Scrollable:2
Section:840
Toolkit:308
address:2
Managing:18
disconnect:4
Transmitter_1_1_1:2
Postponed:12
Utils_4:4
Utils_2:16
need:12
Iterator:31870
Opaque:154
Runnable:2254
Phase_:70
visit:444
wait:12
Browser_1:12
insertion:530
Busy:10
search:1474
unhold:16
Rectangular:66
Rings:12
Thread:9632
foreground:6
Skipping:4
clone:4
Gestures:48
Impl_10:1642
Impl_11:30
Filter:8472
editor:92702
access$1708:4
Legacy:84
Queue_3_1:8
Tooltips:4
Being:110
Comparing:2712
access$1700:20
Adapter:9646
Period:68
before:11148
Warning:2
Slashes:18
execution:10876
Inline:1024
Nearest:58
Descent:58
Tree:6460
sync:54
Attach:12
Flag:288
Painter:624
Setup:4
Consistent:24
Point_1:4
fire:242
Character:4
history:96
Localized:38
Header_:58
intern:1200
Additional:428
Found:64
Preferred:6
Maybe:68
Literals:8
Feeds:24
access$802:2
toolbar:18
access$800:208
Reader:14063
Respect:228
storages:20
completion:162
Checkbox:18
close:816
pause:16
Decorations:2
Severity:36
Records:18064
poll:5678
Paged:94
Horizontal:90
Space:6524
Comments:8
Binary:240
Change:4372
Border:984
Timed_1:48
Honor:12
Predicate:134
Paths:8
access$400:188
walk:4
access$402:200
Impl_13:2
Impl_14:4
instantiate:24
Impl_16:8
advertise:14
Encoding:500
Repository:1580
Impl_18:2
Loader_:130
Protected:12
monitors:188
Services:106
Write:23606
Attachable:1480
Impl_20:2
types:20
roaming:20
Deep:36
Impl_25:16
Archive:10
Impl_26:172
Surrogate:46
Designer:24
Impl_23:42
Logical:2930
Loaders:24
Exposed:48
Hints:314
Exposes:24
Dialog:2732
access$3000:2
message:584
ignores:1480
access$3900:172
access$7000:68
access$2000:2
Inspection:48
Appendable:430
Aspect_1:32
Aspect_6:12
Aspect_5:4
Objects:4
Decl:24
Resized:94
persist:16
Requests:318
Object_:28
Listener_2_1:2
Highlighter_1:6
deliver:132
Remote:200
Decompiler:20
Debugger:20
Aspect_7:12
Identifier:34
Engraved:14
Thumb:14
fetch:2
Animation:2
Titled:264
Outside:2
Char:14482
access$2400:402
Edges:4
Notification:114
declmime:1578
Phase:68
reload:2
Optimization:4
Environment:424
avaliable:2
merge:30
Redispatched:48
Common:122
Substitutors:36
Dead:218
Generalizable:14
Impl_:12378
$$$load:4
trove:60882
access$11700:2
Command_1:12
Differs:848
files:4
Glass:142
External:994
Speed:112
persistent:12802
Immutable:11590
Wait:8
Numbers:48
count:48
save:2028
char:10008
Attr:766
Performed:150
Workspace:204
Performer:16
Projects:104
looks:16
Box_:180
Sleeping:506
Guessing:40
Process:17540
Validator:78
Native2:32
Grouper:5718
Matching:82
Catalog_:4
Added:250
Pixels:630
Chars:162
Other:2
Factory:1804
favorites:4
Charm:2
Exited:23
Select:2
Anchor:80
release:30
Marker:42
Bidirectional:12
Buttons:8
scope:230
Motion:18
Timer_1:70
Guide:96
from:150
smaller:70
real:2
Icons:18
Lexer:1778
read:12765
Remove:364
access$5800:16
Reusable:2
Btree:2070
Keystroke:884
application:49293
Composed:4
Prompt:2
Preview:20
Placeholder:76
Rejected:42
Visited:188
Descriptive:2
Button_:10
Spacing:58
Folded:78
Bundle_:2
Progress:26110
Strings:6
Forced:60
Theme:2
Accessors:20
Substituted:402
Root:1736
wrong:6
Productivity:102
cleanup:8
Special:6
handle:54
Expressions:12
Supertypes2:12
Connector_:2
Array:45330
Lists:4
Able:3138
defaults:740
Item:3194
scheme:16
Statics:2
List_:10512
Attribute:11976
Factory_1:12
Balloon_:2
Reject:8
Matcher:18
murmur:12
Binding:1412
Excluded:52
Finished:430
Tokenizer:230
ends:22
Commit:260
Bucket:10
Components:3316
charset:36
Quotes:12
access$1300:16
Mask:16
Byte:5338
revalidate:78
_add:210
decode:56
serialization:12
split:8
Component_:32
Executor:4056
Interval:1128
Keyed:170
Splitter:92
Loading:508
common:42
next:920
Finalizable:14
Multicaster:184
Three:90
Dialog_10:2
Logger:15008
Manager_2_1:2
Macro:9738
Unused:20
document:312
Resolvable:4
Equal:4490
With:5552
Scroll:1232
Least:4
Input:3430
docking:54
netty:19786
Adaptive:506
reclaim:766
assert:21930
Dockable:126
Decorated:2
actions:2720
access$3500:4
queue:248
Tagged:2
Iterator_1:106
after:23392
Button:374
commit:20
Association_:24
Dialog_3:18
Dialog_4:12
instance:4
Dialog_1:14
Version:32
Dialog_2:6
Current:2430
index:718
Literal:4490
labels:24
Selectable:2
size:6448
deserialize:418
Plugins:8
Problem:8
Watcher_1:22
Expired:38
Notify:260
access$4200:4
result:18
Enabled:6362
Containers:18
model:12
Viewer:48
dump:962
Playback:2
Trigger:8
iterate:4
Recognized:108
Accelerator:144
Cancel:158
Handler_:3516
rebuild:66
Bytes:3406
Public:6
Adapters:32
Hovering:4
Local:2280
Readonly:168
Container_:4
Unchanged:826
resume:56
invoke:4544
Btree_:1646
deinstall:280
Search:3876
Bulk:82
Synchronizer_:4
Feature:514
Data:22700
Date:90
file:4354
Unaware:630
Pool_:5718
choose:10
Separator:874
Default:3280
Show:22
compare:2554
create:9018
Dirtied:18
Controller:46
Policy:1236
Access:21134
registry:4842
Complementary:3426
google:18
Shifted:2
Iteration:2520
plugins:302
query:10
Finalization:2358
Comparator:816
Dark:30
Many:46
End_:48
Dialog_:42
access$2802:2
Time:5798
Tracker:1470
length:7378
Expands:4
Desc:28
Shift:18
caret:84
Exceptions:2
Intellisense:212
Externally:4
Wrapper_:6
Defensively:4
Types:2460
Vcses:2
Operation:50
Supported:20
Menu_:8
Style:1710
renew:2
Markup:2444
Supertypes:14
Activated:6
Floating:8
Decrease:48
Recent:76
Indexer:402
resize:8
Constant:6
explorer:14
Typed:426
Map_:3404
Initial:8
Type_:6
Accept:20
Protocol:122
custom:824
Directories:8
Runnable_:4
property:168
Ctrl:28
Editors:278
Union2:326
Transfer:226
Deferred:12
Needed:3352
Serial:16
Simple:3276
window:36
Later:532
Vertical:62
Impl_6_4_1:6
Elements:266
Contents:76
rest:12
underlined:14
alloc:376
stop:292
Optimise:10
allow:194
Utf8:6
Arrow:314
$$$setup:2
Bridge:6
access$8900:4
South:2
View:1974
Visitor_:96
Mark:2
graph:46
Registry:8526
picocontainer:2188
Sweep:214
notify:78
notification:28
Highlight:66
unescape:14
find:6820
Check:1462
with:132
Shut:866
Deselected:2
fill:34
Highlights:26
Children:1194
Collector:612
Canceled:3014
Viewers:24
alternatives:1260
entry:26
Latch:706
Connector_1:6
Appliance:8
channel:5670
Pending:170
Utilities_1:10
User:6480
Printing:36
Insert:90
Handler_1_1:4
external:4
Attrs:68
Static:4
Leaf:216
Fast:6
Lock_:2
Increment:36
Loader_1:2
Implementator:44
reinit:84
Draw:20
Point:1112
Ui_3:4
Ui_4:8
View_:4
Linearly:4
Subclasses:48
Previously:2
Defaults:254
extract:124
Cache_:28
Node:3054
Used:2
Native:32
Bookmark:54
Necessary:16
Collector_1:44
Animated:50
Decorator:118
keymap:7430
Work:2
access$1200:724
Cached:4284
recursively:2
Divider_1:10
Usage:896
Renderer:670
Task_4:2
Appenders:1480
Word:6
popup:140
Caches:40
parse:50
softwrap:42
Task_1:78
define:2
Orientation:4
Rendered:1480
Nbinst:10
Scrollbar:8
Tracking:884
register:806
Async:150
_request:6
Displayed:114
Behavior:64
base:18
Helper:618
State_:330
Stack:542
visible:56
Util_12:4
parsers:5842
Utilities_:6
Wraps:210
component:134
Side:36
Stable:756
Interruptible:20
Reparse:12
initialize:54
Extensions:782
Home:12
Trove:2
colors:7792
Ascii:32
Shortcuts:1230
Containing:62
Initialized:332
code:2538
Visit:194
Assigned:140
Updater:1060
Updates:32
names:14
Application:71223
Pattern:11840
Struct:6
Outline:178
Reference:1972
factory:16
Data_1_1:12
Shallow:16
Flyweight:466
jetbrains:76
Field:4420
Each:452
Contains:16
Label_1:14
released:24
Region:4092
Supply_1:4
name:18
Belts:26
Allowed:12818
Watcher_:7438
Hashing:2426
Escape:10
Covered:2
offset:712
Parameter:10
locate:16
Highlighter:2118
Indicator_4:6
Processor:1048
Opened:356
Zeros:2
Transaction:72
xerces:34080
Delivery:274
Reduce:4082
Connector:54
Ui_38:24
nano:2838
Bindings:18
Saved:2
Appender:10752
Error:36
source:3260
Position:5274
Volatile:2
Skeleton:5920
cached:56
Decorator_2:14
Usages:138
verify:28
Hook:940
package:278
Scrolling:824
Decrement:36
Util_7_1:176
Manager_1:88
Sibling:86
Wolf:8
Fold:70
Cidr:4
refresh:164
configure:16
Global:706
diagnostic:16490
Convertor_:14
Dispatcher_1:224
Lines:238
Already:146
Bounds:388
Caching:2
startup:1344
Persistable:84
Every:4
Color:6916
Features:170
Required:8
Linked:21230
Fastened:2
will:4
Plain:78
Structural:432
Striped:1532
clear:1630
subscribe:20
Stamp:3982
clean:18
Detector_:4
Font:13344
Suspend:2988
Clicked:14
tracker:16
Prev:10
hierarchy:62
Invokator:4
access$000:630
access$002:308
Aggregation:24
exclude:32
Feature0:12
Helper_1:38
Mouse:534
log4j:44660
Loader:416
access$702:2
Recursively:14
Inactive:16
Set_1:6
access$700:46
varia:2960
type:34
Column:684
Virtual:15202
Loaded:58
Enum:80
request:140
Exposing:2438
Frame:570
Resizable:430
Overlayed:200
Aqua:82
Subdirectories:18
Standard:162
Body:2
minus:374
Number:2232
Event:66794
Support_:1744
Object_1:414
enter:3222
Custom:118
depth:202
Results:180
Perspective:4
Lock_1:8
Columns:264
Prefixed:336
Presentation_2:16
Scanner:8884
Callback_3:6
Called:8
quick:116
Indices:2
Scanned:998
Corners:4
Batch:4
Ancestors:4
Headless:426
compute:2224
Traversal:4
Document:25048
Packages:2
List_1:748
Atomic:1128
validation:18
Completed:12
Location:38
Searcher:16
Replace:60
Unregistered:216
Meta:106
highlighter:856
plaf:1372
Registrar:36
changes:448
Condition:4
Format:6
Threads:764
Lookups:210
Model:11454
validate:226
Qualified:2
matches:1870
Delegating:1690
Intern:126
Focus:3514
Factory_:2
Highlighters:366
copy:110
template:24
Sequences:14
static:126
Referenced:24
contents:20
Reference_:56
Heavy:706
Tabless:62
Selected:1154
Refactoring:2
Broadcast:256
always:6
Animator_1:36
Timestamps_2:720
Animator_2:8322
Layout:1404
Timestamps_1:380
Processing:20
Invocator_:142
Class:1148
Modality:998
access$1602:14
Computed:110
access$1600:784
Good:2
Quoting:24
Wrapper:92
Smaller:16
messages:2858
Item_:78
Direction:256
Available:21127
Metal:2
Drop:378
proxy:4138
Image:296
Items:992
Right:150
Settings:4660
allocate:1578
Debug:4854
Title:44
Descendant:84
Decode:40
Highlighter_:822
Delegator:6
Indent:60
Name2:4
Open:1116
Attributes:11726
Html:10
Foreground:1054
Reader_:506
Output:23565
Validation:132
Menu:3684
values:2
Unfocused:8
Attribute_:12
Scheduler_1:33368
Accessor:200
Registry_:288
Replaced:70
select:1436
Readers:6
Unlocked:24
Import_:2
Entries:6
optimize:20
Invoke:8
Postprocess:150
Subscription:20
Writing:50
True:5154
Dirty:5692
Aware:314
Resolve:526
Exception:128
Families:3136
generate:10
Daemon:812
children:36
Cursor:5410
Concatenation:12
Animator:108
profile:24
Margin:106
Bundles:2
Rebuild:6
Restore:2
Events:164
Forwarder:4
Configuration:944
Completion:334
reference:1404
usage:36
weak:46
reparse:12
core:96
Execute:33372
Integer:4
Save:16
Service:1650
Option:138
Diff:86
access$3800:174
extensions:2236
Separators:78
Util_1:22
Util_4:2
Util_3:28
tree:1972
Severe:4440
Copyable:8
Elementary:4
focus:86
Relative:296
Util_7:18
Result:708
swidgets:42
unlock:4588
Variable:20
Flyweight_:458
equals:20328
extra:7556
highlighting:54
Bottom:84
logical:762
Activate:88
Index_1:812
Inheritance:12
Ignore:4
Buffering:836
Execution:152
Config:782
Gained:46
remove:7858
Effect_2:58
self:78
Aspects:8
mapping:8
Invocator:280
Transactions:4
Index_:308
Unit:689
Moved:22
Sent:118
Popup_:96
switcher:64
Close:6
Adjusting:96
Descending:2
delete:12
capacity:10
Just:18
module:42
Hovered:56
Entered:14
post:2806
cache:106
Fields:6
Popups:48
Controller_2:32
Strip:2
Injected:358
Controller_1:12
Traffic:2
Computable:844
Next:29438
Controller_3:12
Rollover:6
Length:4384
Selector:2
Showing:4
stores:418
decapitalize:2
Handler:1916
Element:7276
Listeners_2_1:12
Abstract:16092
Editor:39726
send:12
Trinity:22
unwrap:32
undo:16
enable:4
Self:14
Above:12
Impl_2_1:122
access$300:1522
Auto:226
Plugin:620
Modal:958
Named:82
Parents:20
access$302:16
Power:16
Transmitter:2
paint:1700
Like:24
Append:1856
format:4446
Padding:6
Names:240
Storage:7234
Queue_4:4
Queue_3:8
Queue_1:58
Installed:54
match:8
Fixed:16
Substitutor:34
Dialog_2_1:52
Instance:10060
access$2700:64
Regular:16
Roaming:68
Handler_1:14
convert:192
Handler_2:32
Handler_3:20
Configurable:22
Handler_4:3518
Inside:62
Unsync:888
Paste:48
Preferences:4736
Pressed:22
Vista:8
Carets:132
access$6700:6
Python:18
Undo:440
Token:1330
Cleanuper_2:612
Revealing:4
Filters:2
Name:19752
Pooled:90
Graphics2:14
Presentable:138
Record:2026
Identity:416
Condition_2:48
Handler_5:2
Condition_3:12
first:8
storage:12948
Rely:2
Fonts:3426
store:32
columns:90
supports:114
Singleton:5358
Dependency:100
Utilities:396
Single:7208
Path:6536
Inner:262
Fire:104
Cyclic:20
access$1900:4
Extension_4:8
access$1902:2
Mode:4043
sleep:14068
Occurred:140
Index:44796
Dock:54
Dimensions:14
unprocess:138
Macros:2990
Gutter:504
Limit:194
Parser:1490
Sensitive:146
idea:7764
Cell:538
Ring:56
Parameter_:2
access$1100:88
Parsed:12
Logging:16280
modification:48
Trackback:120
leave:814
current:346
write:8440
Part:46
fasten:16
install:386
Intelli:2294
Stroke:2124
Preprocessed:24
Link:34
starts:1982
Duplicate:178
Dimmed:6
exists:42
lazy:16
Flags:30
Greater:4676
configuration:438
Pass:10
Line:11394
Guard_2:810
Transmitter_1:2
Reached:194
aware:8
Primary:678
Towards:2
Absolute:12
bookmarks:54
Queue:28934
Deactivation:2
Hierarchy:132
Sequence:14692
Safe:392
Mnemonics:178
Gesture:76
Storage_2:756
Storage_1:18
Prefix:1070
Dependencies:154
Source:308
Last:174
Synchronized:8
Return:12
Multiple:128
breakpoints:26
Resources:198
Entity:7180
tokenize:18
collect:22
remember:4
Set_:34
Backgrounds:66
Zipper:36
Synchronizer:184
Disposer:448
Unindexed:172
Descriptor:4018
Outs:44
History:112
integration:64
Mutable:1268
Centered:116
Rest:12
disable:6
Package:14
Detected:128
Feel:744
Radio:58
List:21866
Removed:94
Disposed:2930
Mnemonic2:2
speed:34
Always:48
Traceable:52
Requestor:12
Reaches:24
Writer:2960
Lookup:146
Icon:1622
Model_2:32
Model_1:2
determine:6
Backed:398
Walking:160
Clock:16
Before:140
Painter_1:14
Breakpoint:26
toolbutton:12
Handler_6_1:12
concurrency:36520
Based:21096
Center:38
Listeners_:84
move:2530
Entry:20096
maybe:46
Ignored:280
Increase:48
Navigation:32
Redo:16
Proxy0:48
Proxy1:60
Ultimate:248
Rect:20
Proxy5:16
committed:8
preprocess:24
Transparent:46
Checking:36
Preprocessor:16
Proxy6:2
Proxy7:8
Persistent:13762
delay:1418
comment:8
actionholder:650
Whitespaces:78
Member:38
Button_1:56
Second:546
Others:24
Handling:14
Absent:46
Table:10068
Finder:172
surround:4
Solver:8
Text_2:2
Refs:8
Segment:21142
access$11000:2
Timed:20
internal:7070
Window_:60
Future:2840
Released:54
Message:16238
Everywhere:3224
Timer:218
access$100:4614
Favorites:6
access$102:2
Keys:1428
Windows:3608
extension:44
Guarded:24
access$11902:2
additional:2
Sleep:506
Index_1_1:812
insert:1784
Timeout:14172
markup:2774
reveal:4
Tool:332
last:2
access$600:5896
wrappers:12
Detector:2976
access$602:70
Ready:116
Provider_:120
Uncommitted:30
Anchorizer_:6
value:2010
Graphics:154
Delete:14
Concurrency:52
Grammar:16
Formatting:24
Size:4276
iterator:12366
Providers_1:4
Shutdown:866
Square:14
Lower:3664
recalculate:2
Adapter_2:2
Adapter_1:68
Movement:2
Meaningless:96
Typing:204
jsr166e:7556
Processor_1:20
Processor_2:4
Whitespace:50
Visibility:2
dominates:152
Nodes:4
Caret:5570
Documentation:16
Confirmation:32
implspi:424
Manager_10:8
Highlighting:36
commands:14
Descriptor_:64
Significant:12
panels:82
layout:68
Impl_6_4:6
Done:146
access$5000:58
unregister:134
peek:1110
Keyboard:2552
Impl_6_2:6
Hyperlink:2
Trackback_3:2
Owner:288
Without:196
Writable:246
dispose:464
Refresh:34
list:32
concat:398
Level:13004
local:13492
Queue_:3502
Selection:2860
Impl_8:6
Impl_9:814
Impl_2:426
System_1:168
Impl_1:17910
Impl_4:96
Counting:60
Impl_3:212
Impl_6:616
Parser_:9024
Impl_5:186
Test:689
Holder:3350
Slightly:32
Impl_1_1:26
finalize:16
Project:2802
Reporter:16
Committing:70
Profile:28
Spacer:6
access$10400:4
Colors:2142
_set:22
Spaces:1956
Multiline:16
Align:6
When:154
Frequent:2600
content:514
access$1500:36
Task:7800
Collapsed:482
Cycle:2
Move:94
access$1508:6
load:240
Throwable:2974
Scheduled:2862
Builder_:4
Connected:200
events:92
Exposes_:24
Scheduler:2890
Topic:518
Braces:4
Block:266
Smooth:50
Dumper:586
Most:64
Information:2
replace:64
Potentially:24
string:1260
documentation:16
Requestors:10
Classpath:28
Panel_3:12
Panel_5:12
Panel_2:576
cancel:718
substitute:1738
Panel_1:24
Filename:434
Iterator_:6
General:4
Memory:1388
_accept:254
Command_:1618
Layered:176
Invalid:422
Manager_2:4
Manager_8:18
Inflater:40
text:20658
submit:836
Call:200
Validate:2
width:6
Pump:708
Counter:116
pump:314
Implementation:800
Release:4
Nonexpandable:12
finish:480
Real:174
input:1546
Refrain:72
More:104
Text$$$:4
Iterators:2
repaint:1432
Unsafe:22
usages:184
Read:12886
Toggle:2
Chunk:2
Composite:1266
Survive:6
Start:6438
unfasten:16
Folding:5406
Monitor_3:74
lang:12
Allocation:780
consume:12
Full:50
Alarm_:374
dispatch:13258
Mapping:34
System:12564
conflicts:228
lexer:92
Expandable:12
_get:130
Keystrokes:774
Smart:6312
Tabbed:362
Listener:3322
Status:518
State:4314
Color1:32
daemon:952
Until:4
Primitive:432
shift:8
win32:130
Specified:4
Effective:3158
Thread_2:12
Thread_3:12
Multi:280
Thread_4:8
code_aload:24
test:540
indexing:64404
Postpocessor:3212
Action_:58
First:17208
lookup:96
Trackback_:4
center:2
Empty:9452
Splitter_:10
open:44
Under:2338
Modified:10
Libraries:6
Actions:290
Dispatched:696
Facade:52
Screen:50
plus:378
Substitutor_2:10
problems:8
subtree:16
singleton:366
Waiting:12
Splitters:126
Declaration:2
without:4
Left:12
obtain:142
Instantiating:188
Pairs:44
Darker:32
Equality:420
Alpha:88
Controls:2
access$2600:68
Combobox:82
Request:2450
Ascent:58
Belt:8
Idea:8124
version:4
Masks:2
Mapped:8740
rectangle:36
Panel:10
Target:86
Monitor:730
command:1374
Eldest:1138
acquired:28
Header_6:2
Object:29108
Dispatcher:656
acquire:30
Mapper:30
expire:64
trigger:2
Direct:54
Large:250
Delegate:5252
Fake:28
Dispatch:6968
should:1370
Enumerator:2482
Focused:3768
Syntax:22
Invalidation:104
Page_1:2
attach:12
Parse:12
Namespace:4102
Constructor:2
Shortcut:4372
tabs:80
Parseable:168
Parameters:800
Area:418
_define:2
kill:52
show:38
Widget_2:10
pack:106
Modifiers:10
access$3700:436
Wrapper_1:16
Chameleon:16
scopes:18
Blocking:4
Wrapper_2:6
access$202:108
access$200:1984
jdom:12708
Case:4412
Predefined:66
Component:30408
Excluding:48
Wrapper_7:230
Optimized:256
Idle:136
instantiating:16
Mnemonic:1068
hash:46166
Recursive:104
font:356
Find:1222
Display:3222
Decorating:16
Copying:68
Proper:1248
Concurrent:11418
Darcula:1684
Bound:324
Ordered:8
Bundle:580
default:3140
Imported:2
Paint:412
Cancellable:2
Valid:3610
Schemes:1960
Words:36
filter:1562
Ahead:20
Sticky:3320
other:24
Supressor:3220
Order:1018
Locator_1:2
object:1852
Bloom:4
Connection:1262
push:480
Replacement:32
Created:98
Decoration:4
Charset:1034
order:2
Support:1960
Argo:22
Combo_:18
setup:134
Window_1_1:2
Declaring:28
Tree_1:64
Editor_1:4
Fill:152
Externalizable:836
Brace:4
Disposable:166
Edit:28
File:85192
lock:3756
Dimension:16
Cancelable:728
Conflict:252
Physical:132
Text:35266
image2:2
White:336
Nimbus:232
Generic:20
Processed:24
context:8
Random:7950
