Instance:apache:0.00713165:0.012496095
Separator:Data:83.33333:0.0028135015
Editor:Listener:0.029312618:0.21727322
create:Facade:2.806167E-4:0.16366613
Style:Default:0.81300807:6.382979
Enabled:Document:0.0038657428:1.4440433
Type:Types:0.39442265:34.919533
Event:Pane:0.0023083359:0.1334965
apache:Node:0.0015620119:0.04509583
Debug:fire:0.041713014:6.9767447
log4j:create:0.009931473:0.00252555
Undo:Instance:7.4487896:0.017829126
Object:equals:0.00687274:12.417331
equals:Iterator:0.08098259:0.001427365
String:log4j:6.8521795:6.1111665
log4j:List:0.018759448:0.0079644695
List:Object:0.14898242:0.0011877888
Action:Base:0.024987819:0.009117173
Container:Size:0.06107243:0.013074287
Browser:Event:36.363636:0.0030777813
String:core:0.0012373022:0.026695142
next:next:46.673096:46.673096
Model:Logger:0.033425506:0.24452595
Element:Node:0.029599544:1.9391207
Debug:Enabled:0.027808676:0.0019328714
Name:create:0.014626546:0.23992728
Change:Enabled:1.5124017:0.024160892
Text:should:0.05177898:66.66667
Color:Width:0.4784689:0.310559
Selection:Text:27.64732:2.307863
Abstract:Element:2.2752643:0.9891755
Base:Element:0.26850075:0.8108899
Manager:Added:2.0912146E-4:44.444447
paint:Tool:0.3805899:0.0041355635
Base:Child:0.004102728:5.825243
Object:Index:0.01828373:0.22605783
Node:Selection:0.022547916:0.0443066
Enabled:Default:0.0038657428:8.510638
List:Iterator:1.7676437:0.44878736
Iterator:Facade:3.5684125E-4:0.4909984
Code:Instance:4.0040087E-4:0.02406932
Pane:mouse:7.8206697:42.045452
compute:Facade:20.0:0.9819968
remove:Node:1.4968615:1.3979707
iterator:Storage:3.0274363:0.6645603
debug:Base:11.111112:1.13964656E-4
Node:Node:3.382187:3.382187
mouse:Mouse:7.8947363:22.564102
Line:Manager:42.480213:0.008417139
Released:Event:14.444445:0.0025006973
Manager:remove:0.009305905:4.297441
Logger:Manager:0.7891519:0.0037119058
Only:Object:100.0:1.4567221E-4
Read:Object:7.692308:1.4567221E-4
mouse:Event:2.5119617:0.008079176
Listener:Base:6.355242:0.0133338645
Path:Model:0.0022884822:0.03646419
remove:Base:5.0700145:0.023932578
Index:Lexer:2.304266:63.046967
log4j:Object:0.001103497:3.735185E-6
Index:Type:1.5053282:4.2627983
Implementation:Event:24.050634:0.0073097306
Editor:Active:0.014656309:0.11007155
Button:Manager:45.516888:0.13880438
Object:Event:0.018324818:0.9437247
apache:apache:14.004217:14.004217
Manager:Layout:0.0010978878:0.25948352
Code:Index:0.6586594:4.102292
Code:Object:96.19854:48.45955
debug:Index:11.111112:4.618138E-5
hash:Valid:0.0011645457:28.977272
Event:Types:0.001731252:0.10420285
Pane:Released:0.12237179:12.222222
Adapter:Editor:0.011021396:0.16854756
Instance:Copy:8.9145626E-4:0.96618354
Node:Manager:16.00902:0.03711906
contains:Factory:2.0408163:0.0036638088
create:Type:1.2532341:0.5840489
Width:Element:0.310559:0.001376723
hash:Impl_:0.0010503745:0.03099619
Name:First:0.01809928:11.351931
Feel:Simple:2.0441537:0.30417326
access$000:Manager:79.16667:0.0019866538
Enabled:Manager:63.843708:3.4536932
core:Abstract:0.18686599:0.0055417013
Control:Combo:4.731861:3.6809816
Manager:Element:0.0014115699:0.009292881
String:Combo:0.08908576:8.834356
Tool:Manager:6.197142:0.3133685
Panel:Panel:0.13987164:0.13987164
Model:Manager:6.417697:0.22083226
Mode:action:0.13514918:0.068522036
Listener:Node:0.054318305:0.022547916
Event:Name:0.0057708398:5.132121E-4
Repository:Object:98.516785:0.0047138035
Object:String:0.18867166:62.498604
Icon:Item:36.63717:3.7891269
Combo:Size:2.6993866:0.05752687
log4j:helpers:2.3482416:50.0
Adapter:Mouse:4.791911E-4:0.17094018
Debug:Manager:5.0055614:0.018820932
Read:Base:92.30769:0.053335458
Name:Time:0.028021384:50.0
apache:Element:0.009372071:0.0041301693
Factory:Type:18.48758:0.6598994
Index:Context:0.0053570396:0.07779648
Mode:process:0.010396091:2.8301888
Types:Type:17.413454:0.1966882
Selection:Changed:0.7089056:9.411765
Allowed:Manager:100.0:0.0016729716
Border:Preferred:11.538462:1.1462882
Base:Dependency:3.41894E-4:8.108108
Manager:Mode:0.7075102:46.896767
Instance:Style:0.021394951:13.008129
Instance:Linked:0.0017829125:15.384616
Debug:List:0.18075639:0.006090476
Impl_:Code:0.06289082:0.0020761525
Action:Control:0.009682779:4.88959
register:Event:3.7151701:0.0023083359
Model:List:0.11546993:0.035605863
Manager_:Manager:0.7332722:4.182429E-4
Base:Client:3.41894E-4:100.0
Mode:Internal:0.006930727:0.007631549
impl:Mode:1.011864:8.337666
Enabled:impl:6.4132676:2.7908268
Pane:Listener:0.06674825:0.32590985
Manager:Factory:0.009619587:0.6741408
Splitter:Panel:100.0:0.009873292
Factory:Manager:3.5722136:0.050973356
Node:Model:0.04509583:0.0030386823
List:Debug:0.004216484:0.12513904
Model:Image:0.0045580235:23.076923
internal:First:9.556939:2.8004293
Create:Factory:23.636364:0.047629517
internal:Path:3.5151958:0.009153929
Manager:Dock:0.0016729716:20.125786
Element:Index:0.008260339:0.001108353
Adapter:Under:4.791911E-4:50.0
Event:Debug:0.020197941:1.4599556
Instance:Active:0.011588931:1.4309301
Data:Name:1.0255213:0.062355276
Control:Event:0.15772872:1.9236133E-4
Copy:Data:97.10145:0.05655138
Manager:Border:4.7052326E-4:4.945055
Start:internal:0.28778404:1.061882
Element:Settings:0.024781015:49.315067
Handler:Item:0.30245745:0.07321984
enter:Array:4.580675:43.437763
Listener:Instance:0.43454644:0.003565825
Editor:History:0.058625236:7.8431377
hash:Handler:0.0069948854:17.3724
Name:Template:5.132121E-5:20.0
Visible:Manager:57.56677:0.010142391
action:Event:4.689367:0.51341236
Code:Valid:0.001134469:28.977272
Event:Owner:0.03327851:80.841125
hash:Storage:1.1417114E-4:0.0016658431
Simple:Feel:0.3650079:2.4529843
Enabled:List:0.03769099:0.018271428
Name:Type:0.046650983:0.35662815
Listener:action:1.3036394:0.042167407
Event:Project:0.7386675:2.210021
Mode:Enabled:0.041584365:0.011597228
Strategy:remove:8.571429:0.14485756
internal:Project:0.21969974:0.0034531578
Index:hash:1.4623333:0.24101529
Abstract:Object:0.8645054:0.0040788217
History:Manager:86.27451:0.004600672
Tree:Object:0.884681:2.1290555E-4
Tool:Editor:0.005169455:0.036640774
Enabled:Component:0.3595141:2.2778764
Event:mouse:0.025006974:7.77512
action:Pane:6.8451753:43.34186
Check:Manager:77.198:0.056462795
internal:Start:7.762724:2.1038008
Size:Size:46.230682:46.230682
Code:Class:0.008230462:39.92806
Component:Types:0.024493296:0.046312377
Width:Width:8.385094:8.385094
log4j:Component:0.013241963:0.07347988
application:Helper:0.14702278:3.7037036
Registry:Simple:0.037108503:0.060834654
Code:Handler:0.006814229:17.3724
internal:Model:1.061882:0.044060893
Type:Layout:0.0010462139:0.09885086
Enabled:Listener:9.664357E-4:0.054318305
undo:Manager:79.591835:0.002038934
Mode:Pane:0.013861454:0.04449883
Container:layout:0.3664346:28.57143
Button_:Manager:100.0:0.0015684109
Mode:Logger:0.020792183:0.066688895
Value:String:14.175153:5.166974
Size:Action:0.0026148576:3.1234772E-4
Debug:impl:28.309233:0.8562573
Editor:Dock:0.31511065:27.044025
Layout:Icon:0.12356357:0.44247788
Data:core:0.06527323:6.1932726
Removed:Enabled:0.8:9.664357E-4
Iterator:Index:84.655945:32.867794
Visible:Panel:2.3738873:0.006582195
impl:Debug:1.1649473:38.515015
Event:Listener:0.109645955:30.961433
Size:Enabled:0.18042518:0.06668407
Base:Check:3.41894E-4:0.21443889
Abstract:Tool:0.0015833431:0.0020677818
Base:Item:0.005470304:0.21965954
Container:Layout:0.2565042:0.25948352
Item:Element:0.07321984:0.005506892
remove:Logger:0.07242878:0.033344448
hash:Object:98.704865:48.43793
Manager:Data:0.7830553:4.2140627
Label:Size:6.91358:0.07321601
Parser:Type:100.0:0.018962627
impl:apache:0.0025233515:0.0046860357
Listener:Mouse:0.43454644:1.3675214
Project:Action:0.10071711:0.054660853
Owner:Event:0.46728972:1.9236133E-4
check:action:14.285715:0.0017569752
Project:Manager:59.423096:5.3979473
Base:Factory:0.006382021:0.2051733
Manager:Target:0.006901008:14.505495
Manager:Swing:1.568411E-4:2.4
Preferred:Layout:3.7117903:0.8402323
Factory:Instance:40.800175:4.963629
Editor:Target:0.21984465:3.2967036
Model:Base:6.2171445:0.4663434
Value:Handler:0.16293278:0.9073724
Manager:analysis:7.319251E-4:0.10127315
Data:Factory:0.13926832:1.8135853
Focus:Editor:1.986755:0.04396893
Registry:List:0.13359062:0.008432968
Listener:Line:0.054318305:0.26385224
paint:Icon:16.93625:7.8761063
Selection:impl:0.93043864:0.00883173
Manager:Changed:5.2280363E-4:5.882353
Base:Valid:0.016410911:27.272728
Facade:Type:0.6546645:5.2310695E-4
Action:Object:0.025300166:3.0254998E-4
Element:Instance:0.18344834:0.2375731
impl:Logger:1.529151:40.41347
Item:paint:0.12813473:2.6641295
Manager:Types:8.364858E-4:0.1852495
Change:Change:3.1457956:3.1457956
Monitor:Adapter:34.88372:0.007187867
Logger:Configuration:0.011114816:0.22883295
impl:Boolean:0.010093406:100.0
Manager:Class:1.0456073E-4:0.07194245
Button:Action:12.857878:0.23426081
Types:Abstract:0.011578094:7.9167157E-4
Wrapper:Factory:0.11263376:0.06594856
Internal:Manager:92.414246:1.2661781
Data:log4j:5.6270027E-4:0.002206994
application:Model:31.103489:5.7856517
String:Facade:0.035881765:4.7463174
Name:Simple:0.008160073:5.8036256
core:Data:27.656168:0.29147875
Panel:Type:0.0032910975:5.2310695E-4
mouse:Manager:0.5382775:4.7052326E-4
register:Manager:0.92879254:1.568411E-4
Manager:update:0.012547287:90.909096
Data:Text:0.019694509:0.2588949
mouse:Editor:1.1961722:0.1465631
Listener:Event:5.5404673:0.019620854
Instance:Editor:0.026743688:0.4396893
enter:Instance:0.25696227:0.23088719
Enabled:Template:0.0038657428:26.666668
Manager:layout:1.568411E-4:2.857143
Type:Lexer:1.1377575:10.993037
Panel:Base:0.018101037:0.0025072226
fire:Event:18.60465:0.0015388906
Start:Start:7.2938375:7.2938375
hash:Descriptor:0.0014157222:37.80488
Combo:Data:7.1165643:0.016318308
Instance:Default:0.01203466:57.446808
Pane:Pressed:0.24474359:20.952381
Node:Instance:0.4960541:0.009806019
Logger:Label:0.044459265:0.9876544
Event:Panel:0.0046166717:0.019746585
apache:List:0.0132771:0.0079644695
Component:Facade:0.061233237:1.6366612
internal:Type:14.060783:0.05021826
Node:Editor:0.31567082:0.10259417
Layout:Preferred:5.18967:22.925764
Icon:Object:0.044247787:3.735185E-6
Data:Model:0.010128605:0.054696284
hash:Instance:2.7401076E-4:0.016046213
Code:List:4.8196397E-4:0.030452382
Clicked:action:25.0:0.0017569752
log4j:Node:0.002206994:0.04509583
List:Performed:9.3699637E-4:2.0618556
Logger:Logger:0.55574083:0.55574083
Manager:Event:0.096666396:0.35567608
Element:equals:0.001376723:0.026994195
Base:Combo:1.13964656E-4:0.12269939
Object:Valid:1.6808332E-4:8.522727
Model:hash:0.31146497:0.0015603389
List:Instance:3.2560625:3.0978105
Event:Action:0.16773908:0.2723672
find:Factory:0.87370926:0.0403019
Panel:Name:0.21721244:0.0045162668
Simple:Enabled:0.12166931:0.009664357
Action:Factory:0.050912682:0.5972009
create:Data:30.88327:30.96399
Composite:List:100.0:0.002810989
Group:Instance:45.238094:0.01693767
Selection:Tool:1.7279575:0.04032175
Index:Path:0.00937482:0.019356744
Logger:Enabled:0.066688895:0.005798614
Enabled:Enabled:0.44069466:0.44069466
Type:create:11.633375:24.962538
Preferred:Component:0.43668124:0.04898659
Manager:Navigate:5.2280363E-4:41.666664
hash:List:4.947416E-4:0.030452382
Project:Enabled:0.1179829:0.19811931
Storage:action:2.221124E-4:0.0035139504
Event:Changed:0.003462504:10.588236
impl:Configuration:0.101354614:55.14874
create:Manager:0.41811886:0.07789774
Index:Name:1.0071235:0.373071
Element:Target:0.012390507:3.9560442
Facade:Instance:0.9819968:0.002674369
List:Code:0.014054946:2.2244491E-4
Link:action:100.0:0.0035139504
Panel:Listener:0.006582195:0.43454644
Action:remove:0.005622259:0.43457267
Wait:application:100.0:0.008167933
Type:Name:4.6838994:0.6127069
Performed:Event:1.0309278:1.9236133E-4
Swing:Panel:0.8:8.2277437E-4
Attribute:Debug:23.529411:0.27808678
Selection:Pane:3.9875944:1.0012237
Panel:Tool:0.01316439:0.016542254
Instance:Action:0.18185708:0.12743787
Visible:Width:4.1543026:1.0869565
Event:Node:5.7708396E-4:0.06764375
List:Index:0.04872381:0.004802863
Simple:Look:0.3650079:2.4057739
Simple:Index:1.411364:0.0053570396
action:Configuration:0.09311968:12.128147
Mouse:action:1.0256411:0.010541852
action:Item:0.19151029:0.49881017
Panel:Action:0.051012013:0.019365558
action:index:0.056223206:100.0
Change:Menu:2.1778584:4.4280443
Model:Default:0.019751435:27.659575
Model:Event:0.24613328:0.031162536
Reference:Element:72.516045:4.8983803
Action:Enabled:0.022489036:0.06958337
List:Name:0.042164836:0.0015396365
internal:String:16.990112:0.57410824
String:Base:2.8062015:0.25847185
Manager:Index:0.011031157:0.009744271
Base:Target:0.001367576:1.3186814
Drag:impl:31.746033:0.008411172
Event:Instance:0.425888:0.98684204
Model:application:0.35096782:1.8867924
hash:Index:0.2651054:1.6084975
From:Instance:0.030731406:8.9145626E-4
Model:Model:34.792915:34.792915
Object:Enabled:9.3379625E-5:0.024160892
core:Instance:9.930593:0.16581087
impl:Enabled:3.2391422:7.4434876
Manager:Mouse:8.364858E-4:2.7350428
Line:Line:2.110818:2.110818
Name:internal:4.9610506E-4:1.061882
Pane:Exited:0.011124708:10.0
apache:create:0.0070290533:0.00252555
Expression:First:22.535696:56.22318
Action:List:0.04810155:0.072148725
Facade:List:4.255319:0.012180952
Base:log4j:5.698233E-4:0.005517485
Layer:Model:40.0:0.015193412
Status:Instance:26.984129:0.007577379
hash:Cache:7.6114097E-6:0.65789473
Item:Instance:2.5855758:0.2518364
impl:Facade:0.004205586:1.6366612
Event:Target:0.009810427:5.604396
Swing:Factory:11.200001:0.051293325
Mouse:Manager:13.504274:0.004130149
Manager:Utils:2.0912146E-4:100.0
Iterator:Impl_:3.184808:6.0139346
Target:Project:0.87912095:0.0046042106
Icon:Model:2.6548672:0.091160476
Action:Action:19.855946:19.855946
Debug:Element:0.16685206:0.0041301693
Registry:Helper:0.23749442:6.584362
impl:Changed:0.016401784:22.941177
paint:Width:7.5166507:6.13354
Project:Undo:0.01726579:5.586592
Code:Descriptor:0.0013791585:37.80488
Enabled:Target:0.017395843:1.9780221
Combo:application:0.49079755:0.03267173
register:Helper:66.87307:44.444447
Panel:Component:0.0962646:0.7164289
Model:Document:0.091160476:21.66065
Logger:apache:14.804935:1.0402999
String:Icon:0.0012373022:0.044247787
Iterator:Model:7.136825E-4:0.009116047
Graphics:Editor:19.67213:0.08793786
Enabled:Focus:0.0038657428:1.3245033
invalidate:Manager:66.66667:1.0456073E-4
Event:Released:0.0023083359:13.333334
Name:Configuration:0.0019844202:26.544622
Storage:Event:0.049531065:0.08579315
Change:Element:0.060496066:3.4418076E-4
From:Editor:0.015365703:0.0073281545
Change:Visible:0.060496066:0.2967359
apache:Icon:0.0015620119:0.088495575
apache:log4j:4.6680727:6.595601
Base:apache:5.698233E-4:0.0039050297
Enabled:Mode:0.005798614:0.020792183
Name:Component:0.010931418:3.912804
Data:Event:0.5314704:0.36337057
Base:Tree:0.35169494:47.896942
Registry:Event:50.408195:1.3065182
hash:unlock:0.0031359007:0.15882438
Dispatch:action:80.27523:0.30747065
Iterator:Next:0.007612613:0.006073524
Model:Editor:0.0030386823:0.014656309
impl:configuration:0.010093406:100.0
Name:Exited:1.7107071E-5:10.0
hash:Element:3.0445636E-4:0.013767231
Adapter:Feature:0.9765916:99.804115
apache:action:7.8100595E-4:0.0017569752
Action:Element:0.37731606:0.41577038
Icon:Pane:0.30973452:0.077872954
Core:hash:0.7692308:2.2834229E-5
Editor:Under:0.0073281545:50.0
Name:Base:0.3585984:2.3889272
analysis:Name:99.8698:0.23618022
Dock:Container:52.83019:1.0260168
Base:Delegate:0.80971897:100.0
List:Mouse:0.0018739927:0.6837607
Manager:Owner:0.0010978878:9.813085
Context:Context:48.928623:48.928623
Manager:Active:0.060383823:63.566315
Instance:Instance:1.3006347:1.3006347
Property:Type:0.37453184:5.2310695E-4
apache:Listener:0.0031240238:0.21727322
Line:Model:0.7915568:0.0045580235
hash:Base:0.30274382:4.532944
Logger:fire:0.044459265:9.302325
Base:Visible:5.698233E-4:1.4836795
equals:Base:41.571064:0.7020223
String:apache:6.8521795:4.325211
log4j:Base:0.007724479:7.9775264E-4
Manager:Elements:5.2280364E-5:11.111112
Model:Instance:3.614513:1.0603873
Enabled:Debug:0.07731485:1.1123471
List:hash:0.030920878:5.02353E-4
Core:Code:0.7692308:2.224449E-5
Instance:Command:0.006685922:100.0
Popup:impl:39.024387:0.0067289374
Logger:impl:30.632433:1.1590594
Layout:Minimum:1.0132213:100.0
Manager:Look:0.020703025:31.756216
Name:Element:3.1474273:63.323753
List:Element:1.2405832:0.91139066
Base:Base:29.649046:29.649046
Model:Root:0.0060773646:100.0
Element:Handler:0.08673355:4.7637053
Code:Enabled:5.190381E-4:0.0676505
Arrow:paint:100.0:5.7088485
Name:mouse:1.3685657E-4:0.4784689
log4j:Event:16.46859:2.8708005
Editor:Line:0.19053203:6.8601584
Enabled:Node:0.0019328714:0.04509583
From:Project:93.0547:3.4853876
Action:Target:0.008121042:2.857143
Valid:Base:1.8939395:0.0011396466
Panel:remove:0.0032910975:0.096571706
internal:Name:6.1515927:0.002873988
lookup:Factory:100.0:0.03297428
hash:Reference:0.01982011:13.268113
Dispatch:Menu:1.8348624:0.4920049
From:Action:2.858021:0.058096677
Removed:Tree:7.2:0.13968648
Object:Node:2.241111E-5:0.1352875
Model:Changed:0.0060773646:2.3529413
Node:Base:0.270575:0.001367576
Tree:hash:0.23281081:1.1417114E-4
Component:Layout:0.091849856:0.18534535
Object:Storage:2.327435:69.20034
Logger:Scroll:0.033344448:2.586207
List:Manager:0.41227838:0.04600672
Name:core:0.003370093:5.2589426
Data:Separator:5.6270027E-4:16.666668
Action:Added:3.1234772E-4:11.111112
Changed:Event:17.647058:0.0057708398
Internal:Editor:0.038157742:0.07328155
Manager:Containing:1.568411E-4:50.0
Combo:Control:7.607362:9.77918
Abstract:Base:94.53984:13.609431
True:List:32.394367:0.06465275
Element:impl:0.8759401:1.0703217
Label:Event:0.2469136:1.9236133E-4
Element:Enabled:0.0034418078:0.009664357
Code:Storage:1.11222456E-4:0.0016658431
Project:contains:0.0023021053:8.163265
Modal:Manager:0.5:0.0010456073
hash:Tree:1.6745101E-4:0.34145585
log4j:Icon:0.002206994:0.088495575
Internal:paint:0.007631549:0.19029495
Factory:Enabled:0.010991427:0.002899307
Manager:Property:0.00846942:15.168539
Item:Item:36.774666:36.774666
Adapter:Monitor:0.0057502934:27.906979
Manager:Document:0.0027708593:19.133574
Adapter:Context:1.0158851:1.4217978
contains:equals:2.0408163:0.0067485487
action:Internal:3.2574317:7.0744457
Registry:Action:0.46014547:0.019365558
Data:debug:2.8135013E-4:11.111112
Model:remove:0.22790118:3.621439
Action:Navigate:0.0012493909:16.666668
Proxy:Base:100.0:0.042394854
impl:Released:0.0046261447:12.222222
Project:Editor:0.0023021053:0.029312618
Pane:Event:0.15574591:0.0026930585
Element:Iterator:0.001376723:4.757883E-4
Storage:Index:1.1388813:0.47359002
analysis:action:0.014467592:0.0035139504
Text:Lexer:24.776241:8.464639
impl:Size:0.008411172:0.05229715
Editor:Object:0.058625236:2.988148E-5
Panel:Event:0.012341616:0.0028854199
Base:Index:0.019373992:0.007850834
remove:Object:18.252052:0.0028237998
Monitor:Instance:34.88372:0.006685922
Base:select:1.13964656E-4:100.0
enter:Base:0.06101614:0.014017654
Label:Layout:7.4074073:0.3706907
Instance:Project:0.049030095:0.063307896
apache:Component:0.009372071:0.07347988
Create:Data:47.272728:0.007315104
hash:core:5.02353E-4:1.7618794
size:Instance:0.13730654:0.103408925
User:Iterator:66.66667:9.515766E-4
Enabled:Panel:0.0048321784:0.004113872
Tool:Data:13.417837:3.6513622
Item:Selection:0.00915248:0.0886132
hash:Name:0.41092476:0.9235766
Path:Time:0.026031485:8.333334
Active:Editor:0.38525042:0.051297083
Property:create:72.47191:0.21719733
paint:Base:1.7126546:0.002051364
Selection:Node:2.4811697:1.2626833
Layout:Label:0.14827628:2.9629629
Mode:Node:0.013861454:0.09019166
unlock:Storage:67.69928:19.503246
Editor:Instance:0.6448776:0.039224077
Index:Array:0.009975178:1.016088
action:Child:0.19678122:18.122976
Data:Create:0.004501602:29.090908
String:Enabled:0.027220646:0.021261586
apache:application:0.0062480476:0.06534346
Manager:Action:7.9568624:47.538074
Target:Layout:0.21978024:0.024712715
Delete:Manager:85.71429:6.273644E-4
Instance:Undo:0.0044572814:1.8621974
Listener:Tool:0.21727322:0.0041355635
Factory:Name:10.024181:0.046804946
More:Index:100.0:0.001108353
Delete:Instance:14.285715:8.9145626E-4
Editor:Container:0.16854756:0.28093317
Instance:Name:0.002674369:1.0264242E-4
Debug:Size:0.027808676:0.0052297153
Array:Storage:55.0381:1.2993575
Pane:Manager:26.031816:0.12233605
Layout:layout:0.04942543:3.809524
Mouse:Listener:0.34188035:0.10863661
Data:Document:2.8135013E-4:0.36101082
Pane:Size:0.30036712:0.07060116
Handler:Pane:0.03780718:0.022249416
Document:Model:37.906136:0.15953083
Code:Name:0.40940988:0.9445669
Manager:Node:0.004705233:2.0293121
Look:Simple:2.0048115:0.30417326
Text:Event:3.680006:0.19139953
Object:Object:0.079223275:0.079223275
Impl_:Index:13.4741335:2.7703748
Event:Pressed:0.0023083359:11.428572
Repository:Event:1.4832163:0.0036548653
register:List:27.863777:0.042164836
Adapter:Path:10.818219:2.152699
hash:Debug:1.1417114E-4:0.20856509
Container:Container:23.891535:23.891535
Wrapper:unlock:1.5142982:0.09329005
Code:Tree:2.1503009E-4:0.4501009
fire:Change:9.302325:0.24198426
Selection:Mouse:0.0886132:0.34188035
Text:Model:0.35505587:0.14585675
Type:Type:37.90786:37.90786
layout:Size:3.809524:0.0104594305
Enabled:Attribute:0.0019328714:2.3529413
Enabled:contains:0.0019328714:4.0816326
Factory:Facade:0.0036638088:0.16366613
Event:log4j:11.281992:64.7201
Types:Types:12.955888:12.955888
Undo:Manager:57.35568:0.016102351
Change:action:1.2704175:0.03689648
Abstract:Enabled:0.0023750148:0.002899307
impl:mouse:0.07780334:11.064593
Enabled:Change:1.0108917:63.27889
Helper:Base:33.744858:0.018690204
Name:Name:21.169386:21.169386
Adapter:Simple:0.20701057:5.256114
Data:Component:1.6155126:35.160126
First:Context:4.0343347:0.2521679
Action:Selection:0.0012493909:0.1772264
Empty:Facade:100.0:1.9639935
Factory:Data:0.5385799:0.04135847
Tool:Action:0.086846836:0.026237208
mouse:mouse:0.4784689:0.4784689
Next:Impl_:33.5268:79.35249
Manager:Navigation:5.2280364E-5:100.0
Action:Selected:0.024363123:0.59028304
Action:Node:0.0012493909:0.09019166
Project:Iterator:0.013812631:0.00285473
Listener:impl:21.727322:0.16822344
Settings:Style:4.109589:1.6260161
Item:Object:0.96101046:7.843888E-4
Pane:Tree_:0.022249416:25.0
Manager:access$000:4.182429E-4:16.666668
contains:Base:28.57143:0.0015955053
impl:Active:0.058457647:7.6499724
Manager:Simple:0.13749735:31.999027
Selection:Border:1.2848915:15.934067
List:Adapter:56.91503:58.214058
paint:Graphics:1.0466223:18.032785
Visible:Settings:19.58457:45.20548
Manager:Pane:0.046843205:9.967738
Manager:action:0.73636895:24.746996
Mouse:Mouse:4.1025643:4.1025643
find:Model:27.79984:0.5317694
Base:Instance:1.067393:4.17469
Wrapper:Tool:0.018772293:0.0031016727
Node:Action:0.09019166:0.0012493909
Changed:Change:5.882353:0.6049607
equals:List:0.013497097:9.3699637E-4
From:Added:0.030731406:22.222223
Element:Factory:6.883615E-4:0.0073276176
Object:Text:1.1205555E-5:0.011095496
create:core:0.009540968:0.90763485
Mouse:Editor:5.982906:0.25648543
Types:Editor:0.023156188:0.014656309
Icon:paint:18.672565:40.152237
Moved:Mouse:3.9106145:1.1965812
Node:remove:1.5332582:1.6417191
Layout:Component:0.04942543:0.024493296
List:Data:0.16865934:0.10128605
Manager_:Instance:0.18331805:8.9145626E-4
Attribute:Enabled:70.588234:0.05798614
Color:Line:6.6985645:14.775726
Code:Element:8.897796E-5:0.0041301693
State:State:49.73357:49.73357
Property:impl:9.831461:0.044158652
Enabled:Selection:0.011597228:0.5316792
Object:access$400:7.47037E-6:5.0
Registry:Swing:0.0074217007:0.8
Iterator:Storage:0.29439402:0.2748641
check:Action:71.42857:0.0015617387
Abstract:core:0.017416775:0.58729315
impl:Scroll:0.00883173:18.103447
Manager:Focus:0.011972203:75.82781
Storage:Object:0.09073292:0.003051646
Enabled:Factory:0.15656258:0.59353703
clear:Instance:88.65248:0.05571602
Text:Listener:0.0036984985:0.054318305
Item:Base:0.16016841:0.003988763
impl:impl:34.556458:34.556458
Tree:Removed:0.17072792:8.8
hash:_get:0.010640751:48.60918
Name:equals:0.0013685657:0.5398839
hash:Class:0.008448664:39.92806
Object:Actions:5.976296E-5:66.66667
Manager:History:3.136822E-4:5.882353
Enabled:fire:0.005798614:13.953489
action:Start:14.698854:83.020744
Layout:Container:0.024712715:0.024428973
find:Pane:10.484511:1.4684615
Object:Check:7.843888E-5:1.5010722
Manager:Text:0.052071247:3.6837046
Preferred:Size:33.842796:1.6212116
Border:Size:13.186814:0.06275658
Manager:Facade:0.008783102:27.495909
Enabled:Event:0.046388913:0.009233343
core:create:1.0411105:0.010944051
impl:Panel:0.4924741:0.96346885
Impl_:apache:2.2461009E-4:7.8100595E-4
Action:equals:3.1234772E-4:0.0067485487
String:Valid:0.0037119065:0.5681818
Name:Swing:1.3685657E-4:6.4
Manager:Child:0.0015684109:4.8543687
Selection:Manager_:0.443066:0.9165903
Released:Pane:8.888889:0.08899766
Expression:String:0.4988818:0.14352706
create:Model:0.0011224668:0.0060773646
Removed:Removed:9.6:9.6
Wrapper:Array:0.05631688:0.042337
hash:Factory:3.0445639E-5:0.014655235
Debug:create:0.5005562:0.0101022
Element:Helper:0.002753446:1.6460905
remove:Target:0.14485756:0.6593407
Property:Swing:0.56179774:4.8
Lexer:Event:0.0012635675:1.9236133E-4
Container:Icon:0.09771589:0.3539823
Child:Enabled:71.19741:0.4252317
equals:remove:0.040491294:0.14485756
Debug:internal:0.027808676:0.07323325
Base:Iterator:0.23841406:0.24883729
Base:String:0.108494356:1.1779116
Facade:Action:0.9819968:0.0018740864
Performed:process:1.0309278:0.9433962
Exited:Mouse:40.0:0.6837607
Logger:Debug:0.044459265:0.05561735
Manager:Model:0.06901009:2.0055304
Action:Instance:4.6040053:6.570033
Logger:Model:0.14449261:0.019751435
Editor:Mouse:0.036640774:0.8547009
Property:Event:0.09363296:1.9236133E-4
apache:Base:0.0054670414:7.9775264E-4
Model:Data:0.14585675:0.027009616
Visible:Types:0.5934718:0.023156188
Menu:Instance:31.98032:0.115889326
Value:Instance:79.7556:10.472828
Owner:impl:6.0747666:0.0054672617
Manager:filter:1.568411E-4:1.2523685E-4
Component:Model:1.836997:0.45580235
hash:size:0.0051377015:0.399491
Owner:remove:2.803738:0.14485756
Enabled:internal:0.002899307:0.10984987
Base:Node:0.0014815406:0.2931229
Instance:Data:0.83529454:0.5272502
Object:Base:0.04669728:1.4247862
apache:impl:0.0062480476:0.0033644687
Code:unlock:0.6002898:31.208992
Mouse:Exited:0.17094018:10.0
List:List:1.3038305:1.3038305
Pane:Instance:0.97897434:0.039224077
Code:Active:1.4088178E-4:1.0456797
Enabled:remove:0.017395843:0.43457267
Tool:action:13.419904:22.805538
Listener:Manager:24.932102:0.023996687
Time:Adapter:8.333334:0.13081919
Element:action:1.2063535:6.158198
Look:Linked:0.16038492:7.692308
apache:Item:0.0015620119:0.00915248
Model:Tool:0.013674071:0.009305019
create:Feel:0.20204401:58.871628
Data:Panel:1.886734:5.517525
Size:Layout:0.19611432:0.92672676
Icon:Base:0.44247788:0.0011396466
Text:Manager:4.183002:0.059129093
event:Action:97.87234:0.08620797
hash:Active:2.8923358E-4:2.0913594
Manager:Container:0.21445407:50.103825
Class:Object:13.381295:0.0013894888
Name:List:1.5396364E-4:0.004216484
Event:Clicked:1.9236133E-4:25.0
Panel:paint:0.030442653:3.5204568
Mode:Debug:0.010396091:0.041713014
size:Array:0.015979642:0.127011
hash:Item:1.21782556E-4:0.07321984
Manager:Modal:0.20703024:99.0
Target:Action:1.9780221:0.005622259
Template:Instance:53.333336:0.003565825
Event:Text:0.0025006973:0.048080478
Enabled:Instance:0.19328713:0.08914562
Layout:Manager:0.44482887:0.001882093
apache:Manager_:7.8100595E-4:0.091659024
Name:model:0.05255292:84.95575
Model:Text:0.52873075:1.2870774
List:apache:0.008432968:0.014058107
List:Enabled:0.0252989:0.05218753
Size:Component:0.015689146:0.03673994
String:Editor:0.004949209:0.029312618
Tree:Base:47.679653:0.35009944
should:Manager:14.285715:1.568411E-4
Monitor:Event:2.3255813:1.9236133E-4
Code:Editor:6.4509024E-4:0.63754946
Manager:Undo:0.0025094575:8.938547
Object:Editor:2.988148E-5:0.058625236
log4j:Manager:0.036415398:0.001725252
Base:Mutable:1.13964656E-4:100.0
Storage:Storage:2.513424:2.513424
Event:List:0.40049627:0.97541326
Data:List:0.30892247:0.514411
Base:Elements:4.5585862E-4:44.444447
Button:Enabled:2.194411:0.12370377
Icon:Factory:26.681417:2.2092767
Cache:Label:0.65789473:0.2469136
layout:Layout:22.857143:0.29655257
Removed:Event:24.0:0.0057708398
Update:application:90.98278:7.3348036
contains:Object:12.244898:2.241111E-5
Panel:Data:37.534145:12.834912
core:String:0.026695142:0.0012373022
Factory:Types:5.2795486:16.684034
Update:Wrapper:5.8763933:0.36293098
Instance:Facade:0.0601733:22.094927
filter:Name:99.99988:40.97927
List:Wrapper:0.0037479855:0.050059445
Manager:Panel:0.3011349:4.7391806
Action:Editor:9.370432E-4:0.021984465
Enabled:Logger:0.07924773:0.9114149
Instance:access$000:8.9145626E-4:4.166667
Action:Project:0.015929734:0.029351842
Core:Handler:96.15385:7.0888467
Base:List:1.1056851:4.545369
List:Facade:0.008432968:2.94599
contains:Instance:40.816326:0.008914563
Mode:Location:0.0034653635:6.25
Data:apache:5.6270027E-4:0.0015620119
Action:Standard:0.11994153:7.317073
Model:Component:0.03646419:0.14695977
Size:Base:0.0052297153:2.2792931E-4
action:Adapter:0.0017569752:4.791911E-4
apache:Event:11.655732:2.8708005
List:Entered:9.3699637E-4:25.0
paint:action:1.2369173:0.022840677
core:List:4.0042715:0.070274726
action:Notify:0.0035139504:100.0
impl:Pressed:0.018504579:41.904762
Manager:Save:2.6140182E-4:55.555557
mouse:action:0.4784689:0.014055802
Analysis:action:100.0:0.0035139504
Event:remove:0.018274328:2.293578
Action:Manager:5.578531:0.9337273
Enabled:Combo:0.25513902:32.39264
Handler:Valid:0.34026465:3.409091
Event:Combo:0.020775024:13.251534
Base:access$400:0.004102728:90.0
apache:Layout:2.3289597:36.846657
log4j:Item:0.001103497:0.00457624
Descriptor:Element:24.390244:0.04130169
Manager:Adapter:0.0026140183:0.023959557
Enabled:From:0.19908576:3.165335
Enabled:Size:0.044456042:0.120283455
Event:Browser:0.005386117:63.636364
Handler:Instance:0.056710776:0.0013371845
Element:Object:0.17071366:0.0018526518
Manager:selection:1.0456073E-4:33.333336
Editor:Element:0.4396893:0.020650845
Group:Name:1.1904762:1.7107071E-5
Abstract:List:0.011083403:0.0065589747
Moved:Pane:6.703911:0.1334965
Index:Object:0.51944816:0.042013362
Factory:Factory:0.0073276176:0.0073276176
Index:Index:5.5395484:5.5395484
Listener:Listener:1.4665942:1.4665942
Editor:Base:0.26381359:0.004102728
Debug:Node:0.1112347:0.18038332
Text:Abstract:0.029587988:0.0063333726
Code:_get:0.010365933:48.60918
Cache:hash:5.263158:6.0891278E-5
Entered:Manager:12.5:5.2280364E-5
Model:State:0.009116047:0.5328597
From:Manager:0.23048554:7.8420545E-4
Wrapper:Object:0.11889119:7.096851E-5
Content:Width:100.0:0.93167704
Manager:Location:7.8420545E-4:93.75
init:Item:100.0:1.8121911
Manager:Manager:30.622074:30.622074
Pane:Linked:0.022249416:7.692308
Enabled:Project:7.457018:4.440761
Base:Active:0.047637228:23.004953
Base:Debug:0.0022792933:0.27808678
Pane:List:0.022249416:9.3699637E-4
Update:Instance:3.1408305:0.013817572
Panel:Property:0.009873292:1.1235955
Base:Enabled:0.0068378793:0.05798614
Event:Base:1.7429861:1.0326338
Impl_:Facade:0.002246101:1.6366612
First:Type:0.77253217:0.0094159255
Mouse:Pressed:1.880342:10.476191
action:Linked:0.028111603:61.538464
Type:Simple:0.020793501:1.934542
Code:Model:2.0761525E-4:0.042541556
impl:Drag:0.013878434:52.380955
Iterator:Iterator:0.7921876:0.7921876
Cache:Factory:1.3157895:0.0073276176
Removed:Manager:8.0:5.2280363E-4
Parent:Handler:100.0:0.30245745
Event:Abstract:0.46782276:1.9253453
List:Listener:0.004684982:0.543183
Object:Factory:0.013371961:13.116436
compute:Item:80.0:0.10982977
Size:String:0.028763436:0.013610323
equals:_get:0.5398839:2.781641
Event:Tree:0.011156957:0.9002018
Iterator:size:9.531705:47.42639
Event:Handler:0.30470034:29.94329
Enabled:Action:1.3568757:0.4385362
Listener:Panel:0.32590985:0.004936646
Base:Storage:1.5795501:1.5392389
Element:Base:0.05816655:0.019260027
Base:Panel:0.0059261625:0.04278427
Pane:Entered:0.022249416:25.0
core:Manager:0.37373197:7.319251E-4
Name:Index:0.007937681:0.021428159
Listener:Removed:0.054318305:0.8
Debug:remove:0.23637374:0.41042978
Model:Settings:0.0030386823:1.369863
Text:Selection:0.19232191:2.3039432
Image:application:76.92308:0.08167933
core:Document:0.026695142:0.36101082
action:process:0.12123129:65.09434
Border:Panel:42.857143:0.0641764
log4j:Manager_:0.001103497:0.091659024
Registry:Manager:8.564643:0.060331542
Model:find:0.022790119:1.1914217
Pane:Preferred:0.23361887:1.1462882
impl:fire:0.002102793:11.627908
Manager:Manager_:0.013174652:23.098076
List:core:0.05387729:3.0699413
Editor:equals:0.029312618:0.026994195
Selection:Action:1.2405849:0.008745736
Debug:Debug:0.05561735:0.05561735
check:From:14.285715:0.015365703
Instance:Helper:0.0040115532:1.8518518
next:Index:6.6538086:0.003186515
fire:Changed:11.627908:2.9411764
paint:Pane:13.320647:1.5574591
Navigate:Action:16.666668:0.0012493909
Tree:Handler:0.031041441:0.03780718
Logger:Layout:0.022229632:0.024712715
impl:Popup:0.00883173:51.219513
apache:Manager:0.028116213:0.001882093
impl:Layout:0.011775641:0.345978
Event:Event:28.635485:28.635485
Preferred:Enabled:3.6026201:0.063784756
Action:Item:0.02061495:0.30203184
Path:Path:23.031286:23.031286
Component:Panel:0.25717962:0.034556523
Visible:mouse:0.2967359:0.059808612
Node:Element:32.378803:0.49424356
Manager:Feature:2.0912146E-4:0.19588637
remove:impl:52.43844:0.9134533
Released:Mouse:6.666667:1.0256411
Component:Manager:55.018063:0.46973908
Bounds:Width:48.35165:3.416149
Action:Button:0.21864341:12.000686
size:Code:0.021306189:2.669339E-4
Code:Factory:5.931864E-5:0.02931047
Changed:Editor:3.529412:0.04396893
Logger:Changed:0.022229632:1.1764706
Selected:Manager:99.36431:0.6864412
Name:Object:0.019074384:0.004164731
property:Visible:100.0:0.2967359
Enabled:Model:0.14013317:0.22030447
Editor:Text:0.96731645:0.4882018
Manager:Debug:0.0076852133:2.0439377
Code:Cache:7.41483E-6:0.65789473
impl:Target:0.18883081:49.34066
Project:Containing:0.0017265789:50.0
Copy:core:1.9323671:0.10678057
Pane:Selection:0.28924242:1.1519716
impl:Item:0.023130722:0.25169322
Handler:Tree:0.056710776:0.04656216
Model:impl:0.10939257:0.03028022
Object:Panel:0.09966968:21.954912
impl:Manager:9.35869:1.1633949
Combo:String:1.3496933:0.013610323
Style:Style:22.764229:22.764229
Manager:Instance:1.7996993:15.343745
Manager:Change:5.2280363E-4:0.6049607
fire:Tree_:4.6511626:25.0
Pane:Clicked:0.011124708:25.0
Facade:Manager:20.621931:0.006587326
Event:Editor:0.44339284:16.891396
Manager:Listener:1.568411E-4:0.16295493
Abstract:Factory:0.0023750148:0.010991427
contains:Check:2.0408163:0.07147963
Core:Base:2.3076923:0.001025682
Enabled:Registry:4.6127977:35.42378
Cache:create:69.73685:0.029745368
Width:Pane:0.54347825:0.077872954
Enabled:Button:0.0676505:1.2000686
Panel:application:5.7808127:57.387894
Pane:Panel:2.469685:0.18265592
Next:Index:58.647465:28.54009
Mode:Tool:0.0034653635:0.0010338909
Panel:Manager:22.276615:1.4154909
hash:Model:4.795188E-4:0.095718496
Visible:Icon:13.056379:1.9469026
Manager:List:0.012808689:0.11478205
Feel:Check:2.6165166:2.2873483
Code:Reference:0.020687377:14.215836
Object:Item:4.1834073E-4:0.5125389
Debug:Event:0.3337041:0.0046166717
Index:Simple:0.0053570396:1.411364
Debug:action:10.789766:1.3634127
log4j:Layout:3.0555832:34.214752
Debug:Panel:0.013904338:8.2277437E-4
Manager:Performed:6.273644E-4:12.371134
String:Show:0.0012373022:50.0
Manager:Tool:3.2946038:65.15374
Base:Size:1.13964656E-4:0.0026148576
String:internal:0.115069106:3.405346
Manager:Feel:0.020703025:32.379395
Navigate:Instance:8.333334:8.9145626E-4
Logger:Panel:0.022229632:0.0016455487
Selection:Event:0.7089056:0.0030777813
Impl_:unlock:0.16306691:0.27987015
Group:Manager:51.19048:0.0022480558
Feel:Linked:0.16353229:7.692308
Editor:Manager_:5.950462:74.42713
Object:List:0.012550221:1.5741538
Manager:apply:1.0456073E-4:0.05
Size:core:0.39222863:4.0042715
remove:Instance:0.21728633:0.0040115532
Look:Check:2.5661588:2.2873483
Object:Instance:3.249611E-4:0.03877835
Code:Impl_:0.0013643288:0.041328255
Token:push:100.0:100.0
Impl_:Model:8.9844037E-4:0.0060773646
Manager:Editor:0.018193567:2.5501978
Look:Action:1.9246191:0.007496346
log4j:Focus:0.001103497:0.33112583
Simple:Instance:1.3383623:0.049030095
Context:Type:0.3909944:0.07624284
application:Factory:0.735114:0.3297428
List:log4j:0.008432968:0.019862946
Status:mouse:1.5873017:0.059808612
Code:Base:0.3017836:4.6383615
Selection:Lexer:5.6269383:0.16047308
Status:Manager:71.42857:0.0023526165
Layout:Layout:2.2241445:2.2241445
Event:Plain:3.8472266E-4:100.0
Node:impl:32.965054:0.61485666
Event:Exited:1.9236133E-4:10.0
Code:size:0.0020020043:0.1597964
Change:Debug:1.5124017:0.34760845
Tree_:Event:50.0:7.694453E-4
Name:Project:1.5396364E-4:0.0051797368
Class:Base:6.6906476:0.021197427
Strategy:Manager:55.714287:0.002038934
Event:Enabled:0.088870935:0.44649327
Name:Manager:0.19789459:0.60477924
Element:Model:0.0061952537:0.027348142
Color:Color:46.411484:46.411484
Manager:Selection:0.023526164:19.937971
Document:Event:9.7472925:0.005193756
Text:Name:0.036984984:1.7107071E-4
Adapter:action:1.5367659:5.634619
Adapter:Value:0.8337925:5.906314
Element:Component:0.0010325423:0.01836997
Pane:paint:0.08899766:0.7611798
Mouse:Entered:0.34188035:25.0
Drag:Pane:15.873016:0.11124708
Moved:Event:2.2346368:7.694453E-4
model:application:0.88495576:0.26137385
Menu:Added:0.123001225:11.111112
Debug:Focus:0.05561735:1.3245033
Editor:Editor:15.389125:15.389125
Editor:From:0.029312618:0.061462812
Facade:Document:0.32733226:0.72202164
Abstract:Active:0.010291731:0.71546507
Expression:Expression:38.48271:38.48271
apache:Focus:7.8100595E-4:0.33112583
Base:Text:0.122853905:3.9869812
Editor:action:3.1877472:0.7642842
impl:Label:0.12196199:71.604935
List:Base:1.1834264:0.28787473
List:action:0.12274652:0.4603275
Cache:Code:21.052631:2.3727457E-4
Enabled:create:0.12177089:0.035357703
Name:Standard:0.009306246:10.365853
Name:Path:4.6670485:26.01375
Listener:Object:2.118414:1.4567221E-4
Mouse:Clicked:0.17094018:25.0
Element:Logger:0.0041301693:0.13337779
Object:Iterator:2.3905183E-4:0.007612613
Selection:Editor:5.6712446:0.9380038
find:create:0.07942812:2.806167E-4
Type:List:0.028247776:0.1011956
Item:action:1.4369394:0.5516902
Visible:Attribute:0.2967359:1.1764706
log4j:Element:0.013241963:0.0041301693
Width:Item:58.69565:3.4596376
Storage:Base:0.052529585:0.053905282
Tool:Enabled:0.61826676:0.57792854
Editor:Group:0.014656309:2.3809524
Style:Manager:16.260162:0.0031368218
Base:equals:0.036468692:2.1595356
Line:Width:19.525066:5.745342
Editor:Handler:0.021984465:0.056710776
Undo:Undo:2.793296:2.793296
User:Elements:33.333336:44.444447
Element:Change:0.001376723:0.24198426
Manager:Bounds:1.568411E-4:3.2967036
model:Path:0.88495576:0.0030513096
Panel:Instance:0.10366958:0.056161743
Target:Event:0.87912095:0.0015388906
Impl_:log4j:2.2461009E-4:0.001103497
Registry:Instance:0.25975955:0.015600486
impl:Style:0.010093406:6.5040646
impl:Model:0.13794321:0.4983439
Name:Adapter:0.03021109:0.84625155
Editor:paint:0.07328155:0.9514748
Path:Name:25.711098:4.6127505
Enabled:Element:0.011597228:0.0041301693
debug:Panel:55.555557:0.004113872
Enabled:Navigate:0.0019328714:8.333334
apache:Logger:0.34364262:4.890519
Scroll:Instance:69.82758:0.03610398
Code:core:4.893788E-4:1.7618794
Model:Renderer:0.0045580235:100.0
internal:Manager:2.81948:0.004025588
selection:Event:66.66667:7.694453E-4
Tool:Focus:0.058931783:18.874172
Base:Property:4.5585862E-4:0.37453184
Manager:log4j:0.001882093:0.039725892
Label:Pane:0.7407407:0.033374123
Name:Abstract:0.0033872002:0.15675098
Height:Selection:100.0:0.3987594
equals:Node:0.18895938:0.63134164
Name:Storage:0.02288926:0.14859319
Index:unlock:0.06705536:0.5597403
Manager:Internal:0.0062736436:0.45789295
Handler:Editor:0.03780718:0.014656309
Panel:Change:0.008227744:0.6049607
Element:remove:6.883615E-4:0.048285853
log4j:action:0.001103497:0.0017569752
Support:Manager:100.0:2.0912146E-4
Instance:Navigate:8.9145626E-4:8.333334
Name:Text:7.6981826E-4:0.16643243
Manager:Style:0.0031368218:16.260162
First:Name:24.527897:0.039106764
Base:Event:2.973452:5.0188994
process:Editor:9.433963:0.07328155
Manager:Project:0.95077074:10.466522
Text:Editor:1.08366:2.1471493
hash:Enabled:3.4251343E-4:0.043489605
Scroll:impl:9.4827585:0.0046261447
Node:Object:0.22547913:3.735185E-5
Next:Storage:0.21504071:0.25165334
Selected:Target:0.045406386:0.6593407
Combo:Base:0.49079755:4.5585862E-4
log4j:Listener:0.004413988:0.21727322
should:Text:19.047619:0.014793994
Base:Layer:3.41894E-4:12.0
Editor:Project:0.0806097:0.0063307895
Actions:Pane:16.666668:0.04449883
action:Editor:0.028111603:0.11725047
Selection:Logger:0.0443066:0.011114816
action:First:0.04743833:0.28969958
enter:iterator:95.08349:96.972565
Instance:Manager:33.72825:3.9560552
Type:debug:1.3077674E-4:11.111112
internal:Action:0.292933:0.0024987818
invalidate:Selection:33.333336:0.0443066
Mode:Event:0.038119:0.0021159747
List:Types:0.0018739927:0.046312377
Model:Abstract:0.24917196:0.12983415
hash:Editor:7.7636377E-4:0.74747175
Iterator:Wrapper:0.02819046:1.483011
paint:Object:0.28544244:1.1205555E-5
Graph:Base:100.0:2.2792931E-4
size:Index:0.5942059:0.046366103
Code:Wrapper:0.0040040086:3.3790126
Layout:Size:13.493141:2.8554246
Manager:Lexer:5.2280364E-5:0.0012635675
Released:impl:20.0:0.007570055
Object:Debug:3.735185E-5:0.13904339
Factory:Feel:0.06594856:1.4717907
Editor:Border:0.15389125:11.538462
Combo:Event:14.723927:0.023083359
List:True:0.13492748:67.60563
Selection:Width:3.455915:6.0559006
Show:Base:50.0:1.13964656E-4
action:analysis:0.0035139504:0.014467592
Button:Tool:10.492028:0.6327413
apache:Object:7.8100595E-4:3.735185E-6
Name:Pane:6.8428286E-4:0.4449883
Undo:undo:1.8621974:20.408163
Tools:Action:100.0:0.0012493909
String:Object:13.620223:0.041116916
Adapter:Name:1.4701583:0.05248449
Base:Object:1.7812676:0.05838094
Object:Tree:2.3158148E-4:0.9622847
mouse:Pane:3.708134:0.6897319
hash:Check:2.2834229E-5:0.21443889
Object:remove:1.6061295E-4:1.0381458
Wrapper:Wrapper:36.124146:36.124146
Tree:Code:0.26385224:1.2605212E-4
Project:Project:2.3855565:2.3855565
Base:Manager_:5.698233E-4:0.45829514
Type:Factory:0.037532922:1.0515132
Selection:Manager:17.058043:0.020127939
Performed:Instance:43.29897:0.018720582
action:List:0.4603275:0.12274652
Manager:Check:0.011135718:15.225161
Project:Event:0.029351842:0.009810427
size:Storage:3.243867:0.608699
Instance:Simple:0.026743688:0.7300158
Save:Manager:44.444447:2.0912146E-4
impl:log4j:8.411172E-4:0.002206994
register:Instance:0.30959752:4.4572813E-4
Event:Element:0.0042319493:0.007571977
equals:Storage:1.3362128:0.021989128
apply:Simple:4.35:2.1170459
List:Exited:9.3699637E-4:20.0
Name:Item:0.030296622:8.104521
Name:Event:0.0017791353:0.020005578
Menu:Manager:62.976627:0.026767546
Pane:Editor:0.11124708:0.07328155
process:mouse:4.7169814:0.29904306
Enabled:Impl_:0.2947629:0.06850608
Node:Provider:0.06764375:6.382979
Event:Object:0.18139674:0.0035222794
Handler:Event:21.077505:0.21448289
Project:Facade:0.02187:6.2193127
Action:From:0.010307475:0.5070682
Layout:Type:0.024712715:2.6155348E-4
Mouse:Released:1.880342:12.222222
Size:Label:0.094134875:8.888889
Handler:Enabled:0.09451796:0.0048321784
Size:Preferred:1.5898334:33.187775
Impl_:Array:0.016171927:0.338696
Logger:log4j:4.9349785:0.48995265
Instance:log4j:0.00713165:0.017655952
remove:Listener:0.024142927:0.054318305
Factory:core:0.19784567:1.4415377
Event:apache:11.281992:45.805996
Code:Debug:2.5951906E-4:0.48665187
Enabled:action:0.8427319:1.5320823
Pane:Moved:1.7354544:87.15083
Logger:Size:0.011114816:0.0026148576
log4j:application:0.008827976:0.06534346
Base:Model:9.1171724E-4:0.012154729
Base:Editor:0.0018234345:0.11725047
equals:access$400:0.013497097:5.0
clear:Manager:11.347517:8.364858E-4
Project:Model:0.0046042106:0.012154729
Added:core:11.111112:0.026695142
enter:size:0.017858382:0.021306189
core:core:15.803523:15.803523
Modal:Action:0.5:0.0062469547
Instance:equals:0.0017829125:0.026994195
Adapter:List:22.960922:22.448559
Types:List:0.046312377:0.0018739927
Mouse:mouse:34.871796:12.200956
register:Action:0.30959752:3.1234772E-4
Change:impl:14.821537:0.10303685
mouse:impl:7.8947363:0.055513736
Manager:Button:0.047993373:15.738042
Debug:Component:0.5005562:0.22043966
Dispatch:Performed:17.889908:40.206184
Enabled:Configuration:0.025127327:5.9496565
Element:Provider:0.014799772:91.489365
Item:Panel:0.01830496:0.0032910975
Standard:Name:82.31707:0.07390255
Event:Document:0.0046166717:8.66426
Type:Index:0.030340202:0.010714079
Name:Editor:1.7107071E-4:0.07328155
Mode:Editor:0.013861454:0.029312618
Instance:List:0.90973115:0.95620483
Bounds:Icon:48.35165:1.9469026
Handler:Iterator:0.15122873:9.515766E-4
Abstract:Model:0.05066698:0.09723783
Changed:Changed:8.823529:8.823529
Debug:Attribute:0.027808676:2.3529413
find:Text:56.235104:2.618537
Size:Combo:0.0862903:4.04908
update:Node:9.090909:0.54115
equals:Text:0.0067485487:0.0036984985
Model:Index:0.054696284:0.0016625295
From:Undo:0.015365703:0.18621974
List:mouse:0.005621978:0.71770334
Manager:Enabled:0.073192514:1.3530099
Manager:Removed:2.0912146E-4:3.2
Index:Base:0.044749755:0.11043176
Change:Logger:3.0248034:0.55574083
Model:Project:0.024309458:0.009208421
Factory:Cache:0.0036638088:0.65789473
event:Instance:2.1276596:0.002674369
remove:Manager:0.7242878:0.0015684109
Implementation:Base:75.94936:0.013675759
Line:find:11.081794:3.3359811
create:Look:0.20204401:57.73857
Layout:Target:0.29655257:2.6373627
equals:Object:40.997437:0.022691248
Index:Storage:0.05213877:0.12538244
Project:Instance:14.732899:11.410194
internal:Adapter:31.856462:0.41689625
Debug:Registry:8.370411:4.467864
Editor:Manager:29.810932:0.21267653
Undo:Project:11.173184:0.03453158
Name:Listener:1.7107071E-5:0.054318305
Action:Combo:0.008121042:3.190184
Index:action:0.0023090688:0.08784876
Check:Data:0.42887777:0.001688101
Selection:Selection:1.0633584:1.0633584
Simple:Simple:22.447987:22.447987
apply:Index:95.6:0.17659758
Selection:mouse:0.0886132:0.119617224
Control:Model:80.44164:0.774864
Index:Impl_:0.031172428:0.1516118
Instance:Item:0.09360291:0.96101046
Manager:process:9.410465E-4:16.981133
model:Manager:13.274336:0.025094574
Base:remove:0.022451038:4.7561564
Model:Action:0.022790119:0.004685216
create:Types:0.110282354:4.550191
Manager:apache:0.001882093:0.028116213
Enabled:Popup:0.0019328714:4.8780484
Helper:Project:0.82304525:0.0023021053
size:hash:0.55396086:0.007124279
Next:size:7.6046214:47.42639
insert:application:100.0:0.008167933
hash:Wrapper:0.004110161:3.3790126
Adapter:Time:0.52327675:33.333336
Impl_:Wrapper:0.6201484:17.276768
fire:Listener:4.6511626:0.10863661
Item:Action:0.8969431:0.061220158
Index:Code:11.016245:1.7687559
Resource:Factory:100.0:0.03297428
Enabled:Check:0.0077314856:0.57183707
application:Tool:0.8821367:0.11166022
Target:Element:9.230769:0.028911183
Object:Element:0.012834095:1.1826051
Mode:impl:44.43289:5.392402
Instance:Object:0.46177438:0.0038696516
Lexer:Text:17.332355:50.732304
Model:Object:0.28259748:6.947444E-4
Strategy:Instance:35.714287:0.011143203
action:Instance:4.541781:1.1522073
Valid:Object:0.37878788:7.47037E-6
create:Instance:0.0075766505:0.01203466
layout:Icon:38.095238:1.7699115
Manager:Name:0.024519492:0.008023216
remove:Element:2.0521488:0.029255366
Enabled:Tool:0.20295149:0.21711709
Factory:Look:0.06594856:1.4434643
Simple:Name:1.5817009:0.0022239191
Manager:Layer:6.273644E-4:48.0
Editor:Model:0.41770482:0.08660245
Popup:Enabled:4.8780484:0.0019328714
Dependencies:Dependency:100.0:91.89189
apache:helpers:1.6619807:50.0
From:Provider:0.015365703:2.1276596
Option:Name:100.0:6.8428286E-5
Graphics:paint:62.29508:3.6156044
Debug:Impl_:0.069521695:0.0011230505
Element:Element:12.050457:12.050457
Helper:Removed:7.2016463:28.0
Event:Entered:1.9236133E-4:12.5
action:Change:0.107175484:3.6902602
Data:Swing:0.025884213:73.6
Action:Data:0.1308737:0.11788571
Actions:fire:16.666668:9.302325
Data:create:41.509556:41.401344
Types:Event:0.034734283:5.7708396E-4
Pressed:impl:15.238096:0.0067289374
