item:Base:65.21739
Base:action:0.023536842
Class:Parameter:0.07677175
Splitter:Tree:6.666667
Dialog:Preferred:0.6543321
first:Model:23.014107
apache:Model:0.032645658
Type:Types:8.406362
log4j:create:0.009328195
Tree:Tree:35.033573
Value:Class:0.020353472
First:Logical:0.7264285
Object:equals:2.1593319E-4
log4j:List:0.010494219
List:Child:0.002244753
register:Name:0.4608295
Cache:Values:0.05303761
draw:Component:10.0
index:Simple:0.085882545
value:Start:0.119219966
action:Base:0.39720005
draw:Icon:3.181818
Type:Size:0.001951745
process:Name:0.030684259
State:Code:3.4482758
Base:Element:1.6043785
File:Types:5.6972404
size:Preferred:0.013989709
String:Storage:0.015638439
Object:Index:0.47613266
Cell:Tree:30.303032
enter:Element:9.551554E-4
name:First:0.05377617
List:Iterator:2.3861723
String:paint:0.011728829
iterator:Storage:0.1821678
action:Path:0.013022953
size:Size:0.014766916
sort:File:0.539892
register:Storage:0.15360983
State:Class:27.586206
name:Monitor:5.1487825E-4
hash:Priority:2.2776505E-4
Load:Type:7.648725
Size:Parent:0.18066847
lexer:Parser:12.108471
start:First:10.073409
Component:Value:28.901213
aspect:Model:20.0
Tool:Tool:0.22678594
Index:Lexer:1.7699795
Index:Type:0.85037214
Default:apache:2.2731726
Manager:Logger:1.0866321
Object:Event:0.021107469
Model:Element:0.027995044
Delegate:Object:2.9023142
property:Impl_:14.868805
name:Iterator:0.0065217917
Loader:Base:8.080808
apache:apache:31.008286
register:Value:21.198156
Storage:Impl_:2.1578954E-4
Code:Index:2.1520119
Code:Object:83.33847
debug:Change:94.56551
index:Name:14.504607
Value:write:3.6975474
Dialog:Button:0.2933213
hash:Valid:0.0049804626
init:Model:0.23419203
Type:First:0.00497695
changeless:Load:28.57143
property:Project:4.0816326
Node:Tree:94.68196
name:Path:29.1087
hash:Impl_:0.1676958
Name:First:0.019033367
Index:lexer:0.016697919
Storage:Instance:0.024600007
Tool:Manager:12.296838
Code:Default:0.0014032028
Size:Panel:0.5420054
Object:String:0.010886631
File:Object:3.7794194
Name:Time:0.0076225866
draw:Tree:5.4545455
Descriptor:Types:0.43091065
transcriber:Loader:9.715762
Project:Search:0.0041377028
Types:Type:25.680443
Contains:Class:100.0
Project:Count:0.016550811
name:Implementation:4.5766955E-4
custom:Type:100.0
internal:Context:1.0869565
transcriber:Instance:66.51163
size:Object:0.16243608
check:True:1.5180266
String:Line:0.160294
Wrapper:Index:0.89948213
Impl_:Code:3.2419403
Equal:node:33.333336
Model:List:0.13488522
Name:Descriptor:0.023837905
Model:Type:0.11664602
Value:Base:3.6330945
thread:Icon:0.1004372
Logical:Logical:34.90596
Loader:Cache:5.387205
name:String:0.009611061
internal:First:54.106277
Delegate:Base:0.18330406
Attribute:Impl_:0.01418144
internal:Path:0.7246377
get_down:Storage:100.0
Preferred:Type:0.6024096
Holder:File:0.23507287
Index:Support:2.9090452E-5
Performed:Manager:42.75093
name:Model:0.08009218
Model:create:0.24262373
Width:Component:5.975395
Class:File:0.04318411
Proxy:Instance:0.022192633
Pool:Base:45.16129
Handler:Item:0.005102509
Type:Base:0.4531952
value:Model:0.17031424
hash:Handler:0.057943426
action:Valid:0.01953443
storage:Impl_:0.041077603
Code:Valid:0.004343247
hash:Storage:0.39175585
case:List:0.09937829
Enabled:List:2.5911708
Name:Type:0.92468905
Performed:Index:1.4869888
String:Model:5.2545156
Listener:action:5.098039
write:Order:0.00980873
File:Wrap:0.018740922
log4j:Hierarchy:0.03731278
value:Search:0.017031424
Index:hash:0.45090201
Adapter:Start:0.018269524
check:Base:3.13093
name:Performed:3.4325218E-4
File:Handler:1.5312896
storage:Code:0.012323281
hash:File:0.13362215
internal:Start:0.9259259
Size:Size:25.383919
Code:Class:0.1448807
thread:Project:0.44901335
Descriptor:File:0.5314565
Empty:hash:28.238947
File:Class:7.808718E-4
Storage:String:0.20392111
hash:Value:0.07953555
Model:String:0.1611836
Wrapper:Base:1.1720524
Code:Handler:0.08853542
internal:Model:3.3816423
Type:Layout:6.831108E-4
match:True:66.66667
Button_:Manager:78.205124
Instance:action:0.21351966
Value:String:22.84338
Model:Handler:0.20614535
Parser:Feature:0.8487695
Line:Panel:0.23201856
Tree:Text:3.5674918
face:Model:0.8618921
Iterator:Index:74.15777
Object:check:2.5192206E-4
Handler:Storage:2.6043208
Base:Item:0.010427714
Name:Namespace:0.16848224
Cache:Value:8.003857
Component:Text:1.1392596
hash:Object:77.831116
File:model:0.003123487
way:Monitor:0.0046241703
name:Change:4.5766955E-4
Project:Manager:59.285004
Factory:Instance:92.06349
Debug:Layer:5.904059
transcriber:Type:1.3436693
code:Info:2.0
Descriptor:Value:6.549842
Storage:State:8.6315814E-4
Model:Base:1.0739918
make:Find:1.923077
paint:Icon:10.390668
way:Name:94.3377
Base:Valid:0.03098521
List:Project:0.02544053
Facade:Type:5.172414
Element:Instance:0.76970446
Feature:Feature:23.07344
Storage:storage:0.0031289484
Count:paint:1.5764222
Monitor:Adapter:37.2093
Tool:paint:0.22678594
node:Index:1.9614928
register:File:0.9984639
Code:Value:0.0063144127
Descriptor:Handler:0.21545532
Renderer:Tree:22.900763
project:Object:6.0913706
node:List:12.049473
release:Object:3.7823834
property:Wrapper:1.7492712
Pool:Bytes:45.16129
application:Model:90.07451
paint:Type:0.21703744
Type:lexer:0.013662215
paint:Renderer:1.3022246
Descriptor:Index:1.8672796
Dialog:message:0.022563176
mouse:Manager:85.71429
case:Model:0.0141969
File:Dispatch:0.021473974
enter:Instance:4.9668083
File:Holder:11.413221
Type:Lexer:1.2295994
Project:List:0.09102946
Start:Start:20.454056
paint:Cell:1.3022246
Abstract:Count:86.666664
hash:Descriptor:0.062969446
transcriber:Dialog:0.62015504
Instance:Default:0.6793808
Item:hash:0.044379637
apache:List:0.0076314514
internal:Type:8.333334
Utils:Base:26.666668
write:Value:0.45120156
Custom:File:53.846157
Layout:Preferred:41.935482
parser:Parser:71.334114
preferred:Size:50.0
node:Type:0.25714043
Code:List:0.0010524022
draw:List:2.2727273
List:Performed:0.004489506
Logger:Logger:3.5906315
open:Instance:100.0
Object:Valid:1.07966596E-4
List:Instance:2.8807662
name:Name:1.224781
Object:Wrapper:3.238998E-4
hash:Dirty:0.009717975
log4j:Model:0.008162171
action:Button_:0.20836724
Reference:Instance:0.8116883
hash:Default:0.06067661
index:Value:6.816075E-4
Composite:List:7.1186438
Parser:Parser:14.393176
State:hash:3.4482758
Splitter:paint:53.333336
Name:load:6.159666E-5
set_out:Name:0.24451573
hoard:Value:100.0
name:Instance:0.008810139
Button:Dialog:0.48367596
execution:Object:85.05747
Impl_:Value:0.0031932432
File:Value:0.68170106
Index:write:0.035141267
thread:Number:0.02363228
Editor:Component:49.919224
wrapper:Type:0.047254093
hash:List:0.0028242867
Storage:action:2.1578954E-4
thread:Layout:0.01772421
Index:Name:0.6190448
title:Column:100.0
Listener:Monitor:0.07843137
Wait:application:100.0
List:Search:7.48251E-4
Type:Token:0.2022008
Type:Name:2.655642
String:invoke:0.16420361
Lexer:Adapter:0.008358709
preferred:Preferred:50.0
Generator:Base:12.048193
select:Count:100.0
Line:Size:76.79814
Manager:debug:0.00994629
File:Base:1.3040558
log4j:Instance:0.0052471096
Simple:Index:1.2171267
debug:create:0.13793103
Mouse:action:1.6018307
write:write:7.376165
action:Handler:0.01953443
value:Iterator:14.681086
Descriptor:Name:0.07181845
Container:Instance:99.466736
Reference:Element:0.040584415
internal:String:9.017714
wrapper:Info:0.047254093
String:Base:0.5082493
card:Item:100.0
Parser:Lexer:0.12360722
register:Types:1.843318
hash:Index:10.233165
Project:Logger:0.18619663
Wrap:File:6.8817205
hash:equals:0.68627125
Model:Model:36.40501
Base:check:0.5696512
point:Text:1.4836795
Cache:Base:2.4734812
Token:Lexer:43.866272
Manager:Mouse:0.119355485
Node:Component:2.189781
Name:internal:2.0018913E-4
parser:Token:0.83578026
apache:create:0.009751299
Adapter:internal:0.001304966
Tool:Listener:0.025198437
hash:Cache:0.03565282
Lexer:Token:31.537405
Order:Value:98.73418
Mouse:Manager:81.46453
Base:Next:0.014300867
project:Child:3.0456853
Iterator:Impl_:2.9517715
Values:Base:60.439564
sort:Handler:55.428917
Class:Bytes:0.08636822
Multiple:Reference:20.0
Count:action:0.1370802
family:Object:100.0
paint:Width:5.832881
Parent:Listener:4.6511626
value:Child:0.017031424
name:Project:3.4325218E-4
Handler:Base:6.0342274
First:Simple:0.12731221
process:Valid:6.811906
Logger:apache:29.180717
Iterator:Model:0.0019975896
size:Type:0.0015544121
Base:Impl_:0.0214513
way:Model:0.29132277
Instance:init:0.0060659
path:Name:100.0
transcriber:Listener:0.67183465
Storage:Event:0.07153423
apache:log4j:17.574385
first:List:1.1507053
File:Bytes:4.6243224
Attribute:File:2.8596456
index:Attribute:0.0074976822
First:Model:0.014977908
Pool:Object:6.4516125
hash:unlock:0.047891397
Iterator:Next:0.006991564
way:Type:0.47166538
hash:Element:0.059067067
Adapter:Feature:0.02150357
Code:Dirty:3.3409593E-5
equals:Value:0.0777899
process:Find:0.09205278
Long:Base:91.46342
thread:Change:0.01772421
hash:Iterator:1.2186189
Name:Base:0.044873163
Types:create:0.09160682
wrapper:Facade:0.029533807
hash:Transaction:6.0737348E-5
Object:Name:0.01835432
Base:Delegate:0.039327383
Context:Context:49.026455
Enabled:Layer:1.5355086
Object:Reference:8.997216E-5
Dialog:Listener:0.045126352
enter:Container:0.10315679
Path:Adapter:0.057850786
thread:Item:0.07089684
hash:Base:2.0060177
Instance:Monitor:0.11646528
Feature:List:0.40524554
equals:Base:0.30467713
Impl_:Base:0.026344255
transcriber:Count:0.82687336
Bytes:Info:0.04371744
configuration:Base:14.285715
Model:Instance:4.6925635
thread:Model:77.513885
Model:Tree:0.0084833475
Object:action:8.9072436E-4
case:Object:95.34992
Value:Model:0.16961227
Name:Element:0.013828449
Button:Pane:2.4183798
node:Leaf:0.00850051
Base:Base:4.0102015
match:Name:33.333336
Element:Handler:0.17703202
Object:size:0.009024208
name:Type:0.07053833
Arrow:paint:66.66667
Store:Type:16.393442
Code:create:0.0033075495
apply:Type:6.1810155
internal:Name:0.7246377
hash:Reference:0.08308869
value:Adapter:1.7882993
shop:File:95.811516
Index:Attribute:0.00127998
Time:First:3.7628279
name:Base:2.791441
Slash:File:100.0
Dialog:Tool:0.022563176
Object:Storage:3.5236247
process:List:73.61154
debug:Instance:0.13793103
sort:Bytes:3.2393522
sort:Index:1.439712
Instance:Dialog:0.00242636
wrapper:Storage:0.9598488
action:Find:0.03906886
Text:lexer:3.6648247
Internal:Editor:100.0
process:Path:0.030684259
File:Index:11.000921
Horizontal:Dialog:100.0
Code:Storage:5.0114386E-4
aspect:Name:80.0
paint:Component:2.9842649
index:Index:0.49484703
Value:Code:2.3202958
parser:Model:0.02882001
paint:Splitter:0.43407488
Value:hash:0.9430442
Default:Base:0.7838527
place:Name:1.1299435
Item:Item:44.379635
set_out:Model:0.75160193
Dialog:Find:1.3086642
Proxy:Base:1.6777629
write:Number:0.07846984
Storage:Index:0.21686848
Text:Lexer:35.833843
shop:Info:1.5706805
Storage_:write:97.333336
Find:Model:11.900533
thread:Line:0.1595179
Factory:Handler:7.936508
Base:Index:0.4915923
enter:Base:1.635226
Simple:Path:0.06520321
register:Class:1.4592935
size:Instance:0.021761771
Class:Reference:0.019192938
Boolean:Base:100.0
User:Iterator:1.1741683
find:Instance:9.876543
Dispatch:File:47.826088
Button_:action:0.64102566
debug:User:0.08275862
hash:Name:1.1852437
size:Iterator:0.48886263
Cache:equals:0.17357764
Path:Time:0.009466492
Tree:Value:0.3607576
Token:Type:0.4891422
Type:Change:9.758726E-5
hash:create:0.0050411997
unlock:Storage:65.65379
case:Value:0.01656305
Descriptor:Pool:0.014363689
Code:iterator:2.0045755E-4
Value:Info:0.020353472
storage:Event:1.0125629
Listener:Tool:0.62745094
register:Base:6.9892473
Parser:parser:1.64221
Generator:File:87.95181
Instance:Model:0.07764352
Base:Monitor:2.9793472E-4
File:Attribute:1.1713077
write:List:0.23540953
form:Index:2.6007802
Storage:hash:4.3157907E-4
Storage:write:0.4581212
Parent:Mouse:51.162792
Name:Declaration:4.6197492E-5
storage:Object:0.024646562
String:List:1.0595043
execution:Base:12.643679
Help:Dialog:33.333336
Type:Bytes:0.00497695
transcriber:Types:0.25839794
Size:Type:0.2710027
point:Handler:16.61721
Change:List:15.173006
Reference:Storage:0.588474
action:force:0.5990558
Code:Name:0.8152609
create:Object:2.352528
process:Handler:0.030684259
draw:Storage:1.8181818
Attribute:Type:0.005005214
Index:Iterator:0.2833701
Object:Object:0.013459835
set_out:Adapter:60.81124
Impl_:Index:33.23328
transcriber:Results:1.9638243
register:Holder:35.48387
List:Change:0.019454526
Adapter:Path:0.12482284
name:List:0.089245565
Arrow:Component:33.333336
Storage:Cache:0.08610003
Wrapper:unlock:1.4900512
Index:Value:1.7454271E-4
point:Model:4.1543026
Text:Model:8.376742
Class:Storage:0.9404539
Type:Type:34.489094
Type:Model:0.02381129
enter:Index:4.7280197
value:Info:6.7955375
Descriptor:Class:0.6032749
storage:Index:94.03348
Types:Types:0.4938547
hash:Next:1.1941721
apply:Name:10.463576
reference:Next:5.555556
hash:Support:0.0026724432
register:Object:3.0721967
Configuration:determine:64.28571
transcriber:Facade:2.5322998
Name:Name:46.008453
Adapter:Simple:0.045333385
First:Context:14.296412
changeless:Bytes:4.7619047
information:Bytes:38.812786
Tool:Action:0.15119062
Next:Impl_:6.5149055
hash:Changed:2.7331806E-4
Project:Iterator:0.459285
parse:parser:100.0
Item:Object:1.7751853
Core:Model:3.5714288
Index:size:0.007243523
List:Adapter:53.140034
String:Project:0.0078192195
File:File:6.054099
Impl_:Support:0.0023949323
Manager:action:12.684007
write:Check:0.029426191
draw:Manager:8.181818
wrapper:Iterator:0.025103739
apache:Dialog:0.31416145
Facade:Types:3.4482758
Readers:Handler:100.0
Base:Handler:1.4202548
first:Logical:64.81069
Code:Delegate:0.013915095
case:Logical:0.789111
Count:Abstract:0.41124058
Handler:Next:0.002041004
index:Utils:0.001363215
Name:Search:3.079833E-5
Icon:paint:66.71271
storage:Monitor:6.8462675E-4
apache:Default:0.01653481
Model:Core:0.001272502
help:Dialog:100.0
Code:Element:0.0025892432
Index:Logical:0.0073307934
Model:Order:8.4833475E-4
pointer:Component:25.0
Iterator:Storage:0.08165147
Performed:Find:0.3717472
Empty:Model:5.973623
Size:Dialog:0.36133695
transcriber:Wrapper:0.20671834
Storage:Object:0.010357898
size:Value:0.30932805
process:Manager:4.878797
name:Search:1.7162609E-4
Item:Base:0.08875927
Mouse:Action:0.9153318
Code:equals:0.6591044
hash:_get:0.08568521
size:Attribute:1.4961218
name:Simple:0.013043583
Parent:Tool:39.534885
Class:code:0.2111223
Name:equals:0.0014783198
hash:Class:0.12946165
Namespace:Handler:17.038218
name:Time:0.028318303
process:Tool:0.030684259
Reference:Iterator:0.05073052
Dialog:Model:0.383574
message:String:20.0
File:Store:0.03513923
name:Handler:0.024027653
transcriber:Size:0.31007752
property:List:0.09718173
item:Simple:17.391304
Loader:Class:5.387205
name:File:0.86636853
create:Model:9.209471
reference:Iterator:5.555556
name:Descriptor:0.005148783
name:Child:0.0015446348
Support:Base:77.053825
log4j:Dialog:0.43201205
set_out:Path:0.03371806
Child:Enabled:70.5
Component:paint:1.7988307
Base:Utils:0.005362825
Start:Adapter:1.3515896
Handler:List:0.018369034
Name:File:0.021897612
information:Wrap:58.599697
Base:Iterator:0.2961471
form:File:1.170351
set_out:Start:3.4760692
Base:String:0.0101297805
reference:Value:33.333336
Type:Handler:1.3525593
Type:Object:0.0017565707
Action:Instance:95.134384
Object:Monitor:3.5988865E-5
make:Model:98.07692
storage:Storage:4.145415
apache:Composite:8.479391E-4
Child:Model:0.2
point:Object:4.1543026
Types:File:4.4581985
Component:Model:6.205966
hash:size:0.0015032493
Impl_:Iterator:0.067856416
Loader:Object:10.10101
way:Time:1.1444821
Object:Base:0.07188776
Component:Editor:6.4757905
Code:Attribute:0.0072164717
value:String:58.298557
File:code:0.42947945
project:Model:18.781727
Wrapper:Model:0.31497017
Code:unlock:1.1050389
Class:Cache:0.07677175
Delegate:Storage:1.4358817
Project:message:0.033101622
List:List:2.042725
face:First:49.764004
Type:Manager:0.11154223
code:File:61.333336
Tool:action:67.07824
process:Feature:0.030684259
Reference:Value:0.66964287
Listener:Manager:79.68627
apache:Item:0.0012719086
index:Type:19.924751
storage:State:0.019169549
transcriber:Abstract:1.3436693
hash:Active:0.042819828
Container:Handler:0.3047232
Class:Object:6.9094577
Model:Iterator:0.001272502
place:Model:92.93785
stamp:First:16.083916
String:Item:0.0390961
Component:Tree:18.467995
Proxy:Object:0.1997337
Instance:Storage:3.2974231
hash:Item:0.006149656
Name:model:0.005174119
Value:File:8.690932
Info:code:2.3060796
process:Dialog:2.730899
Model:Text:0.49373078
enter:Object:0.04584746
Button:Component:0.16122532
Class:Instance:0.32627994
thread:Object:7.054236
thread:Component:1.2643272
internal:Call:0.5636071
name:Index:0.25126058
release:Base:96.16581
register:Bytes:6.912442
Width:paint:55.88752
Storage:Storage:2.2212296
register:Dispatch:0.3840246
undo:File:100.0
Type:Load:0.01493085
execution:Changed:2.2988505
Project:debug:0.7447865
point:Name:14.54006
name:Item:8.0092176E-4
project:Facade:4.568528
index:File:0.1635858
Base:Priority:0.0089380415
Descriptor:Parameter:0.1436369
Instance:Facade:0.03396904
write:Storage:2.3540952
filter:Name:100.0
point:Value:0.89020777
property:Type:0.8746356
Core:Handler:92.85714
Base:List:1.150326
Handler:Element:0.045922585
process:Object:0.9205278
Class:Descriptor:0.1823329
action:Tool:0.07813772
action:Project:5.274296
transcriber:Content:7.906977
thread:Manager:9.701052
Descriptor:Instance:0.51709276
draw:Project:1.8181818
register:Index:3.686636
action:Adapter:0.01627869
Base:Cache:0.020259561
Dialog:Dialog:27.797832
thread:Values:0.00590807
item:Context:17.391304
Object:Code:1.0981553
mouse:action:7.1428576
Types:Class:0.009395571
Object:Type:0.0039407806
Handler:Valid:0.004082008
value:Base:0.38320702
Wrapper:hash:0.18171357
log4j:Item:0.0017490365
Icon:Component:2.9005525
Handler:Active:0.036738068
log4j:log4j:24.16702
parser:Lexer:2.2805398
message:Target:5.0
Descriptor:Element:2.3843722
write:Item:0.13732222
Custom:Class:30.769232
Panel:Dialog:26.923079
File:Name:1.1947339
shop:Type:2.617801
File:Descriptor:0.07496369
Element:Object:0.3309729
log4j:apache:24.16702
Search:Model:35.714287
Index:Object:1.6911734
Index:Index:3.2946684
Proxy:Handler:98.10031
Monitor:Project:1.9379845
Impl_:Object:0.01037804
Base:Class:0.0017876084
Code:_get:0.094265155
Cache:hash:0.19286403
Helper:Model:100.0
set_out:Type:0.016141627
Cache:Cache:0.057859205
init:Item:99.18033
Enabled:Project:28.21497
Base:Active:0.08044238
size:Wrapper:0.12746179
Name:Parser:0.003449413
Button:paint:0.6449013
Object:hash:1.0626612
First:Type:0.7638733
Type:Simple:0.014833262
set_out:First:0.11657841
Iterator:Iterator:0.46810183
Find:Dialog:15.275311
transcriber:Target:0.10335917
Store:Class:59.016396
Adapter:Parameter:0.0022127684
Feature:Name:7.9749403
compute:Item:100.0
name:Loader:3.4325218E-4
project:Base:64.97462
Size:String:2.1680217
Loader:release:0.33670032
hash:Loader:2.125807E-4
Item:Text:0.7037343
Context:internal:0.008757505
Lexer:Parser:6.8589168
Iterator:size:4.9118233
Event:Handler:4.0650406
Base:Storage:1.592759
Element:Base:0.6619458
face:List:1.077365
Simple:Type:2.5646598
List:First:0.058363575
Name:Index:0.0075147925
log4j:Composite:0.0011660244
List:Feature:0.06734259
name:Reference:2.2883478E-4
wait:Instance:100.0
Tree:Renderer:0.15031566
draw:Object:4.090909
information:Load:2.587519
action:Index:0.058603287
name:Storage:0.011670575
String:Component:0.74282587
Bytes:Type:0.02185872
Attribute:Index:0.015015641
exemplary:Name:100.0
Long:Storage:3.6585364
Button_:Action:0.64102566
Renderer:Text:13.740458
Name:Reference:0.0014475214
create:Find:0.050160516
Base:_get:8.938042E-4
Reference:Next:0.05073052
case:Default:0.14906745
internal:Editor:0.8454106
log4j:Default:0.0040810853
register:Attribute:10.368664
Index:File:1.1998066
case:Dialog:5.9153745E-4
find:Base:82.71605
Action:Dialog:0.4170528
paint:Pane:4.639175
Configuration:Base:7.1428576
Class:Class:1.0556116
way:Adapter:2.7976232
Parameter:Adapter:75.0
File:Load:0.13352907
Handler:Changed:0.001020502
Load:File:48.441925
sort:Base:38.632275
Path:Path:24.253344
parser:Feature:19.317343
property:Handler:54.421772
Dialog:Help:0.045126352
way:First:0.9525792
enter:Next:0.67816037
set_out:Storage:34.449696
paint:Editor:2.9842649
sort:Object:0.719856
size:Code:0.005440443
code:Class:1.3333334
Adapter:Lexer:0.6291071
Name:Object:0.003002837
draw:Support:0.45454544
index:Impl_:29.240963
Code:Cache:6.6819186E-5
String:String:3.3622644
action:Object:10.489988
Class:Index:0.05757881
write:Active:0.01961746
name:Attribute:1.1441739E-4
Ordered:hash:50.0
Attribute:Name:10.510949
Component:Button:0.77949333
action:Manager:27.957026
Feature:Parser:1.5538064
prime:Count:100.0
Monitor:List:0.7751938
process:Project:0.24547407
Change:Project:1.9342359
Size:Count:3.161698
position:Component:73.50427
Tree:List:4.148712
size:unlock:0.063730896
String:Manager:13.879114
write:Base:14.006866
reference:Object:55.555557
Name:Feature:0.08537297
process:Instance:0.951212
Wrapper:Value:0.0060571185
Model:Configuration:0.0016966695
State:Custom:3.4482758
Manager:Listener:0.0994629
action:Listener:0.2311574
Performed:Base:0.3717472
List:Monitor:0.006734259
Name:action:0.007391599
String:Values:0.0078192195
Type:Project:0.0021469195
create:Dialog:0.010032102
Next:Index:65.69378
Values:String:24.175825
write:Utils:0.01961746
internal:Active:1.0869565
wrapper:Index:93.5631
case:Simple:0.11002597
Name:Attribute:0.006945023
Change:Manager:7.5435205
Code:Support:0.002138214
Code:Reference:0.06735374
enter:Empty:1.3868858
Object:Item:0.0018444293
Index:Simple:0.001221799
case:Storage:0.51345456
Manager:Performed:0.042271733
Manager:Tool:3.7746172
Manager:Monitor:0.022379152
presentation:Editor:100.0
Code:Loader:3.3409593E-5
String:internal:0.05473454
Logger:Hierarchy:0.5832498
Impl_:unlock:0.13092296
storage:String:0.0061616404
Class:Holder:0.06717528
Object:List:0.017382622
thread:Check:0.01181614
Object:Instance:4.6785525E-4
Empty:Code:27.618309
hash:Attribute:1.484117
Code:Impl_:0.002205033
Performed:Dialog:0.3717472
Token:push:0.1630474
usage:File:100.0
Node:Renderer:1.0427529
Splitter:Editor:3.3333335
Code:Base:0.43592834
face:Name:5.745947
Contents:Instance:100.0
Pane:Width:0.82644624
process:Adapter:0.8898435
Code:size:5.512583E-4
Class:Base:3.9729378
Element:Model:0.030788178
Adapter:Value:0.19302149
Descriptor:Reference:0.028727379
Pane:paint:2.0661156
File:Storage:0.43689775
Storage:Code:0.045531593
property:Manager:23.906706
Token:lexer:8.080629
Impl_:hash:0.32171923
Change:hash:0.25789812
size:Panel:7.7720603E-4
List:action:1.0707471
Cache:Code:1.9479268
Results:message:2.5641026
action:internal:0.03906886
value:Feature:17.644554
Name:Standard:0.0014783198
Name:Path:0.1344347
track:Name:100.0
Object:Iterator:7.197773E-5
Code:Next:1.2189323
Button:Button:45.949215
Code:Composite:0.0038086935
Object:File:0.045597892
set_out:Lexer:0.050218392
hash:Delegate:0.17346586
laden:File:100.0
Storage:Base:0.031073693
process:Base:1.7490027
place:Instance:5.9322033
point:Base:58.16024
Base:equals:0.016982278
find:Storage:1.2345679
storage:Will:0.0013692535
User:Elements:96.86888
Dialog:Types:0.022563176
transcriber:First:0.051679585
profile:Model:100.0
name:Feature:0.16682056
Editor:paint:1.6155088
Base:Code:0.14300866
Impl_:Handler:0.018361147
Path:Name:1.6963187
form:Name:96.22887
apache:Logger:0.68428683
Dialog:Panel:0.2030686
transcriber:String:0.20671834
index:Base:13.452888
transcriber:Name:0.25839794
Child:Debug:25.5
Tree:Model:6.5237
Change:Count:0.25789812
Handler:Handler:0.6123012
Cache:Object:31.113789
set_out:lexer:0.050218392
draw:Base:62.727272
process:Index:6.6891685
Storage:Class:0.0017263163
Empty:Storage:0.62063617
Manager:log4j:0.062164314
message:Type:20.0
first:Time:11.024499
resolve:Base:60.000004
Value:Type:0.30530208
Manager:Parser:0.044758305
Name:Storage:7.8535744E-4
Index:unlock:0.016697919
parser:Index:3.8551981
storage:Base:0.24646562
action:Name:0.0065114764
Priority:Name:23.728813
Base:Event:2.0968647
First:Name:3.3625402
start:Composite:1.4274062
Type:Line:0.0030252046
wrapper:Model:0.070881136
Base:Wrapper:8.938042E-4
Logger:Default:0.06379295
Dialog:Size:0.15794224
pointer:Splitter:75.0
Next:Storage:0.043315444
Base:write:0.0214513
Name:Model:7.699582E-4
register:Handler:5.6835637
paint:Tree:12.045578
Path:action:0.001529938
Default:Object:0.03919263
action:configuration:0.01953443
choice:Count:100.0
log4j:Logger:0.9409817
find:Object:6.1728396
Find:Find:22.912966
enter:iterator:84.703186
Ordered:Code:50.0
thread:Support:0.01181614
write:Object:0.8631682
message:Panel:5.0
Iterator:Wrapper:0.012235235
size:Index:1.4619247
Code:Wrapper:0.0023052618
Content:Panel:0.64935064
show:Model:100.0
thread:Base:1.926031
Count:application:5.4832077
Layout:Size:47.31183
node:Name:81.80891
Pane:Icon:0.82644624
check:Model:3.3206832
transcriber:Find:1.5503876
wrapper:Code:3.7212598
First:Time:1.4828129
node:Simple:3.7614756
Object:Next:4.498608E-5
action:Dialog:0.013022953
value:Object:0.08515712
Component:Display:0.05996103
case:Name:2.9576874
enter:Iterator:1.7422035
project:Storage:2.538071
Parameters:Adapter:100.0
Tree:Component:2.5453453
String:Object:2.6155288
Adapter:Name:0.17078033
Base:Object:1.1354291
Code:Changed:3.1739112E-4
Change:Code:0.34386417
Wrapper:Iterator:0.30891305
Preferred:String:14.45783
Wrapper:Wrapper:4.966837
Model:Node:0.010180016
index:Iterator:21.482906
Project:Project:15.032273
thread:Storage_:0.03544842
Performed:Instance:43.866173
action:List:1.8427478
size:Storage:2.1108918
application:Count:9.115997
position:Icon:26.495728
thread:List:0.16542597
Tree:Cell:0.15031566
storage:Instance:0.1821107
process:Storage:0.27615833
thread:String:0.053172633
Bytes:File:55.018394
Listener:Action:4.3137255
resolve:Storage:40.0
Handler:action:0.014287027
equals:Storage:7.3835583
apply:Simple:1.8543046
Name:Item:0.017031476
First:User:0.052422676
Pane:Editor:0.82644624
Handler:Event:0.52045596
wrapper:File:1.5357581
Size:Preferred:3.8843722
Node:Cell:1.0427529
Logger:log4j:29.180717
Node:Support:0.20855057
face:Logical:42.55079
Impl_:Attribute:0.026344255
Action:Find:1.0194625
Renderer:Display:10.687022
Base:hash:0.30389342
support:Parser:100.0
Adapter:List:1.5998317
paint:Button:1.1937059
Type:Adapter:0.02312818
start:Model:88.49918
Preferred:Dialog:6.6265063
Multiple:iterator:80.0
Time:Call:2.1664767
paint:paint:7.3792725
Method:File:100.0
Start:First:0.09010597
Standard:Name:93.67589
thread:Composite:0.106345266
Type:Index:0.010929773
Value:Object:1.2890532
Handler:Iterator:0.002041004
Value:Primitive:1.3229756
apache:Instance:0.0046636653
Find:Instance:2.4866786
apache:Hierarchy:0.027134052
name:Object:0.58381474
Handler:Code:1.0531579
thread:Tree:1.0634527
hash:iterator:5.314518E-4
Index:Base:0.11007827
transcriber:Model:3.6175709
Active:Base:0.18981336
name:Adapter:64.5266
index:Object:0.637303
Code:Iterator:1.2198008
Base:Changed:0.004171086
Tree:Leaf:0.4359154
String:Tree:0.015638439
Object:Cache:0.075099766
Adapter:Type:0.05458162
equals:Object:0.29819465
Leaf:Tree:28.225807
Index:Storage:0.04759198
internal:Adapter:15.217391
equals:Support:0.0043216613
Equal:Equal:33.333336
thread:Storage:0.16542597
Simple:Simple:10.258639
apply:Index:81.5011
name:Dialog:8.5813046E-4
Index:Impl_:0.049919218
create:Types:81.84691
Manager:apache:0.5719117
Load:Class:6.3739376
Monitor:Manager:8.527132
Storage:Utils:0.0071210545
size:hash:0.97927976
Next:size:7.735088
hash:Wrapper:0.41069075
Long:Object:4.8780484
Adapter:Time:0.02246811
Impl_:Wrapper:0.29457667
Value:Storage:0.10855185
event:Count:100.0
apache:Handler:0.22979148
register:Descriptor:1.3056836
Index:Code:10.956919
True:Iterator:69.49152
name:Element:0.06041238
Object:Element:0.009627021
Iterator:apache:3.3293158E-4
Buttons:Find:100.0
enter:Reference:0.009551555
Instance:Object:0.96569127
Lexer:Text:3.3406968
Model:Object:0.015270025
Manager:index:0.00994629
name:equals:0.012814748
Handler:File:3.3860252
changeless:Base:66.66667
thread:Feature:0.082712986
action:Instance:10.988116
stamp:Adapter:83.916084
Monitor:Base:0.3875969
storage:Delegate:0.076678194
Cache:Handler:0.009643202
Object:Impl_:0.14120232
lexer:Token:46.05491
storage:Handler:0.17800294
action:Storage:0.01953443
Simple:Name:1.3475331
Code:File:0.02706177
Instance:internal:0.03396904
mouse:Action:7.1428576
hash:Composite:0.0034620287
