User:511

Model:235756

Iterator:1201448

Storage_:225

wait:576

Leaf:248

Path:1045794

Item:31546

Holder:29778

event:47

thread:16926

Attribute:119875

Project:24168

place:354

Wrap:465

Values:91

project:197

Layout:93

aspect:560

Index:3437554

Node:2877

Changed:54

Class:20841

load:4

Adapter:1762498

Base:335644

face:9746

Parser:339786

Cell:198

sort:1667

Splitter:60

choice:2

Wrapper:33019

debug:3625

Logger:10973

Code:5986305

execution:87

laden:1080

Renderer:262

Action:2158

Tree:39916

write:10195

Equal:216

Content:154

parse:42

Debug:271

register:1302

configuration:7

Preferred:166

Slash:6

Line:431

Helper:36

exemplary:10

Load:1412

apache:235866

Button:2481

Horizontal:1

card:42

Internal:1

Hierarchy:192

transcriber:1935

index:146712

Value:29479

Change:4653

select:1

Call:71

Readers:891

Pool:31

Utils:120

init:854

code:3300

Implementation:8

preferred:2

size:128666

node:47056

String:25578

True:118

Reference:9856

Dirty:642

case:169051

Multiple:50

make:52

Composite:590

get_down:962

Enabled:1042

mouse:14

model:344

Start:51051

Store:366

Contains:6

Descriptor:6962

Manager:40216

name:1747986

List:133645

Parameter:260

Bytes:27449

profile:84

lexer:88946

stamp:286

Transaction:4

_get:11289

Logical:25096

track:42

Dialog:4432

Configuration:14

Boolean:3

reference:18

Listener:1275

message:20

State:58

invoke:42

usage:56

Info:954

Primitive:390

Icon:1448

Search:14

Method:1643

determine:9

Child:1000

First:13353

Feature:136954

Empty:3867

draw:220

open:144

help:89

wrapper:67719

Facade:116

Default:5103

information:657

Long:328

Parent:43

Pane:242

unlock:206081

support:14700

form:769

equals:92557

Declaration:3

Generator:166

create:19936

prime:32

Active:3161

start:4904

Will:2

pointer:8

position:117

title:1

Panel:26

Target:3

Impl_:250529

Time:2631

Monitor:258

internal:2484

Object:11114549

resolve:25

Delegate:13093

Dispatch:115

Priority:59

process:3259

point:337

Next:761853

item:322

Wait:8

hoard:8

Namespace:13188

force:184

Mouse:437

Handler:97991

Element:12992

log4j:171523

Abstract:240

Types:170293

Parameters:216

shop:1146

apply:2265

Editor:1238

Loader:297

Tool:7937

undo:6

Performed:269

set_out:836347

show:12

Column:1

Context:102769

family:3552

value:11743

action:30715

Component:6671

Width:569

custom:305

Size:1107

Standard:1518

iterator:88929

hash:6585734

Number:12

Event:12546

Find:563

Display:32

Cache:20740

Factory:2331

property:1029

enter:104695

paint:3686

Custom:13

Storage:926829

Ordered:416

Simple:4601

presentation:32

Elements:495

Valid:936

Contents:18

match:6

Results:39

release:1930

parser:239417

filter:52668

Instance:82428

Buttons:1

Count:1459

Type:1024724

Arrow:36

Order:237

way:43251

push:700

Help:3

Proxy:45060

Support:1412

Lexer:502470

path:10444

compute:21

changeless:63

Container:47256

find:81

Check:5

application:10871

check:2108

Core:84

File:256124

Token:429323

Button_:312

Layer:32

Name:6493859

Text:37819

first:2694

storage:146065

