Instance:apache:0.012169429
Separator:Data:0.0020208308
Editor:Listener:0.16673614
create:Facade:0.12970169
presentation:Factory:1.3374988
Style:Default:1.3824885
Type:Types:34.91145
reckon:equals:0.06617258
Debug:fire:6.9767447
Undo:Instance:0.016949369
Object:equals:12.175755
String:log4j:5.9012833
log4j:List:0.0073999916
register:Name:0.0048744627
register:Simple:0.5731389
String:core:0.026315788
next:next:46.673096
process:Combo:0.24301338
Element:Node:1.6912488
point:Added:31.578945
Name:create:0.23992728
draw:Icon:0.15079707
debug:Event:0.0056816265
Color:Width:0.30007502
Base:Element:0.67850304
parser:Type:0.0080563
debug:Object:2.2048784E-5
Manager:Added:21.052631
hold:Needed:100.0
Base:Child:5.769231
Object:Index:0.15965995
transcriber:Default:62.211983
Pane:mouse:42.045452
compute:Facade:0.7782101
iterator:Storage:0.43794006
size:Size:2.6452334
mouse:Mouse:22.487223
Node:Node:2.9498525
Released:Event:0.0023081608
property:Debug:0.19916119
Read:Object:1.433171E-4
mouse:Event:0.007457135
place:Icon:2.64972
Index:Lexer:63.046967
event:Panel:0.0032681073
Editor:Active:0.035848718
Object:Event:0.8710643
name:Iterator:0.002493822
Code:Index:2.8973634
index:Name:0.3628064
debug:Index:6.523389E-5
Adapter:Editor:0.14618954
Instance:Copy:0.952381
create:Type:0.55352974
family:Template:6.25
name:Added:5.263158
access$000:Manager:0.0019284515
take:Logger:0.010815487
Panel:Panel:0.13889456
Tool:Manager:0.30418783
Model:Manager:0.2143626
Listener:Node:0.019665685
Repository:Object:0.0046375943
Icon:Item:3.6062717
log4j:helpers:50.0
Debug:Manager:0.018269539
Read:Base:0.01579049
Name:Time:28.57143
transcriber:Loader:98.287674
Factory:Type:0.62541676
Index:Context:0.077645466
Types:Type:0.18641038
Selection:Changed:8.791209
Allowed:Manager:0.001623959
name:Event:1.5169942
Instance:Style:13.008129
size:Object:4.0422772E-5
register:Event:3.7370899
information:Element:0.94806117
Base:Client:0.12578616
Pane:Listener:0.25010422
presentation:Name:1.16454736E-4
thread:Icon:0.15079707
name:String:0.5751015
property:Path:0.021794714
internal:First:2.2262027
internal:Path:0.0042526275
name:Abstract:0.18097839
event:Changed:4.3956046
show:Handler:0.055718068
event:Tree:2.146483
Data:Name:0.060639646
Control:Event:1.7755083E-4
Manager:Border:4.945055
Start:internal:0.5130927
make:Facade:0.6485084
enter:Array:32.114136
Name:Template:18.75
Visible:Manager:0.009845252
name:Editor:0.2669548
Event:Owner:31.003586
Code:Valid:14.89776
Simple:Feel:0.4552352
name:True:7.7922077
Name:Type:0.33799276
Listener:action:0.042167407
Event:Project:2.209754
take:List:0.030470552
internal:Project:0.0034527406
Index:hash:0.19286767
Abstract:Object:0.0040128785
index:Context:0.038822733
Enabled:Component:2.1873345
action:Pane:41.323715
place:Node:0.07866274
Check:Manager:0.05480862
internal:Start:0.9669769
application:Helper:3.557312
void:Node:0.019665685
mode:impl:0.6600794
Type:Layout:0.0987045
Enabled:Listener:0.041684035
Container:layout:26.086956
undo:Manager:0.0019792002
Button_:Manager:0.0015224617
Mode:Logger:0.064892925
Value:String:4.8714476
Editor:Dock:27.044025
Layout:Icon:0.21542439
Removed:Enabled:5.1979104E-4
Data:core:6.105263
Visible:Panel:0.0065362146
impl:Debug:6.490311
Size:Enabled:0.035865583
Base:Check:0.21367523
Base:Item:0.20905924
Container:Layout:0.2590993
remove:Logger:0.032446463
hash:Object:48.867195
Manager:Data:3.0268002
Parser:Type:0.017971747
check:action:0.0017569752
command:Panel:0.0016340537
Manager:Target:14.14791
Manager:Swing:2.34375
Preferred:Layout:0.8389883
name:log4j:3.1776137
Model:Base:0.13806558
Value:Handler:0.6686168
Registry:List:0.007835285
Listener:Line:0.26385224
paint:Icon:3.8345542
Selection:impl:0.008525011
Manager:Changed:5.4945054
way:Name:0.18690985
Item:paint:2.6641295
Change:Change:2.795699
name:Exited:6.25
register:Look:0.015119445
impl:Boolean:100.0
point:Selected:0.015015015
Wrapper:Factory:0.058576588
Internal:Manager:1.2290833
application:Model:5.4068637
place:Manager:0.2302977
mouse:Manager:4.5673852E-4
register:Manager:0.40162537
Manager:update:64.69003
mouse:Editor:0.12712134
Instance:Editor:0.38136402
Enabled:Template:25.0
Start:Start:3.3524904
Instance:Default:12.442396
Node:Instance:0.0093221525
presentation:Color:3.4642034
Event:Panel:0.019608645
internal:Type:0.04759414
Layout:Preferred:19.858156
Data:Model:0.051115308
node:Type:1.097516
hash:Instance:2.6504574
debug:Icon:0.08616976
log4j:Node:0.03933137
List:Instance:2.9449527
Event:Action:0.26894075
tag:Path:0.014662704
find:Factory:0.035796802
name:Name:0.45633623
Simple:Enabled:0.00519791
Action:Factory:0.53044355
Composite:List:0.0026117614
Index:Path:0.008992535
direction:Object:2.7928458E-4
set_out:Name:0.052454542
Enabled:Enabled:0.23702471
name:Wrapper:0.08458845
Preferred:Component:0.047039453
register:Element:1.4794016
Manager:Navigate:38.46154
create:Manager:0.07561559
Index:Name:0.3628064
take:Element:0.048958197
Type:Name:0.59584904
Performed:Event:1.7755083E-4
presentation:Width:3.375844
Swing:Panel:8.170268E-4
Panel:Tool:0.01652995
make:Data:14.646376
Visible:Width:1.0502626
place:Button:0.03411223
List:Index:0.0033921625
case:Editor:5.339096
process:First:0.008529512
action:Configuration:11.447084
Mouse:action:0.010541852
action:Item:0.47473866
Panel:Action:0.019121932
Reference:Element:4.098665
internal:String:0.541272
Manager:Index:0.0068821753
Base:Target:1.2861736
Event:Instance:0.9381475
hash:Client:99.874214
Model:application:1.8867924
core:Instance:0.15762913
impl:Enabled:4.0034304
Manager:Mouse:2.725724
Name:internal:0.5130927
Action:List:0.06703521
Facade:List:0.011317633
Base:log4j:0.005327991
Layer:Model:0.014198696
Status:Instance:0.007203481
impl:Facade:1.2970169
Event:Target:5.466238
Swing:Factory:0.04555957
Manager:Utils:100.0
Iterator:Impl_:4.1197634
Icon:Model:0.08519218
Action:Action:19.60615
impl:Changed:21.428572
paint:Width:5.9264817
Project:Undo:5.586592
prime:Enabled:0.0036385371
Logger:apache:1.013105
Iterator:Model:0.008519218
way:Model:0.014198696
Event:Released:13.333334
path:Name:0.4395002
Name:Configuration:25.053995
Storage:Event:0.07918767
case:Panel:0.17320968
Base:apache:0.0038029465
make:Name:5.989101E-4
Base:Tree:44.757072
hash:unlock:0.15882438
Registry:Event:1.2059252
Dispatch:action:0.30747065
Model:Editor:0.012712134
impl:configuration:100.0
hash:Element:4.152807
presentation:List:0.119705744
support:Manager:2.0299488E-4
apache:action:0.0017569752
Icon:Pane:0.07424692
property:Enabled:0.04938015
Name:Base:0.70726556
Dock:Container:1.0141253
List:Mouse:0.681431
Manager:Active:20.702635
Property:Type:4.957723E-4
Line:Model:0.004259609
hash:Base:67.72535
equals:Base:0.20784065
String:apache:4.2121434
label:Size:0.015260963
Model:Instance:1.0080637
thread:Model:4.0352693
List:hash:4.0199803E-4
Instance:Command:100.0
Popup:impl:0.0064952467
Logger:impl:1.1188062
Layout:Minimum:100.0
Manager:Look:5.9872994
name:apache:2.2680771
Model:Root:100.0
Element:Handler:3.5102382
Valid:Base:3.3740368E-4
hash:Facade:1.9455252
Dispatch:Menu:0.4920049
lookup:Factory:0.029288294
value:Adapter:0.0072507043
Removed:Tree:0.13052936
node:Pane:0.03182011
Object:Storage:45.602486
Logger:Scroll:2.586207
hash:Actions:10.256411
Manager:Containing:50.0
Abstract:Base:4.0292068
True:List:0.060070515
Element:impl:1.0331501
Label:Event:1.7755083E-4
Element:Enabled:0.00519791
Code:Storage:0.0010977776
Project:contains:7.4074073
presentation:Base:0.0020581624
index:Index:0.031051334
Modal:Manager:0.0010149744
hold:Selection:0.16590625
hold:Instance:8.4746844E-4
hash:Tree:4.539521
Internal:paint:0.19029495
place:Name:0.0045250985
Item:Item:35.0
Manager:Document:15.868263
Adapter:Context:1.4190378
action:Internal:7.0733657
Registry:Action:0.019121932
Data:debug:1.3333334
Model:remove:3.4293551
Proxy:Base:0.012551416
presentation:Node:12.271386
Storage:Index:0.33448678
impl:Size:0.050869875
Editor:Object:2.939838E-5
Panel:Event:0.0026632624
Base:Index:0.005544881
Monitor:Instance:0.006356013
Base:select:100.0
enter:Base:0.12035188
hash:core:1.7368422
ground:Manager:0.0036539081
information:List:0.10621163
size:Event:7.102033E-4
User:Iterator:9.500273E-4
Tool:Data:2.6226342
Item:Selection:0.082953125
hash:Name:1.0886854
Active:Editor:0.04449247
Path:Time:4.7619047
Property:create:0.21719733
paint:Base:6.0732657E-4
size:Base:1.6870184E-4
Selection:Node:1.1012782
unlock:Storage:12.852487
Editor:Instance:0.03728861
Index:Array:0.6225681
Data:Create:29.090908
String:Enabled:0.011435403
Manager:Action:46.94003
Target:Layout:0.024676125
Instance:Undo:1.8621974
item:Code:2.594636E-4
Factory:Name:0.045517165
More:Index:7.828067E-4
Delete:Instance:8.4746844E-4
hash:Panel:0.117651865
process:Start:0.0045612114
present:Base:3.3740365E-5
Instance:Name:9.981835E-5
point:Visible:19.277107
Debug:Size:0.0050869877
Pane:Manager:0.11875201
execution:Base:0.10500002
Pane:Size:0.068674326
choice:Selection:0.3318125
point:Handler:2.1730046
manifest:Name:3.3272783E-5
Look:Simple:0.15920526
Event:Pressed:11.428572
stamp:Object:3.674797E-5
Repository:Event:0.0033734657
name:List:0.33125842
Container:Container:23.614634
Code:Tree:0.42059463
fire:Change:0.21505377
Text:Model:0.1363075
information:Event:0.0014204066
presentation:Instance:0.4004288
Enabled:Attribute:0.0051561007
Factory:Facade:0.12970169
thread:Debug:0.103095196
storage:Index:7.2249146
Types:Types:12.9528885
take:Target:0.42872453
divide:Panel:0.009804322
impl:mouse:11.064593
Name:Name:20.586935
Adapter:Simple:2.7510667
Data:Component:33.76257
First:Context:0.25167844
Action:Selection:0.16590625
point:Tree:0.08701958
Empty:Facade:1.5564202
prime:List:0.041788183
Manager:Navigation:100.0
Next:Impl_:54.359333
Action:Selected:0.5855856
Action:Node:0.07866274
Project:Iterator:0.002850082
Settings:Style:1.6260161
presentation:Debug:0.56233746
contains:Base:4.7236512E-4
Manager:Simple:16.748392
Selection:Border:15.934067
prime:Logger:0.021630974
paint:Graphics:18.032785
mode:Listener:15.006253
Manager:Pane:9.503606
Manager:action:24.746996
field:Name:0.0029945504
find:Model:0.53245115
Node:Action:0.0012336731
Changed:Change:0.53763443
Element:Factory:0.00650851
Object:Text:0.010320272
Mouse:Editor:0.22246234
Types:Editor:0.012712134
Moved:Mouse:1.1925043
Node:remove:1.554641
List:Data:0.072749905
Layout:Component:0.023519726
Attribute:Enabled:0.031187464
point:Feel:4.370258
Code:Element:0.0034558729
Property:impl:0.042625055
State:State:49.73357
name:Configuration:5.6155505
choice:impl:0.01258454
Object:access$400:5.0
Iterator:Storage:0.1811333
Manager:Focus:75.82781
prime:impl:0.03369409
clear:Instance:0.058051582
Text:Listener:0.041684035
process:Manager:0.02740431
impl:impl:33.35634
hash:_get:48.60918
take:Manager:2.537436E-4
Object:Actions:41.025642
Manager:History:5.882353
command:Text:0.003440091
name:Time:19.047619
Enabled:fire:13.953489
Layout:Container:0.024145842
process:Tool:0.037192386
find:Pane:1.4000849
Manager:Text:3.4263306
Border:Size:0.06104385
Manager:Facade:21.789883
Enabled:Event:0.00852244
core:create:0.010944051
impl:Panel:0.9567385
Action:equals:0.006617258
Manager:Child:4.8076925
Selection:Manager_:0.9165903
Released:Pane:0.08485363
create:Model:0.005679479
hash:Factory:0.28637442
Wrapper:Array:0.025940336
Element:Helper:1.5810277
layout:Component:0.023519726
Property:Swing:4.6875
Lexer:Event:1.7755083E-4
way:Editor:0.04449247
set_out:Path:0.15947352
Child:Enabled:0.22870806
set_out:Start:43.103447
Performed:process:0.013779799
Exited:Mouse:0.681431
draw:Enabled:0.06861242
Logger:Debug:0.00937229
Manager:Model:1.874228
Editor:Mouse:0.85178876
make:Model:0.007099348
point:Object:8.8195135E-5
apache:Base:2.3618256E-4
process:Linked:18.75
ground:Event:0.039771385
property:Event:1.7755083E-4
Owner:impl:0.005277388
Manager:filter:1.2523685E-4
hash:size:0.3962942
mark:Instance:0.008474684
Object:Base:0.42182207
Instance:Data:0.37870368
Base:Node:0.2556539
apache:impl:0.0032476233
Code:unlock:31.208992
Mouse:Exited:6.25
Enabled:remove:0.41152263
Tool:action:22.805538
Look:Linked:6.25
create:Feel:10.925645
index:Type:4.054426
Size:Layout:0.9253548
event:Action:0.08512344
hash:Active:68.112564
Manager:Container:49.52312
ground:Tree:0.072516315
Class:Object:0.0013670246
name:Manager:1.0042157
Panel:paint:3.5204568
mode:Monitor:24.561403
property:Component:0.052919384
size:Array:0.07782101
case:Mode:0.0034651235
stamp:Instance:0.04322089
command:Check:0.14245014
Manager:Modal:90.122894
Target:Action:0.005551529
Template:Instance:0.0033898738
stamp:Base:0.0019232009
Enabled:Instance:0.08474684
way:Default:14.285715
apache:Manager_:0.091659024
Layout:Manager:0.0018269541
List:apache:0.013690608
enter:Object:0.0027120004
Size:Component:0.03527959
String:Editor:0.025424268
Tree:Base:0.103650406
should:Manager:1.5224617E-4
Code:Editor:0.5529778
Manager:Undo:8.938547
log4j:Manager:0.0016747079
Base:Mutable:100.0
take:impl:0.2939099
Storage:Storage:1.6563269
Event:List:0.9062813
Base:Elements:44.444447
cancel:Instance:0.02711899
layout:Layout:0.2961135
Removed:Event:0.005326525
Update:application:7.3348036
point:Name:0.0015970937
Panel:Data:9.218827
Update:Wrapper:0.1362814
Instance:Facade:17.509727
List:Wrapper:0.018797433
Manager:Panel:4.7060747
Action:Editor:0.0190682
property:Type:0.004957723
Action:Project:0.029348293
Core:Handler:5.223569
Base:List:4.2232184
contains:Instance:0.008474684
Mode:Location:6.25
process:Object:2.939838E-5
Data:apache:0.0015211786
layout:Type:7.4365846E-4
Action:Standard:7.317073
Size:Base:6.748073E-5
action:Adapter:4.167071E-5
List:Entered:25.0
information:Name:1.830003E-4
apache:Event:2.6497686
core:List:0.06529404
item:Context:0.15529093
impl:Pressed:41.904762
find:Facade:1.9455252
Handler:Valid:1.7526778
mark:Path:8.8596404E-5
Base:access$400:90.0
place:Home:100.0
Enabled:Size:0.117000714
Handler:Instance:0.0012712026
Event:Browser:63.636364
Editor:Element:0.017279364
Manager:selection:33.333336
label:Event:0.0024857116
Editor:Base:0.0012146531
Debug:Node:0.15732548
draw:log4j:0.027705554
Model:State:0.5328597
From:Manager:7.612308E-4
Content:Width:0.90022504
Manager:Location:93.75
init:Item:1.7247386
Pane:Linked:6.25
Enabled:Project:4.4402246
Update:Instance:0.013135761
process:Data:0.0018187476
Event:Base:0.30572146
Impl_:Facade:1.2970169
impl:Drag:52.380955
Removed:Manager:5.074872E-4
debug:Listener:0.16673614
compute:Item:0.10452962
Event:Handler:22.064356
Enabled:Action:0.43301928
Iterator:size:47.04687
Listener:Panel:0.004902161
information:Dependency:5.1282053
Base:Storage:1.0143465
process:Navigate:7.692308
position:Node:0.03933137
Listener:Removed:0.78125
Debug:remove:0.38866025
Model:Settings:1.1235955
presentation:Selection:4.5624223
Image:application:0.08167933
core:Document:0.29940122
action:process:0.95080614
Border:Panel:0.063728094
Registry:Manager:0.058564026
Model:find:1.1547344
field:Facade:0.12970169
Manager:Manager_:23.098076
impl:fire:11.627908
command:Group:2.3255813
internal:Editor:0.19068201
Debug:Debug:0.00937229
next:Index:0.0022505692
paint:Pane:1.4849385
Tree:Handler:0.027859034
Logger:Layout:0.024676125
apache:Manager:0.0018269541
impl:Popup:51.219513
Event:Event:26.43075
pattern:Manager:0.0034509131
Preferred:Enabled:0.03430621
Component:Panel:0.034315128
way:First:18.048447
remove:impl:0.8914726
set_out:Storage:33.51332
Released:Mouse:1.0221466
Component:Manager:0.45597726
Bounds:Width:3.300825
Code:Factory:0.02603404
Changed:Editor:0.0381364
Logger:Changed:1.0989012
Selected:Manager:0.6663307
property:Visible:0.4016064
index:Impl_:1.5925136
Manager:Debug:0.34443167
Code:Cache:0.25575447
event:Text:0.051601365
Project:Containing:50.0
number:Model:0.0014198697
presentation:impl:1.6993188
Object:Panel:21.801544
field:Listener:0.041684035
process:Project:5.7545677E-4
thread:Delegate:0.07032349
fire:Tree_:25.0
Pane:Clicked:25.0
Event:Editor:14.650734
Manager:Listener:0.12505211
contains:Check:0.07122507
Enabled:Registry:35.42378
case:Start:3.626163
Width:Pane:0.07424692
Enabled:Button:1.1939281
Panel:application:57.387894
Pane:Panel:0.18137996
Panel:Manager:1.3740216
hash:Model:0.45719802
wrapper:Index:0.02456056
case:Simple:3.311469
transcriber:Action:0.038860705
Visible:Icon:0.94786733
Manager:List:0.10664693
Index:Simple:0.7387124
Debug:action:1.3634127
case:Storage:0.08972502
log4j:Layout:34.164093
Debug:Panel:8.170268E-4
Manager:Feel:6.0091047
presentation:Manager:0.38193488
Selection:Event:0.0028408132
transcriber:Description:100.0
Editor:Manager_:74.42713
Manager:apply:0.05
Size:core:3.9473681
Look:Check:2.2792022
Token:push:100.0
Manager:Editor:2.2119112
direction:Instance:0.11949304
log4j:Focus:0.33112583
register:Swing:1.5625
List:log4j:0.019180767
real:Manager:3.0449234E-4
Status:Manager:0.0022836924
face:Name:0.0056896457
Node:impl:0.5935031
Code:size:0.15851767
Change:Debug:0.05857682
event:Base:0.00553342
size:List:8.7058725E-4
Name:Project:0.005179111
Strategy:Manager:0.0019792002
Event:Enabled:0.24014346
Name:Manager:0.58706117
Color:Color:44.803696
Document:Event:0.004793872
Adapter:Value:5.906314
Pane:paint:0.7611798
Mouse:Entered:25.0
Moved:Event:7.102033E-4
Editor:Editor:13.34774
Facade:Document:0.59880245
Abstract:Active:0.23301667
apache:Focus:0.33112583
face:Start:5.61029
Cache:Code:2.3722384E-4
List:Base:0.08522816
place:Element:0.02419111
Enabled:create:0.035357703
Listener:Object:1.433171E-4
Element:Logger:0.12978585
Selection:Editor:0.8135766
border:Size:0.0076304814
Type:List:0.094023414
Item:action:0.5516902
Visible:Attribute:0.0025780504
Width:Item:3.2926826
place:Instance:0.045763295
point:Base:1.3496146E-4
Editor:Group:2.3255813
place:Tree:0.029006528
User:Elements:44.444447
Undo:Undo:2.793296
model:Path:0.0014175425
Target:Event:0.0014204066
Name:Adapter:0.07359048
Path:Name:4.4858365
Enabled:Element:0.0034558729
Enabled:Navigate:7.692308
size:Action:0.004626274
index:Base:0.1512918
Model:Renderer:100.0
Tool:Focus:18.874172
Label:Pane:0.03182011
reckon:Model:0.034076873
Name:Abstract:0.1557988
Height:Selection:0.37328908
Name:Storage:0.09792176
parser:Index:0.062363602
Element:remove:0.04572474
Support:Manager:2.0299488E-4
storage:Base:0.029016715
Instance:Navigate:7.692308
Manager:Style:16.260162
transcriber:Factory:1.0739042
Manager:Project:10.465257
Base:Event:4.6324787
Text:Editor:1.8623276
hash:Enabled:2.3260648
Scroll:impl:0.0044654817
Node:Object:3.674797E-5
Selected:Target:0.6430868
Combo:Base:1.3496146E-4
log4j:Listener:0.16673614
Base:Layer:12.0
Actions:Pane:0.042426813
action:Editor:0.10169707
Selection:Logger:0.010815487
name:Types:0.023150828
Instance:Manager:3.8401558
invalidate:Selection:0.041476563
Mode:Event:0.0019530591
name:Mouse:0.3407155
hash:Editor:4.048815
internal:Selection:1.0783907
Iterator:Wrapper:0.556874
paint:Object:1.1024392E-5
size:Index:0.032747414
Code:Wrapper:1.2688268
Layout:Size:2.7774951
Released:impl:0.007307152
Object:Debug:0.023430727
node:Name:0.93837565
mode:Default:1.843318
Editor:Border:11.538462
Combo:Event:0.0213061
Selection:Width:5.851463
action:analysis:0.014467592
case:Name:0.051972084
thread:Valid:0.8763389
Undo:undo:20.408163
name:Listener:0.29178825
enter:Iterator:0.16031712
name:Feel:76.206375
Tools:Action:0.0012336731
Adapter:Name:0.05104045
String:Object:0.040452167
point:Element:0.047230262
hash:Check:0.42735046
Wrapper:Wrapper:13.564698
Tree:Code:1.2602517E-4
Project:Project:2.3852684
Base:Manager_:0.45829514
place:Action:0.016654586
Performed:Instance:0.017796837
Manager:Check:15.17094
option:Manager:3.5524106E-4
presentation:Abstract:0.09521037
mode:Manager:0.04810979
impl:log4j:0.0021311964
register:Instance:0.2788171
equals:Storage:0.014490665
presentation:Icon:48.276608
Name:Item:7.7134147
Pane:Editor:0.06356067
process:mouse:0.29904306
Enabled:Impl_:0.04692914
Event:Object:0.0034653337
ground:Instance:0.0033898738
direction:Base:0.010257071
Project:Facade:4.928664
Action:From:0.4950495
Layout:Type:2.4788614E-4
Mouse:Released:12.222222
Handler:Enabled:0.002598955
case:Layout:0.0987045
Impl_:Array:0.20752269
face:Logical:78.44828
remove:Listener:0.041684035
Factory:core:1.4210526
Enabled:action:1.5320823
log4j:application:0.06534346
Logger:Size:0.0025434939
Base:Model:0.011358958
equals:access$400:5.0
Added:core:0.026315788
command:Component:0.26459694
void:Manager:1.5224617E-4
Mouse:mouse:12.200956
register:Action:0.0354681
mouse:impl:0.05358578
Manager:Button:15.657513
Debug:Component:0.21167754
Type:Index:0.0075671314
draw:apache:0.019775322
Instance:List:0.88843423
Abstract:Model:0.09087166
Debug:Attribute:0.0051561007
find:Text:2.4355843
way:impl:0.26914677
name:Object:0.043542672
Model:Index:0.0011742101
List:mouse:0.71770334
Manager:Enabled:0.72770745
Manager:Removed:3.125
Model:Project:0.009207308
Factory:Cache:0.25575447
index:Object:6.982115E-4
remove:Manager:0.0035524108
selected:Manager:0.05125621
Implementation:Base:0.004048844
case:Manager:0.02740431
Index:Storage:0.08262606
Project:Instance:10.847172
Name:Listener:0.041684035
Action:Combo:3.1591735
transcriber:Actions:25.641027
Check:Data:0.0012124984
Simple:Simple:11.749348
Selection:mouse:0.119617224
Index:Impl_:0.10385958
Model:Action:0.004626274
Helper:Project:0.002301827
size:hash:0.0057010627
Next:size:47.04687
insert:application:0.008167933
hash:Wrapper:63.44134
Adapter:Time:19.047619
fire:Listener:0.08336807
point:Property:4.6636577
Resource:Factory:0.029288294
Enabled:Check:0.56980056
application:Tool:0.11157716
scheme:Instance:4.2373422E-4
position:Instance:0.04745823
presentation:From:1.5151515
Instance:Object:0.00380709
process:Child:0.32051283
Model:Object:6.835123E-4
name:equals:0.74113286
Strategy:Instance:0.010593355
action:Instance:1.0953529
Valid:Object:7.349595E-6
create:Instance:0.011440824
layout:Icon:0.86169755
Enabled:Tool:0.2169556
Factory:Look:0.27214998
Simple:Name:0.002162731
Manager:Layer:48.0
debug:Started:100.0
information:Factory:0.5369521
apache:helpers:50.0
From:Provider:2.1276596
Graphics:paint:3.6156044
thread:Enabled:0.08004782
Element:Element:10.083085
presentation:Internal:0.003815192
Helper:Removed:27.34375
Event:Entered:12.5
Data:Swing:71.875
Actions:fire:9.302325
Types:Event:5.326525E-4
way:Owner:61.648743
position:Panel:0.34805343
command:Name:1.6636392E-5
presentation:Enabled:0.15593731
Enabled:Document:1.1976049
Event:Pane:0.12728044
apache:Node:0.03933137
name:Factory:7.387159
information:Model:0.028397392
log4j:create:0.00252555
process:contains:9.259259
equals:Iterator:0.001425041
event:Event:0.020773446
List:Object:0.0011685855
Action:Base:0.0026992294
Container:Size:0.012717469
Browser:Event:0.0028408132
name:Moved:1.0989012
index:Simple:1.4774247
Model:Logger:0.23794074
Debug:Enabled:0.0010395821
way:Path:0.01701051
Change:Enabled:0.012994776
Text:should:66.66667
Selection:Text:2.1466165
Abstract:Element:0.82768154
event:Abstract:0.11960311
paint:Tool:0.0041324873
size:Preferred:12.104019
information:log4j:0.22910362
Node:Selection:0.041476563
name:First:0.80177414
Enabled:Default:1.843318
Iterator:Facade:0.38910505
List:Iterator:0.44805664
Code:Instance:0.022881648
remove:Node:1.2192724
debug:Base:3.7114404E-4
register:Feel:0.015174507
Line:Manager:0.008170544
Manager:remove:4.0695014
Logger:Manager:0.0036031594
Only:Object:1.433171E-4
point:Instance:0.70170385
Listener:Base:0.0039476226
Path:Model:0.034076873
remove:Base:0.012753859
log4j:Object:3.6747974E-6
Index:Type:4.0400486
Implementation:Event:0.0067469315
Button:Manager:0.13473786
case:Action:0.0030841827
apache:apache:13.638126
Manager:Layout:0.2590993
Code:Object:47.676094
hash:Valid:62.220062
Event:Types:0.10417872
Pane:Released:12.222222
help:Actions:2.5641026
contains:Factory:0.003254255
Node:Manager:0.036031593
Width:Element:0.0011519577
name:Path:53.312885
hash:Impl_:29.925098
Feel:Simple:0.15920526
Name:First:9.024223
core:Abstract:0.0055080377
Enabled:Manager:3.3525114
Control:Combo:3.6452007
Manager:Element:0.007775714
String:Combo:8.748482
Mode:action:0.068522036
Event:Name:4.990917E-4
Object:String:58.92399
Combo:Size:0.055956863
Adapter:Mouse:0.17035775
apache:Element:0.0034558729
Mode:process:0.041339394
Border:Preferred:0.99290776
transcriber:Instance:0.23135887
Base:Dependency:7.692308
Manager:Mode:46.893517
field:Abstract:0.001573725
Debug:List:0.0056588165
Instance:Linked:12.5
case:Document:0.8982036
Impl_:Code:0.0020757087
value:Instance:0.020339241
Action:Control:3.4949265
Model:List:0.033082314
Manager_:Manager:4.0598976E-4
Mode:Internal:0.007630384
impl:Mode:8.337088
Enabled:impl:2.6939034
Manager:Factory:0.5987829
Splitter:Panel:0.009804322
Factory:Manager:0.049480006
Node:Model:0.0028397394
List:Debug:0.021087654
Model:Image:23.076923
Create:Factory:0.042305313
Manager:Dock:20.125786
Element:Index:7.828067E-4
head:Name:4.8245533E-4
Adapter:Under:50.0
Instance:Active:0.46603334
Event:Debug:0.24602264
option:Data:0.51308894
point:Selection:0.16590625
Copy:Data:0.040618695
process:equals:0.046320803
way:Pane:0.021213407
Element:Settings:40.449436
Handler:Item:0.06968641
Listener:Instance:0.0033898738
Editor:History:7.8431377
value:Model:0.0028397394
hash:Handler:25.602451
action:Event:0.47388315
presentation:Pane:0.010606703
hash:Storage:0.1544207
set_out:Pane:4.507849
Enabled:List:0.01697645
Mode:Enabled:0.006237492
Strategy:remove:0.1371742
History:Manager:0.0044658873
command:Event:0.07812236
Tree:Object:2.0946345E-4
Tool:Editor:0.031780336
Event:mouse:7.77512
presentation:Event:0.073861144
Size:Size:44.968967
Code:Class:22.938623
Width:Width:8.102026
Component:Types:0.046301655
log4j:Component:0.07055918
Registry:Simple:0.031841047
point:Event:0.038350977
Code:Handler:12.801226
internal:Model:0.04117622
property:Logger:0.05407744
debug:Loader:0.34246576
ground:impl:0.007307152
Mode:Pane:0.042426813
point:Tool:0.024794923
Size:Action:3.0841827E-4
Debug:impl:0.8265201
presentation:Logger:2.5957172
field:Event:0.00213061
Iterator:Index:23.21384
Event:Listener:23.7599
hash:Property:69.20267
Abstract:Tool:0.0020662437
Item:Element:0.0046078307
Label:Size:0.07121783
impl:apache:0.004563536
Project:Action:0.053973198
Listener:Mouse:1.362862
Owner:Event:1.7755083E-4
Project:Manager:5.2398057
Base:Factory:0.18223828
Factory:Instance:4.718704
Editor:Target:3.215434
Manager:analysis:0.10127315
Data:Factory:1.6108562
Focus:Editor:0.0381364
process:Event:0.2476834
Base:Valid:14.021422
Facade:Type:4.957723E-4
Action:Object:2.9765858E-4
Element:Instance:0.22585033
impl:Logger:39.32511
Manager:Types:0.18520662
register:Factory:0.40027335
Monitor:Adapter:6.250607E-4
Logger:Configuration:0.21598272
node:Index:0.062363602
Manager:Class:0.04133085
Button:Action:0.2313137
execution:Text:3.299047
Types:Abstract:7.868625E-4
node:List:2.9051495
information:Document:0.8982036
Data:log4j:0.0021311964
String:Facade:3.761349
Name:Simple:3.0376363
read:Code:0.0042255498
core:Data:0.2194622
register:Enabled:43.43322
Panel:Type:4.957723E-4
Data:Text:0.24080636
Listener:Event:0.018110184
enter:Instance:0.4394124
Manager:layout:2.6086955
Type:Lexer:10.993037
Panel:Base:7.422881E-4
fire:Event:0.0014204066
hash:Descriptor:89.484535
Combo:Data:0.0117208185
Pane:Pressed:20.952381
Logger:Label:0.78125
Component:Facade:1.2970169
apache:List:0.0073999916
Node:Editor:0.08898494
Icon:Object:3.6747974E-6
register:Target:1.1789925
Code:List:0.028294083
way:Instance:0.066102535
Clicked:action:0.0017569752
List:Performed:1.7094018
Logger:Logger:0.5407744
Manager:Event:0.32829148
draw:Combo:0.12150669
Element:equals:0.026469031
form:equals:0.013234516
Base:Combo:0.12150669
Object:Valid:4.3816943
read:Base:0.22764625
Model:hash:0.0012486302
index:Array:32.736706
Panel:Name:0.0043920074
create:Data:22.240253
process:From:0.090009004
Group:Instance:0.016101899
Selection:Tool:0.040291753
set_out:Exited:31.25
name:Instance:0.02118671
Logger:Enabled:0.003118746
execution:Object:0.006614635
Type:create:24.962538
hash:List:0.13015278
Project:Enabled:0.10655717
draw:Valid:0.38948393
Storage:action:0.0035139504
Event:Changed:9.89011
impl:Configuration:52.051838
Facade:Instance:0.0025424052
Element:Target:3.8585207
List:Code:2.2239736E-4
Link:action:0.0035139504
Panel:Listener:0.33347228
mark:Action:0.038860705
Action:remove:0.41152263
Wait:application:0.008167933
name:Document:0.29940122
presentation:Target:0.85744905
Attribute:Debug:0.046861455
case:Enabled:0.0041583283
Selection:Pane:0.9546033
Instance:Action:0.12583466
Event:Node:0.05899705
Simple:Look:0.4535833
Simple:Index:0.0037835657
search:Tool:0.012397462
Change:Menu:4.4280443
action:index:0.03796552
Model:Default:5.9907837
Model:Event:0.028763235
Action:Enabled:0.037424956
List:Name:0.0014972752
String:Base:0.07652315
card:Item:0.5792683
Drag:impl:0.008119058
process:Element:0.0017279364
hash:Index:22.712158
modify:Change:1.344086
From:Instance:8.4746844E-4
Model:Model:32.515015
Object:Enabled:0.012994776
name:Combo:0.24301338
choice:Manager:3.5524106E-4
Line:Line:2.110818
process:Enabled:0.07069158
apache:create:0.00252555
Pane:Exited:6.25
Expression:First:44.694645
place:Object:1.469919E-5
process:Factory:0.003254255
hash:Cache:61.12532
Item:Instance:0.23940983
Mouse:Manager:0.004009149
project:Child:0.64102566
presentation:Action:0.4308603
Target:Project:0.004603654
register:Document:12.874251
Debug:Element:0.0034558729
Registry:Helper:6.324111
Code:Descriptor:6.3917527
Enabled:Target:1.9292604
information:Layout:0.04935225
name:Project:0.006905481
make:Enabled:0.04418224
name:Facade:11.673152
Combo:application:0.03267173
register:Helper:46.640316
Panel:Component:0.68795204
Model:Document:17.964073
String:Icon:0.02154244
Graphics:Editor:0.0762728
invalidate:Manager:1.0149744E-4
Enabled:Focus:1.3245033
From:Editor:0.006356067
Change:Element:2.8798942E-4
point:Action:0.5878452
Change:Visible:0.2008032
apache:log4j:6.3690805
apache:Icon:0.04308488
form:Element:0.0069117458
Enabled:Mode:0.020790743
wrapper:Array:0.49286643
choice:Event:0.21838753
Data:Event:0.33539352
Name:Component:3.7572763
size:Enabled:0.003118746
Iterator:Next:0.006066408
way:Type:0.013385853
Name:Exited:6.25
Adapter:Feature:99.804115
Action:Element:0.34789118
exemplary:Event:0.015624473
Core:hash:1.8272636E-5
Editor:Under:50.0
analysis:Name:0.22968203
Base:Delegate:99.92968
Manager:Owner:3.763441
Context:Context:48.833645
Instance:Instance:1.2364564
apache:Listener:0.16673614
mark:Base:5.3984585E-4
mark:Event:0.0426122
presentation:equals:0.006617258
Logger:fire:9.302325
Base:Visible:1.004016
reckon:Facade:0.51880676
presentation:Object:3.6747974E-6
index:Code:0.015649362
make:Cache:0.25575447
log4j:Base:2.3618256E-4
Manager:Elements:11.111112
Enabled:Debug:0.18744582
Core:Code:2.2239736E-5
point:Project:0.004603654
case:Object:0.32169908
Name:Element:52.985443
List:Element:0.76259595
Base:Base:8.777893
Code:Enabled:0.036385372
Arrow:paint:5.7088485
log4j:Event:2.6497686
name:Type:0.034951948
Name:mouse:0.4784689
take:Base:3.3740365E-5
Editor:Line:6.8601584
Enabled:Node:0.03933137
From:Project:3.4849663
Action:Target:2.7867095
Panel:remove:0.09144948
internal:Name:0.0027949137
choice:Logger:0.010815487
hash:Reference:17.19206
choice:Editor:1.6525773
Object:Node:0.1179941
From:Action:0.057365797
position:Preferred:1.2765957
Model:Changed:2.1978023
Node:Base:4.048844E-4
name:Base:3.1866763
Tree:hash:9.136318E-5
Component:Layout:0.18507095
process:List:1.7655509
List:Manager:0.044658877
execution:Abstract:0.14556958
Name:core:5.1842103
wrapper:Storage:0.066232584
Action:Added:5.263158
Data:Separator:16.666668
Changed:Event:0.005326525
Internal:Editor:0.06356067
Combo:Control:6.989853
aspect:Name:0.004724735
field:Model:0.005679479
log4j:Icon:0.04308488
case:Item:0.087108016
make:Property:3.0947776
Factory:Enabled:0.001559373
Manager:Property:3.4816246
Adapter:Monitor:21.052631
set_out:Model:1.3999915
contains:equals:0.006617258
Action:Navigate:15.384616
impl:Released:12.222222
prime:Debug:0.004686145
Project:Editor:0.025424268
Pane:Event:0.0024857116
Element:Iterator:4.7501366E-4
analysis:action:0.0035139504
Text:Lexer:8.464639
tag:Adapter:0.07709082
remove:Object:0.0027781466
Label:Layout:0.3701419
apache:Component:0.07055918
Instance:Project:0.063300245
Create:Data:0.00525416
size:Instance:0.098306336
Enabled:Panel:0.0040851342
property:Document:0.29940122
aspect:Instance:4.2373422E-4
Layout:Label:2.34375
Mode:Node:0.07866274
point:Changed:2.1978023
action:Child:17.948719
apache:application:0.06534346
Delete:Manager:6.089847E-4
storage:Event:0.7918767
Listener:Tool:0.0041324873
Editor:Container:0.27767718
Array:Storage:0.85626656
Layout:layout:3.4782608
storage:Object:3.1603256E-4
Mouse:Listener:0.08336807
Data:Document:0.29940122
option:Look:0.8466888
Handler:Pane:0.021213407
Document:Model:0.14908631
process:Handler:0.027859034
Code:Name:0.9185784
Manager:Node:1.7699115
draw:Storage:2.927407E-4
Text:Event:0.17666309
Object:Object:0.07794245
set_out:Adapter:25.296206
Impl_:Index:1.9566579
take:Editor:0.025424268
Adapter:Path:1.0000762
register:List:1.7237626
hash:Debug:9.184845
ground:equals:1.0719957
point:Manager:0.12326865
Wrapper:unlock:0.09329005
process:Moved:0.5494506
scheme:Manager:4.5673852E-4
Selection:Mouse:0.3407155
Type:Type:35.927006
layout:Size:0.0101739755
enter:Index:0.19377728
value:First:0.7420675
Enabled:contains:3.7037036
Event:log4j:62.497337
Undo:Manager:0.015630607
Change:action:0.03689648
Abstract:Enabled:0.001559373
point:Panel:0.03594918
Enabled:Change:56.23656
history:Manager:3.0449234E-4
transcriber:Facade:3.8910503
Helper:Base:0.00553342
read:Object:0.0037262444
ground:Node:0.29498523
Factory:Data:0.029706214
Tool:Action:0.025907136
register:Model:0.53103125
mouse:mouse:0.4784689
Listener:impl:0.16238116
Item:Object:7.7170745E-4
Pane:Tree_:25.0
Manager:access$000:16.666668
impl:Active:2.4914858
List:Adapter:5.062325
Visible:Settings:37.07865
Mouse:Mouse:4.0885863
Base:Instance:3.9686944
Wrapper:Tool:0.0030993654
equals:List:8.7058725E-4
From:Added:10.526316
case:Logical:21.551723
point:Change:8.333334
create:core:0.8947369
modify:impl:0.0020297645
Icon:paint:40.152237
Manager_:Instance:8.4746844E-4
Color:Line:14.775726
Enabled:Selection:0.4977188
get_down:Path:0.017231999
Registry:Swing:0.78125
check:Action:0.0015420914
Abstract:core:0.57894737
impl:Scroll:18.103447
transcriber:Wrapper:0.1926737
Storage:Object:0.0030023092
property:Item:0.078397214
Enabled:Factory:0.5271893
name:Component:1.9580172
Item:Base:0.0011809128
Tree:Removed:8.59375
Name:equals:0.5293806
hash:Class:64.99277
register:Debug:73.12964
action:Start:38.159096
name:Control:28.410372
Object:Check:1.4957265
process:Modal:8.966773
Preferred:Size:1.576966
Impl_:apache:7.605893E-4
String:Valid:0.29211295
Name:Swing:6.25
Expression:String:0.135318
option:Feel:0.84977233
Removed:Removed:9.375
Debug:create:0.0101022
remove:Target:0.6430868
execution:Code:2.817033E-4
register:Control:0.11273956
hold:Abstract:0.014950389
Container:Icon:0.17233951
equals:remove:0.1371742
Debug:internal:0.0353857
Base:Iterator:0.24843216
Base:String:1.1105407
Facade:Action:0.0018505096
Action:Instance:6.245842
Logger:Model:0.018458305
Property:Event:1.7755083E-4
Model:Data:0.019399974
Visible:Types:0.023150828
Menu:Instance:0.1101709
Value:Instance:9.9560585
event:Object:0.0040680007
stamp:String:0.002333069
Component:Model:0.42596093
Owner:remove:0.1371742
Enabled:internal:0.05307856
way:Time:23.809525
stamp:Panel:0.004902161
value:String:5.1420836
List:List:1.2114221
Pane:Instance:0.03728861
Code:Active:0.34056282
Listener:Manager:0.023293663
Time:Adapter:0.011376104
Element:action:6.158198
apache:Item:0.008710802
Model:Tool:0.009298096
point:Look:4.3543997
Data:Panel:5.478982
transcriber:Abstract:0.049572337
Icon:Base:3.3740368E-4
Text:Manager:0.057396807
Name:List:0.0039176424
process:Selected:0.7807808
Event:Clicked:25.0
thread:Editor:0.19068201
Mode:Debug:0.007029218
stamp:First:0.9041283
hash:Item:4.041812
hash:Visible:12.851405
Event:Text:0.044721182
name:Removed:2.34375
Name:model:84.95575
Model:Text:1.1971515
List:Enabled:0.028068718
thread:Object:0.020343678
position:Manager:0.3821379
Monitor:Event:1.7755083E-4
name:Index:0.19687589
Object:Editor:0.050848536
Data:List:0.47795236
command:Document:1.7964072
Button:Enabled:0.06653325
Icon:Factory:1.9623157
Cache:Label:0.1953125
register:Combo:0.36452004
contains:Object:2.2048784E-5
name:Item:0.10017422
core:String:0.0011665345
Factory:Types:16.68017
filter:Name:39.851776
way:Show:50.0
Enabled:Logger:0.88686997
Instance:access$000:4.166667
List:Facade:2.3346303
title:Manager:2.0299488E-4
Model:Component:0.14111836
information:Container:1.1590004
paint:action:0.022840677
action:Notify:100.0
Manager:Save:55.555557
mouse:action:0.014055802
Analysis:action:0.0035139504
Event:remove:2.171925
Action:Manager:0.9063722
Enabled:Combo:32.077766
position:Size:0.06104385
Event:Combo:13.122721
cancel:Manager:9.1347704E-4
apache:Layout:36.792103
log4j:Item:0.004355401
Descriptor:Element:0.03455873
Manager:Adapter:0.0020835355
Enabled:From:3.090309
event:Editor:1.3665544
Element:Object:0.0018226994
Group:Name:1.6636392E-5
Abstract:List:0.00609411
Moved:Pane:0.12728044
Index:Object:0.04133412
Factory:Factory:0.00650851
Index:Index:3.912468
Listener:Listener:1.125469
Text:Abstract:0.0062949
Code:_get:48.60918
Cache:hash:4.872703E-5
Entered:Manager:5.074872E-5
set_out:Type:0.007808414
Wrapper:Object:6.9821144E-5
Manager:Manager:29.724947
Base:Active:7.492382
point:Code:5.189272E-4
Base:Debug:0.046861455
Pane:List:8.7058725E-4
Panel:Property:0.25789812
Base:Enabled:0.031187464
First:Type:0.008923901
Mouse:Pressed:10.476191
action:Linked:50.0
Type:Simple:1.0125453
Code:Model:0.03975635
Cache:Factory:0.00650851
Iterator:Iterator:0.7908977
Parent:Handler:0.22287227
Event:Abstract:1.9136498
List:Listener:0.41684034
Object:Factory:11.650233
equals:_get:2.781641
Size:String:0.012831879
Event:Tree:0.84118927
way:Item:0.004355401
Base:Panel:0.042485397
Element:Base:0.0057021216
Name:Index:0.015134263
core:Manager:7.104821E-4
Pane:Entered:25.0
Text:Selection:2.1567814
draw:Object:1.1759352E-4
property:Data:0.0824499
log4j:Manager_:0.091659024
name:Storage:0.277445
point:From:0.7650765
Pane:Preferred:0.99290776
List:core:3.0263157
Editor:equals:0.026469031
Selection:Action:0.008635712
check:From:0.0150015
Instance:Helper:1.778656
event:Pane:0.08485363
fire:Changed:2.7472527
Navigate:Action:0.0012336731
impl:Layout:0.34546575
information:Component:1.5346622
sort:Base:0.018827124
Action:Item:0.28745645
Path:Path:10.699611
Visible:mouse:0.059808612
Node:Element:0.41355276
Manager:Feature:0.19588637
enter:Next:0.117157504
property:Element:5.7597883E-4
Action:Button:11.9392805
size:Code:2.6687683E-4
Name:Object:0.004097399
Enabled:Model:0.2058811
name:Text:3.3196878
Editor:Text:0.45409197
impl:Target:48.124332
Copy:core:0.10526315
point:Loader:1.369863
impl:Item:0.23954704
Pane:Selection:1.0783907
Handler:Tree:0.04350979
Model:impl:0.029228607
impl:Manager:1.1293113
modify:Node:0.03933137
Combo:String:0.012831879
process:Item:0.004355401
first:Start:1.6922094
Style:Style:22.764229
Manager:Instance:14.586626
Manager:Change:0.53763443
process:Instance:0.010169621
Facade:Manager:0.006394339
Abstract:Factory:0.009762765
Core:Base:3.0366328E-4
mark:Manager:8.627283E-4
Cache:create:0.029745368
option:Name:0.042755526
Next:Index:20.157272
Mode:Tool:0.0010331218
point:Listener:7.7532306
command:Data:0.046883274
Feel:Check:2.2792022
Code:Reference:13.5726795
Object:Item:0.4878049
Debug:Event:0.00426122
command:Type:0.0035943491
Manager:Performed:10.256411
String:Show:25.0
Manager:Tool:65.10528
Base:Size:0.0025434939
presentation:Editor:0.54662174
String:internal:1.6454352
Navigate:Instance:8.4746844E-4
Logger:Panel:0.0016340537
Impl_:unlock:0.27987015
Group:Manager:0.002182195
Feel:Linked:6.25
Object:List:1.4625865
remove:Instance:0.0038136076
update:Instance:0.04533956
hash:Attribute:99.78086
Object:Instance:0.036864877
Code:Impl_:0.028311351
Impl_:Model:0.005679479
Look:Action:0.007402038
Context:Type:0.072258815
Simple:Instance:0.04661076
application:Factory:0.29288295
Status:mouse:0.059808612
Code:Base:1.3732328
Selection:Lexer:0.16047308
Layout:Layout:2.2208514
way:Event:0.0079897875
Event:Plain:100.0
number:Manager:0.001623959
Event:Exited:6.25
process:Adapter:1.2501214E-4
Tree_:Event:7.102033E-4
Class:Base:0.006275708
Element:Model:0.025557654
Manager:Selection:18.664454
Text:Name:1.6636391E-4
Adapter:action:5.634619
Element:Component:0.017639795
Drag:Pane:0.10606704
model:application:0.26137385
Menu:Added:5.263158
Debug:Focus:1.3245033
Editor:From:0.060006
Expression:Expression:38.48271
Editor:action:0.7642842
Base:Text:3.7084181
aspect:Copy:1.4285715
impl:Label:56.640625
List:action:0.4603275
process:Added:5.263158
make:Manager:0.07485437
Name:Standard:10.365853
Name:Path:12.08517
Mouse:Clicked:25.0
Object:Iterator:0.0076002185
track:Name:0.0016303664
find:create:2.806167E-4
log4j:Element:0.0034558729
Storage:Base:0.015959194
Tool:Enabled:0.31083503
process:Base:0.001012211
Style:Manager:0.0030449233
Base:equals:2.1175225
Line:Width:5.551388
Editor:Handler:0.04178855
Element:Change:0.21505377
process:Node:0.03933137
Manager:Bounds:3.2967036
Panel:Instance:0.05339051
Impl_:log4j:0.0010655982
Registry:Instance:0.014830696
impl:Style:6.5040646
impl:Model:0.46571726
Editor:paint:0.9514748
debug:Panel:0.0081702685
apache:Logger:4.758815
Scroll:Instance:0.03432247
Code:core:1.7368422
transcriber:Name:1.6636391E-4
internal:Manager:0.14925198
draw:Base:0.04440232
selection:Event:7.102033E-4
Base:Property:0.08596604
Manager:log4j:0.038361534
execution:Event:0.77589715
place:Editor:0.12712134
equals:Node:0.5506391
Index:unlock:0.5597403
Manager:Internal:0.45782304
Handler:Editor:0.012712134
Panel:Change:0.53763443
log4j:action:0.0017569752
Name:Text:0.1548041
process:Editor:0.08898494
First:Name:0.03803079
property:impl:0.48511374
name:Code:4.447947E-4
information:apache:0.1635267
place:Event:0.019175489
Next:Storage:0.1658376
information:Text:0.31304827
should:Text:0.013760364
process:Internal:0.011445576
Editor:Project:0.006330024
action:First:0.23029682
enter:iterator:96.975426
Type:debug:1.3333334
internal:Action:0.0027757646
List:Types:0.046301655
Model:Abstract:0.12904546
Graph:Base:6.748073E-5
thread:Base:0.103920326
Manager:Lexer:0.0012635675
Factory:Feel:0.27314112
node:Editor:0.08898494
List:True:62.33766
node:Simple:42.29765
execution:Name:0.0016470026
Show:Base:3.3740365E-5
way:Settings:17.977528
Button:Tool:0.63227063
apache:Object:3.6747974E-6
Name:Pane:0.42426816
Base:Object:0.057437077
Object:Tree:0.8992023
name:Swing:0.78125
mouse:Pane:0.6576156
way:Element:0.353651
prime:Change:0.10752688
Object:remove:0.9830819
Type:Factory:0.93397117
Selection:Manager:0.019538257
action:List:0.114046924
Project:Event:0.009055092
register:Property:0.08596604
size:Storage:0.40112793
Instance:Simple:0.3820926
process:Storage:1.4637035E-4
Save:Manager:2.0299488E-4
Event:Element:0.006335767
apply:Simple:1.1080685
List:Exited:12.5
Name:Event:0.018465286
Menu:Manager:0.025983345
Node:Provider:6.382979
Handler:Event:0.19796917
property:Name:4.6581894E-4
Size:Label:7.03125
mode:Event:0.0639183
Size:Preferred:28.747046
Instance:log4j:0.017049571
Logger:log4j:0.4731256
Code:Debug:0.08200754
Event:apache:44.608562
take:Change:1.344086
Pane:Moved:85.71429
Base:Editor:0.10169707
clear:Manager:0.0026389335
Project:Model:0.011358958
enter:size:0.021135692
core:core:15.578948
Modal:Action:0.0061683655
Instance:equals:0.026469031
Adapter:List:20.857529
Types:List:0.0017411745
Change:impl:0.09945846
take:Added:10.526316
Dispatch:Performed:33.333336
process:Action:0.10177803
Enabled:Configuration:5.6155505
Element:Provider:91.489365
Item:Panel:0.0032681073
Standard:Name:0.07186921
Event:Document:7.185629
Name:Editor:0.06356067
Mode:Editor:0.025424268
Bounds:Icon:0.94786733
Handler:Iterator:9.500273E-4
way:Manager:0.013194667
core:Event:7.102033E-4
Changed:Changed:8.241758
Size:Combo:4.009721
update:Node:0.4719764
equals:Text:0.003440091
From:Undo:0.18621974
node:Model:0.07525309
Index:Base:0.032694414
Change:Logger:0.5407744
name:Adapter:65.91765
process:Selection:0.082953125
event:Instance:0.0025424052
direction:Proxy:5.343511
process:Button:0.47757122
Line:find:3.233256
create:Look:10.886
prime:apache:0.1627661
Layout:Target:2.5723472
equals:Object:0.022324393
internal:Adapter:0.03625352
Debug:Registry:4.467864
Editor:Manager:0.20644581
Undo:Project:0.034527406
Index:action:0.08784876
thread:Storage:2.927407E-4
name:Data:12.8730955
Selection:Selection:0.9954376
apply:Index:0.124727204
Control:Model:0.72413355
case:Label:20.898438
point:Class:0.49597025
Instance:Item:0.9146341
Manager:process:0.24803637
model:Manager:0.024359386
Base:remove:4.5038867
Manager:apache:0.027381215
create:Types:4.5491376
Enabled:Popup:4.8780484
position:Mode:0.0034651235
set_out:Performed:17.094017
Impl_:Wrapper:6.487464
hold:Manager:0.0018269541
Item:Action:0.060449984
Index:Code:1.7683778
name:Look:75.92985
Target:Element:0.02419111
name:Element:9.159215
transcriber:Element:0.114907764
Object:Element:0.9895315
figure:Model:0.008519218
Mode:impl:5.205128
Lexer:Text:47.187725
choice:Index:3.2616947E-5
stamp:Adapter:0.0056255464
storage:Handler:11.25505
Manager:Name:0.007802468
remove:Element:0.024479099
command:Factory:0.165967
Editor:Model:0.08093257
Popup:Enabled:0.0010395821
Dependencies:Dependency:87.17949
case:Instance:0.0025424052
Option:Name:6.654557E-5
size:Component:0.14111836
Debug:Impl_:7.693302E-4
action:Change:3.2795696
Action:Data:0.08467281
Pressed:impl:0.0064952467
Data:create:41.401344
