User:12

Model:70429

Iterator:842081

Visible:498

Array:34695

Property:4653

Dependency:39

Path:2257428

Tree_:8

scheme:10

Item:22960

search:12

event:2220

Focus:302

thread:11711

Attribute:38789

Project:173775

Combo:823

place:5335

option:5228

Swing:128

Selected:13320

number:33

Mode:28859

Drag:63

project:4

Layout:8105

aspect:288

Index:3065891

Dock:159

Node:5085

Changed:182

Class:4839

Provider:47

Adapter:2399767

Base:2963809

face:4120

Parser:145

sort:558

Splitter:12

choice:1538

next:1037

Wrapper:42559

debug:75

Code:13489369

Logger:9246

Control:887

execution:10563

Renderer:3

figure:6

Action:324235

Tree:6895

Create:55

Image:13

Expression:23252

Content:12

Scroll:116

Client:2385

From:6666

Settings:178

Strategy:70

divide:12

Debug:42679

invalidate:3

selection:6

fire:43

helpers:4256

history:6

field:200

register:154784

Link:2

pattern:68

Popup:41

Label:512

configuration:24

Preferred:2115

Line:379

Helper:506

exemplary:88

cancel:82

apache:131477

Menu:813

Button:5863

Graph:2

card:133

Internal:26211

transcriber:2308

index:84287

Value:29460

Home:16

Change:1860

select:1

Border:182

init:396

Utils:4

Containing:6

label:20

Implementation:158

Dependencies:34

Tools:4

size:170328

node:80558

More:24

Analysis:2

String:85724

True:462

Read:507

Reference:20556

case:95662

Notify:2

access$400:40

make:74228

Composite:6

Command:15

update:371

get_down:389

Enabled:192385

model:3616

mouse:1672

Start:21924

Repository:1281

Update:987

analysis:13824

Browser:44

Descriptor:2910

History:102

Manager:1970493

Mutable:1

Allowed:32

name:3076071

Feel:6590

List:229730

Removed:128

stamp:418

Description:3

Resource:9

_get:2876

Template:16

Logical:3248

track:98

Configuration:463

Boolean:24

Listener:2399

Status:63

reckon:38

State:1126

take:1006

core:3800

Save:9

Icon:4642

Look:6614

Option:4

tag:2181

Child:624

First:11724

lookup:9

Group:86

Feature:2042

Empty:12

draw:1548

Data:494846

help:1

Under:2

wrapper:1829

Actions:39

Facade:771

border:3

Separator:12

Default:217

Parent:16

Pane:9428

information:4627

unlock:259406

support:4

form:26

equals:15112

Show:4

hold:64

Bounds:91

Navigation:1

create:356358

Color:866

prime:406

present:1

Active:5579

Linked:32

Plain:2

position:8122

remove:4374

manifest:2

ground:504

Moved:182

mode:3312

clear:189

title:4

Panel:122395

Time:5733

Impl_:649916

Target:933

Monitor:57

command:811

Clicked:4

internal:5652

Object:27212386

access$000:48

Released:90

Entered:8

Delegate:7110

void:4

Dispatch:218

should:21

process:7257

point:8132

Next:1054990

item:267

Minimum:82

Wait:1

insert:1

Mouse:587

Element:347235

Handler:7179

Abstract:127087

log4j:93844

Types:8639

apply:4000

Editor:15733

Loader:584

Tool:96794

undo:49

Performed:117

set_out:1082677

Style:369

show:4

contains:54

Context:149397

family:1

action:56916

value:4719

Manager_:1091

Graphics:61

Delete:14

Width:1333

Component:17007

head:29

Modal:4394

Size:39316

Standard:5248

iterator:197846

Added:19

hash:16417992

Event:563219

Height:9

Cache:391

mark:421

Factory:30729

enter:216909

paint:1051

property:2381

Only:39

Storage:1366397

Needed:3

Exited:16

Simple:15703

presentation:19374

Elements:9

Valid:1027

parser:1977

filter:2395461

Instance:235997

Started:2

direction:683

Type:806822

Arrow:60

way:17989

push:290

Copy:210

real:6

Proxy:393

selected:1010

Registry:13474

Support:4

layout:115

Lexer:79141

path:26418

Pressed:105

read:8331

compute:30

find:1299

Container:8283

Owner:558

Check:1404

application:12243

Document:334

check:7

impl:246334

Undo:537

Core:390

Navigate:26

modify:32

Location:16

Token:290

Button_:30

Name:6010919

Layer:25

Text:29069

Root:4

first:371

storage:227722

Selection:2411

