Instance:apache:0.028172528:0.008080276
Separator:Data:100.0:1.4360813
internal:Pane:0.064599484:0.010604453
Monitor:Update:9.813085:2.3359287
create:Facade:0.0045781257:0.01948558
Clicked:Editor:38.46154:0.0037328894
Type:Types:0.17883927:32.732605
apache:Model:0.012813009:0.0066766595
Facade:Element:0.62353855:0.003630324
Debug:fire:0.071716:10.404624
String:Name:0.08611648:9.257707E-4
Tree:Tree:2.8449106:2.8449106
Undo:Instance:7.2156863:0.0740535
Object:equals:0.029858358:16.621218
String:log4j:30.41899:4.8549867
log4j:Name:0.3041415:0.020485645
List:Node:1.3250709:17.019474
Adapter:apply:0.011455399:0.98428595
Handler:Factory:0.006430248:0.041595176
Index:Component:4.6918163E-4:0.028340654
String:core:0.0011040574:0.0017583654
next:next:0.89208794:0.89208794
Text:Settings:0.04317365:2.1888592
Element:Node:0.18038173:7.693238
Name:create:0.013032004:2.513391
Color:Width:0.019755038:0.0027621258
First:Expression:66.728546:28.890404
Layout:Changed:0.006964273:0.21786492
Structure:Child:100.0:0.009334453
Base:Element:1.1850175:1.255298
Registry:Graphics:0.076049484:2.4630542
Manager:Added:5.5641955E-4:46.153847
Types:Base:3.7720032:0.004819321
Base:Child:0.010281218:0.597405
Event:Code:0.0010476495:1.3850599E-4
Layout:Priority:0.0034821364:0.0024517013
Object:Index:0.092077345:0.9322974
Analysis:Context:26.717558:1.4320428
Pane:mouse:8.907742:31.578945
Manager:mouse:2.3184148E-4:0.18796992
Item:List:0.030378977:0.003013665
mouse:Mouse:9.022556:10.358222
Node:Node:0.677392:0.677392
Released:Event:28.57143:0.0018095763
Text:Back:0.09354291:100.0
log4j:Repository:3.5242352E-4:0.108459875
change:Iterator:30.769232:0.0012814961
Read:Object:4.0:1.3570477E-4
mouse:Event:10.225564:0.012952757
Element:String:0.05411452:1.0532708
Index:Next:0.14551333:0.21164691
Index:Lexer:10.263013:15.316028
Child:Leaf:0.09334453:0.18875048
Code:Change:0.0014794958:2.006489
access$800:Base:80.0:8.567682E-4
Manager:Logger:0.0133077:0.46139252
Editor:Active:7.4657786E-4:0.0685401
Model:Element:2.7002578:2.5464454
Listener:Element:0.12254903:3.4034287E-4
Object:Event:0.0038129732:0.054858737
Actions:action:9.047619:0.075113654
Code:Index:0.07406293:0.39424664
Designer:Base:16.935484:0.0011245082
Cell:Text:3.3898306:5.5350835E-4
Instance:Copy:0.0040246467:0.117137164
String:Action:0.026497379:0.009370461
create:Type:4.845946:0.48476663
fire:Count:2.3121386:0.0021662605
access$000:Manager:89.393936:0.021885836
Panel:Panel:3.0073488:3.0073488
Debug:Factory:0.071716:0.09358914
Tool:Manager:78.899086:0.69784284
Model:Manager:10.322055:7.9570317
Point:Model:100.0:2.4060035E-4
Repository:Object:99.67462:0.0060835457
Action:Handler:0.016788743:0.034562584
Icon:Item:52.809853:2.6049974
log4j:helpers:1.5080203:49.959137
List:Container:0.003013665:0.055615418
Debug:Manager:1.6215787:0.018871896
Read:Base:92.0:0.050495774
Name:Time:0.012284266:75.87976
Layout:Panel:0.027857091:0.09044658
Line:Style:0.014306152:0.022269236
Factory:Type:11.157906:0.49140725
Types:Type:17.979883:0.09823565
Manager:Tree:0.022998676:0.69170374
Selection:Changed:0.002223507:0.10893246
Allowed:Manager:2.1329987:0.0015765221
Actions:Editor:44.761906:0.03508916
Instance:Style:0.48778722:13.495156
Type:Parser:0.030226354:0.15845387
Adapter:lexer:15.71761:10.19758
String:Line:0.0022081148:0.014306152
Wrapper:Index:0.56295484:0.016488384
register:Event:5.479452:0.0022857806
Text:Group:0.0011070167:3.3333335
Base:Client:1.6064403E-4:10.714286
Model:Type:0.39488533:1.5033032
Pane:Listener:0.03181336:0.061274514
Update:Monitor:4.3381534:18.224298
core:Model:0.66817886:0.022857033
Impl_:Debug:2.3330879E-4:0.007968444
Element:Name:3.3425074:0.6993842
Data:Name:1.0579572:0.009530691
Editor:undo:0.0022397337:2.4193547
Changed:Selection:1.0893246:0.02223507
enter:Array:3.502582:94.365654
Object:Project:1.2908502E-4:0.03346921
Model:core:0.05702228:1.6669306
Visible:Manager:2.415825:0.0133077
Settings:Font:4.489968:0.51637053
Event:Owner:0.009619326:12.317074
Code:Valid:0.019806355:29.39363
Lexer:Editor:0.0010502762:0.007839068
Priority:log4j:24.926449:1.791545
Name:Type:0.087212354:1.6826004
Performed:Index:4.6272492:6.032335E-4
Event:Project:0.059906505:1.0795966
internal:Project:0.19379845:0.0025745549
Index:hash:1.667572:0.31815168
Pane:Component:0.06362672:0.012145994
Abstract:Object:1.9185251:0.0010194407
Abstract:Event:0.7101034:0.005428729
Text:Enabled:0.0024907875:0.014942471
Enabled:Component:0.23907954:0.58300775
Document:Update:0.36385688:4.0044494
action:Pane:0.043486856:0.11664899
Check:Manager:92.65816:0.62615746
Iterator:Event:0.03588189:0.03200093
internal:Start:3.3591733:0.015444016
application:Helper:0.040987805:2.8594124
Storage:String:0.0019025801:0.14131935
Object:Delegate:8.4732735E-4:0.0041133086
Type:Layout:0.0022898754:0.034821365
Enabled:Listener:0.0016602746:0.040849674
Model:Show:3.6090054E-4:2.1276596
Container:layout:0.3649762:33.333336
undo:Manager:70.564514:0.0081144525
Button_:Manager:83.33333:9.273659E-4
Mode:Logger:0.16616815:0.024114592
Feature:Handler:1.0625738:0.043404173
Grid:core:47.07113:0.7912644
Value:String:16.573015:5.405465
Node:List:2.24749:0.17498092
Line:Panel:0.014306152:0.022611644
wrap:Base:100.0:0.010548959
enter:Delegate:0.014384645:0.0014621527
Tree:Text:4.4347134:0.4400391
Data:core:1.9867986:2.6516151
Editor:Action:0.18925749:0.19795099
Visible:Panel:0.03367003:0.04522329
impl:Debug:1.4318662:44.84641
Size:Enabled:0.12958613:0.03984659
Base:Check:0.017670844:2.2643063
Model:should:1.20300174E-4:2.247191
Base:Item:0.03823328:1.3556619
Container:Layout:0.2294136:0.22982103
remove:Logger:0.29296875:0.009645836
Component:Text:0.14170326:0.0096863955
hash:Object:96.05082:49.722134
Text:Action:0.09824774:0.27720946
Manager:Data:0.37345025:10.611191
Parser:Type:2.040694:0.3892788
Event:Iterator:0.013905166:0.015591536
Manager:Target:0.023369621:4.283529
Manager:Swing:0.0010664709:1.1165049
Preferred:Layout:2.9728942:0.35517794
Model:Base:4.8739614:4.3389955
Value:Handler:0.32496107:0.07716297
Registry:List:0.22814845:0.008475933
Listener:Line:0.020424837:0.007153076
paint:Icon:5.7777777:3.0023093
Selection:impl:0.80935645:0.04630413
Manager:Changed:4.6368295E-4:1.0893246
focus:Focus:100.0:1.1235955
Instance:core:0.04185633:0.18287
compare:Base:3.9870691:0.007925105
Item:paint:0.3702438:14.444445
Change:Change:1.0331284:1.0331284
impl:Boolean:0.0038162742:100.0
Code:Value:0.002417559:1.2998443
Child:Child:33.165314:33.165314
Renderer:Tree:18.82353:0.044626046
Abstract:Type:0.42357045:0.015571152
mouse:List:0.22556391:0.0011301244
impl:Started:0.0057244115:54.87805
paint:Arrow:0.22222222:4.109589
Wrapper:Factory:0.020595908:0.09358914
Internal:Manager:76.12668:0.028980186
application:Model:94.07954:4.970262
Text:Multi:2.7675417E-4:15.384616
Generate:Manager:100.0:3.7094636E-4
Node:Language:0.009677029:0.044853106
mouse:Manager:3.9473681:0.004868671
register:Manager:1.2557077:5.1005126E-4
apache:Combo:2.3086504E-4:1.1173184
Manager:update:0.032828756:32.24044
Model:Facade:0.06309744:10.220187
Reference:Child:1.5659038:3.4444134
mouse:Editor:8.1203:0.08063041
Menu:Pane:0.18416207:0.021208907
Instance:Editor:0.09015209:0.08361672
Enabled:Template:0.0016602746:8.695652
Group:Item:1.25:0.0056960583
Start:Start:49.72973:49.72973
Editor:Changed:3.7328893E-4:0.10893246
Multi:push:7.692308:0.29498523
core:Loader:0.010550193:100.0
Instance:Default:0.22578269:98.24869
Registry:log4j:0.147029:0.0051101414
Enabled:apache:0.013282197:0.0018469203
Node:Instance:0.5225596:0.086932376
Event:Panel:0.004762043:1.1305822
Utils:Base:35.294117:6.4257614E-4
internal:Type:9.302325:0.032974202
Font:Font:44.072227:44.072227
Layout:Preferred:1.8281218:15.3016615
register:Next:0.2283105:9.748821E-5
Command:Model:0.8928572:1.20300174E-4
Data:Model:0.6995956:0.031939697
hash:Instance:0.0058503747:0.3682552
log4j:Node:0.0028193882:0.038708117
Element:Text:2.2255023:5.4290867
Reference:Model:0.10750559:0.0045714066
Listener:Factory:0.40849677:0.10398794
List:Pane:0.0015068325:0.084835626
List:Instance:2.734901:5.843787
Event:Action:0.068859145:0.5645703
Type:core:0.6498666:4.990241
find:Factory:0.040180814:0.062392764
Width:Line:0.085625894:0.44349068
String:Default:0.0022081148:0.3502627
Action:Factory:0.042947948:0.5719337
log4j:Target:0.009163012:0.4419514
Composite:List:0.41742763:0.00602733
Facade:Change:0.01948558:0.017076502
Debug:Manager_:0.007968444:0.06932409
Node:Change:0.019354058:0.06830601
Text:remove:4.1513128E-4:0.14648438
Model:Wrapper:0.0046917065:0.08924893
Object:Lost:6.619745E-6:100.0
Enabled:Enabled:0.19093159:0.19093159
action:clear:0.0079067005:0.70422536
Preferred:Component:39.055668:2.7126055
Project:Listener:8.5818494E-4:0.020424837
update:Pane:0.04553734:0.010604453
create:Manager:3.7082818:0.075116634
Index:Name:0.009048503:0.003204591
Text:Active:1.3837709E-4:0.03427005
action:Next:0.051393557:6.3367345E-4
apache:Label:9.234602E-4:0.46920824
Long:Valid:14.285715:0.009343175
Type:Name:4.520214:0.23429121
Type:Token:2.5848112:0.6405331
Performed:Event:0.7712082:1.4286129E-4
Expression:Name:0.41581494:0.0028247875
Swing:Panel:0.09708738:0.022611644
Node:Text:9.1835:0.52527946
Panel:Tool:0.40700963:0.1887287
Event:events:0.003428671:81.818184
Updater:hash:1.0869565:2.557541E-5
Visible:Width:18.989899:3.1156778
Active:Icon:0.5825908:0.6543495
List:Index:0.010547828:0.0018767265
action:Configuration:0.21348092:14.0625
impl:Select:0.0020353463:18.82353
Content:Height:12.195122:15.151516
Instance:Element:0.037831683:0.0053320387
Panel:Action:0.11305823:0.003904359
Registry:Pane:0.030419793:0.06362672
Reference:Element:28.08725:1.1263081
internal:String:8.785529:0.1501518
Node:Child:0.23950648:0.30803695
Manager:Index:0.016228905:0.01172954
Base:Target:0.004712225:0.7479177
Event:Instance:0.10952699:0.9256688
hash:Client:3.8363112E-5:21.428572
Model:application:0.27013406:5.113229
core:Instance:4.167326:0.9538413
Class:hash:0.012807786:2.557541E-5
Manager:Mouse:0.015023327:13.9836
impl:Enabled:2.9202132:19.056631
register:core:1.4840183:0.02285875
Action:List:0.13430995:0.0647938
Facade:List:0.37996882:0.007345809
Base:log4j:2.6774005E-4:8.810588E-4
Status:Instance:28.20513:0.008854223
Event:Target:0.0064763785:1.1558728
hash:Type:2.1739097E-4:0.007785576
Swing:Factory:0.7281554:0.07799096
List:Item:0.010171119:0.10252905
Iterator:Impl_:0.78721243:1.7198358
Instance:Tree:0.0016098587:0.0055782557
Icon:Model:0.46189377:7.218011E-4
Action:Action:16.515438:16.515438
Icon:List:0.6158583:0.003013665
core:Storage:0.0017583654:1.4863907E-5
impl:Changed:0.01475626:12.636166
paint:Width:3.4814816:0.06490995
Project:Undo:0.16477151:7.5294113
Selection:Name:2.0812025:0.01110925
Selections:Instance:100.0:0.0040246467
First:Simple:0.3147573:0.7633588
Logger:apache:17.111713:1.2286637
Iterator:Model:0.0011213091:0.0012631518
Event:Released:6.6668604E-4:10.526316
Base:apache:2.6774005E-4:5.771626E-4
Show:equals:2.1276596:0.011055017
Editor:Valid:0.34491897:8.633094
Text:Tool:0.0034594273:0.1310616
Base:Tree:0.21499527:5.5991745
Editor:Copy:0.3516382:11.034321
Element:Combo:5.6723813E-5:0.5586592
log4j:Change:0.0017621176:0.08538251
Composite:Handler:0.5087399:0.03134746
Registry:Event:78.17887:0.73430705
hash:unlock:0.036655955:1.1029922
calc:Model:76.4458:1.1894679
Dispatch:action:70.83333:1.2769322
Model:Editor:0.010105214:0.06271254
impl:configuration:0.0030530195:96.0
hash:Element:0.013292818:0.11792882
Icon:Pane:0.23094688:0.06362672
String:Event:0.017664919:7.6192693E-4
hash:Iterator:5.882344E-4:0.0049124015
Name:Base:0.7921275:3.5737944
Dock:Container:100.0:1.3556259
Manager:Active:0.06862508:50.719673
Property:Type:0.73126143:0.0027478503
Order:Manager:3.030303:4.6368295E-5
Line:Settings:2.5178828:2.4694822
Name:Code:0.00197023:0.0010450906
Action:Focus:0.06793585:32.58427
hash:Base:3.0315683:25.389147
Debug:Document:0.059763335:0.15160704
Font:List:0.01613658:0.0037670813
equals:Base:16.43144:0.47754115
Target:Instance:3.4676187:0.1642056
View:Model:64.70589:0.0052932077
Name:Settings:0.0024212466:1.4311771
Editor:count:0.03583574:91.42857
String:apache:30.41899:3.180397
Model:Instance:0.45954666:3.0748303
Model:Tree:0.0032481046:0.07530646
Model:execute:2.4060035E-4:1.0869565
Action:Property:0.041386202:6.459476
List:hash:0.0045204978:1.5345245E-4
Facade:Project:0.03897116:0.0034327398
Instance:Command:0.08049294:89.28571
Expression:Model:0.059402134:0.0020451029
Popup:impl:15.277778:0.0055972026
Logger:impl:32.35214:2.559957
Layout:Minimum:0.28553522:13.036566
Manager:Look:0.012426702:18.293514
Model:Root:0.0010827016:1.1857708
next:Iterator:0.07503543:0.0014416832
property:Action:1.8779343:0.0015617436
Element:Handler:0.110271096:1.5625503
apply:Type:2.9010534:0.038469907
execute:Project:1.0869565:0.0034327398
log4j:Changed:5.286353E-4:0.3267974
Valid:Base:1.8873212:0.010816698
Tree:Instance:0.01394564:0.0040246467
Dispatch:Menu:0.877193:0.36832413
lookup:Factory:100.0:0.04679457
Helper:State:0.3971406:0.0652486
Line:List:0.30042917:0.007910871
First:Start:0.8393527:0.061776064
Line:Editor:4.821173:0.25159675
Object:Storage:0.03968868:0.17823312
Logger:Scroll:0.0064305584:0.5681818
Font:Model:0.3388682:0.025263036
Manager:Icon:0.013817752:11.470362
Token:Simple:0.0037451442:0.64591897
Registry:Element:0.33461773:0.0037437717
Contents:Element:100.0:1.13447626E-4
Class:Handler:0.8164965:0.20496415
Editor:Check:3.7328893E-4:0.0068615344
State:Model:34.294662:0.15807442
Node:Leaf:0.043546632:0.11325028
Manager:Containing:0.0046368297:68.02721
Abstract:Base:80.0299:0.6879848
True:List:32.0802:0.072327964
Element:impl:0.6969655:1.5630188
Label:Event:0.23460412:1.9048173E-4
Element:Wrapper:0.0011912001:0.024028558
Element:Enabled:5.6723814E-4:0.008301373
graph:Manager:100.0:0.0013446806
Modal:Manager:20.32967:0.0068625077
Layout:Count:0.024374956:0.0037909558
Value:Code:8.354208:0.015537854
hash:Tree:0.0012659827:0.27612367
Base:compare:4.283841E-4:0.21551724
Provider:Factory:0.02437241:0.041595176
Swing:core:34.951458:1.2660232
Width:List:0.022097006:0.003013665
Item:Item:41.29642:41.29642
Multiple:action:27.272728:0.011860052
Manager:Document:0.04553367:9.925207
Adapter:Context:0.67928505:1.6865174
Registry:Action:0.1013993:0.007808718
Model:remove:0.019248027:15.625
Proxy:Base:100.0:0.013119264
Extension:Model:100.0:2.4060035E-4
Iterator:log4j:3.2037403E-4:0.0010572706
impl:Size:0.079124086:1.6792202
Editor:Object:0.050767295:4.5014266E-4
Manager:undo:0.0016228904:14.112904
Panel:Event:0.4409271:0.0018571967
Base:Index:0.004123197:0.002580499
Name:Expression:0.024426106:3.5955765
Base:select:1.6064403E-4:15.789473
Layout:List:0.0034821364:1.8835407E-4
hash:core:0.0021099711:0.5802606
Rendering:Text:100.0:0.0011070167
Count:Model:1.4865962:0.16511199
Context:Analysis:3.8256001:71.37405
Position:Preferred:50.0:0.34975225
invalidate:Event:96.44444:0.010333634
Item:Selection:0.018986862:0.02223507
hash:Name:0.09470574:0.17580149
Active:Editor:17.272104:0.18813762
Property:create:61.974407:2.327977
Enabled:Started:0.009961648:14.634146
Element:log4j:4.537905E-4:0.0014096941
Token:Type:0.64790994:2.6145797
Selection:Node:0.26682082:0.29031086
unlock:Storage:98.80447:7.6334195
Editor:Instance:0.7290333:0.78601354
Index:Array:0.0027145508:0.34495977
Composite:Change:0.45656142:0.2988388
Enabled:Manager_:0.0016602746:0.06932409
String:Enabled:0.0596191:0.044827413
Manager:Action:5.43761:45.786415
Target:Layout:0.5609383:0.22982103
Debug:Change:7.4106536:15.881148
Instance:Undo:0.021733094:2.117647
Priority:Line:0.01716191:0.050071526
Factory:Name:4.8666353:0.01110925
Simple:Token:1.3309846:0.007717266
Debug:Name:0.015936889:4.7475423E-5
Facade:Settings:1.1496493:0.8278378
Storage:hash:3.567338E-4:1.5345245E-4
Instance:Name:0.0032197174:9.495085E-5
Name:Declaration:1.1868856E-4:100.0
Code:Updater:7.177128E-4:30.97826
Monitor:Iterator:0.46728972:5.3395674E-5
Pane:Manager:58.69565:0.2566485
String:List:0.08611648:0.014691618
Pane:Size:0.5090138:0.12958613
apache:Enabled:0.0013851903:0.009961648
Instance:Target:0.11590984:2.4477308
Instance:Enabled:0.0016098587:0.0033205491
Priority:Root:0.022065314:0.5928854
Name:Container:4.7475423E-5:0.013903854
create:Object:0.10071877:1.4563439E-4
Look:Simple:5.4607506:0.78293204
Change:Model:4.8668036:0.03428555
Facade:core:2.2505846:0.4061824
Index:Iterator:0.16716272:0.2663376
Event:Pressed:0.0010476495:15.492958
Text:Show:0.004981575:12.765958
Container:Container:27.581772:27.581772
core:Wrapper:0.02637548:0.017163256
Check:core:0.06861534:0.017583653
Core:Object:2.7439024:2.9788853E-5
Code:Tree:0.0029464:0.65265596
fire:Change:10.404624:0.15368852
Handler:Change:0.088415906:0.9392076
Text:Model:5.053531:2.196681
Type:Model:0.08518336:0.022375833
Factory:Facade:0.005199397:0.00974279
Update:Document:2.4471636:0.22235699
Layout:Node:0.006964273:0.0048385146
Types:Types:8.801341:8.801341
Class:Target:0.03842336:0.101988785
impl:mouse:0.030530194:9.022556
Name:Name:26.556232:26.556232
Adapter:Simple:0.3683815:17.93893
Data:Component:22.908789:35.199093
First:Context:4.600299:0.56882536
Action:Selection:0.003904359:0.02223507
Text:Handler:0.0038745585:0.022505866
Action:Status:0.0015617436:5.1282053
List:remove:0.0013184785:0.34179688
Empty:Facade:17.647058:0.087685116
Event:Priority:0.9645995:49.661667
Next:Impl_:35.450226:84.83948
Action:Selected:0.07105933:53.687317
Project:Iterator:0.04891654:0.0030435533
Settings:Style:2.5256069:4.0084624
Preferred:List:0.08743806:5.650622E-4
Manager:Simple:0.0370019:7.8097477
Core:Model:2.7439024:5.413508E-4
Constructor:Model:100.0:3.6090054E-4
Code:Item:7.9326157E-4:0.23923445
Name:Font:0.0030859024:0.20977554
Element:size:4.537905E-4:0.0011277024
update:Monitor:1.7759564:18.224298
Manager:Pane:0.05680116:12.990456
Manager:action:0.8534085:72.76141
Object:Order:1.9859235E-5:18.181818
Name:Owner:0.0044864276:23.04878
find:Model:25.856356:0.46447897
Text:Element:21.255827:8.713232
Node:Composite:1.4660699:7.9050355
Changed:Change:3.7037036:0.29030055
Base:Handler:2.4045734:36.09379
Element:Factory:0.0028361906:0.25996986
Object:Text:7.447213E-4:0.031134844
Code:Delegate:0.0077248565:0.01971496
Mouse:Editor:25.636599:0.22173363
Types:Editor:0.12573345:0.0011198669
Node:remove:0.19354057:3.90625
Moved:Mouse:7.6086955:0.9063444
List:Data:0.050855596:0.35572654
Layout:Component:0.08357128:0.048583977
Change:Container:0.008538251:0.0034759636
Action:execute:0.081210665:56.521736
Action:handlers:0.0015617436:0.86206895
Code:Element:0.013542108:0.12201292
State:State:21.936579:21.936579
Property:impl:13.528337:0.028240431
Index:Logical:0.043298762:7.8360023
Handler:Debug:0.004018905:0.019921113
Logger:Active:0.0032152792:0.0685401
Object:access$400:9.929618E-6:42.857143
Iterator:Storage:0.03401304:0.00946831
Empty:Model:82.35294:0.0025263035
Instance:Bounds:0.17386475:15.500538
Changed:event:16.122004:18.734179
Entered:Editor:29.166666:0.0026130225
Enabled:Group:0.03320549:16.666668
clear:Instance:80.633804:0.09216441
Text:Listener:2.7675417E-4:0.040849674
Element:Owner:0.014521296:15.609756
Code:equals:0.08616332:25.216494
impl:impl:36.688644:36.688644
hash:_get:0.0058120117:37.026478
Enabled:fire:0.029884942:20.809248
Layout:Container:0.08705342:0.08689909
find:Pane:0.92415875:2.9268293
debug:Tree:4.8780484:0.008367384
Editor:Support:0.008958935:80.0
Manager:Text:0.7614601:2.2724285
Border:Size:14.814815:0.0971896
Manager:Facade:0.08925897:18.754871
Enabled:Event:0.2158357:0.012381312
core:create:0.06857625:0.08927345
impl:Panel:0.023024855:2.0463538
Selection:Type:0.017788056:0.0018319002
Helper:List:1.4297062:0.0033903732
Size:Line:0.0107988445:0.028612304
Event:Model:0.09552658:0.12066107
Editor:Added:7.4657786E-4:7.692308
Action:equals:0.0081991535:0.03869256
Margin:Facade:33.333336:0.4091972
Listener:Index:0.08169935:1.340519E-4
Manager:Child:0.0017619951:0.11823641
Released:Pane:9.022556:0.12725344
create:Model:0.45323446:0.011909718
Command:execute:0.8928572:0.54347825
hash:Factory:2.557541E-4:0.20797588
Editor:Lexer:0.02426378:0.003250855
Wrapper:Array:0.041191816:0.15331545
Select:Element:16.470589:7.941334E-4
Property:Swing:0.54844606:0.4368932
apache:Debug:4.617301E-4:0.015936889
Performed:Next:7.197943:0.0013648351
Lexer:Event:3.5009207E-4:3.3334302E-4
Element:Query:0.008395124:20.163488
hash:Change:3.196926E-4:0.42691258
Code:Import:1.2591454E-5:6.666667
Base:Utils:6.4257614E-4:35.294117
Child:Enabled:0.8961075:0.23907954
Item:Tree:0.041771095:0.030680409
Storage:Delegate:21.76183:23.524141
Start:Adapter:0.27799228:0.1881097
Handler:List:0.011252933:0.002636957
Facade:Model:11.574435:0.0714583
Token:Manager:5.6744608E-5:4.6368295E-5
Logger:Debug:0.06430558:0.1593689
Manager:Model:1.3778803:1.78742
Editor:Mouse:0.02127747:2.4600778
apache:Composite:1.1543252E-4:0.013044613
Token:Editor:0.0023832736:0.015678136
Group:Group:6.666667:6.666667
Model:Item:0.006616509:0.20885547
Name:Provider:0.0052460344:1.3465756
Owner:impl:2.1341465:0.00445232
Code:Visible:3.777436E-5:0.050505053
hash:size:0.008286432:0.18268779
Expression:Composite:5.4055943:40.36003
Impl_:Iterator:0.0018664703:8.543308E-4
Abstract:Debug:0.012457955:0.007968444
Object:Base:0.045868214:0.74206835
Instance:Data:0.4865798:1.5928645
Base:Node:0.004926417:0.22257166
Code:Swing:5.0365816E-5:0.38834953
apache:impl:0.046634737:0.051392492
Tool:action:0.010484927:0.0079067005
execute:Name:1.0869565:4.7475423E-5
String:Handler:0.08611648:0.06269492
Enabled:should:0.004980824:6.741573
create:Feel:2.2455707:67.51549
Size:Layout:0.607435:0.7834807
event:Action:76.20253:0.2350424
Class:Object:7.2908325:0.0075365794
Model:Provider:0.00673681:0.34121376
Listeners:Base:83.193275:0.010602506
size:Array:0.008880657:0.26830205
Bounds:Font:1.0046645:0.022591213
Manager:Modal:0.023184149:68.68132
Manager:Path:0.0034312538:0.00777815
Size:Cell:0.0026997111:0.84745765
Template:Instance:91.30435:0.008451759
Selection:Element:0.06003469:0.0015315431
Enabled:Instance:0.23243845:0.11269011
Component:core:0.11133829:0.09671009
Layout:Manager:0.30294588:0.004034042
Name:Check:3.560657E-5:0.020584602
Registry:Container:0.025349826:0.017379818
Size:Component:0.21057746:0.15789793
String:Editor:0.019873034:0.0067192004
Tree:Base:4.5434895:0.17445941
count:impl:3.809524:5.088366E-4
should:Manager:2.247191:9.273659E-5
Code:Editor:0.006849751:0.40613836
Language:Node:0.112132765:0.024192572
Manager:Undo:0.018686423:15.803921
Code:compare:6.925299E-4:2.963362
log4j:Manager:0.015859058:0.0041731466
Width:paint:0.019334879:1.037037
Next:Event:0.032463577:0.031715207
Storage:Storage:0.3731584:0.3731584
Event:List:1.6897156:6.6833677
Base:Elements:0.068273716:61.893208
Context:Editor:0.0029938177:0.0022397337
layout:Layout:24.761906:0.27160665
Element:List:9.07581E-4:0.003013665
Project:debug:0.090109415:85.36585
Update:application:35.150166:0.35978186
Panel:Data:35.45506:4.1316977
Update:Wrapper:0.8898776:0.009153737
Instance:Facade:0.8838124:21.395168
List:Wrapper:0.008287579:0.05034555
Manager:Panel:0.015023327:3.6630864
Action:Editor:0.06910715:0.06607214
Action:Project:0.10932204:0.24029177
Base:Layout:0.0020348246:0.1323212
Core:Handler:50.609756:0.13342763
Base:List:0.7084402:2.4919243
contains:Instance:88.88889:0.006439435
Handler:Element:0.4340417:0.030630859
Editable:application:100.0:0.0068313014
Action:Standard:0.2014649:9.174965
Entry:Model:100.0:0.0052932077
collect:Type:100.0:4.5797505E-4
Element:Client:5.6723813E-5:3.5714288
Size:Base:0.02969682:5.890281E-4
Base:access$000:2.1419206E-4:0.75757575
apache:Event:14.766129:6.0916057
core:List:0.7912644:0.08475933
Text:push:0.046771456:99.70502
Settings:Language:0.028062297:0.044853106
Select:Logger:1.1764706:0.0016076396
apache:Category:0.0011543252:6.622516
impl:Pressed:0.006106039:33.802814
Group:update:1.6666667:0.18214937
apache:Wrapper:2.3086504E-4:0.0022884342
Types:Class:0.5029338:0.03842336
Handler:Valid:0.34482205:4.008222
Object:Type:5.8253756E-4:0.040301807
Handler:Child:0.003215124:0.012445937
Base:access$400:1.0709603E-4:28.57143
Base:Import:1.0709603E-4:6.666667
log4j:Project:0.0010572706:0.0051491098
Node:Debug:0.058062177:0.09562134
core:Types:0.10550192:2.514669
Enabled:Size:0.013282197:0.043195378
Handler:Instance:0.04822686:0.024147881
Event:Browser:0.0013333721:63.636364
Editor:Element:1.8664447:0.28361908
Debug:Node:0.573728:0.34837306
Text:Object:0.005950215:1.4232451E-4
Editor:Base:0.52633744:0.07550269
Multi:List:61.538464:0.0015068325
update:Corners:0.04553734:100.0
Image:Instance:7.692308:4.0246468E-4
Helper:Model:5.718825:0.0043308064
Child:Tree:17.726128:7.9448314
Model:State:0.09828524:21.323242
From:Manager:25.465837:0.0038022005
internal:Expression:19.767443:0.5346192
action:Update:1.1860051:33.37041
Actions:Enabled:3.809524:0.0066410983
Count:List:0.121310584:0.04219131
Child:Composite:0.05600672:0.23480302
Content:Width:85.36585:0.048337203
init:Item:100.0:1.1392117
Abstract:Handler:0.5979818:0.07716297
Enabled:Project:3.5214424:3.6404204
Group:Index:3.7500002:3.0161676E-4
Update:Instance:4.7830925:0.017305981
Token:Context:0.015321043:0.1347218
Event:Base:1.9500567:2.192791
Impl_:Facade:0.014231837:1.1886204
impl:Drag:0.009159058:38.709675
Element:next:0.0047648004:0.23344357
Group:List:10.833333:0.004897206
find:Node:0.006696802:0.0048385146
Monitor:Focus:2.803738:1.1235955
List:Count:0.0037670813:0.010831303
Item:Text:0.52024:0.03791532
Event:Handler:0.35501033:5.992187
Enabled:Action:0.57113445:0.2686199
Iterator:size:18.657942:49.25635
Lexer:Parser:3.531179:84.75482
Handler:handlers:0.34562582:92.67242
Item:Change:0.59239006:2.6639345
List:Model:0.23732612:0.07578911
Project:Shown:0.0025745549:100.0
log4j:Composite:1.7621176E-4:0.013044613
List:Style:1.8835407E-4:0.011134618
Model:Settings:0.028872041:3.3674757
Tree:Renderer:0.092041224:38.82353
Handler:Client:0.009645372:42.857143
Show:Handler:12.411347:0.028132336
Image:application:76.92308:0.011385501
core:Document:0.0035167309:0.02021427
Handler:Line:0.004822686:0.042918455
Model:Style:0.0020451029:0.378577
action:Index:0.28464124:0.002412934
Border:Panel:29.62963:0.81401926
Editor:Index:0.3609704:0.032407045
Registry:Manager:5.049686:0.046182822
Text:property:0.0071956087:24.413147
Model:find:0.349472:19.45421
Manager:Manager_:0.121113986:90.53726
impl:fire:0.0030530195:13.872832
Actions:Factory:0.952381:0.010398794
Storage:Change:2.5268644E-4:0.14515027
Copy:Document:3.2095585:2.769355
Debug:Debug:0.04781067:0.04781067
next:Index:1.111636:0.013405189
Model:Sequence:0.0024060034:100.0
Handler:Node:0.006430248:0.019354058
Priority:Tree:0.41678926:0.23707587
paint:Pane:5.7777777:0.8271474
Tree:Handler:0.20081723:0.115744464
Impl_:Next:0.0013998528:5.849293E-4
Show:Name:1.4184396:4.7475423E-5
Changed:Model:0.6535948:3.6090054E-4
Logger:Layout:0.0032152792:0.006964273
impl:Popup:0.017554862:47.916664
apache:Manager:0.011427819:0.0045904615
Class:Class:36.505394:36.505394
Text:Layer:0.029059188:100.0
mouse:Logger:0.5263158:0.022506952
Event:Event:21.676725:21.676725
Composite:Object:0.052178454:1.323949E-5
Preferred:Enabled:1.399009:0.03984659
Base:Line:8.567682E-4:0.11444922
Selection:Base:0.026682083:6.4257614E-4
Component:Panel:0.4372558:2.4420576
apache:Target:0.006464221:0.47594765
Project:Name:0.0017163699:2.3737712E-5
Debug:Changed:0.003984222:0.10893246
remove:impl:11.425781:0.029766941
Released:Mouse:9.022556:0.5179111
Handler:remove:0.003215124:0.1953125
Component:Manager:40.628353:0.93061167
Bounds:Width:34.44564:1.3258204
Code:Factory:2.5182904E-4:0.20797588
Changed:Editor:5.664488:0.019411026
Logger:Changed:0.016076395:1.0893246
Adapter:Lexer:17.191135:4.2781253
Selected:Manager:38.348083:0.0060278783
Component:Code:0.6579081:0.002046111
Text:Helper:2.7675417E-4:0.15885624
Manager:Debug:0.011870284:1.0199609
Code:Cache:1.2591454E-5:22.222223
Project:Containing:0.040334694:31.97279
core:Name:1.0128186:0.006836461
Manager:Sibling:4.6368295E-5:50.0
Tree:action:0.00697282:0.019766754
Debug:apache:0.063747555:0.0018469203
Model:equals:0.025142735:0.7701662
Change:Project:0.9818989:0.09869126
Container:Count:0.05909138:0.009206607
write:Base:5.8091288:7.496722E-4
Event:Change:0.06333517:11.355875
Pane:Clicked:0.042417813:15.384616
Focus:Child:6.9288387:0.115124926
Event:Editor:0.659162:5.1670656
Manager:Listener:0.0033385174:1.4705882
Enabled:Registry:1.7507596:10.692557
Active:Handler:0.03427005:8.03781E-4
Enabled:Button:0.013282197:0.1721726
Panel:application:0.20350482:0.020493902
Pane:Panel:2.6405091:2.8151498
Panel:Manager:27.699265:0.11360232
hash:Model:0.0014322229:0.01347362
Name:Document:2.3737712E-5:0.02021427
lexer:Adapter:0.98418754:1.5169358
Manager:List:0.02967571:0.1205466
Visible:Icon:1.2626263:5.773672
Storage:core:4.4591725E-5:0.0052750963
Change:Manager:2.2199454:0.0120557565
log4j:Panel:8.810588E-4:0.056529116
Index:Simple:0.0011059282:0.32295948
Target:Document:1.810301:2.1528199
log4j:Layout:1.82062:35.977436
build:Model:33.333336:2.4060035E-4
Factory:Composite:1.611813:4.04383
Manager:Feel:0.012426702:18.444597
Selection:Event:0.031129096:6.6668604E-4
Grid:Size:48.326363:1.2472665
Utils:Number:11.764706:100.0
Editor:Manager_:0.096308544:8.942807
Size:core:7.6941767:5.0113416
Look:Check:6.006826:0.603815
hash:Updater:7.4168685E-4:31.52174
Name:apache:0.020248268:0.19692788
Manager:Editor:0.81112057:6.5299435
log4j:Focus:7.0484704E-4:0.7490637
Change:Tool:0.017076502:0.010484927
Status:Manager:56.41026:0.002040205
Base:build:1.6064403E-4:25.0
Node:impl:1.4273618:0.075053394
Code:size:0.0042307284:0.094727
Change:Debug:0.7257514:0.3386589
Element:Names:2.2689525E-4:11.111112
log4j:Actions:3.5242352E-4:0.952381
Name:Project:0.005198559:0.375885
Event:Enabled:0.069382966:1.20951
Name:Manager:0.05956979:0.23272248
Color:Color:47.41209:47.41209
Document:Event:2.243784:0.010571736
Margin:Code:66.66667:5.2884105E-4
Adapter:Value:1.2709463:21.40681
Selection:Instance:0.033352602:0.0060369703
Pane:paint:0.2545069:1.7777778
Mouse:Entered:0.086318515:8.333334
Moved:Event:7.6086955:0.001000029
Update:Text:1.5572859:0.0019372792
Target:Model:0.7904131:0.0055939583
Editor:Editor:18.293772:18.293772
Selection:Simple:0.12006938:0.52847916
Facade:Document:0.07794232:0.08085708
Abstract:Active:0.06851874:0.37697053
apache:Focus:4.617301E-4:0.7490637
Entered:Pane:4.166667:0.010604453
Text:Node:1.7773154:31.07294
Cache:Code:44.444447:2.5182908E-5
List:Base:1.1934114:0.3392802
List:update:0.012808076:3.0965393
Enabled:create:0.0074712355:0.020601565
Node:Handler:0.058062177:0.019290743
Element:Logger:0.0028361906:0.080381975
Code:Next:6.5475557E-4:0.0050693876
Selection:Editor:3.7844088:0.63533777
First:List:0.59723175:0.027876403
Type:List:0.068009295:0.05594116
Code:Composite:0.005162496:10.696583
Performed:Action:4.6272492:0.007027846
hash:Delegate:0.005230171:0.0131433075
Width:Item:1.6904209:2.3239918
Select:Enabled:1.1764706:8.301373E-4
Editor:Group:0.01717129:19.166666
String:Delegate:0.0055202874:8.033806E-5
apache:Change:0.0011543252:0.08538251
Undo:Undo:2.8235295:2.8235295
User:Elements:90.07092:36.99029
Context:Handler:0.02993818:0.04822686
should:Enabled:6.741573:0.004980824
Current:Action:35.61644:0.010151333
Path:Name:25.27531:2.8540444
invalidate:Panel:0.8888889:0.022611644
Enabled:Element:0.1045973:0.007147201
Panel:Wrapper:0.022611644:0.0022884342
Model:calc:0.0062556094:0.40204114
Object:Handler:0.006450942:1.5665691
Instance:cleanup:8.0492935E-4:100.0
Model:Renderer:0.0018045026:17.647058
Handler:Handler:1.9009421:1.9009421
Abstract:Target:0.02491591:0.03399626
Text:List:0.07915169:0.107738525
Context:Token:0.13571975:0.015434532
apache:Document:0.0017314878:0.15160704
Label:Pane:0.46920824:0.084835626
Name:Abstract:0.0047238045:2.4791331
Base:Name:0.005783185:0.0012818364
Provider:Provider:6.1662197:6.1662197
Pane:core:0.042417813:0.0070334617
Name:Storage:0.0033470173:0.004191622
Target:application:0.6629271:0.08880691
log4j:User:0.006872259:4.609929
Manager:Style:0.075116634:18.03808
Manager:Project:0.6347356:11.747693
Base:Event:2.1436338:1.9063411
Text:Editor:1.806236:4.8725405
Scroll:impl:29.545454:0.026459504
Base:write:0.005354801:41.49378
Name:Enabled:1.1868856E-4:0.008301373
Model:iterator:3.6090054E-4:9.0693485E-4
hash:compare:7.5447455E-4:3.1788793
List:Pressed:0.0022602489:8.450704
Context:Configuration:0.04889902:25.520834
Text:Style:4.1513128E-4:0.03340385
Name:Model:0.0031096402:0.015759323
Selected:Target:6.7846613:0.19547851
Group:Object:1.6666667:1.323949E-5
paint:Tree:13.925926:0.26217803
Event:hash:1.9048173E-4:2.557541E-5
log4j:Listener:8.810588E-4:0.10212419
Target:Manager:21.953085:0.119769305
Remove:Debug:100.0:0.015936889
String:Wizard:0.0011040574:100.0
Actions:Pane:1.4285715:0.03181336
Object:Abstract:3.3098728E-5:0.06228977
Composite:Event:0.46960604:0.0017143355
Selection:Logger:0.64037:0.46300018
Code:Order:3.777436E-5:18.181818
Instance:Manager:29.358593:3.382428
Active:Panel:0.03427005:0.011305822
internal:core:0.12919897:0.0035167309
Mode:Event:0.76437354:0.0032858097
apache:Panel:6.9259515E-4:0.067834936
hash:Editor:0.006099735:0.35611764
Updater:Model:7.065217:0.0015639024
Iterator:Wrapper:0.034707185:0.7437411
size:Index:0.3467685:0.08244191
Model:events:9.624014E-4:18.181818
Code:Wrapper:0.047507554:8.634262
Width:Size:0.17953818:0.35096243
Layout:Size:7.3333797:5.6855917
Object:Debug:1.4894427E-4:0.17929001
Released:impl:15.789473:0.002671392
Base:Abstract:0.0013922483:0.1619534
Combo:Event:8.938547:7.6192693E-4
Event:Label:3.8096347E-4:0.46920824
Show:Settings:2.8368793:0.056124594
Selection:Width:0.37799618:0.2347807
Object:Change:2.647898E-5:0.06830601
Object:Updater:1.3901465E-4:11.413044
Settings:Provider:0.1403115:0.060931027
Undo:undo:1.2549019:12.903225
Element:Show:3.4034287E-4:2.1276596
String:Repository:0.0022081148:0.108459875
Parameters:Adapter:100.0:0.10611316
Enabled:Changed:0.002490412:0.3267974
Tools:Action:100.0:0.0015617436
Editor:component:7.4657786E-4:100.0
Adapter:Name:2.1206553:0.12524016
String:Object:17.806238:0.05338162
Change:Code:0.23907104:1.7628034E-4
Wrapper:Iterator:0.0045768684:2.135827E-4
Wrapper:Wrapper:28.593987:28.593987
Model:Node:0.022616433:0.9096407
Tree:Code:0.27612367:0.0012465538
Project:Project:14.005577:14.005577
Base:Manager_:1.6064403E-4:0.10398614
Manager:Check:0.020494787:3.032798
impl:log4j:0.0025441828:0.0035242352
register:Instance:0.7990868:0.002817253
Name:Item:0.019559873:3.1290348
Pane:Editor:2.545069:0.08958934
Enabled:Impl_:0.049808238:0.006999264
Event:Object:0.01000029:6.950732E-4
Project:Facade:0.107273124:1.2178488
Action:From:0.007808718:6.21118
Mouse:Released:0.5179111:9.022556
Base:access$1000:0.0023561125:64.70589
Handler:Enabled:0.0675176:0.06973153
Impl_:Array:0.10393907:3.7945573
Factory:core:0.5615348:0.18990345
Enabled:action:0.26398367:1.2571654
log4j:application:0.0017621176:0.011385501
Mode:Tree:0.8197629:0.10319774
Logger:Size:0.004822918:0.008099133
Base:Model:0.02313274:0.025984837
equals:access$400:0.003685006:28.57143
Target:Base:14.788373:0.09317354
Changed:Text:0.21786492:2.7675417E-4
log4j:Internal:3.5242352E-4:0.24360538
Mouse:mouse:9.3224:8.1203
State:Actions:0.02609944:0.952381
action:Action:7.9225144:0.7824335
register:Action:0.2283105:7.808718E-4
mouse:impl:7.8947363:0.02671392
Debug:Component:0.09562134:0.048583977
Manager:Button:0.12769829:29.635208
core:Element:0.06681789:0.002155505
Only:Base:50.0:0.0021954684
Change:Action:0.3329918:0.015226999
Value:Object:0.09478031:9.267643E-5
Position:Size:25.0:0.016198266
Action:Tool:0.08433415:1.1323723
Instance:List:1.6794851:0.7860015
Abstract:Model:0.22424318:0.0021654032
State:Project:0.02609944:0.0017163699
find:Text:40.58597:1.6772687
Model:Index:0.59909487:0.33378923
List:Root:0.006215684:2.173913
List:mouse:0.009794412:1.9548873
Manager:Enabled:0.054065436:0.96794015
Model:Project:0.0046917065:0.06693842
core:Composite:0.008791827:0.06522306
Change:Event:6.5744534:0.036667734
Label:Editor:0.11730206:7.4657786E-4
remove:Manager:0.78125:7.418927E-4
Code:Iterator:6.5475557E-4:0.0055531496
Check:Border:0.020584602:1.2345679
Base:Changed:2.1419206E-4:0.43572983
Adapter:Type:0.20016801:0.22807159
Project:Instance:4.747479:2.2264347
Handler:Size:8.03781E-4:0.0026997111
Name:Listener:1.7803283E-4:0.30637255
Action:Combo:0.007027846:10.055866
Settings:Model:9.471025:0.08120261
Size:Style:0.043195378:0.17815389
Simple:Simple:23.458603:23.458603
Index:Impl_:0.06404329:0.22292656
Order:Base:12.121212:2.1419206E-4
Model:Action:0.0026466039:0.01717918
Model:update:0.008661613:6.557377
Line:Changed:0.028612304:0.43572983
equals:Changed:0.011055017:0.6535948
Helper:Project:0.15885624:0.0017163699
size:hash:0.11544854:0.005236565
Next:size:17.032557:49.25635
Layout:Grid:0.12535691:3.7656903
hash:Wrapper:0.048248008:8.634262
Adapter:Time:0.041601185:15.175954
fire:Listener:1.734104:0.061274514
apache:Handler:1.1543252E-4:8.03781E-4
Text:Base:0.108487636:0.04198164
core:Object:0.010550193:1.9859235E-5
apache:Repository:2.3086504E-4:0.108459875
Enabled:Check:0.012452059:0.10292302
application:Tool:0.16053557:0.7391874
hash:Order:3.8363112E-5:18.181818
String:Category:0.070659675:42.384106
Iterator:apache:3.2037403E-4:6.9259515E-4
Model:Object:0.013353319:7.347917E-4
Manager:index:3.7094636E-4:100.0
Element:Cell:5.6723813E-5:0.84745765
Line:Event:0.33619457:0.0022381602
Tree:Count:0.09761948:0.03790956
create:Instance:0.24721879:0.043466188
layout:Icon:29.20635:3.5411856
Factory:Model:0.1767795:0.0020451029
lexer:Token:34.058002:14.8216915
Logger:Popup:0.0032152792:0.6944445
Types:core:1.0058676:0.04220077
Factory:Look:0.18717828:2.4573379
Simple:Name:1.428851:0.001732853
apache:Factory:0.0010388927:0.04679457
apache:helpers:0.9878715:49.959137
update:Debug:0.04553734:0.003984222
Graphics:paint:56.15764:25.333332
Element:Element:29.576138:29.576138
Helper:Removed:2.6211278:97.05882
Event:Entered:9.5240866E-5:8.333334
Actions:fire:1.4285715:1.734104
Type:Code:0.007785576:2.1405471E-4
count:Event:1.904762:9.5240866E-5
Base:action:0.009692189:0.71555644
Tool:Selection:0.78636956:0.33352605
Sibling:Factory:50.0:0.005199397
Abstract:Helper:0.12457954:1.5885624
Enabled:Document:0.027394531:0.3335355
Event:Pane:0.012571794:2.7995758
apache:Node:0.0018469203:0.038708117
Drag:Mouse:12.903225:1.0358222
Debug:Target:0.023905335:0.050994392
log4j:create:0.009515435:0.123609394
Editor:Undo:0.0044794674:0.4705882
equals:Iterator:0.022110034:6.4074807E-4
Changed:Settings:0.43572983:0.028062297
List:Object:0.100581065:0.001767472
Visible:Text:0.16835016:0.0027675417
Selected:Combo:1.1799409:2.2346368
Size:Height:0.075591914:84.84849
Action:Base:0.03513923:0.004819321
Container:Size:0.01042789:0.008099133
Browser:Event:36.363636:7.6192693E-4
Document:Action:0.8692137:0.033577487
Model:Logger:0.038796805:1.0369275
Debug:Enabled:0.015936889:0.0033205491
Change:Enabled:0.6403688:0.0622603
Text:should:0.0011070167:8.988764
Selection:Text:44.08325:2.7434642
action:Focus:0.48626208:23.033709
Abstract:Element:1.8064033:0.016449906
Editor:Actions:0.0044794674:5.714286
Language:Provider:23.817:6.470875
find:String:0.053574417:0.017664919
Component:hash:0.0040486646:1.2787705E-5
lexer:Editor:0.0011735145:0.0033596002
enter:Element:3.1614603E-4:1.13447626E-4
Cell:Tree:27.118645:0.044626046
Node:Selection:0.012096286:0.011117535
Owner:Element:33.170734:0.030857755
Dispatch:Monitor:1.5350877:3.271028
Enabled:Default:0.0033205491:0.7005254
Manager:String:0.0023184149:0.05520287
Iterator:Facade:1.6018702E-4:0.02922837
List:Iterator:1.4386483:0.4078361
Code:Instance:0.0060438975:0.3863661
remove:Node:1.8066406:0.08951252
Single:Settings:100.0:0.11224919
State:Class:0.02609944:0.006403893
Line:Manager:8.404864:0.05448275
Action:paint:0.0019521795:0.37037036
Registry:Document:0.0050699655:0.010107135
Manager:remove:0.0017156269:1.8066406
Logger:Manager:0.67520857:0.019474683
Only:Object:50.0:1.3570477E-4
Enabled:Performed:0.002490412:0.7712082
lexer:Parser:1.3638847:12.55627
Listener:Base:11.15196:0.029237213
Minimum:Text:22.257551:0.019372791
Component:Value:0.97167957:1.6248053
remove:Base:3.3691406:0.0036948128
Child:Root:0.009334453:0.19762847
Index:Type:0.013271137:0.090679064
Logger:Check:0.004822918:0.020584602
Control:Data:87.878784:0.80236095
Button:Manager:36.80189:0.15857957
Tree:Project:0.08088471:0.04977473
Registry:apache:0.147029:0.003347543
Select:impl:54.11765:0.005851621
Delegate:Object:0.01736909:0.003577972
apache:apache:16.548868:16.548868
hash:Swing:5.115082E-5:0.38834953
Manager:Layout:0.002040205:0.15321401
Code:Object:94.57674:49.722134
Size:Minimum:0.77481705:45.627983
Element:Container:0.00907581:0.5561542
Tree:Child:0.6833363:1.5246274
hash:Valid:0.017864423:26.104832
Entered:Mouse:8.333334:0.086318515
selection:Selection:25.0:0.02223507
Pane:Released:0.12725344:9.022556
Manager:Category:6.4915617E-4:9.271523
Node:Tree:4.7901297:2.7612367
property:Project:28.169016:0.051491097
Editor:Removed:3.7328893E-4:2.9411764
contains:Factory:11.111112:0.010398794
Node:Manager:0.84915936:0.016275272
Provider:Name:0.34121376:0.0013293119
hash:Impl_:9.398963E-4:0.017148197
Feel:Simple:5.50585:0.78293204
Component:Preferred:0.54656976:7.8694263
Visible:Util:67.00337:90.04525
Index:lexer:0.04665006:0.18150358
Abstract:apache:0.0062289773:1.1543252E-4
core:Abstract:0.1529778:0.541921
Enabled:Manager:57.033752:3.1856875
Control:Combo:0.5772006:2.2346368
Manager:Element:0.076971374:0.09416153
String:Combo:0.017664919:8.938547
Mode:action:1.6395258:0.5850959
core:Component:0.07736808:0.08907063
Event:Name:0.0052382476:0.0013055741
Impl_:Enabled:9.3323516E-4:0.0066410983
Object:String:0.018826555:6.279878
Combo:Size:8.938547:0.043195378
execute:Action:20.652174:0.029673127
Text:Button_:5.5350835E-4:16.666668
apache:Element:0.081033625:0.039820116
Border:Preferred:6.1728396:0.43719032
Base:Dependency:1.6064403E-4:7.692308
Manager:Mode:0.14452998:34.529747
Object:Child:2.9788853E-5:0.02800336
Import:Handler:53.333336:0.012860496
equals:access$000:0.025795039:2.6515152
Impl_:Code:7.0909543:0.38269204
Component:Context:0.044535317:0.010977332
Model:List:0.17515706:0.54848707
Action:Control:0.0015617436:0.5772006
Manager_:Manager:0.20797227:2.7820977E-4
Component:Size:0.27935788:0.37256014
Action:Helper:0.012493948:2.5417
impl:Mode:0.32463774:28.270742
Event:Next:0.013714684:0.014038302
Enabled:impl:10.107752:1.5488986
Element:Property:1.13447626E-4:0.1218769
Action:Document:0.025768768:0.667071
Manager:Token:2.7820977E-4:3.4046764E-4
Splitter:Panel:100.0:0.067834936
Manager:Factory:0.008531767:0.956689
Factory:Manager:3.353611:0.02990755
List:Debug:0.013561493:0.286864
Logical:Logical:46.082:46.082
apache:Name:0.19923654:0.020485645
Model:Image:1.20300174E-4:15.384616
Text:Default:5.5350835E-4:0.7005254
List:Border:1.8835407E-4:0.41152263
Composite:Wrapper:0.052178454:0.0045768684
Create:Factory:85.71429:0.062392764
Element:Index:0.0015882668:9.3836326E-4
Instance:Active:0.0410514:3.495545
Event:Debug:0.022143502:1.8526634
Style:Class:0.03340385:0.00960584
access$600:Instance:100.0:0.0016098587
Copy:Data:3.724962:0.41896683
Updater:Code:1.0869565:2.5182908E-5
Element:Settings:0.03777806:4.672373
Handler:Item:0.0337588:0.079744816
Message:Model:100.0:2.4060035E-4
Listener:Instance:0.44934642:0.008854223
Type:Base:0.100754514:0.023561126
Editor:History:7.4657786E-4:3.7037036
hash:Handler:0.04127871:5.18921
action:Event:4.633327:0.055811148
hash:Storage:3.069049E-4:7.134676E-4
Enabled:List:0.06475071:0.014691618
List:size:0.25239444:0.18889016
Debug:Check:0.04781067:0.08233841
String:Model:0.6646426:0.03621035
Mode:Enabled:0.11077877:0.008301373
log4j:Text:0.0049339295:0.0038745585
Adapter:Start:0.10450538:0.15444015
core:Panel:0.010550193:0.067834936
History:Manager:96.296295:0.0024111513
layout:layout:1.5873017:1.5873017
Tree:Object:0.48949197:0.0011617653
Text:Factory:4.1513128E-4:0.015598191
Event:mouse:0.006428758:5.075188
Size:Size:30.533733:30.533733
Code:Class:0.010463498:5.3216357
Width:Width:41.442932:41.442932
Component:Types:0.008097329:0.16764459
apache:Tree:0.010388927:0.12551075
log4j:Component:0.014801787:0.17004393
Registry:Simple:0.025349826:0.048933253
hash:Value:0.0024552392:1.2998443
Code:Handler:0.081290424:10.37842
Model:size:0.013714219:0.03213952
Wrapper:Base:9.016431:0.42195833
internal:Model:8.785529:0.0081804115
Layout:Child:0.006964273:0.0062229685
Pane:Mouse:0.22269352:0.9063444
Mode:Pane:0.04431151:0.042417813
Category:Manager:6.622516:4.6368295E-4
Group:Data:1.6666667:0.005270023
Model:Handler:0.0721801:0.96453714
Copy:Text:81.52747:0.9631045
Command:log4j:4.464286:0.0017621176
Debug:impl:31.140682:0.9942667
List:Composite:0.0090409955:0.62614137
Token:Expression:0.12733491:3.920541
Event:Category:0.001666715:23.178808
Iterator:Index:77.43173:48.59884
Project:Change:0.004290925:0.042691257
profile:Type:16.143497:0.016487101
Event:Listener:0.07400215:31.740198
hash:Property:5.115082E-5:0.4875076
Editor:lexer:0.0011198669:3.9117155E-4
Abstract:Tool:0.012457955:0.010484927
property:Layout:0.93896717:0.006964273
Instance:Adapter:0.6342844:0.31673172
Label:Size:3.0498533:0.14038499
Options:Model:66.66667:2.4060035E-4
impl:apache:0.0076325485:0.006925951
Project:Action:0.25230637:0.11478815
Editor:Update:0.0022397337:0.6674082
Project:Manager:43.75456:2.3640876
Text:Change:0.026983531:1.6649591
Base:Factory:0.0012851523:0.12478553
Visible:action:1.986532:0.9329907
calc:List:0.03479202:0.0016951866
Mode:Icon:0.03323363:0.11547344
Factory:Instance:63.952583:4.950316
Editor:Target:0.07391121:1.682815
Manager:analysis:0.0013910489:0.18913126
Logger:List:0.20577787:0.02410932
Event:Count:0.008952641:0.10181425
Base:Valid:0.17081815:29.804728
Facade:Type:0.01948558:4.5797505E-4
Action:Object:0.050756667:4.3028346E-4
impl:Logger:2.646968:33.451763
Element:Instance:0.3063086:2.1733093
Names:Name:88.88889:3.798034E-4
Storage:storage:0.008204877:100.0
Manager:Types:7.418927E-4:0.67057836
register:Factory:0.11415525:0.005199397
Logger:Configuration:0.0016076396:0.2604167
Button:Action:13.235768:0.4802361
Manager:Class:5.1005126E-4:0.035221417
Change:Listener:0.17076503:0.40849677
Node:Factory:0.019354058:0.041595176
Handler:Swing:0.003215124:0.19417477
Types:Abstract:0.16764459:0.02491591
Base:Actions:0.0019277284:17.142859
Debug:Text:0.027889557:9.686396E-4
Type:lexer:1.231037:0.70097935
String:Facade:0.0441623:0.38971162
Name:Simple:0.004272788:3.5231943
core:Data:4.5541663:3.41234
Class:Code:0.16650124:3.2737778E-4
hash:Line:1.2787705E-4:0.14306152
Bounds:Item:16.146395:0.85440874
Data:Text:1.6653272:0.17490864
Listener:Event:4.044118:0.009428845
Project:execute:0.0034327398:1.0869565
Multi:Element:15.384616:1.13447626E-4
Focus:Project:8.2397:0.037760135
enter:Instance:0.74547243:1.8980235
Type:Lexer:37.04652:8.091329
fire:Event:8.092485:6.6668604E-4
List:Expression:0.027876403:0.258574
Action:Pane:0.0019521795:0.053022273
update:Change:0.22768669:0.042691257
Combo:Data:4.4692736:0.010540046
Wrapper:Next:0.0045768684:1.9497643E-4
Pane:Pressed:0.12725344:8.450704
Logger:Label:0.019291673:0.7038123
Editor:Node:0.0022397337:0.014515544
Kind:Model:100.0:0.030195344
Component:Facade:0.3117472:1.5003897
Node:Editor:0.15725172:0.02426378
Util:Visible:9.954751:7.4074073
Icon:Object:0.07698229:6.619745E-6
register:Target:0.11415525:0.008499065
Code:List:0.0011458222:0.03428044
List:Performed:7.534163E-4:1.0282776
mouse:Check:0.07518797:0.013723069
Logger:Logger:0.74594474:0.74594474
Manager:Event:0.35397556:0.36353436
Base:Combo:2.6774005E-4:2.793296
Object:Valid:3.6408597E-5:0.102774926
Model:hash:0.028691592:0.0030498675
Base:Composite:0.016546335:4.0307856
log4j:Model:0.019559506:0.0066766595
Panel:Name:1.9446015:0.0020414433
Language:Element:7.378336:0.03732427
create:Data:31.199926:17.957602
Selection:Tool:0.3579846:0.8440367
Type:Provider:0.008243551:0.109675854
Logger:Enabled:0.1221806:0.063090436
change:Next:30.769232:0.0011698586
Type:create:0.6347534:6.3452826
Clicked:List:15.384616:7.534163E-4
hash:List:1.6624016E-4:0.004897206
Project:Enabled:0.06693842:0.06475071
Event:Changed:0.0052382476:11.982571
Debug:property:0.04781067:5.633803
impl:Configuration:0.027477177:56.25
Facade:Instance:0.19485581:0.008049293
Element:Target:0.035736002:5.354411
List:Code:0.05424597:0.0018131693
Base:Change:0.0059973774:0.95628417
Root:Child:89.92095:4.247176
Wait:application:100.0:0.010246951
iterator:Event:4.6054153:1.4508992
Dependencies:Base:2.7027028:5.3548014E-5
Lexer:Adapter:0.32138452:1.2914455
Editor:List:0.24786384:0.1250671
apache:Actions:2.3086504E-4:0.952381
Instance:Action:0.45076045:0.43728817
Line:Size:10.586553:3.9955723
Event:Node:0.009857429:0.50078624
log4j:Instance:5.286353E-4:0.0012073941
Simple:Index:0.6654923:0.0022788823
Model:Listener:0.027909638:9.477124
Node:Name:0.47901297:0.0023500335
write:write:9.958507:9.958507
action:Handler:0.015813401:0.003215124
Change:Menu:0.49521858:5.3406997
Pane:Pane:0.1378579:0.1378579
Container:Instance:42.003544:4.8633833
Model:Event:0.37617865:0.29781818
Action:Enabled:0.028892254:0.06143016
Updater:Base:8.152174:0.0016064403
hash:Elements:5.115082E-5:0.38834953
List:Name:0.027122986:0.0017091152
Code:Client:3.777436E-5:21.428572
String:Base:3.0637593:0.14859574
Parser:Lexer:0.48976654:0.020405367
Drag:impl:25.80645:0.006106039
View:Types:2.9411764:0.16764459
hash:Index:0.07964183:0.41743758
Code:Event:2.6442052E-4:0.002000058
Change:Generic:0.10245901:100.0
hash:equals:0.08748069:25.209124
Minimum:Size:19.077902:0.32396534
Model:Model:30.043343:30.043343
Object:Enabled:4.6338217E-5:0.011621922
Visible:Performed:0.050505053:1.5424165
Token:Lexer:34.989635:30.83891
Line:Line:10.643777:10.643777
apache:create:0.006233356:0.123609394
Expression:First:11.473348:26.500141
Type:Editor:0.51522195:0.83990014
Tool:Listener:0.052424643:0.20424838
Object:compare:0.0060173483:48.97629
Provider:Element:1.8096514:0.033693947
Lexer:Token:23.12228:26.234394
Item:Instance:1.56072:0.33082598
Mouse:Manager:33.448425:0.03593543
Event:update:0.0064763785:6.1930785
Options:Types:33.333336:0.083822295
Target:Project:2.379738:0.24029177
register:Document:0.34246576:0.030321406
Index:Editor:0.06709297:0.7473244
Selection:action:0.47360694:0.84206367
Debug:Element:1.3108093:0.018662134
Child:Handler:0.33604032:0.086808346
Button:core:0.053803936:0.008791827
Current:Model:35.61644:0.0015639024
Registry:Helper:0.4258771:6.6719623
Enabled:Target:0.014942471:0.15298317
Enabled:User:0.004980824:0.7092198
update:Model:6.147541:0.008120262
Handler:Base:22.890879:1.5249938
Combo:application:3.9106145:0.007969851
register:Helper:45.662098:31.771246
Panel:Component:0.7461843:0.13360594
Model:Document:0.15663081:26.318983
Graphics:Editor:41.37931:0.09406881
invalidate:Manager:2.6666667:2.7820977E-4
Selection:Model:0.013341041:3.6090054E-4
Change:Element:1.5368853:0.010210287
Text:Delegate:0.124539375:0.0144608505
apache:log4j:5.516289:8.420808
apache:Icon:4.617301E-4:0.15396458
Enabled:Mode:0.01826302:0.2437133
Target:Tree:0.23797382:0.039047793
Data:Event:1.8629531:0.06733529
Name:Component:0.004700067:0.8016356
List:Target:7.534163E-4:0.03399626
Name:log4j:0.020248268:0.30061725
Iterator:Next:0.048056103:0.043869697
Helper:Instance:1.4297062:0.007244365
Adapter:Feature:1.0104867:98.93743
Focus:Pane:0.37453184:0.021208907
Long:Base:85.71429:3.2128807E-4
Action:Element:0.012493948:0.001815162
core:Label:0.11605212:3.8709679
Width:Selection:0.15191692:0.24458575
Editor:Under:0.0018664447:100.0
property:Listener:0.93896717:0.040849674
analysis:Name:99.78565:0.18786025
Size:List:0.075591914:0.005273914
Object:Name:0.001218033:0.004367739
Manager:Popup:0.0032457807:24.305555
Base:Delegate:3.810905:1.1434999
Manager:Owner:0.0027820978:3.6585364
Context:Context:44.78502:44.78502
Instance:Instance:1.6911566:1.6911566
apache:Listener:5.771626E-4:0.10212419
Style:Settings:3.429462:2.1607969
Logger:fire:0.048229184:17.34104
Node:Code:0.37740412:9.821333E-4
Base:Visible:0.0014457962:0.22727272
access$000:Target:0.75757575:0.03399626
Instance:update:8.0492935E-4:0.09107468
Grid:Component:0.83682007:0.016194658
Manager:Elements:1.3910489E-4:0.14563106
Enabled:Debug:0.016602745:0.07968445
Object:action:1.2908502E-4:0.15418068
Manager:Entered:1.3910489E-4:12.5
Name:Element:3.3665295:16.089369
action:Text:3.8584702:0.13505603
List:Element:0.51496:0.15508291
Event:access$1000:7.6192693E-4:23.529411
Base:Base:8.799599:8.799599
Action:Text:0.020302666:0.0071956087
Code:Enabled:8.184445E-4:0.10791785
Arrow:paint:95.89041:5.185185
log4j:Event:22.541008:6.0916057
Editor:Line:0.11758602:2.253219
Code:create:4.784752E-4:0.17396878
Code:Node:3.4626495E-4:0.13305914
Enabled:Node:0.0033205491:0.009677029
Font:Name:0.00806829:1.1868856E-4
internal:Name:3.4883723:6.409182E-4
hash:Reference:0.093989626:20.793842
Updater:Project:3.2608695:0.0102982195
action:Paste:0.039533507:45.454548
Object:Node:1.4563439E-4:0.10644732
From:Action:9.937888:0.012493948
action:Status:0.031626802:10.256411
Node:Base:0.42095077:0.009317354
Tree:hash:0.12551075:5.7544664E-4
Component:Layout:0.048583977:0.08357128
equals:Tree:0.42377567:0.3207497
List:Manager:0.43038902:0.105951555
Helper:Facade:1.1119937:0.13639906
apache:Changed:4.617301E-4:0.43572983
Event:iterator:1.1995586:3.8076148
Name:core:0.07418035:10.989783
Size:Font:1.8897978:0.5647803
Action:Added:7.808718E-4:7.692308
Changed:Event:35.076252:0.015333779
Text:lexer:0.8750967:0.82458955
Layout:core:3.4856188:1.7601238
Combo:Control:4.4692736:1.1544012
Text:Instance:0.006503723:0.018915841
Changed:Element:4.2483664:0.0022122287
Count:Tree:0.019496344:0.050204307
log4j:Icon:7.0484704E-4:0.15396458
Value:hash:8.286508:0.01565215
should:Model:61.79775:0.0033082545
Manager:Property:0.010942918:14.3814745
Adapter:Monitor:0.011455399:26.635513
Text:Mouse:1.3837709E-4:0.043159258
impl:Released:0.0015265098:9.022556
Project:Editor:2.6672387:1.160182
List:debug:3.7670814E-4:1.6260161
Code:Line:2.5182908E-5:0.028612304
paint:Action:0.5185185:0.0027330513
Pane:Event:0.60445386:0.0027143646
apache:User:0.004501868:4.609929
Element:Iterator:0.0015315431:0.0014416832
Root:Facade:2.964427:0.43842554
Text:Lexer:13.177927:4.7628527
Factory:Handler:1.611813:0.24917209
remove:Object:46.04492:0.0031212098
lexer:Event:5.21562E-4:1.9048173E-4
Label:Layout:13.137829:0.7799986
Paste:Editor:54.545456:0.0044794674
apache:Component:0.009696332:0.17004393
Instance:Project:0.042258795:0.090109415
Create:Data:14.285715:0.0026350114
remove:Action:0.48828125:0.003904359
find:Element:8.223673:0.1393137
size:Instance:0.038341884:0.10947039
Manager:lexer:3.2457808E-4:9.127335E-4
access$000:Instance:1.1363636:0.0024147881
Enabled:Panel:0.0033205491:0.04522329
Layout:Event:2.9911554:0.04090595
iterator:change:0.0027208047:23.076923
Node:Group:0.1354784:23.333334
size:Iterator:0.05384779:0.020397145
Command:apache:4.464286:0.0011543252
Tree:Value:0.13666727:0.33173108
Layout:Label:0.50142765:8.445748
Mode:Node:0.37664783:0.082254745
hash:create:4.6035735E-4:0.16481252
layout:Container:1.5873017:0.017379818
apache:application:0.0011543252:0.011385501
impl:List:1.470792:2.1777499
commit:Events:100.0:2.4539876
Instance:Model:0.8789829:0.13136779
write:List:0.4149378:1.8835407E-4
Allowed:Project:97.867:1.3387685
Storage:write:7.134676E-4:19.917013
Array:Storage:1.0732082:0.003745705
Priority:apache:24.926449:1.1736025
Text:Index:0.005396706:0.001307006
Layout:layout:0.08705342:7.936508
Data:Document:0.60605264:4.6492825
equals:Manager_:0.003685006:0.06932409
impl:Category:2.544183E-4:1.3245033
Node:Logger:0.0024192573:0.0016076396
Event:Item:1.9048173E-4:0.007594744
Document:Model:45.856075:0.27290094
Code:Name:0.66608787:1.2557249
Manager:Node:0.0060278783:0.31450343
Query:Object:79.83651:0.0019395853
hash:Event:1.2787705E-4:9.524086E-4
Type:Event:0.037095983:0.00771451
Text:Event:0.28339627:0.09752665
Object:Composite:3.971847E-5:0.15653534
Object:Object:0.07240346:0.07240346
Impl_:Index:4.878487:1.4015126
Tree:Target:0.008367384:0.050994392
Adapter:Path:4.348228:2.274163
register:List:43.150684:0.07119784
List:Change:0.03428044:1.5539618
Current:Facade:1.369863:0.00974279
action:Wrapper:0.063253604:0.018307474
Types:Factory:0.37720034:0.04679457
Registry:Next:0.020279862:1.9497643E-4
Bounds:Manager:1.7222819:0.0022256782
Wrapper:unlock:0.5503684:0.092541285
log4j:Factory:0.0015859059:0.04679457
Code:Property:5.0365816E-5:0.4875076
Adapter:Applicable:0.0036174941:100.0
debug:Wrapper:4.8780484:0.0068653026
handlers:Instance:6.465517:0.012073941
Type:Type:20.922132:20.922132
Priority:update:0.012258507:0.22768669
Debug:Popup:0.007968444:0.6944445
Model:Debug:0.0024661536:0.16335312
Class:Manager:0.30098298:0.00435862
List:Label:0.002448603:0.76246333
Event:log4j:15.555451:57.560455
hash:Next:5.882344E-4:0.004484458
Undo:Manager:48.431374:0.05726485
apply:Name:9.946468:0.006836461
Change:action:0.32445356:0.15022731
Abstract:Enabled:0.02491591:0.0033205491
Enabled:Change:2.350949:24.180326
Helper:Base:35.822083:0.024150154
Facade:Root:0.00974279:0.065876156
hash:Import:1.2787705E-5:6.666667
Factory:Data:0.50954086:0.12911555
Tool:Action:0.6605505:0.04919492
mouse:mouse:0.037593987:0.037593987
Listener:impl:13.480392:0.08395804
Item:Object:0.55061895:9.598631E-4
Category:Focus:1.3245033:0.37453184
Manager:access$000:0.0012055757:4.9242425
impl:Active:0.034728095:9.355723
List:Adapter:35.214676:37.573708
Visible:Settings:0.08417508:0.07015575
Target:Node:6.3233047:1.7999275
Text:Update:0.008302625:6.6740828
Base:Instance:0.029076569:0.21853833
Wrapper:Tool:0.0034326513:0.015727391
equals:List:0.029480048:0.003013665
Node:Settings:0.029031089:0.08418689
From:Added:1.242236:15.384616
create:core:0.7004532:0.53805983
Preferred:Position:0.17487612:25.0
Model:Font:0.0016842025:0.022591213
Code:View:1.6998462E-4:19.852942
calc:Manager:20.96799:0.25150165
Icon:paint:4.69592:9.037037
caret:Editor:100.0:0.01791787
Color:Line:5.156065:3.7339053
Drag:Event:9.677419:8.5716776E-4
Iterator:next:0.057026576:2.9680681
Registry:Swing:0.010139931:0.09708738
Element:apache:5.1051436E-4:0.0010388927
Model:Count:0.16757815:1.5088004
Abstract:core:0.41111252:0.11605212
impl:Scroll:0.060297135:67.329544
Storage:Object:0.0025863198:5.7591783E-4
Enabled:Factory:0.059769884:0.37435657
Select:Model:4.7058825:2.4060035E-4
update:Group:0.36429873:3.3333335
Model:Cell:8.4210123E-4:11.864407
Name:equals:0.001068197:0.16582526
hash:Class:0.0053132907:2.6608179
Registry:Border:0.055769622:4.5267487
Count:Count:48.333603:48.333603
Text:Item:0.029889451:0.4101162
Object:Check:4.9648086E-5:0.10292302
Preferred:Size:18.070534:1.673821
Abstract:log4j:0.0062289773:1.7621176E-4
List:Handler:0.0015068325:0.006430248
Impl_:apache:1.16654395E-4:1.1543252E-4
Line:Element:0.64377683:0.0051051434
log4j:Handler:1.7621176E-4:8.03781E-4
Line:calc:0.17167382:0.09277872
Name:Swing:1.4242627E-4:0.58252424
Index:String:0.01126036:0.37096328
Expression:String:0.35641283:0.22522773
Code:Children:5.2884105E-4:2.128738
Debug:create:1.2191721:0.7004532
core:Base:0.18462837:0.005622541
Border:Layout:43.209877:0.36562434
equals:remove:0.029480048:0.78125
Text:Code:0.0019372792:8.814017E-5
List:Leaf:0.0022602489:0.07550019
Change:Node:0.23907104:0.0677392
apache:configuration:1.1543252E-4:4.0
Focus:Changed:1.4981273:0.87145966
register:Composite:0.913242:0.10435691
Base:Iterator:0.1908451:0.19030216
Base:String:0.14457963:2.980955
Facade:Action:0.21434137:0.00858959
Element:Debug:0.011912:0.8366867
Type:Handler:0.0022898754:0.00803781
mouse:Component:0.45112783:0.024291988
Action:Instance:3.311287:3.4133031
Property:Event:0.06093845:4.7620433E-5
Events:Base:97.54601:0.008514133
Model:Data:0.08300712:1.8181579
Menu:Instance:29.097605:0.12717883
Value:Instance:40.403496:4.8038187
Utils:Valid:17.647058:0.056059048
Component:Model:11.842344:0.351878
log4j:Document:0.0026431764:0.15160704
debug:Element:3.2520323:2.2689525E-4
Wrapper:Model:0.28262165:0.014857071
Undo:Editor:0.2352941:0.0022397337
Delegate:Storage:75.26026:69.62214
List:List:7.9607844:7.9607844
Pane:Instance:0.2545069:0.0096591525
Handler:Property:0.012860496:0.9750152
Type:Check:0.0016029128:0.048030738
Performed:Iterator:7.197943:0.0014950788
Base:Children:0.2043392:96.70553
Listener:Manager:23.876635:0.05420454
Model:Tool:0.0012631518:0.110091746
Data:Panel:1.1752151:10.084794
Text:Manager:1.5117697:0.5065736
apache:Internal:2.3086504E-4:0.24360538
Container:Handler:0.027807709:0.006430248
Name:List:5.340985E-4:0.008475933
Event:Clicked:1.9048173E-4:15.384616
Threshold:Model:100.0:1.8045027E-4
Manager:Width:0.010201025:0.30383384
Width:calc:0.7347255:2.0565948
Component:Tree:0.5222778:0.3597975
Base:property:2.1419206E-4:1.8779343
hash:Item:8.056254E-4:0.23923445
hash:Visible:3.8363112E-5:0.050505053
Event:Text:0.0042382185:0.012315561
Name:model:0.04063896:83.59375
select:Editor:52.63158:0.0037328894
Performed:Focus:30.591259:22.284645
register:Pane:0.11415525:0.010604453
Model:Text:4.229032:9.729015
List:Enabled:0.018647052:0.08218359
Class:Instance:0.08325062:0.0104640825
Delegate:Child:0.0017513698:0.3391518
Priority:Text:0.014710209:8.3026255E-4
Selection:Handler:0.013341041:0.004822686
Change:Layout:0.017076502:0.006964273
Monitor:Event:6.542056:6.6668604E-4
Object:Editor:0.010975538:1.2378261
core:Index:0.0070334617:1.340519E-4
Singleton:Model:100.0:7.218011E-4
Handler:Type:0.001607562:4.5797505E-4
Element:Manager:0.3301326:0.2698635
Data:List:0.59287757:0.08475933
Button:Enabled:0.21521574:0.016602745
Icon:Factory:11.43187:1.5442208
Facade:Base:0.75993764:0.0041767447
Text:Icon:0.0016605251:0.46189377
Event:core:3.3334302E-4:0.012308558
Language:Model:15.2949095:0.08204471
Code:Type:5.036581E-4:0.018319003
update:Enabled:0.22768669:0.0041506863
Listeners:Event:16.806723:0.0019048172
Panel:Model:0.7461843:0.003969906
Icon:Active:0.26943803:0.23989032
Factory:Types:2.2565382:18.189438
filter:Name:100.0:33.60206
write:Storage:12.4481325:4.4591725E-4
Action:Model:0.13470037:0.02075178
Enabled:Logger:0.2424001:0.4694307
Instance:access$000:8.0492935E-4:0.37878788
List:Facade:0.006404038:0.33125487
iterator:Model:0.0036277394:0.0014436021
Model:Size:1.8045027E-4:0.008099133
Logger:Target:0.0610903:0.3229645
equals:Model:0.16951026:0.005533808
Settings:Element:1.7679248:0.014294402
Model:Component:0.066586144:2.240936
Debug:Logger:0.015936889:0.0064305584
List:Tree:1.7646892:13.06567
Model:Language:0.06063129:11.302983
paint:action:0.5185185:0.027673453
Handler:Actions:0.006430248:3.809524
change:Event:15.384616:5.7144515E-4
Manager:Save:2.7820977E-4:42.857143
mouse:action:0.15037595:0.015813401
Event:remove:0.0070002032:7.1777344
Action:Manager:12.53221:1.4883295
Enabled:Combo:0.019923296:13.407822
Event:Combo:7.6192693E-4:8.938547
Wrapper:hash:0.9016431:0.0050383555
apache:Layout:1.2920362:38.975555
Handler:Active:0.008841591:0.37697053
Editor:Token:0.0011198669:1.7023382E-4
Descriptor:Element:100.0:0.027000535
Manager:Adapter:0.009876447:0.042807013
Enabled:From:0.03652604:13.664596
Element:Object:0.0032332572:1.8866274E-4
Abstract:List:0.3488227:0.010547828
Moved:Pane:3.2608695:0.09544009
Model:make:4.812007E-4:100.0
Index:Object:0.04001449:0.0039519877
Factory:Factory:0.04679457:0.04679457
Index:Index:0.5675422:0.5675422
Listener:Listener:0.89869285:0.89869285
State:Handler:0.36539215:0.022505866
Text:Abstract:0.014114463:0.63535565
Class:Element:0.00960584:1.7017144E-4
Code:_get:0.0057228156:37.026478
Cache:hash:22.222223:1.2787705E-5
Abstract:Change:0.04983182:0.06830601
Show:With:5.6737585:100.0
Wrapper:Object:0.9016431:0.0026081796
Manager:Manager:27.217262:27.217262
Change:access$1000:0.06830601:11.764706
Code:Elements:6.295726E-5:0.4854369
Base:Active:0.026506264:16.963675
Base:Debug:2.6774005E-4:0.019921113
access$800:Instance:20.0:0.0016098587
Icon:Container:0.23094688:0.02085578
Settings:Name:1.6837379:0.0028485253
Base:Enabled:0.0018741805:0.029054806
apache:Text:0.0032321105:0.0038745585
Mouse:Pressed:0.5179111:8.450704
Type:Simple:0.08243551:3.5231943
Code:Model:6.169812E-4:0.0058947084
internal:Primary:2.1963823:100.0
Iterator:Iterator:0.9938003:0.9938003
Parent:Handler:100.0:0.057872232
Event:Abstract:0.01885769:2.4666748
List:Listener:0.0045204978:0.4901961
Object:Factory:9.532433E-4:1.4974263
equals:_get:1.1736743:25.947046
Model:Container:2.4060035E-4:0.013903854
Size:String:0.021597689:0.008832459
Event:Tree:0.016571911:0.4853083
Order:Object:30.303032:3.3098728E-5
Base:Panel:4.283841E-4:0.09044658
Element:Base:0.28503716:0.26907876
Simple:Type:2.7598355:0.06457449
Pane:Entered:0.03181336:12.5
Name:Index:0.019369973:0.054693177
core:Manager:0.22155406:0.0058424054
Show:Model:58.156025:0.009864614
compare:hash:0.32327586:7.6726225E-5
build:Manager:41.666664:2.3184148E-4
Text:Selection:0.32518616:5.225241
register:Layout:0.11415525:0.0034821364
Text:update:0.053136803:17.486338
Style:Types:0.022269236:0.083822295
Enabled:property:0.009961648:5.633803
impl:Check:0.0064876666:0.34993824
Renderer:Text:23.529411:0.0055350834
Pane:Preferred:0.44538704:1.2241329
Object:Changed:2.3169108E-5:0.7625272
hash:Node:3.5166185E-4:0.13305914
Model:Code:0.054195225:0.0056724497
List:core:0.09530716:0.8897329
Graph:Manager:100.0:0.0014374172
Selection:Action:0.035576113:0.006246974
Editor:equals:0.21090823:1.0410141
Instance:Helper:0.02897746:5.718825
Model:Enabled:0.0026466039:0.03652604
fire:Changed:1.1560693:0.21786492
Updater:Object:5.4347825:6.6197455E-5
Size:Text:0.70192486:0.03597804
Handler:Model:0.77162975:0.057744082
Child:List:1.7735461:0.107361816
Tree:Children:0.06414994:1.1657375
Handler:Changed:8.03781E-4:0.10893246
impl:Layout:0.0222616:0.6093739
Enabled:Text:0.024904119:0.0041513126
Designer:Event:16.935484:0.001000029
Event:access$900:0.0017143355:100.0
Path:Path:23.702547:23.702547
Impl_:Types:2.3330879E-4:0.083822295
Node:Element:13.886537:0.3255947
size:Next:0.061177857:0.021154942
update:action:7.513661:0.65230286
update:Logger:0.18214937:0.0064305584
Action:Button:0.16398308:4.519531
size:Code:0.3463456:0.0154686
Text:Bounds:0.018819284:4.879799
Change:Handler:0.30737704:0.028936116
Selection:Project:0.013341041:0.0051491098
Editor:Text:1.4782242:0.5479733
Model:Composite:0.07031545:15.249152
Event:fire:3.8096347E-4:4.624277
impl:Target:0.060551554:4.045555
Copy:core:0.38655266:0.05802606
Handler:Tree:0.097257495:0.16874224
Model:impl:0.073202655:0.15481353
Monitor:List:6.542056:0.002636957
Model:Focus:3.0075043E-4:0.93632954
impl:Manager:4.3103547:1.5711434
Combo:String:4.4692736:0.008832459
Size:Count:0.0485948:0.009748172
Tree:List:17.984299:2.429014
Style:Style:17.926735:17.926735
Project:Tool:0.0051491098:0.031454783
Manager:Instance:2.537505:22.02488
Panel:Swing:0.067834936:0.29126212
update:impl:2.959927:0.008268595
Manager:Change:0.0019474685:0.35860655
selection:event:25.0:1.2658228
Facade:Manager:20.04092:0.09537958
Abstract:Factory:0.02491591:0.020797588
compare:Object:39.76293:0.004885372
Core:Base:1.8292682:3.2128807E-4
Action:Current:0.007808718:27.39726
Cache:create:11.111112:0.0022890628
Wrapper:Code:0.9016431:0.004961033
Element:Renderer:5.6723813E-5:0.5882353
Next:Index:47.158752:32.423
Base:core:0.049157076:1.6141795
Base:Swing:6.4257614E-4:0.58252424
Feel:Check:6.056435:0.603815
Code:Reference:0.21902832:49.212097
Object:Item:6.950732E-4:0.39872405
Debug:Event:0.57771224:0.0069049625
Count:Designer:0.02112104:31.451612
Manager:Type:0.014095961:0.06961221
Manager:Tool:0.07010886:7.9266057
Manager:Performed:0.0018547318:10.282777
Manager:Monitor:6.9552445E-4:7.009346
String:internal:0.077284016:4.5219636
Logger:Panel:0.020899314:0.1469757
Index:Change:6.032335E-4:0.15368852
Object:List:0.023122769:1.3158416
Index:Manager:0.0020778044:0.0028748345
Code:Impl_:0.0027764153:0.05144459
Object:Instance:6.354955E-4:0.07727322
core:Code:0.05275096:1.888718E-4
Update:Editor:3.0033371:0.010078801
Size:Renderer:0.0026997111:0.5882353
Size:Event:0.035096247:6.190656E-4
Composite:Base:1.3044612:0.005354801
Reference:Owner:0.23340029:10.060976
Impl_:Model:0.019597938:0.010105214
Look:Action:0.81911266:0.0046852306
equals:fire:0.023952536:7.5144506
Instance:Selection:0.0020123234:0.011117535
Context:Type:2.5427492:1.1669204
Simple:Instance:2.9359953:0.12073941
application:Factory:0.040987805:0.18717828
Model:Change:0.006496209:0.9221312
Facade:Code:4.598597:0.002971583
Width:Model:0.12429566:0.005413508
Code:Base:3.4685361:29.501474
Selection:Lexer:26.257393:0.5906053
Layout:Layout:1.3893726:1.3893726
apache:Project:6.9259515E-4:0.0051491098
Manager:impl:1.8701261:5.1305995
Pump:iterator:100.0:0.031440407
Font:Text:9.010667:1.5453954
Class:Base:10.1982:0.17055042
String:Update:0.0022081148:0.2224694
Element:Model:0.1288765:0.136661
Width:Style:0.044194013:0.35630777
compute:post:100.0:100.0
Manager:Selection:0.021422151:1.0272602
Text:Name:0.09340454:0.008011478
Adapter:action:0.019695247:0.38742834
Element:Component:3.4034287E-4:0.012145994
Select:Debug:1.1764706:0.003984222
core:Size:6.0663605:9.314004
next:List:93.827644:6.35921
Drag:Pane:12.903225:0.2545069
Event:Composite:0.009285984:2.5436993
model:application:0.78125:0.036433607
property:Manager:30.51643:0.0030139391
Static:Model:100.0:1.8045027E-4
Menu:Added:0.18416207:7.692308
Token:lexer:22.493336:51.686275
Editor:From:0.05226045:43.47826
Change:hash:0.034153003:2.557541E-5
Expression:Expression:20.46753:20.46753
Base:Text:0.119412065:0.3085809
impl:Label:0.1404389:64.75073
Instance:Context:0.008854223:0.010977332
List:action:0.017893637:0.37556827
Name:Path:2.8272088:25.037655
Name:Standard:0.006788986:10.170696
Item:Added:0.007594744:15.384616
Mouse:Clicked:0.17263703:15.384616
Object:Iterator:3.971847E-5:6.4074807E-4
Actions:Data:3.809524:0.010540046
update:Settings:14.389799:2.2169216
find:create:0.036832415:0.025179692
Pressed:Editor:8.450704:0.0044794674
Language:Type:4.8217087:0.09846464
log4j:Element:0.12370066:0.039820116
Tool:Enabled:0.9646134:0.15274526
Storage:Base:8.621067E-4:0.0031057848
Style:Manager:16.25654:0.06769771
Base:equals:0.0049799653:0.17135276
Line:Width:33.705296:6.507568
Editor:Handler:0.033596005:0.07234029
Element:Change:0.0049916953:0.75136614
Manager:Bounds:0.0018083636:1.3993542
Panel:Instance:2.3063877:0.0821028
Impl_:log4j:1.16654395E-4:1.7621176E-4
Registry:Instance:0.3802474:0.030184852
Model:Content:6.0150087E-5:2.4390242
impl:Style:0.082431525:7.2152324
Designer:core:18.548388:0.040442403
profile:Model:83.85651:0.022496132
Facade:Text:0.32151207:0.0045664436
Editor:paint:0.06345912:12.592593
apache:Logger:0.41417187:5.7682104
Scroll:Instance:2.5568182:0.007244365
Code:core:0.0058172513:1.6247296
Import:Model:26.666668:4.812007E-4
Root:Model:2.8985507:0.0026466039
Child:Debug:1.3441613:1.7211841
Tree:Model:8.796909:0.37942675
internal:Manager:5.684755:0.00408041
Entered:Event:16.666668:1.9048173E-4
selection:Event:50.0:9.524086E-4
Object:Active:3.6408597E-5:0.37697053
Base:Property:2.1419206E-4:0.2437538
Settings:Text:1.1786165:0.023247352
Manager:log4j:0.0019474685:0.0074008936
Panel:Actions:0.033917468:1.4285715
Handler:Target:8.03781E-4:0.008499065
apache:Popup:4.617301E-4:1.388889
Manager:Internal:0.008902713:23.386114
Handler:Editor:0.13825034:0.0642057
Name:Text:0.07655412:0.8925322
Select:List:2.3529413:3.7670814E-4
process:Editor:55.90062:0.033596005
Monitor:Next:0.46728972:4.8744107E-5
apache:Support:3.4629757E-4:10.0
Debug:Started:0.04781067:14.634146
Object:Line:6.619745E-6:0.014306152
core:Type:5.2610292:0.6851307
Instance:analysis:0.0016098587:0.0252175
count:Editor:2.857143:0.0011198669
Next:Storage:0.021447407:0.0065401196
Elements:Swing:0.09708738:0.09708738
Editor:Change:0.0041061784:0.09392077
Pressed:Logger:5.633803:0.012861117
should:Text:11.235955:0.0013837708
Manager:core:0.015301539:0.5802606
Project:Selection:0.01544733:0.040023126
Editor:Project:0.17619237:0.4050633
Adapter:Expression:0.47791117:4.1546555
Style:Instance:0.04453847:0.0016098587
Logger:Started:0.020899314:15.853659
enter:iterator:95.73724:91.54782
internal:Action:0.7751938:0.0046852306
Icon:Layout:0.15396458:0.013928546
String:Child:0.24289262:0.6845266
Visible:Model:0.26936024:0.0019248028
Text:Font:0.17103407:0.99724066
Factory:Feel:0.18717828:2.4776325
check:Model:100.0:0.0040902058
List:True:0.15313186:67.9198
log4j:Tree:0.015859058:0.12551075
Show:Base:0.3546099:5.3548014E-5
Leaf:Leaf:3.7624261:3.7624261
Button:Tool:15.3664055:7.4862385
Settings:Type:0.21046723:0.0068696258
Panel:create:0.04522329:0.009156251
Tree:Component:0.6861255:0.99597156
log4j:Wrapper:3.5242352E-4:0.0022884342
Base:Object:0.101205744:0.006255659
Object:Tree:0.0017112041:0.7209896
mouse:Pane:3.3082705:0.9331919
Object:remove:3.508465E-4:5.1757812
log4j:Combo:3.5242352E-4:1.1173184
Type:Factory:0.11266187:2.558103
Selection:Manager:13.385512:0.27913713
action:List:0.86183035:0.041061185
Project:Event:0.021454623:0.0011905107
size:Storage:0.016915536:0.001783669
Instance:Simple:0.0945792:2.2998629
Tree:Cell:0.092041224:55.932205
Settings:Settings:28.763855:28.763855
core:iterator:0.0052750963:4.5346742E-4
Save:Manager:57.14286:3.7094636E-4
Instance:Document:0.0016098587:0.04042854
Event:Element:0.022286361:0.026546745
remove:Update:0.24414062:0.55617356
apply:Simple:8.806768:4.991192
Menu:Manager:64.82504:0.03264328
Name:Event:0.0014954759:0.0060001747
String:Attribute:0.038642008:100.0
Node:Provider:0.95802593:1.2064344
action:Iterator:0.051393557:6.941437E-4
Handler:Event:7.586085:0.4494416
Base:Type:0.022918548:0.09800666
log4j:Support:5.286353E-4:10.0
Multiple:Event:72.72727:3.8096347E-4
Size:Object:0.0026997111:3.3098725E-6
Element:Language:0.18809617:37.183224
Size:Label:0.16198267:3.5190616
Size:Preferred:1.2094706:13.057418
Name:Target:1.4242627E-4:0.101988785
Action:clear:0.0019521795:1.7605635
Logger:log4j:5.7039046:0.6251994
Instance:log4j:0.028172528:0.012334824
Exited:mouse:100.0:0.037593987
Code:Debug:7.8696583E-4:0.49802783
Event:apache:15.555451:37.70661
Pane:Moved:2.386002:81.521736
Read:Handler:4.0:0.03295502
Base:Editor:0.017028267:0.11870588
apache:Configuration:1.1543252E-4:0.2604167
Project:Model:0.12443682:0.008721762
clear:Manager:16.901407:0.0022256782
core:core:18.99738:18.99738
Modal:Action:10.989011:0.031234872
Adapter:List:15.063849:14.11808
Event:Type:0.0019048172:0.009159502
Handler:Text:0.007234029:0.0012453938
Type:Adapter:0.2514283:0.22066715
Change:impl:10.587432:0.15773934
Dispatch:Performed:26.754385:31.362469
Time:Call:8.944282:100.0
Enabled:Configuration:0.011621922:3.6458333
Element:Provider:1.364775:73.30002
Handler:select:0.004822686:31.578945
Start:First:0.030888032:0.41967636
execute:Manager:17.391304:0.002967571
Standard:Name:80.65434:0.053837128
Logger:force:0.0016076396:100.0
Event:Document:0.0140004065:2.971498
Name:Editor:0.010515806:0.33073398
Mode:Editor:1.5730586:0.05300703
Node:Style:0.120962866:0.5567309
Bounds:Icon:3.4445639:3.6951501
Handler:Iterator:0.014468058:9.611221E-4
core:Event:0.03868404:0.0010476495
Changed:Changed:0.43572983:0.43572983
apache:Instance:3.4629757E-4:0.0012073941
Width:Bounds:0.82587564:21.456762
Size:Combo:0.064793065:13.407822
equals:Text:0.025795039:0.0019372792
execute:Enabled:0.54347825:0.0016602746
Index:Base:0.13204113:0.21097916
Registry:Iterator:0.020279862:2.135827E-4
Change:Logger:1.2807376:0.24114594
Pane:Designer:0.21208909:16.129032
event:Instance:3.7974682:0.012073941
Change:Base:0.85382515:0.005354801
Line:find:10.293276:4.8183494
create:Look:2.2455707:66.962456
Tree:Leaf:20.413628:92.09765
String:Tree:0.03974607:0.050204307
Layout:Target:1.0028553:2.4477308
compare:Code:0.5926724:1.3850599E-4
Change:Object:0.034153003:1.323949E-5
equals:Object:12.374249:0.022229103
Debug:Registry:3.1794093:4.0458326
internal:Adapter:32.945736:0.10249567
Text:Facade:0.010378282:0.73070925
Editor:Manager:28.967968:3.5982723
Undo:Project:11.294118:0.24715728
Selection:Selection:0.066705205:0.066705205
apply:Index:77.36142:0.15013812
Editor:Layout:7.4657786E-4:0.006964273
Control:Model:9.81241:0.0040902058
Instance:Item:0.13039856:0.6151743
Manager:process:0.003292149:44.09938
Font:Settings:0.14845653:1.2908657
model:Manager:15.625:0.02967571
Base:remove:4.283841E-4:0.390625
Manager:apache:0.0020865733:0.0051944633
create:Types:0.20601566:3.7720032
Enabled:Popup:0.013282197:5.555556
Provider:Facade:0.26809654:0.8573655
Model:Width:0.0709771:1.6296542
Style:Element:0.0668077:3.4034287E-4
core:Swing:2.1487224:59.32039
Impl_:Wrapper:1.0288918:10.091994
hash:View:1.0869549E-4:12.5
Category:helpers:9.271523:0.08172796
Tree:Manager:0.83394927:0.027728241
Index:Code:1.2752022:0.2395587
Project:Target:0.08753486:0.8669047
Object:Model:3.3098724E-4:0.006015009
Actions:Debug:3.809524:0.031873778
Target:Element:21.315655:0.14226332
Object:Element:6.619745E-4:0.0113447625
Mode:impl:31.405783:0.36063793
Index:Wrapper:0.03776912:1.2895327
Lexer:Text:9.12225:25.239567
Swing:Model:0.7281554:9.022513E-4
Enabled:Name:0.0033205491:4.7475423E-5
equals:Element:0.007370012:2.2689525E-4
Element:Core:0.007827886:42.07317
Provider:Model:2.3884962:0.047157668
Manager:Name:0.23555094:0.06029379
Name:Factory:2.3737711E-4:0.10398794
Editor:Model:3.451803:0.5562079
insert:Instance:100.0:4.0246468E-4
Mode:Width:0.022155754:0.0027621258
Popup:Enabled:4.166667:0.009961648
Dependencies:Dependency:97.2973:92.30769
Target:Editor:0.6629271:0.029116537
Analysis:Type:1.908397:0.046942443
Option:Name:100.0:2.3737712E-5
Debug:Impl_:0.039842226:0.001166544
hash:Composite:0.0052429587:10.696583
Storage:Abstract:0.016231386:6.8020434
Action:Data:0.2690103:0.9077614
Data:create:23.841583:41.422882
Pressed:impl:11.267606:0.0020353463
