Instance:apache:0.06815239:1.7301037
Separator:Data:100.0:2.7876525
internal:Pane:1.6666667:0.013462573
Monitor:Update:9.813085:5.426357
create:Facade:0.012669453:0.025040692
Clicked:Editor:38.46154:0.0037328894
Type:Types:0.7402111:27.286821
apache:Model:1.3346515:0.0067841583
Facade:Element:0.5508952:0.002525902
Debug:fire:0.37950665:10.404624
String:Name:0.124197885:0.0080562215
Tree:Tree:2.7099435:2.7099435
Undo:Instance:7.2156863:0.17914343
Object:equals:0.2567938:7.996702
String:log4j:0.2649555:2.9051294
log4j:Name:0.54471177:0.0032224886
List:Node:9.08328:17.268888
Handler:Factory:0.052603893:0.1671542
Index:Component:0.002599578:0.030967971
String:core:0.0041399295:0.0017850449
next:next:14.45295:14.45295
Text:Settings:0.07359914:2.190396
Element:Node:0.18255383:7.80598
Name:create:0.2948577:6.9555306
Color:Width:0.019755038:0.0027651808
First:Expression:47.058823:21.621622
Layout:Changed:0.037993923:0.21786492
Structure:Child:100.0:0.009549274
Base:Element:10.013928:1.0235643
Registry:Graphics:0.52984816:2.4630542
Manager:Added:8.3534926E-4:46.153847
Types:Base:0.9302325:0.003369802
Base:Child:0.10783366:0.61115354
Event:Code:0.024404583:0.021603787
Layout:Priority:0.018996961:0.5050505
Object:Index:36.66327:5.143079
Pane:mouse:11.308562:32.345016
Manager:mouse:3.4806217E-4:0.19252984
Item:List:0.12095556:0.02065849
mouse:Mouse:9.241433:12.958963
Node:Node:0.6873189:0.6873189
Released:Event:28.57143:0.04215337
log4j:Repository:0.045392647:5.555556
change:Iterator:30.769232:0.0050610276
Read:Object:4.0:0.05427085
mouse:Event:10.473623:0.3017294
Element:String:0.054766145:3.9494927
Index:Next:0.80624044:20.329618
Child:Leaf:0.09549274:0.18875048
Code:Change:0.23076771:3.3229637
access$800:Base:80.0:0.008986139
Manager:Logger:0.019839542:1.0778714
Editor:Active:7.4657786E-4:0.1490313
Listener:Element:0.1370176:3.4444119E-4
Object:Event:0.02117887:0.017748788
Model:Element:4.328293:1.9777812
Actions:action:6.3725495:0.1524569
Code:Index:3.5057054:0.66289234
Designer:Base:16.935484:0.011794307
Cell:Text:3.3898306:9.435787E-4
Instance:Copy:0.0097360555:0.7593014
String:Action:0.033119436:0.005730536
create:Type:9.001647:5.9763637
fire:Count:2.3121386:0.0021681392
access$000:Manager:91.8288:0.032857068
Panel:Panel:11.106175:11.106175
Debug:Factory:0.37950665:0.37609696
Tool:Manager:78.16061:1.0027671
Model:Manager:21.55038:11.9409685
Repository:Object:77.77778:0.01853151
Point:Model:100.0:5.0253025E-4
Action:Handler:0.030801632:0.28274593
Icon:Item:59.886517:10.371939
log4j:helpers:0.72628236:34.782608
List:Container:0.02065849:0.7823961
Debug:Manager:8.581067:0.02833226
Read:Base:92.0:0.5296206
Layout:Panel:0.15197569:0.3553976
Line:Style:0.014306152:0.022269236
Factory:Type:30.296698:6.0983305
Types:Type:18.75969:0.50889516
Manager:Tree:0.034527767:0.69572043
Selection:Changed:0.0022761414:0.10893246
Allowed:Manager:2.1329987:0.0023668227
Actions:Editor:46.07843:0.03508916
Instance:Style:1.18001:13.495156
String:Line:0.008279859:0.014306152
Wrapper:Index:0.06557377:0.0020425254
Text:Group:0.0018871574:3.508772
register:Event:5.479452:0.053246364
Base:Client:0.001684901:10.714286
Model:Type:0.8247778:27.610716
Pane:Listener:0.040387724:0.0685088
Update:Monitor:10.077519:18.224298
core:Model:0.67831707:0.047740374
Impl_:Debug:0.0026927323:0.042167407
Element:Name:3.218114:15.053856
Data:Name:0.8311808:0.087275736
Editor:undo:0.0022397337:2.4193547
Changed:Selection:1.0893246:0.022761414
Object:Project:0.051623497:0.04494175
Model:core:0.11909966:1.6922226
Visible:Manager:2.43234:0.019769931
Settings:Font:4.4931197:0.5338138
Event:Owner:0.004437197:0.2773925
Lexer:Editor:0.17644094:0.007839068
Performed:Index:12.080537:0.0033423142
Event:Project:1.3954985:1.4496595
internal:Project:5.0:0.0034570578
Index:hash:0.62185615:9.322199
Abstract:Object:1.9734734:0.4076932
Pane:Component:0.08077545:0.013271987
Abstract:Event:0.62792337:0.10871133
Text:Enabled:0.004246104:0.01921086
Enabled:Component:0.30737376:0.6370554
Document:Update:0.36385688:9.302325
action:Pane:0.07036473:0.08077545
Iterator:Event:0.14170878:0.7454491
Check:Manager:92.65816:0.94004625
application:Helper:0.041129224:2.9292107
Storage:String:4.3419266:0.529911
Type:Layout:0.04205745:0.18996961
Model:Show:7.537953E-4:2.1276596
Enabled:Listener:0.0021345401:0.04567253
Container:layout:5.1344743:42.168674
undo:Manager:70.564514:0.012182176
Mode:Logger:0.99667776:0.056730077
Feature:Handler:100.0:0.35507628
Grid:core:47.07113:0.8032702
Node:List:2.2804263:1.1994835
Line:Panel:0.014306152:0.0888494
wrap:Base:100.0:0.11064183
Tree:Text:4.460466:0.7501451
Data:core:3.8566787:2.6918476
Editor:Action:0.18925749:0.3631727
Visible:Panel:0.03425831:0.1776988
impl:Debug:0.11652035:13.662238
Base:Check:0.18533912:2.2643063
Base:Item:0.29598096:3.9839733
Model:should:2.5126513E-4:2.247191
remove:Logger:0.30318344:0.02269203
Component:Text:0.15483986:0.016512627
hash:Object:20.041754:9.530491
Text:Action:0.16748522:0.50858504
Manager:Data:0.39665163:14.572517
Event:Iterator:0.3239154:0.061575837
Manager:Target:0.035084665:4.293015
Manager:Swing:0.0016010859:1.1165049
Preferred:Layout:3.6389582:1.93769
Model:Base:7.2452297:32.389416
Value:Handler:1.2387097:0.6312467
Registry:List:1.5895443:0.058102004
Listener:Line:0.022836264:0.007153076
paint:Icon:5.8122206:3.4046266
Selection:impl:0.82851547:0.06545279
Manager:Changed:6.9612433E-4:1.0893246
Instance:core:0.10125497:0.18564467
focus:Focus:100.0:3.4883723
compare:Base:3.9360392:0.07188911
Item:paint:1.4741457:14.530552
Change:Change:1.7109729:1.7109729
impl:Boolean:0.0053944606:100.0
Code:Value:0.37708426:4.9548388
Child:Child:33.92857:33.92857
Renderer:Tree:18.82353:0.044885192
Abstract:Type:0.43570194:0.28599066
mouse:List:0.23103583:0.007746933
impl:Started:0.008091692:54.87805
paint:Arrow:0.22354694:4.109589
Wrapper:Factory:0.10730253:0.37609696
Internal:Manager:76.12668:0.04350777
application:Model:94.404144:10.381145
Text:Multi:4.7178936E-4:15.384616
Generate:Manager:100.0:5.5689947E-4
Node:Language:0.009818843:0.044853106
mouse:Manager:1.6172506:0.0029237221
register:Manager:1.2557077:7.657368E-4
apache:Combo:0.049431536:6.4516125
Manager:update:0.048171803:33.078392
Model:Facade:0.00489967:0.4882935
Reference:Child:5.220713:3.523682
mouse:Editor:8.317289:0.08063041
Menu:Pane:0.18416207:0.026925147
Instance:Editor:0.21808764:0.08361672
Enabled:Template:0.0021345401:8.695652
Group:Item:1.3157895:0.022679165
Editor:Changed:3.7328893E-4:0.10893246
Multi:push:7.692308:100.0
core:Loader:0.010710269:100.0
Registry:log4j:1.0243729:1.3163867
Node:Instance:0.53021747:0.2102988
Enabled:apache:0.017076321:0.3954523
Event:Panel:0.11092992:4.44247
Utils:Base:35.294117:0.006739604
Font:Font:44.72025:44.72025
Layout:Preferred:8.643617:16.232609
register:Next:0.2283105:0.009364173
Command:Model:0.8928572:2.5126513E-4
Data:Model:1.3580215:0.06671089
hash:Instance:2.5469728:0.89084905
log4j:Node:0.72628236:0.03927537
Element:Text:2.2523007:9.255092
Reference:Model:0.35842294:0.009548075
Listener:Factory:0.4567253:0.4178855
List:Pane:0.010329245:0.10770059
List:Instance:1.0303422:0.77693725
Event:Action:0.8097884:0.5229114
Type:core:11.9359045:5.0659575
find:Factory:0.040180814:0.2507313
Width:Line:0.085720606:0.44349068
log4j:Target:2.3604176:0.44293016
Action:Factory:0.05515641:1.6088592
Composite:List:2.0645163:0.04131698
Facade:Change:0.025040692:0.028280545
Debug:Manager_:0.042167407:0.58997047
Node:Change:0.019637685:0.11312218
Text:remove:7.07684E-4:0.15159172
Object:Lost:0.0026473587:100.0
Model:Wrapper:0.00979934:0.46497765
Enabled:Enabled:0.24547212:0.24547212
action:clear:0.023454908:3.4482758
Preferred:Component:47.805923:2.9640772
Project:Listener:0.0011523525:0.022836264
update:Pane:0.04780115:0.013462573
create:Manager:9.50209:0.10441865
Text:Active:2.3589468E-4:0.07451565
action:Next:0.1524569:0.060867123
apache:Label:0.19772615:0.616808
Long:Valid:14.285715:0.088261254
Performed:Event:2.0134227:0.0033278977
Swing:Panel:0.09708738:0.0888494
Node:Text:9.318081:0.8954562
Panel:Tool:1.5992893:0.19533369
Event:events:0.079869546:81.818184
Updater:hash:3.125:0.011134308
Visible:Width:19.321686:3.119124
Active:Icon:1.2667661:0.7420341
List:Index:0.07230471:0.010398312
impl:Select:0.002877046:18.82353
Content:Height:12.195122:15.151516
Instance:Element:0.09151892:0.005396245
Panel:Action:0.0888494:0.001432634
Registry:Pane:0.21193925:0.08077545
Reference:Element:93.642715:1.1398706
Node:Child:0.24301636:0.31512606
Manager:Index:0.014897061:0.0397364
Base:Target:0.049423765:0.74957407
Event:Instance:0.36606875:0.32128984
hash:Client:0.016701462:21.428572
Model:application:0.56421584:5.130871
core:Instance:4.2305565:2.3074453
Class:hash:0.017113764:0.011134308
impl:Enabled:2.205975:13.093269
Manager:Mouse:0.022554427:17.4946
register:core:1.4840183:0.023205584
Action:List:0.23781724:0.42866367
Facade:List:0.4882935:0.05035507
Base:log4j:0.0028081683:0.22696324
Status:Instance:28.20513:0.021419322
Event:Target:0.1508647:1.1584327
hash:Type:0.07794015:0.11776086
Swing:Factory:0.7281554:0.31341413
List:Item:0.0697224:0.408225
Iterator:Impl_:0.97488046:6.224251
Instance:Tree:0.0038944222:0.005610649
Icon:Model:0.52378875:0.0015075906
Action:Action:20.11418:20.11418
Icon:List:0.69838494:0.02065849
core:Storage:0.0017850449:0.0339213
impl:Changed:0.020858582:12.636166
paint:Width:3.5022357:0.06498175
Project:Undo:0.2212517:7.5294113
Selection:Name:0.2367187:0.027928237
Selections:Instance:100.0:0.0097360555
Logger:apache:1.6792104:10.973802
Iterator:Model:0.0044283993:0.0026382837
Event:Released:0.0155301895:10.526316
Base:apache:0.0028081683:0.12357885
Show:equals:2.1276596:0.2473207
Editor:Valid:0.34491897:81.5534
Text:Tool:0.005897367:0.1356484
Editor:Copy:0.3516382:71.52619
Base:Tree:2.254959:5.631689
Element:Combo:5.740686E-5:3.2258062
log4j:Change:0.45392647:0.14140272
Composite:Handler:0.12903227:0.013150973
Registry:Event:11.868598:0.37272456
calc:Model:96.38818:2.4843838
Dispatch:action:93.11926:2.3806732
Model:Editor:0.02110627:0.06271254
impl:configuration:0.0043155686:96.0
hash:Element:5.7870564:0.11934887
String:Event:0.06623887:0.017748788
hash:Iterator:0.25608906:0.019400606
Name:Base:0.12621415:0.26396784
Dock:Container:100.0:19.070904
Manager:Active:0.016985433:18.181818
Property:Type:0.73126143:0.05046894
Order:Manager:3.030303:6.961243E-5
Line:Settings:2.5178828:2.471216
Name:Code:0.044577762:0.16301039
Action:Focus:0.03724848:30.232557
hash:Base:24.843424:5.012581
Debug:Document:0.31625554:0.15160704
Font:List:0.01668168:0.025823113
Target:Instance:3.475298:0.39723104
View:Model:64.70589:0.011055665
Name:Settings:0.05478231:1.432182
Editor:count:0.03583574:91.42857
String:apache:0.2649555:1.5818092
Model:Instance:0.17186534:1.3318924
Model:Tree:0.0067841583:0.07574376
Model:execute:5.0253025E-4:2.1276596
Action:Property:0.0759296:6.459476
List:hash:0.030987732:0.06680585
Facade:Project:0.050081383:0.00460941
Instance:Command:0.1947211:89.28571
Popup:impl:15.277778:0.007911876
Logger:impl:46.7002:2.2203603
Manager:Look:0.015593185:15.763547
Model:Root:0.002261386:1.1857708
next:Iterator:1.2156686:0.005693656
property:Action:2.0725389:0.002865268
Element:Handler:0.08059923:9.231983
execute:Project:2.1276596:0.00460941
log4j:Changed:0.13617794:0.3267974
Valid:Base:17.828773:0.113450006
Tree:Instance:0.014026623:0.0097360555
Dispatch:Menu:1.8348624:0.36832413
lookup:Factory:100.0:0.18804848
Helper:State:0.4068348:0.100948915
Line:List:0.30042917:0.054228533
Line:Editor:4.821173:0.25159675
Object:Storage:0.56388736:14.450476
Logger:Scroll:0.015128021:0.5681818
Font:Model:0.35031527:0.052765675
Manager:Icon:0.020744504:13.007421
Registry:Element:2.3313317:0.003788853
Contents:Element:100.0:1.1481372E-4
Class:Handler:0.042784408:0.06575487
Editor:Check:3.7328893E-4:0.0068615344
State:Model:53.05875:0.33016238
Node:Leaf:0.04418479:0.11325028
Manager:Containing:0.006961243:68.02721
Abstract:Base:82.32204:7.2158694
True:List:34.501347:0.4958037
Element:impl:0.7053581:2.2093914
Label:Event:0.154202:0.0022185985
Element:Wrapper:0.0012055441:0.12518628
Element:Enabled:5.7406863E-4:0.010672701
graph:Manager:100.0:0.0020187604
Modal:Manager:20.32967:0.0103026405
Layout:Count:0.13297872:0.0037942436
Value:Code:31.845161:2.423552
hash:Tree:0.55114824:0.27772713
Base:compare:0.0044930694:0.24600245
Provider:Factory:0.02437241:0.1671542
Swing:core:34.951458:1.2852323
Width:List:0.022121446:0.02065849
Item:Item:26.307833:26.307833
Manager:Document:0.06835941:9.925207
Registry:Action:0.4238785:0.008595804
Model:remove:0.04020242:16.169783
Extension:Model:100.0:5.0253025E-4
impl:Size:0.11040664:1.9280891
Editor:Object:0.050767295:0.18002038
Manager:undo:0.002436435:14.112904
Panel:Event:1.7325633:0.04326267
Base:Index:0.043245792:0.014297677
Base:select:0.001684901:15.789473
Layout:List:0.018996961:0.0012911556
hash:core:0.9185804:0.58906484
Rendering:Text:100.0:0.0018871574
Count:Model:1.4878855:0.34486136
Position:Preferred:50.0:0.42811275
Item:Selection:0.07559722:0.022761414
hash:Name:0.022268616:0.0021483258
Active:Editor:37.555885:0.18813762
Property:create:61.974407:6.442417
Enabled:Started:0.012807241:14.634146
Element:log4j:4.592549E-4:0.36314118
Selection:Node:0.27313697:0.29456526
Editor:Instance:0.7290333:1.9014517
Index:Array:0.015040414:6.122449
Composite:Change:2.2580645:0.49490952
Enabled:Manager_:0.0021345401:0.58997047
String:Enabled:0.2235562:0.05763258
Manager:Action:2.9038825:29.881165
Target:Layout:0.5621806:1.2537993
Debug:Change:0.25300443:0.16968326
Instance:Undo:0.0525747:2.117647
Priority:Line:3.5353534:0.050071526
Factory:Name:10.530715:0.13534452
Debug:Name:0.08433481:0.0010741629
Facade:Settings:1.4774008:0.82841897
Storage:hash:0.5427408:0.04453723
Instance:Name:0.0077888444:0.0021483258
Monitor:Iterator:0.46728972:2.1087614E-4
Code:Updater:0.0039279615:3.125
Pane:Manager:49.79806:0.2574964
String:List:0.3229145:0.10071014
Pane:Size:0.48465267:0.11304758
apache:Enabled:0.29658923:0.012807241
Instance:Target:0.2803984:2.4531515
Instance:Enabled:0.0038944222:0.0042690802
Priority:Root:4.5454545:0.5928854
Name:Container:0.0010741629:0.19559902
create:Object:0.27872798:0.05824189
Look:Simple:5.6298385:8.791209
Change:Model:8.059955:0.071610555
Facade:core:2.8922:0.41234535
Index:Iterator:0.9261924:1.0518502
Event:Pressed:0.024404583:15.492958
Text:Show:0.008492208:12.765958
Container:Container:25.916872:25.916872
core:Wrapper:0.026775673:0.08941878
Check:core:0.06861534:0.01785045
Core:Object:3.8961039:0.011913114
Code:Tree:0.45957145:0.6564459
fire:Change:10.404624:0.2545249
Handler:Change:0.72330356:1.5554298
Text:Model:8.614874:4.588101
Type:Model:0.6560962:0.01959868
Factory:Facade:0.020894274:0.012520346
Update:Document:5.684755:0.22235699
Layout:Node:0.037993923:0.0049094213
Types:Types:6.5116277:6.5116277
Class:Target:0.05134129:0.10221466
impl:mouse:0.043155685:9.241433
Name:Name:0.21912923:0.21912923
Data:Component:42.535995:36.789948
Action:Selection:0.0071631703:0.022761414
Text:Handler:0.006605051:0.18411362
Action:Status:0.002865268:5.1282053
List:remove:0.009038089:0.353714
Next:Impl_:30.677029:8.821391
Action:Selected:0.1303697:53.687317
Settings:Style:2.52738:4.0084624
Preferred:List:0.10702819:0.0038734665
Core:Model:1.7316017:5.0253025E-4
Manager:Simple:0.010859539:17.142859
Constructor:Model:100.0:7.537953E-4
Code:Item:0.0913251:0.70305413
Name:Font:0.0053708144:0.01668168
Element:size:4.592549E-4:0.28510335
update:Monitor:1.8642448:18.224298
Manager:Pane:0.0800543:15.48196
Manager:action:0.42846453:72.18248
Object:Order:0.007942076:18.181818
Name:Owner:0.1015084:26.213593
find:Model:25.856356:0.9701346
Node:Composite:1.4875546:39.096775
Text:Element:36.23531:8.818153
Changed:Change:3.7037036:0.48076925
Element:Factory:0.0028703432:1.0447137
Base:Handler:4.0297217:47.179115
Object:Text:0.29782784:0.0530763
Mouse:Editor:32.073437:0.22173363
Types:Editor:0.46511626:0.0011198669
Node:remove:0.19637685:4.0424457
Moved:Mouse:7.6086955:1.1339092
List:Data:0.348612:0.69051945
Layout:Component:0.45592704:0.05308795
Change:Container:0.0141402725:0.048899755
Action:execute:0.020056875:14.893617
Code:Element:2.1122613:0.12348216
Action:handlers:0.002865268:5.4054055
Property:impl:13.528337:0.03991901
State:State:6.5818696:6.5818696
Logger:Active:0.0075640106:0.1490313
Handler:Debug:0.032877434:0.10541851
Object:access$400:0.003971038:42.857143
Iterator:Storage:0.0415426:6.6824965
Instance:Bounds:0.4205976:15.500538
Changed:event:16.122004:36.633663
Entered:Editor:29.166666:0.0026130225
Enabled:Group:0.042690802:17.54386
clear:Instance:5.172414:0.0029208167
Text:Listener:4.7178936E-4:0.04567253
Element:Owner:0.014696157:17.75312
Code:equals:0.3633364:15.251443
impl:impl:38.30355:38.30355
hash:_get:0.09185804:50.0
Enabled:fire:0.03842172:20.809248
Layout:Container:0.47492403:1.2224939
find:Pane:0.92415875:3.7156706
debug:Tree:4.8780484:0.008415974
Editor:Support:0.008958935:80.0
Manager:Text:1.1431754:3.8738623
Border:Size:17.910448:0.11304758
Manager:Facade:0.13400394:24.101665
Enabled:Event:0.27749023:0.2884178
core:create:0.06961675:0.24705437
impl:Panel:0.028231012:6.9746776
Selection:Type:0.018209131:0.03364596
Helper:List:1.4646053:0.023240801
Size:Line:0.012560843:0.028612304
Event:Model:2.2252543:0.25201893
Editor:Added:7.4657786E-4:7.692308
Action:equals:0.015042657:0.8656224
Margin:Facade:33.333336:0.5258545
Listener:Index:0.09134506:7.427365E-4
Manager:Child:0.0026452725:0.12095748
Released:Pane:9.022556:0.1615509
Command:execute:0.8928572:1.0638298
create:Model:1.2542759:0.024875248
hash:Factory:0.11134307:0.835771
Editor:Lexer:0.02426378:0.5461267
Wrapper:Array:0.21460506:2.7210884
Select:Element:16.470589:8.036961E-4
Property:Swing:0.54844606:0.4368932
apache:Debug:0.09886307:0.08433481
Performed:Next:18.791946:0.13109842
Lexer:Event:0.058813643:0.0077650947
Element:Query:0.008496216:100.0
hash:Change:0.13917884:0.7070136
Code:Import:0.0019639807:6.666667
Base:Utils:0.006739604:35.294117
Item:Tree:0.16631387:0.03085857
Handler:List:0.09205681:0.018076178
Facade:Model:0.7261801:0.0072866883
Token:Manager:1.923077:6.961243E-5
Logger:Debug:0.15128021:0.8433481
Manager:Model:2.068603:3.733297
Editor:Mouse:0.02127747:3.0777538
apache:Composite:0.024715768:0.064516135
Token:Editor:80.769226:0.015678136
Group:Group:7.017544:7.017544
Model:Item:0.0052765673:0.3175083
Name:Provider:0.118695:1.3465756
Owner:impl:2.4271843:0.0062935376
Code:Visible:0.0058919415:0.051387463
hash:size:0.050104387:0.64148253
Impl_:Iterator:0.021541858:0.0033740182
Abstract:Debug:0.012814763:0.042167407
Object:Base:0.1085417:0.04605396
Instance:Data:0.010709661:0.028132271
Base:Node:0.0516703:0.22583339
Code:Swing:0.007855923:0.38834953
apache:impl:9.98517:0.07264541
Tool:action:0.010851872:0.023454908
execute:Name:2.1276596:0.0010741629
String:Handler:0.3229145:0.51288795
Enabled:should:0.0064036204:6.741573
create:Feel:6.2143674:69.62385
Size:Layout:0.7065474:4.2743163
event:Action:53.465347:0.15472448
Class:Object:0.30804774:0.095304914
Model:Provider:0.014070846:0.34121376
Listeners:Base:83.193275:0.11120347
size:Array:2.245189:4.7619047
Bounds:Font:1.0046645:0.023354353
Manager:Modal:0.034806218:68.68132
Manager:Path:0.0051513202:100.0
Size:Cell:0.0031402106:0.84745765
Template:Instance:91.30435:0.020445716
Selection:Element:0.061455816:0.0015499853
Enabled:Instance:0.2988356:0.27260956
Component:core:0.121659875:0.09817746
Layout:Manager:1.6527355:0.0060562817
Name:Check:8.0562214E-4:0.020584602
Registry:Container:0.17661604:0.24449879
Size:Component:0.24493642:0.17253584
String:Editor:0.07451873:0.0067192004
Tree:Base:4.569874:1.8298026
count:impl:3.809524:7.192615E-4
should:Manager:2.247191:1.3922487E-4
Code:Editor:1.0684054:0.40613836
Language:Node:0.112132765:0.024547106
Manager:Undo:0.02805381:15.803921
log4j:Manager:4.085338:0.006265119
Width:paint:0.019356266:1.0432191
Next:Event:3.1182694:0.7387933
Storage:Storage:2.137042:2.137042
Event:List:1.0871133:1.2653325
Base:Elements:0.7104666:98.21429
Context:Editor:2.9411764:0.0022397337
layout:Layout:4.819277:0.22796352
Element:List:9.185098E-4:0.02065849
Project:debug:0.12099701:85.36585
Update:application:6.2015505:0.027419483
Panel:Data:0.6219458:0.03580471
Instance:Facade:2.1380377:27.494678
List:Wrapper:0.056810845:0.26229507
Manager:Panel:0.022554427:14.393602
Action:Editor:0.1267881:0.06607214
Base:Layout:0.02134208:0.7218845
Action:Project:0.18624242:0.29961166
Core:Handler:32.034634:0.486586
Base:List:1.3917282:3.1994834
contains:Instance:88.88889:0.015577689
Handler:Element:3.5507627:0.030999707
Editable:application:100.0:0.006854871
Action:Standard:0.36961955:100.0
Entry:Model:100.0:0.011055665
collect:Type:100.0:0.00841149
Element:Client:5.740686E-5:3.5714288
Size:Base:0.034542315:0.0061779707
Base:access$000:0.0022465347:0.7782101
apache:Event:3.336629:0.1497554
core:List:0.8032702:0.58102
Settings:Language:0.028082:0.044853106
Select:Logger:1.1764706:0.0037820053
apache:Category:0.2471577:6.622516
impl:Pressed:0.008631137:33.802814
Group:update:1.754386:0.1912046
apache:Wrapper:0.049431536:0.011922504
Types:Class:1.860465:0.05134129
Object:Type:0.23296756:0.7402111
Handler:Child:0.026301946:0.012732365
Base:Import:0.0011232673:6.666667
Base:access$400:0.0011232673:28.57143
log4j:Project:0.13617794:0.0034570578
Node:Debug:0.058913056:0.50600886
core:Types:0.10710269:9.302325
Handler:Instance:0.3945292:0.058416337
Event:Browser:0.031060379:63.636364
Editor:Element:1.8664447:0.2870343
Text:Object:0.010143472:0.05691821
Editor:Base:0.52633744:0.7919035
Debug:Node:3.0360532:0.3534783
Multi:List:61.538464:0.010329245
update:Corners:0.04780115:100.0
Image:Instance:33.333336:9.7360555E-4
Helper:Model:4.2310824:0.006532893
Child:Tree:18.134073:7.990967
Model:State:0.20528361:32.99011
From:Manager:29.927006:0.0057082195
action:Update:1.0789257:23.77261
Actions:Enabled:3.9215689:0.0085381605
Count:List:0.069380455:0.16526791
Child:Composite:0.057295647:1.1612903
Content:Width:85.36585:0.048390664
Abstract:Handler:0.6151086:0.6312467
Enabled:Project:2.5699863:2.774865
Group:Index:3.9473681:0.0016711571
Update:Instance:10.077519:0.037970617
Event:Base:11.026435:5.5826387
Impl_:Facade:0.16425668:1.5274822
impl:Drag:0.012946706:38.709675
Element:next:0.0048221764:3.7820802
Group:List:6.140351:0.018076178
find:Node:0.006696802:0.0049094213
Monitor:Focus:2.803738:3.4883723
List:Count:0.025823113:0.010840696
Item:Text:2.071364:0.06463514
Event:Handler:1.7005557:10.080221
Enabled:Action:0.5464423:0.3667543
Iterator:size:0.016026588:2.7084818
Handler:handlers:0.26301947:54.05405
Item:Change:2.3586333:4.4117646
List:Model:1.6268561:0.15829703
Project:Shown:0.0034570578:100.0
log4j:Composite:0.045392647:0.064516135
List:Style:0.0012911556:0.011134618
Model:Settings:0.060303632:3.36984
Tree:Renderer:0.092575714:38.82353
Handler:Client:0.078905836:42.857143
Show:Handler:12.411347:0.23014203
core:Document:0.0035700898:0.02021427
Handler:Line:0.039452918:0.042918455
Model:Style:0.004271507:0.378577
action:Index:0.84437674:0.013369257
Border:Panel:14.925373:1.332741
Editor:Index:0.3609704:0.17955655
Registry:Manager:5.793006:0.011416439
Text:property:0.012266524:26.943005
Model:find:0.72992516:19.45421
Manager:Manager_:0.0045944205:19.469027
impl:fire:0.0043155686:13.872832
Actions:Factory:0.9803922:0.04178855
Copy:Document:20.80486:2.769355
Storage:Change:0.5766621:0.24038462
Debug:Debug:0.25300443:0.25300443
next:Index:18.009905:0.07427365
Model:Sequence:0.0050253025:100.0
Handler:Node:0.052603893:0.019637685
paint:Pane:5.2160954:0.9423802
Priority:Tree:85.85858:0.23845257
Tree:Handler:0.20198335:0.9468701
Impl_:Next:0.016156394:0.056185037
Show:Name:1.4184396:0.0010741629
Changed:Model:0.6535948:7.537953E-4
Logger:Layout:0.0075640106:0.037993923
impl:Popup:0.02481452:47.916664
apache:Manager:2.446861:0.0068916306
Class:Class:48.778503:48.778503
Text:Layer:0.04953788:100.0
mouse:Logger:0.53908354:0.052948076
Event:Event:18.952377:18.952377
Composite:Object:0.25806454:0.0052947174
Base:Line:0.008986139:0.11444922
Selection:Base:0.027313698:0.006739604
Component:Panel:0.47779152:9.595736
apache:Target:1.384083:0.47700173
Project:Name:0.002304705:5.3708145E-4
Debug:Changed:0.021083703:0.10893246
remove:impl:9.853461:0.035063997
Released:Mouse:9.022556:0.64794815
Component:Manager:37.062027:1.1663563
Handler:remove:0.026301946:0.20212229
Bounds:Width:34.44564:1.3272868
Code:Factory:0.039279614:0.835771
Changed:Editor:5.664488:0.019411026
Logger:Changed:0.037820052:1.0893246
Selected:Manager:38.348083:0.009049617
Component:Code:0.7188993:0.31914684
Text:Helper:4.7178936E-4:0.16273393
Manager:Debug:0.017820783:5.397428
Code:Cache:0.0019639807:22.222223
Project:Containing:0.05416057:31.97279
core:Name:1.0281858:0.15467945
Manager:Sibling:6.961243E-5:50.0
Tree:action:0.0070133116:0.05863727
Debug:apache:0.33733925:0.3954523
Model:equals:0.05251441:17.23001
Change:Project:1.6261313:0.13252054
Container:Count:0.83129585:0.009214591
write:Base:5.8091288:0.0078628715
Event:Change:1.475368:18.806562
Pane:Clicked:0.053850293:15.384616
Focus:Child:21.511627:0.117774375
Event:Editor:15.354921:5.1670656
Manager:Listener:0.005012095:1.644211
Enabled:Registry:1.2166878:40.268456
Active:Handler:0.07451565:0.0065754866
Enabled:Button:0.017076321:0.18024106
Panel:application:0.79964465:0.020564612
Pane:Panel:3.0290792:9.995558
Panel:Manager:9.773434:0.0153147355
hash:Model:0.6235212:0.028141692
Name:Document:5.3708145E-4:0.02021427
Manager:List:0.044551957:0.8263396
Visible:Icon:1.2846866:6.5473595
Storage:core:0.101763904:0.0053551346
Change:Manager:3.3936653:0.016706984
log4j:Panel:0.22696324:0.2221235
Target:Document:1.8143101:2.1528199
build:Model:33.333336:5.0253025E-4
Manager:Feel:0.015593185:15.8978
Selection:Event:0.03186598:0.0155301895
Grid:Size:48.326363:1.4507773
Utils:Number:11.764706:100.0
Editor:Manager_:0.096308544:76.10619
Size:core:8.949599:5.087378
Look:Check:6.192822:0.603815
hash:Updater:0.016701462:4.6875
Manager:Editor:1.2177303:6.5299435
log4j:Focus:0.18157059:2.3255813
Change:Tool:0.028280545:0.010851872
Status:Manager:56.41026:0.0030629472
Base:build:0.001684901:25.0
Node:impl:1.382002:0.10123605
Code:size:0.12373078:4.490378
Change:Debug:1.2019231:1.7921147
Element:Names:2.2962745E-4:11.111112
log4j:Actions:0.090785295:0.9803922
Name:Project:0.11762084:0.5047304
Event:Enabled:1.6162491:1.5550125
Name:Manager:0.91438115:0.23703033
Color:Color:47.41209:47.41209
Margin:Code:66.66667:0.08248718
Document:Event:2.243784:0.24626444
Selection:Instance:0.03414212:0.014604084
Pane:paint:0.3231018:1.7883755
Mouse:Entered:0.10799136:8.333334
Moved:Event:7.6086955:0.023295285
Update:Text:3.6175709:0.0033025255
Target:Model:0.7921635:0.011683828
Editor:Editor:18.293772:18.293772
Selection:Simple:0.12291163:5.934066
Facade:Document:0.10016277:0.08085708
apache:Focus:0.09886307:2.3255813
Entered:Pane:4.166667:0.013462573
Text:Node:3.0298314:31.528303
Cache:Code:44.444447:0.0039279615
List:Base:2.1536474:0.936805
List:update:0.025823113:0.9560229
Enabled:create:0.00960543:0.057012543
Node:Handler:0.058913056:0.15781167
Element:Logger:0.0028703432:0.18910027
Selection:Editor:3.8739927:0.63533777
Code:Next:0.10212699:0.486937
Type:List:1.2491063:0.38347322
Code:Composite:0.024549756:1.6129031
Performed:Action:12.080537:0.012893706
Width:Item:1.6922905:9.253099
Select:Enabled:1.1764706:0.0010672701
Editor:Group:0.01717129:20.17544
String:Delegate:0.020699648:0.49309665
apache:Change:0.2471577:0.14140272
Undo:Undo:2.8235295:2.8235295
Context:Handler:29.411766:0.3945292
should:Enabled:6.741573:0.0064036204
Current:Action:35.61644:0.01862424
invalidate:Panel:25.0:0.0888494
Enabled:Element:0.13447602:0.0072332644
Panel:Wrapper:0.0888494:0.011922504
Model:calc:0.013065786:0.5069214
Object:Handler:0.27400163:1.3611257
Instance:cleanup:0.0019472111:100.0
Model:Renderer:0.003768977:17.647058
Handler:Handler:1.4466071:1.4466071
Abstract:Target:0.025629526:0.03407155
Text:List:0.13493176:0.738541
apache:Document:0.37073654:0.15160704
Label:Pane:0.154202:0.026925147
Name:Abstract:0.105267964:2.5116935
Base:Name:0.06065644:0.029002398
Provider:Provider:6.1662197:6.1662197
Pane:core:0.053850293:0.0071401796
Target:application:0.6643952:0.089113325
Manager:Style:0.11277214:18.03808
Manager:Project:0.6986304:11.56501
Base:Event:0.3100218:0.6123332
Text:Editor:3.0791333:4.8725405
Scroll:impl:29.545454:0.037401598
Name:Enabled:0.0026854072:0.010672701
Base:write:0.056163367:41.49378
Model:iterator:7.537953E-4:0.4909984
hash:compare:0.022268616:0.24600245
List:Pressed:0.015493866:8.450704
Context:Configuration:48.039215:29.696972
Text:Style:7.07684E-4:0.03340385
Name:Model:0.05102274:0.023870187
Selected:Target:6.7846613:0.19591141
Group:Object:1.754386:0.0052947174
paint:Tree:14.008943:0.2637005
Event:hash:0.004437197:0.011134308
log4j:Listener:0.22696324:0.114181325
Target:Manager:22.001703:0.17980891
Remove:Debug:100.0:0.08433481
String:Wizard:0.0041399295:100.0
Actions:Pane:1.4705882:0.040387724
Object:Abstract:0.013236793:0.06407381
Composite:Event:2.3225806:0.039934773
Selection:Logger:0.6555288:1.0892175
Code:Order:0.0058919415:18.181818
Instance:Manager:35.854973:2.563617
Active:Panel:0.07451565:0.0444247
internal:core:3.3333335:0.0035700898
Mode:Event:4.3853817:0.073213756
apache:Panel:0.14829461:0.2665482
hash:Editor:2.6555324:0.35611764
Updater:Model:20.3125:0.0032664465
Iterator:Wrapper:0.043018736:1.2160954
size:Index:1.9600855:0.010212627
Model:events:0.002010121:18.181818
Code:Wrapper:2.22519:13.508196
Width:Size:0.06912952:0.15701053
Layout:Size:34.080547:5.6335373
Released:impl:15.789473:0.0037761226
Object:Debug:0.05956557:0.9487666
Base:Abstract:0.014602476:0.16659191
Event:Label:0.008874394:0.616808
Show:Settings:2.8368793:0.056164
Selection:Width:0.38694406:0.23504037
Object:Change:0.010589435:0.11312218
Object:Updater:0.055594534:32.8125
Settings:Provider:0.14040999:0.060931027
Undo:undo:1.2549019:12.903225
Element:Show:3.4444119E-4:2.1276596
String:Repository:0.008279859:11.111112
Tools:Action:100.0:0.002865268
Enabled:Changed:0.0032018102:0.3267974
Editor:component:7.4657786E-4:100.0
String:Object:66.76878:21.348299
Change:Code:0.39592764:0.027495727
Wrapper:Iterator:0.023845008:8.4350456E-4
Wrapper:Wrapper:2.7362146:2.7362146
Model:Node:0.047237843:0.92297125
Tree:Code:0.27772713:0.19443408
Project:Project:13.845515:13.845515
Base:Manager_:0.001684901:0.88495576
Manager:Check:0.030768694:3.032798
impl:log4j:0.0035963072:0.90785295
register:Instance:0.7990868:0.006815239
Pane:Editor:3.2310176:0.08958934
Enabled:Impl_:0.021345401:0.026927324
Event:Object:0.23295283:0.27797267
Project:Facade:0.14404407:1.5650432
Action:From:0.0143263405:7.2992697
Mouse:Released:0.64794815:9.022556
Base:access$1000:0.023588615:77.77778
Handler:Enabled:0.55234087:0.08965068
Impl_:Array:1.1996123:67.34694
Factory:core:2.2565818:0.19278485
Enabled:action:0.051228963:0.5629178
log4j:application:0.45392647:0.0114247855
Mode:Tree:4.9169436:0.103797
Logger:Size:0.011346015:0.009420631
Base:Model:0.24262576:0.054273266
equals:access$400:0.082440235:28.57143
Target:Base:14.821124:0.97724265
Changed:Text:0.21786492:4.7178936E-4
log4j:Internal:0.090785295:0.24360538
Mouse:mouse:11.663067:8.317289
State:Actions:0.04037957:0.9803922
action:Action:14.448224:0.88250256
register:Action:0.2283105:0.001432634
mouse:impl:8.086254:0.037761226
Manager:Button:0.19171263:31.023994
Debug:Component:0.50600886:0.05308795
core:Element:0.0678317:0.0021814608
Only:Base:50.0:0.02302698
Change:Action:0.5514706:0.027936362
Value:Object:0.3612903:0.03706302
Position:Size:25.0:0.018841263
Action:Tool:0.15472448:1.1720021
Instance:List:0.20250994:0.26856038
Abstract:Model:0.23066574:0.004522772
State:Project:0.04037957:0.002304705
find:Text:40.58597:2.8592794
Model:Index:1.2513003:1.8494139
List:Root:0.042608134:2.173913
List:mouse:0.067140095:2.0023103
Manager:Enabled:0.0750422:1.1505171
Model:Project:0.00979934:0.0898835
core:Composite:0.008925225:0.32258064
Change:Event:10.888009:0.8541604
Label:Editor:0.154202:7.4657786E-4
remove:Manager:0.80848914:0.0011137989
Code:Iterator:0.10212699:0.02193112
Check:Border:0.020584602:1.4925373
Base:Changed:0.0022465347:0.43572983
Project:Instance:5.0519133:4.2682867
Handler:Size:0.0065754866:0.0031402106
Name:Listener:0.0040281108:0.34254396
Action:Combo:0.001432634:6.4516125
Settings:Model:9.4776745:0.16960396
Size:Style:0.05024337:0.17815389
Index:Impl_:0.10973932:0.79570234
Order:Base:12.121212:0.0022465347
Model:Action:0.0055278325:0.031517945
Model:update:0.018091088:6.8833647
Line:Changed:0.028612304:0.43572983
equals:Changed:0.2473207:0.6535948
Helper:Project:0.16273393:0.002304705
Next:size:0.35583857:2.7084818
Layout:Grid:0.6838906:3.7656903
hash:Wrapper:6.3075857:13.508196
fire:Listener:1.734104:0.0685088
apache:Handler:0.024715768:0.0065754866
Text:Base:0.18494143:0.4403208
core:Object:0.010710269:0.007942076
apache:Repository:0.024715768:5.555556
Enabled:Check:0.016009051:0.10292302
application:Tool:0.16108947:0.76505697
hash:Order:0.016701462:18.181818
String:Category:0.2649555:42.384106
Model:Object:0.019849945:0.20914134
Manager:index:5.5689947E-4:100.0
Element:Cell:5.740686E-5:0.84745765
Line:Event:0.33619457:0.05213707
Tree:Count:0.09818636:0.037942436
create:Instance:0.6841505:0.1051494
layout:Icon:36.94779:4.0157137
Factory:Model:0.71040535:0.004271507
Logger:Popup:0.0075640106:0.6944445
Factory:Look:0.7521939:2.5334272
Types:core:3.72093:0.042841077
apache:Factory:0.22244193:0.18804848
apache:helpers:0.3954523:34.782608
update:Debug:0.04780115:0.021083703
Graphics:paint:56.15764:25.48435
Element:Element:29.932281:29.932281
Helper:Removed:2.6851099:97.05882
Event:Entered:0.0022185985:8.333334
Actions:fire:1.4705882:1.734104
Type:Code:0.14299533:0.03338767
count:Event:1.904762:0.0022185985
Tool:Selection:0.81389046:0.34142122
Sibling:Factory:50.0:0.020894274
Abstract:Helper:0.12814762:1.6273392
Enabled:Document:0.03521991:0.3335355
Event:Pane:0.29285502:3.5541196
apache:Node:0.3954523:0.03927537
Drag:Mouse:12.903225:1.2958963
Debug:Target:0.12650222:0.05110733
log4j:create:2.4512029:0.34207526
equals:Iterator:0.4946414:0.0025305138
Editor:Undo:0.0044794674:0.4705882
Changed:Settings:0.43572983:0.028082
List:Object:0.6894771:0.70684475
Visible:Text:0.17129153:0.0047178934
Selected:Combo:1.1799409:12.903225
Size:Height:0.08792589:84.84849
Action:Base:0.06446853:0.050547034
Container:Size:0.14669926:0.009420631
Browser:Event:36.363636:0.017748788
Document:Action:0.8692137:0.061603263
Model:Logger:0.08103301:2.4393933
Debug:Enabled:0.08433481:0.0042690802
Change:Enabled:1.0605204:0.08004525
Text:should:0.0018871574:8.988764
Selection:Text:45.12678:4.676848
action:Focus:0.011727454:0.5813953
Abstract:Element:1.512142:0.013548019
Editor:Actions:0.0044794674:5.882353
Language:Provider:23.817:6.470875
find:String:0.053574417:0.06623887
Component:hash:0.004423996:0.005567154
lexer:Editor:39.130436:0.0033596002
enter:Element:100.0:1.1481372E-4
Cell:Tree:27.118645:0.044885192
Node:Selection:0.012273553:0.011380707
Owner:Element:37.72538:0.031229332
Dispatch:Monitor:3.211009:3.271028
Enabled:Default:0.0042690802:50.0
Manager:String:0.0034806216:0.20699647
Iterator:Facade:6.3262845E-4:0.037561037
List:Iterator:1.0419626:0.17017704
Code:Instance:0.9427107:0.9346614
remove:Node:1.8696312:0.09082429
Single:Settings:100.0:0.112328
State:Class:0.04037957:0.008556882
Line:Manager:8.404864:0.08179461
Action:paint:0.0035815851:0.37257826
Registry:Document:0.03532321:0.010107135
Manager:remove:4.8728703E-4:0.353714
Logger:Manager:1.5884422:0.029237222
Only:Object:50.0:0.05427085
Enabled:Performed:0.0032018102:2.0134227
Listener:Base:12.4686:0.306652
Minimum:Text:25.59415:0.033025254
Component:Value:0.82286316:4.8
remove:Base:3.4866095:0.038752723
Child:Root:0.009549274:0.19762847
Logger:Check:0.011346015:0.020584602
Control:Data:100.0:1.5575049
Button:Manager:36.498817:0.22554427
Tree:Project:0.08135441:0.06683645
Registry:apache:1.0243729:0.7167573
Select:impl:54.11765:0.008271506
apache:apache:10.528917:10.528917
Manager:Layout:0.0030629472:0.8358663
hash:Swing:0.022268616:0.38834953
Code:Object:7.0703297:9.530491
Size:Minimum:0.9012404:52.468006
Element:Container:0.009185098:7.8239613
Tree:Child:0.6873045:1.5597148
Entered:Mouse:8.333334:0.10799136
selection:Selection:25.0:0.022761414
Pane:Released:0.1615509:9.022556
Manager:Category:9.7457407E-4:9.271523
Node:Tree:4.4626637:2.55004
property:Project:31.088083:0.06914115
Editor:Removed:3.7328893E-4:2.9411764
contains:Factory:11.111112:0.04178855
Node:Manager:0.8616034:0.024433963
Provider:Name:0.34121376:0.030076561
hash:Impl_:0.08350731:0.040390987
Feel:Simple:5.677786:8.791209
Component:Preferred:0.59723943:9.632537
Visible:Util:68.00274:90.022675
Abstract:apache:0.0064073815:0.024715768
core:Abstract:0.1552989:0.5574422
Enabled:Manager:71.344864:4.653452
Manager:Element:0.11555664:0.09529539
Mode:action:5.182724:0.9147414
core:Component:0.07854198:0.0973279
Event:Name:0.11647642:0.028196774
Impl_:Enabled:0.010770929:0.0085381605
Object:String:0.20914134:0.6541089
execute:Action:40.425533:0.05444009
Text:Button_:9.435787E-4:100.0
apache:Element:17.35047:0.040299617
Border:Preferred:7.4626865:0.53514093
Base:Dependency:0.001684901:7.692308
Manager:Mode:0.0010441865:0.99667776
Object:Child:0.007942076:0.019098548
Import:Handler:53.333336:0.105207786
Impl_:Code:81.84021:59.69126
Component:Context:0.04866395:10.784314
Model:List:0.365842:3.759845
Manager_:Manager:1.7699115:4.1767463E-4
Component:Size:0.3052557:0.43334904
Action:Helper:0.022922143:2.6037428
impl:Mode:0.029669536:10.963455
Event:Next:0.31947818:1.3484409
Enabled:impl:4.956402:0.83506256
Element:Property:1.1481372E-4:0.1218769
Action:Document:0.04727692:0.667071
Manager:Token:4.1767463E-4:11.538462
Splitter:Panel:100.0:0.2665482
Manager:Factory:0.012808687:3.8445466
Factory:Manager:10.969494:0.03654653
List:Debug:0.092963204:1.5180266
apache:Name:0.29658923:0.0032224886
Model:Image:2.5126513E-4:66.66667
Text:Default:9.435787E-4:50.0
List:Border:0.0012911556:0.49751243
Composite:Wrapper:0.25806454:0.023845008
Create:Factory:85.71429:0.2507313
Element:Index:0.0016073922:0.005199156
Instance:Active:0.09930776:7.600596
Event:Debug:0.51582414:9.803922
Style:Class:0.03340385:0.012835323
access$600:Instance:100.0:0.0038944222
Copy:Data:3.4927866:0.11764405
Updater:Code:3.125:0.0039279615
Element:Settings:0.03823297:4.675653
Handler:Item:0.20384009:0.23435138
Message:Model:100.0:5.0253025E-4
Listener:Instance:0.50239784:0.021419322
Type:Base:1.6150061:0.21566732
Editor:History:7.4657786E-4:4.347826
hash:Handler:0.50104386:1.1835876
action:Event:1.0320159:0.097618334
hash:Storage:0.12247738:1.4925373
Enabled:List:0.064036205:0.077469334
List:size:1.7301486:47.754814
Debug:Check:0.25300443:0.08233841
String:Model:0.5216311:0.015829703
Mode:Enabled:0.66445184:0.010672701
log4j:Text:1.2709941:0.006605051
core:Panel:0.010710269:0.2665482
History:Manager:95.652176:0.0030629472
layout:layout:2.008032:2.008032
Tree:Object:0.49233446:0.46461144
Text:Factory:7.07684E-4:0.06268282
Event:mouse:0.1497554:5.198306
Size:Size:29.800596:29.800596
Code:Class:0.17675824:0.77011937
Width:Width:41.488773:41.488773
Component:Types:0.008847992:0.62015504
apache:Tree:2.2244194:0.1262396
log4j:Component:3.812982:0.18580782
Registry:Simple:0.17661604:0.5494506
hash:Value:1.0688936:4.9548388
Code:Handler:0.3535165:2.367175
Model:size:0.028644223:8.125445
Wrapper:Base:46.974667:4.4256735
Layout:Child:0.037993923:0.0063661826
Pane:Mouse:0.28271404:1.1339092
Mode:Pane:0.26578072:0.053850293
Category:Manager:6.622516:6.9612433E-4
Group:Data:1.754386:0.010229917
Model:Handler:0.05351947:2.8011572
Copy:Text:0.9111618:0.002830736
Command:log4j:4.464286:0.45392647
Debug:impl:7.337128:0.06257575
List:Composite:0.061975464:3.096774
Event:Category:0.038825475:23.178808
Iterator:Index:95.9748:84.5093
Project:Change:0.0057617626:0.07070136
Event:Listener:1.7238511:35.487553
hash:Property:0.022268616:0.4875076
Editor:lexer:0.0011198669:13.043478
Abstract:Tool:0.012814763:0.010851872
property:Layout:1.0362694:0.037993923
Instance:Adapter:0.039917827:16.465864
Label:Size:4.009252:0.16329095
Options:Model:66.66667:5.0253025E-4
impl:apache:0.010788921:1.4829462
Project:Action:0.30652577:0.19054033
Editor:Update:0.0022397337:1.5503876
Project:Manager:42.26253:2.553036
Text:Change:0.045999464:2.757353
Base:Factory:0.008986139:0.3343084
Visible:action:0.5566975:0.7622845
calc:List:0.0438682:0.0116204005
Mode:Icon:0.19933556:0.13094719
Factory:Instance:14.103636:0.65718377
Editor:Target:0.07391121:1.6865418
Manager:analysis:0.002088373:88.2353
Logger:List:0.48409668:0.16526791
Event:Count:0.20854828:0.101902544
Facade:Type:0.025040692:0.00841149
Action:Object:0.028652681:0.05294717
impl:Logger:1.7715409:37.260315
Element:Instance:0.18599823:3.154482
Names:Name:88.88889:0.008593303
Storage:storage:18.588873:100.0
Manager:Types:0.0011137989:2.4806201
register:Factory:0.11415525:0.020894274
Logger:Configuration:0.0037820053:0.30303028
Manager:Class:7.657368E-4:0.04706285
Button:Action:13.856032:0.8810699
Change:Listener:0.28280544:0.4567253
Node:Factory:0.019637685:0.1671542
Types:Abstract:0.62015504:0.025629526
Handler:Swing:0.026301946:0.19417477
Base:Actions:0.020218812:17.647058
Debug:Text:0.14758591:0.0016512627
String:Facade:0.024839578:0.07512207
core:Data:4.623266:6.623872
Class:Code:0.22247893:0.051063497
hash:Line:0.055671535:0.14306152
Bounds:Item:16.146395:3.4018748
Data:Text:3.2326539:0.29817086
Listener:Event:4.52158:0.21964125
Project:execute:0.00460941:2.1276596
Multi:Element:15.384616:1.1481372E-4
Focus:Project:25.581396:0.05070351
fire:Event:8.092485:0.0155301895
Action:Pane:0.002148951:0.040387724
update:Change:0.23900573:0.07070136
Wrapper:Next:0.023845008:0.018728346
Pane:Pressed:0.1615509:8.450704
Logger:Label:0.04538406:0.9252121
Editor:Node:0.0022397337:0.014728264
Kind:Model:100.0:0.06306755
Component:Facade:0.34064767:1.9281331
Node:Editor:0.15955618:0.02426378
Util:Visible:9.9773245:7.5368276
Icon:Object:0.08729812:0.0026473587
register:Target:0.11415525:0.008517887
Code:List:0.17872223:0.23499031
mouse:Check:0.077011935:0.013723069
Logger:Logger:1.7548504:1.7548504
Manager:Event:0.135605:2.160915
Base:Combo:0.0028081683:16.129032
Model:hash:0.05992673:1.3277662
Base:Composite:0.17354481:19.935484
log4j:Model:2.4512029:0.0067841583
Language:Element:7.378336:0.037773717
create:Data:3.6741416:1.483338
Selection:Tool:0.36645877:0.87357575
Type:Provider:0.15140682:0.109675854
Logger:Enabled:0.28743237:0.08111252
change:Next:30.769232:0.112370074
Type:create:11.658325:17.559864
Clicked:List:15.384616:0.0051646223
hash:List:0.072373:0.033570047
Project:Enabled:0.062227033:0.05763258
Event:Changed:0.12202292:11.982571
Debug:property:0.25300443:6.2176166
impl:Configuration:0.03884012:65.454544
Facade:Instance:0.25040692:0.019472111
Element:Target:0.03616632:5.366269
List:Code:0.37185282:0.28281322
Base:Change:0.06290297:1.5837106
Root:Child:89.92095:4.3449197
Wait:application:100.0:0.010282306
iterator:Event:33.387886:0.4525941
Dependencies:Base:2.7027028:5.616337E-4
Editor:List:0.24786384:0.85732734
apache:Actions:0.049431536:0.9803922
Instance:Action:0.9813944:0.7220475
Line:Size:10.586553:4.6475115
Event:Node:0.22962494:0.50812507
log4j:Instance:0.13617794:0.0029208167
Model:Listener:0.058293507:10.596026
Node:Name:0.48603272:0.05317106
write:write:9.958507:9.958507
action:Handler:0.046909817:0.026301946
Change:Menu:0.8201358:5.3406997
Pane:Pane:0.17501347:0.17501347
Container:Instance:11.540342:0.2297709
Model:Event:0.785706:6.937557
Action:Enabled:0.030085314:0.04482534
Updater:Base:7.8125:0.0056163366
hash:Elements:0.022268616:0.621118
List:Name:0.18592641:0.03866986
Code:Client:0.0058919415:21.428572
String:Base:11.488305:1.5585335
Drag:impl:25.80645:0.008631137
View:Types:2.9411764:0.62015504
hash:Index:10.521921:0.701886
Code:Event:0.04124359:0.04659057
Change:Generic:0.16968326:100.0
hash:equals:1.0299234:15.251443
Minimum:Size:21.937843:0.37682524
Model:Model:11.200645:11.200645
Object:Enabled:0.01853151:0.01494178
Visible:Performed:0.051387463:4.0268455
Line:Line:10.643777:10.643777
apache:create:1.3346515:0.34207526
Expression:First:24.324326:52.941177
Type:Editor:9.462927:0.83990014
Tool:Listener:0.05425936:0.22836265
Object:compare:2.1152396:49.13899
Provider:Element:1.8096514:0.034099676
Item:Instance:6.2140913:0.80030376
Mouse:Manager:16.73866:0.021579854
Event:update:0.13311592:5.7361374
Options:Types:33.333336:0.31007752
Target:Project:2.3850086:0.32265872
register:Document:0.34246576:0.030321406
Index:Editor:0.37173963:0.7473244
Selection:action:0.011380707:0.05863727
Debug:Element:6.936538:0.018886859
Child:Handler:0.34377387:0.71015257
Button:core:0.056325335:0.008925225
Current:Model:35.61644:0.0032664465
Registry:Helper:2.9671495:6.834825
Enabled:Target:0.01921086:0.15332197
update:Model:6.453155:0.016960396
Handler:Base:0.4339821:0.037067823
Combo:application:22.580645:0.007997349
register:Helper:45.662098:32.546787
Panel:Component:2.398934:0.11944788
Model:Document:0.3271472:26.318983
Graphics:Editor:41.37931:0.09406881
invalidate:Manager:75.0:4.1767463E-4
Selection:Model:0.013656849:7.537953E-4
Change:Element:2.545249:0.010333235
Text:Delegate:0.2123052:88.75739
apache:log4j:3.5096393:6.445756
apache:Icon:0.09886307:0.17459624
Enabled:Mode:0.02347994:1.461794
Target:Tree:0.23850086:0.039274544
Data:Event:1.8516151:0.80313265
Name:Component:0.10634212:0.8759512
List:Target:0.0051646223:0.03407155
Helper:Instance:1.4646053:0.0175249
Focus:Pane:1.1627907:0.026925147
Long:Base:85.71429:0.003369802
Action:Element:0.022922143:0.0018370196
core:Label:0.11781296:5.088666
Width:Selection:0.15208495:0.25037557
Editor:Under:0.0018664447:100.0
property:Listener:1.0362694:0.04567253
Size:List:0.08792589:0.036152355
Object:Name:0.19590454:0.039744027
Manager:Popup:0.00487287:24.305555
Manager:Owner:0.004176746:4.1608877
Instance:Instance:0.6795767:0.6795767
apache:Listener:0.12357885:0.114181325
Style:Settings:3.429462:2.162314
Logger:fire:0.11346015:17.34104
Node:Code:0.38293487:0.1531905
Base:Visible:0.01516411:0.23124358
access$000:Target:0.7782101:0.03407155
Instance:update:0.0019472111:0.0956023
Grid:Component:0.83682007:0.017695984
Manager:Elements:2.0883731E-4:0.23291926
Enabled:Debug:0.021345401:0.42167404
Name:Element:76.16997:16.283113
Manager:Entered:2.0883731E-4:12.5
List:Element:3.5300195:0.15695037
Event:access$1000:0.004437197:7.4074073
Base:Base:1.7320782:1.7320782
Action:Text:0.03724848:0.012266524
Code:Enabled:0.12765874:0.13874511
Arrow:paint:95.89041:5.2160954
log4j:Event:6.128007:0.1497554
Editor:Line:0.11758602:2.253219
Code:create:0.07463126:0.48143923
Code:Node:0.039279614:0.09818842
Enabled:Node:0.0042690802:0.009818843
Updater:Project:9.375:0.013828231
action:Paste:0.11727454:45.454548
Object:Node:0.05824189:0.10800726
From:Action:2.919708:0.005730536
action:Status:0.09381963:10.256411
Node:Base:0.4271196:0.09772426
Tree:hash:0.1262396:0.25052193
Component:Layout:0.05308795:0.45592704
equals:Tree:9.480627:0.32261232
List:Manager:0.8586185:0.046292268
Helper:Facade:0.32546785:0.050081383
apache:Changed:0.09886307:0.43572983
Event:iterator:0.6156611:45.417347
Name:core:1.45012:9.639242
Size:Font:0.69084626:0.18349849
Action:Added:0.001432634:7.692308
Changed:Event:35.076252:0.35719436
Layout:core:19.015957:1.78683
Text:Instance:0.01108705:0.04575946
Changed:Element:4.2483664:0.0022388676
Count:Tree:0.019513253:0.050495837
log4j:Icon:0.18157059:0.17459624
Value:hash:31.587097:6.814196
should:Model:61.79775:0.0069097904
Manager:Property:0.016428534:14.3814745
Adapter:Monitor:22.891565:26.635513
Text:Mouse:2.3589468E-4:0.05399568
impl:Released:0.0021577843:9.022556
Project:Editor:3.5815115:1.160182
List:debug:0.0025823112:1.6260161
Code:Line:0.0039279615:0.028612304
Pane:Event:0.7673667:0.06323006
paint:Action:0.52160954:0.005014219
Element:Iterator:0.0015499853:0.005693656
Root:Facade:2.964427:0.5634156
remove:Object:47.65033:1.2482296
lexer:Event:17.391304:0.004437197
Label:Layout:17.270624:4.255319
Paste:Editor:54.545456:0.0044794674
apache:Component:2.0761247:0.18580782
Instance:Project:0.051601097:0.061074685
Create:Data:14.285715:0.0051149586
remove:Action:0.5053057:0.0071631703
find:Element:8.223673:0.14099126
Manager:lexer:4.8728703E-4:30.434782
access$000:Instance:1.1673151:0.0058416333
Enabled:Panel:0.0042690802:0.1776988
Layout:Event:0.05699088:0.0033278977
iterator:change:1.472995:23.076923
Node:Group:0.1374638:24.561403
size:Iterator:13.613685:0.08055469
Command:apache:4.464286:0.2471577
Tree:Value:0.1374609:1.2645161
Layout:Label:2.7355623:11.102545
Mode:Node:2.2591362:0.08346016
hash:create:0.20041755:0.45610034
layout:Container:2.008032:0.24449879
impl:List:1.8779917:13.48483
apache:application:0.2471577:0.0114247855
commit:Events:100.0:2.4539876
Instance:Model:2.1263545:0.27438152
write:List:0.4149378:0.0012911556
Allowed:Project:97.867:1.7976699
Storage:write:1.6282225:19.917013
Array:Storage:19.047619:8.548168
Text:Index:0.009199892:0.0072416808
Layout:layout:0.47492403:10.040161
Data:Document:1.1764405:4.6492825
equals:Manager_:0.082440235:0.58997047
impl:Category:3.5963074E-4:1.3245033
Node:Logger:0.0024547107:0.0037820053
Event:Item:0.004437197:0.03023889
Document:Model:45.856075:0.5699949
Code:Name:0.3456606:0.094526336
Manager:Node:0.009049617:0.31911236
hash:Event:0.055671535:0.022185985
Type:Event:0.6813307:0.17970648
Text:Event:0.042696938:0.20078316
Object:Composite:0.015884152:0.7741935
Object:Object:0.23164389:0.23164389
Impl_:Index:0.25177047:0.03472293
Tree:Target:0.008415974:0.05110733
register:List:43.150684:0.4880568
List:Change:0.23499031:2.5735295
Current:Facade:1.369863:0.012520346
action:Wrapper:0.14072946:0.07153502
Types:Factory:1.3953488:0.18804848
Registry:Next:0.14129284:0.018728346
Bounds:Manager:1.7222819:0.003341397
log4j:Factory:0.4085338:0.18804848
Code:Property:0.007855923:0.4875076
handlers:Instance:40.54054:0.029208168
debug:Wrapper:4.8780484:0.03576751
Priority:update:2.5252526:0.23900573
Debug:Popup:0.042167407:0.6944445
Model:Debug:0.0051509347:0.8644318
Class:Manager:0.40217346:0.0065435683
List:Label:0.016785024:1.002313
Event:log4j:0.27177832:11.121199
hash:Next:0.25608906:0.43075198
Undo:Manager:48.431374:0.085971355
Change:action:0.5373303:0.44564325
Abstract:Enabled:0.025629526:0.0042690802
Enabled:Change:0.064036205:0.8484163
Helper:Base:36.696503:0.2532968
Facade:Root:0.012520346:0.065876156
hash:Import:0.005567154:6.666667
Factory:Data:2.047639:0.25063297
Tool:Action:0.68366796:0.09025594
mouse:mouse:0.038505968:0.038505968
Listener:impl:15.071935:0.118678145
Category:Focus:1.3245033:1.1627907
Item:Object:0.18899305:0.033091985
Manager:access$000:0.0018099232:5.058366
impl:Active:0.049089596:20.342772
Target:Node:6.337308:1.8263048
Text:Update:0.01415368:15.503876
Base:Instance:0.3015973:0.5228262
Wrapper:Tool:0.017883755:0.016277807
equals:List:0.6595219:0.02065849
Node:Settings:0.029456528:0.084245995
From:Added:1.459854:15.384616
create:core:1.9384265:0.5462237
Preferred:Position:0.21405637:25.0
Model:Font:0.0035177115:0.023354353
Code:View:0.026513739:19.852942
calc:Manager:0.3509456:0.005012095
Icon:paint:5.3251853:9.090909
caret:Editor:100.0:0.01791787
Color:Line:5.156065:3.7339053
Drag:Event:9.677419:0.019967386
Iterator:next:0.22521573:48.086445
Registry:Swing:0.07064642:0.09708738
Element:apache:5.1666173E-4:0.22244193
Model:Count:0.3500123:1.510109
Abstract:core:0.42288718:0.11781296
impl:Scroll:0.08523248:67.329544
Storage:Object:0.7123473:0.027797267
Enabled:Factory:0.07684344:1.5043879
Select:Model:4.7058825:5.0253025E-4
update:Group:0.3824092:3.508772
Model:Cell:0.0017588558:11.864407
hash:Class:0.25052193:0.38505968
Registry:Border:0.3885553:5.472637
Count:Count:48.358173:48.358173
Text:Item:0.05095325:1.6329
Object:Check:0.019855188:0.10292302
Preferred:Size:13.271494:1.1681583
Abstract:log4j:0.0064073815:0.045392647
List:Handler:0.010329245:0.052603893
Impl_:apache:0.0013463661:0.024715768
Line:Element:0.64377683:0.0051666177
log4j:Handler:0.045392647:0.0065754866
Line:calc:0.17167382:0.11698187
Name:Swing:0.0032224886:0.58252424
Index:String:0.062389866:1.3910164
Code:Children:0.08248718:44.210526
Debug:create:6.4516125:1.9384265
core:Base:0.18742971:0.05897154
Border:Layout:52.238804:1.9946808
equals:remove:0.6595219:0.80848914
Text:Code:0.0033025255:0.0137478635
Change:Node:0.39592764:0.0687319
List:Leaf:0.015493866:0.07550019
apache:configuration:0.024715768:4.0
Focus:Changed:4.6511626:0.87145966
register:Composite:0.913242:0.5161291
Base:Iterator:0.018533912:0.006958913
Base:String:1.516411:11.177811
Facade:Action:0.2754476:0.015758973
Element:Debug:0.012055441:4.4275775
Type:Handler:0.04205745:0.06575487
mouse:Component:0.46207166:0.026543975
Action:Instance:2.0092692:2.7309635
Property:Event:0.06093845:0.0011092992
Events:Base:97.54601:0.08929975
Model:Data:0.17337294:3.5293214
Menu:Instance:29.097605:0.30765936
Value:Instance:18.99355:1.4331474
Utils:Valid:17.647058:0.52956754
Component:Model:12.940187:0.7349505
log4j:Document:0.6808897:0.15160704
debug:Element:3.2520323:2.2962745E-4
Wrapper:Model:1.4724292:0.031031244
Undo:Editor:0.2352941:0.0022397337
List:List:6.1200776:6.1200776
Pane:Instance:0.026925147:0.0019472111
Handler:Property:0.105207786:0.9750152
Type:Check:0.029440215:0.048030738
Performed:Iterator:18.791946:0.005904532
Base:Children:0.033698022:31.578945
Listener:Manager:14.889245:0.045387305
Model:Tool:0.0026382837:0.11394465
Text:Manager:2.5771494:0.7605158
apache:Internal:0.049431536:0.24360538
Container:Handler:0.39119804:0.052603893
Name:List:0.012084332:0.058102004
Event:Clicked:0.004437197:15.384616
Threshold:Model:100.0:3.7689766E-4
Manager:Width:0.0153147355:0.3041699
Width:calc:0.7355381:2.593098
Component:Tree:0.57069546:0.36188686
Base:property:0.0022465347:2.0725389
hash:Item:0.25887266:0.70305413
hash:Visible:0.016701462:0.051387463
Event:Text:0.09872763:0.020994626
Name:model:0.6101245:77.17391
select:Editor:52.63158:0.0037328894
Performed:Focus:0.67114097:0.5813953
register:Pane:0.11415525:0.013462573
Model:Text:8.832974:16.585283
List:Enabled:0.12782441:0.10565973
Class:Instance:0.11123946:0.025313742
Delegate:Child:10.749507:0.34695697
Priority:Text:3.030303:0.001415368
Selection:Handler:0.013656849:0.039452918
Change:Layout:0.028280545:0.037993923
Monitor:Event:6.542056:0.0155301895
Object:Editor:4.389321:1.2378261
core:Index:0.0071401796:7.427365E-4
Singleton:Model:100.0:0.0015075906
Handler:Type:0.013150973:0.00841149
Element:Manager:0.32170805:0.39010808
Data:List:1.1508657:0.58102
Button:Enabled:0.09012053:0.0085381605
Facade:Base:0.17528483:0.0078628715
Text:Icon:0.002830736:0.52378875
Event:core:0.0077650947:0.012495315
Language:Model:15.2949095:0.1713628
Code:Type:0.072667286:0.31122515
update:Enabled:0.23900573:0.0053363503
Listeners:Event:16.806723:0.04437197
Panel:Model:2.9320302:0.008291749
Icon:Active:0.30554342:0.52160954
Factory:Types:2.047639:15.193799
write:Storage:12.4481325:1.017639
Action:Model:0.24712935:0.043343235
Enabled:Logger:0.31164283:1.1043456
Instance:access$000:0.0019472111:0.38910505
List:Facade:0.04389929:0.42569175
iterator:Model:1.9639935:0.0030151813
Model:Size:3.7689766E-4:0.009420631
Logger:Target:0.14371619:0.32367972
equals:Model:3.7922506:0.011558196
Settings:Element:1.7691659:0.014466529
Model:Component:0.13907523:2.4486818
Debug:Logger:0.08433481:0.015128021
List:Tree:12.096836:13.141542
Model:Language:0.12663762:11.302983
paint:action:0.52160954:0.08209218
Handler:Actions:0.052603893:3.9215689
change:Event:15.384616:0.013311591
Manager:Save:4.1767463E-4:42.857143
mouse:action:0.15402387:0.046909817
Event:remove:0.163067:7.4279943
Action:Manager:20.234522:1.966412
Event:Combo:0.008874394:25.80645
Wrapper:hash:4.697467:2.1934586
Handler:Active:0.026301946:0.2980626
Editor:Token:0.0011198669:5.769231
Descriptor:Element:100.0:0.027325667
Manager:Adapter:0.003550234:20.481928
Enabled:From:0.021345401:7.2992697
Element:Object:0.0032721914:0.07544972
Abstract:List:0.35881335:0.07230471
Model:make:0.0010050605:100.0
Moved:Pane:3.2608695:0.12116317
Index:Object:0.22170685:1.5804731
Factory:Factory:0.18804848:0.18804848
Index:Index:0.5793345:0.5793345
Listener:Listener:1.0047957:1.0047957
State:Handler:0.565314:0.18411362
Text:Abstract:0.024061257:0.6535529
Class:Element:0.012835323:1.7222059E-4
Code:_get:0.032405682:50.0
Cache:hash:22.222223:0.005567154
Abstract:Change:0.051259052:0.11312218
Show:With:5.6737585:100.0
Wrapper:Object:4.697467:1.0430593
Manager:Manager:23.674631:23.674631
Change:access$1000:0.11312218:14.814815
Code:Elements:0.009819903:0.7763975
Base:Active:0.10109407:13.412817
Base:Debug:0.0028081683:0.10541851
access$800:Instance:20.0:0.0038944222
Icon:Container:0.26189438:0.29339853
Settings:Name:1.68492:0.06444977
Base:Enabled:0.019657178:0.03735445
apache:Text:0.6920415:0.006605051
Mouse:Pressed:0.64794815:8.450704
Code:Model:0.09623505:0.012311991
Iterator:Iterator:0.5630393:0.5630393
Event:Abstract:0.048809167:0.28192478
List:Listener:0.030987732:0.5480704
Object:Factory:0.010589435:0.1671542
Model:Container:5.0253025E-4:0.19559902
Event:Tree:0.38603613:0.48812646
Order:Object:30.303032:0.013236793
Base:Panel:0.0044930694:0.3553976
Element:Base:0.2884695:2.8222091
Pane:Entered:0.040387724:12.5
core:Manager:0.22491565:0.008771166
Show:Model:58.156025:0.020603739
compare:hash:0.36900368:0.033402923
build:Manager:41.666664:3.4806217E-4
Text:Selection:0.55435246:5.3489323
register:Layout:0.11415525:0.018996961
Text:update:0.090583555:18.35564
Style:Types:0.022269236:0.31007752
Enabled:property:0.012807241:6.2176166
impl:Check:0.009170583:0.34993824
Renderer:Text:23.529411:0.009435787
Pane:Preferred:0.48465267:1.2843382
Object:Changed:0.009265755:0.7625272
hash:Node:0.11134307:0.09818842
Model:Code:0.113194935:0.8847733
List:core:0.6533247:0.9032327
Graph:Manager:100.0:0.0021579855
Editor:equals:0.21090823:23.289364
Selection:Action:0.036418263:0.011461072
Instance:Helper:0.0700996:5.8584213
Model:Enabled:0.0055278325:0.04695988
fire:Changed:1.1560693:0.21786492
Updater:Object:15.625:0.026473586
Size:Text:0.81645477:0.061332613
Handler:Model:6.312467:0.120607264
Child:List:1.814362:0.7359587
Tree:Children:0.06452247:24.210526
Handler:Changed:0.0065754866:0.10893246
impl:Layout:0.02948972:3.1155014
Enabled:Text:0.032018103:0.00707684
Designer:Event:16.935484:0.023295285
Event:access$900:0.039934773:100.0
Impl_:Types:0.0026927323:0.31007752
Node:Element:13.162158:0.30781558
size:Next:15.466857:2.0320256
update:action:6.931166:1.7004808
update:Logger:0.1912046:0.015128021
Action:Button:0.14039813:2.2079532
Text:Bounds:0.032081675:4.879799
Change:Handler:0.5090498:0.23671752
Selection:Project:0.013656849:0.0069141155
Editor:Text:1.4782242:0.9341429
Model:Composite:0.010553135:5.419355
Event:fire:0.008874394:4.624277
impl:Target:0.08091691:3.8330495
Copy:core:2.5056946:0.05890648
Handler:Tree:0.7956339:0.16972212
Model:impl:0.15289482:0.21883531
Monitor:List:6.542056:0.018076178
Model:Focus:6.281628E-4:2.906977
impl:Manager:5.5048676:2.1311152
Size:Count:0.05652379:0.009756627
Tree:List:18.088732:16.650742
Style:Style:17.926735:17.926735
Project:Tool:0.0069141155:0.032555614
Manager:Instance:2.0667233:28.905375
Panel:Swing:0.2665482:0.29126212
update:impl:2.91587:0.010968737
Manager:Change:0.0029237221:0.59389144
selection:event:25.0:2.4752476
Facade:Manager:25.75435:0.14319278
Abstract:Factory:0.025629526:0.0835771
compare:Object:45.38745:1.9537506
Core:Base:2.5974026:0.003369802
Action:Current:0.0143263405:27.39726
Cache:create:11.111112:0.0063347267
Wrapper:Code:4.697467:0.77380836
Element:Renderer:5.740686E-5:0.5882353
Next:Index:40.809067:1.6184227
Base:core:0.5155797:1.6386712
Base:Swing:0.006739604:0.58252424
Feel:Check:6.2455645:0.603815
Object:Item:0.20517029:1.1717569
Debug:Event:3.0571368:0.1608484
Count:Designer:0.021139357:31.451612
Manager:Type:0.02116218:1.2785465
Manager:Tool:0.105254:8.204016
Manager:Performed:0.0027844973:26.845636
Manager:Monitor:0.0010441865:7.009346
Logger:Panel:0.04916607:0.5775211
Index:Change:0.0033423142:0.2545249
Object:List:2.909447:2.83796
Index:Manager:0.0115124155:0.004315971
Object:Instance:0.25414643:0.18693227
Code:Impl_:0.08837912:0.12117296
core:Code:0.053551346:0.02945971
Update:Editor:6.9767447:0.010078801
Size:Renderer:0.0031402106:0.5882353
Size:Event:0.040822737:0.014420889
Composite:Base:6.4516125:0.056163367
Reference:Owner:0.7781551:11.442441
Impl_:Model:0.22618952:0.02110627
Look:Action:0.84447575:0.008595804
equals:fire:0.5358615:7.5144506
Instance:Selection:0.0048680278:0.011380707
Simple:Instance:32.967033:0.29208165
application:Factory:0.041129224:0.7521939
Model:Change:0.013568317:1.5271493
Facade:Code:5.909603:0.4634994
Width:Model:0.12443314:0.01130693
Code:Base:10.187168:5.826388
Selection:Lexer:26.878956:99.21862
Layout:Layout:3.1914895:3.1914895
apache:Project:0.07414731:0.0034570578
Manager:impl:1.767947:4.5667706
Pump:iterator:100.0:17.021276
Font:Text:9.108198:2.57597
String:Update:0.008279859:0.5167959
Width:Style:0.044242892:0.35630777
Element:Model:0.1304284:0.28543717
Manager:Selection:0.032160945:1.0515773
Text:Name:0.1592289:0.181265
Adapter:action:37.751003:1.1023806
Element:Component:3.4444119E-4:0.013271987
Select:Debug:1.1764706:0.021083703
core:Size:6.158405:10.833726
Event:Composite:0.21631336:12.580645
Drag:Pane:12.903225:0.3231018
model:application:1.0869565:0.036559314
property:Manager:23.316061:0.0031325596
Static:Model:100.0:3.7689766E-4
Menu:Added:0.18416207:7.692308
Editor:From:0.05226045:51.09489
Change:hash:0.05656109:0.011134308
Expression:Expression:24.324326:24.324326
Base:Text:0.08256015:0.03467652
impl:Label:0.13522115:57.979954
Instance:Context:0.0175249:8.823529
Item:Added:0.03023889:15.384616
Mouse:Clicked:0.21598272:15.384616
Object:Iterator:0.015884152:0.0025305138
Actions:Data:3.9215689:0.020459834
update:Settings:15.105163:2.218478
find:create:0.036832415:0.069681995
Pressed:Editor:8.450704:0.0044794674
Language:Type:4.8217087:1.8084702
log4j:Element:31.865639:0.040299617
Storage:Base:0.23744912:0.0039314358
Tool:Enabled:0.9983722:0.19637768
Style:Manager:16.25654:0.10163415
Base:equals:0.0011232673:0.082440235
Line:Width:33.705296:6.514766
Editor:Handler:0.033596005:0.5917938
Element:Change:0.005051804:1.2443439
Manager:Bounds:0.0027148847:1.3993542
Panel:Instance:7.4633493:0.16356573
Impl_:log4j:0.0013463661:0.045392647
Registry:Instance:2.6492405:0.07302041
impl:Style:0.11652035:7.2152324
Model:Content:1.2563256E-4:2.4390242
Designer:core:18.548388:0.041056033
Facade:Text:0.41317138:0.0077845245
Editor:paint:0.06345912:12.667661
apache:Logger:3.954523:0.60512084
Scroll:Instance:2.5568182:0.0175249
Code:core:0.907359:1.6493814
Import:Model:26.666668:0.0010050605
Root:Model:2.8985507:0.0055278325
Tree:Model:8.847994:0.79249024
internal:Manager:75.0:0.0031325596
Entered:Event:16.666668:0.004437197
selection:Event:50.0:0.022185985
Object:Active:0.0052947174:0.2980626
Base:Property:0.0022465347:0.2437538
Settings:Text:1.179444:0.039630305
Manager:log4j:0.0029237221:1.906491
Panel:Actions:0.1332741:1.4705882
Handler:Target:0.0065754866:0.008517887
apache:Popup:0.09886307:1.388889
Manager:Internal:0.013365588:23.386114
Handler:Editor:1.1309837:0.0642057
Name:Text:1.5709633:1.3799839
Select:List:2.3529413:0.0025823112
process:Editor:55.90062:0.033596005
Monitor:Next:0.46728972:0.0046820864
apache:Support:0.07414731:10.0
Debug:Started:0.25300443:14.634146
Object:Line:0.0026473587:0.014306152
core:Type:5.3408546:12.58359
Instance:analysis:0.0038944222:11.764706
count:Editor:2.857143:0.0011198669
Elements:Swing:0.1552795:0.09708738
Editor:Change:0.0041061784:0.15554298
Pressed:Logger:5.633803:0.030256042
should:Text:11.235955:0.0023589467
Manager:core:0.022972103:0.58906484
Project:Selection:0.020742346:0.04097055
Editor:Project:0.17619237:0.5439104
Adapter:Expression:2.4096384:5.4054055
Style:Instance:0.04453847:0.0038944222
Logger:Started:0.04916607:15.853659
internal:Action:15.000001:0.006446853
String:Child:0.9107845:0.70028013
Text:Font:0.04246104:0.15013513
Visible:Model:0.27406648:0.004020242
Factory:Feel:0.7521939:2.5550036
List:True:0.9412524:65.49865
log4j:Tree:4.085338:0.1262396
Show:Base:0.3546099:5.616337E-4
Leaf:Leaf:3.7624261:3.7624261
Button:Tool:16.086515:7.7482367
Settings:Type:0.210615:0.12617235
Panel:create:0.1776988:0.025338907
Tree:Component:0.69010985:1.088303
log4j:Wrapper:0.090785295:0.011922504
Base:Object:0.011794307:0.027797267
Object:Tree:0.6843422:0.7251764
mouse:Pane:3.3885252:1.1847064
Object:remove:0.14031:5.3562407
log4j:Combo:0.090785295:6.4516125
Type:Factory:2.0692267:10.2799835
Selection:Manager:13.702372:0.41906685
action:List:1.3134749:0.14460942
Project:Event:0.024199402:0.023295285
Instance:Simple:0.2287973:25.824177
Tree:Cell:0.092575714:55.932205
Settings:Settings:28.784048:28.784048
core:iterator:0.0053551346:0.2454992
Save:Manager:57.14286:5.5689947E-4
Instance:Document:0.0038944222:0.04042854
Event:Element:0.51915205:0.026866412
remove:Update:0.25265285:1.2919897
Name:Event:0.03383613:0.1397717
String:Attribute:0.14489754:100.0
Menu:Manager:64.82504:0.049007155
Node:Provider:0.97206545:1.2064344
action:Iterator:0.1524569:0.00274139
Handler:Event:0.4339821:0.073213756
Base:Type:0.24037923:1.800059
log4j:Support:0.13617794:10.0
Multiple:Event:100.0:0.008874394
Element:Language:0.19036116:37.183224
Size:Object:0.0031402106:0.0013236793
Size:Label:0.037682526:0.9252121
Size:Preferred:0.6029204:6.849804
Name:Target:0.0032224886:0.10221466
Action:clear:0.0035815851:8.620689
Logger:log4j:0.5597368:6.718112
Instance:log4j:0.06815239:3.1774852
Exited:mouse:100.0:0.038505968
Code:Debug:0.12274879:2.6354628
Event:apache:0.27177832:6.055363
Pane:Moved:3.0290792:81.521736
Read:Handler:4.0:0.26959494
Base:Editor:0.1785995:0.11870588
apache:Configuration:0.024715768:0.30303028
clear:Manager:82.75862:0.003341397
Project:Model:0.16709112:0.01821672
core:core:19.285625:19.285625
Modal:Action:10.989011:0.057305362
Event:Type:0.04437197:0.1682298
Handler:Text:0.05917938:0.002123052
Change:impl:17.533937:0.22297105
Dispatch:Performed:1.8348624:2.6845639
Enabled:Configuration:0.01494178:4.2424245
Element:Provider:1.3812091:73.30002
Handler:select:0.039452918:31.578945
execute:Manager:34.042553:0.0044551957
Logger:force:0.0037820053:100.0
Event:Document:0.326134:2.971498
Name:Editor:0.23792708:0.33073398
Mode:Editor:9.435216:0.05300703
Node:Style:0.12273553:0.5567309
Bounds:Icon:3.4445639:4.19031
Handler:Iterator:0.11835876:0.0037957707
core:Event:0.03927099:0.024404583
Changed:Changed:0.43572983:0.43572983
apache:Instance:0.07414731:0.0029208167
Width:Bounds:0.8267891:21.456762
equals:Text:0.5770816:0.0033025255
execute:Enabled:1.0638298:0.0021345401
Registry:Iterator:0.14129284:8.4350456E-4
Index:Base:0.29263818:0.88513464
Change:Logger:2.1210408:0.5673008
Pane:Designer:0.26925147:16.129032
event:Instance:7.4257426:0.029208168
Change:Base:1.4140272:0.056163367
Line:find:10.293276:4.8183494
create:Look:6.2143674:69.03589
Tree:Leaf:20.53217:92.09765
String:Tree:0.14903747:0.050495837
Layout:Target:5.4711246:2.4531515
compare:Code:0.67650676:0.021603787
Change:Object:0.05656109:0.0052947174
equals:Object:3.0090685:0.09662859
Debug:Registry:16.824795:28.18792
Text:Facade:0.0176921:0.93902594
Editor:Manager:28.967968:5.402064
Undo:Project:11.294118:0.33187753
Selection:Selection:0.06828424:0.06828424
Editor:Layout:7.4657786E-4:0.037993923
Instance:Item:0.3154482:2.4493499
Manager:process:0.004942483:44.09938
Font:Settings:0.15347145:1.291772
model:Manager:21.73913:0.044551957
Base:remove:0.0044930694:0.40424457
Manager:apache:0.0031325596:1.1122097
create:Types:0.114025086:2.7906976
Enabled:Popup:0.017076321:5.555556
Provider:Facade:0.26809654:1.1017904
Model:Width:0.14824642:1.6314566
Style:Element:0.0668077:3.4444119E-4
core:Swing:2.181325:59.32039
Impl_:Wrapper:0.21811132:0.96572286
hash:View:0.04732081:12.5
Category:helpers:9.271523:30.434782
Tree:Manager:0.7882962:0.039122187
Index:Code:0.47553703:2.514877
Project:Target:0.11753995:0.8688245
Object:Model:0.13236794:0.012563257
Actions:Debug:3.9215689:0.16866963
Target:Element:21.362862:0.14397642
Object:Element:0.26473588:0.011481373
Mode:impl:58.139534:0.15733846
Index:Wrapper:0.038250927:1.2280179
Swing:Model:0.7281554:0.0018844885
Enabled:Name:0.0042690802:0.0010741629
equals:Element:0.16488047:2.2962745E-4
Element:Core:0.007922147:59.740257
Provider:Model:2.3884962:0.09849593
Manager:Name:0.35363117:1.3641869
Name:Factory:0.0053708144:0.4178855
Editor:Model:3.451803:1.1617242
insert:Instance:100.0:9.7360555E-4
Mode:Width:0.13289036:0.0027651808
Popup:Enabled:4.166667:0.012807241
Dependencies:Dependency:97.2973:92.30769
Target:Editor:0.6643952:0.029116537
Option:Name:100.0:5.3708145E-4
Debug:Impl_:0.21083702:0.013463662
hash:Composite:0.06958942:1.6129031
Action:Data:0.48208135:1.7211835
Storage:Abstract:36.77069:6.945601
Data:create:10.572619:26.187763
Pressed:impl:11.267606:0.002877046
