Base:action:0.25720334
Class:Parameter:6.1538463
Splitter:Tree:0.010069479
Dialog:Preferred:19.594595
apache:Model:0.0368481
Type:Types:50.593197
log4j:create:0.08025682
Value:Class:0.029020555
Tree:Tree:35.2029
First:Logical:0.5428396
Object:equals:0.02600076
log4j:List:0.014568411
List:Child:0.31088084
Cache:Values:12.222222
action:Base:0.07892455
Type:Size:1.8484288
State:Code:3.34238E-5
Base:Element:65.67074
File:Types:8.57022
String:Storage:6.62085E-4
Object:Index:2.0530074
Cell:Tree:0.1510422
List:Iterator:0.27511752
String:paint:0.08138904
iterator:Storage:0.026814444
action:Path:7.4530224E-4
State:Class:0.07738815
Load:Type:0.010868515
Size:Parent:4.6511626
lexer:Parser:6.7381988
Component:Value:7.4740267
Tool:Tool:0.22681451
Index:Lexer:12.252361
Index:Type:2.9417448
Default:apache:0.049180467
Manager:Logger:3.9825027
Object:Event:21.198156
Model:Element:0.804878
Delegate:Object:0.0035550103
apache:apache:31.008286
Loader:Base:0.015526143
Storage:Impl_:0.001017962
Code:Object:46.67256
Code:Index:4.997746
Dialog:Button:0.5239822
Value:write:10.691515
hash:Valid:40.615387
init:Model:9.570935E-4
Type:First:1.092311
Node:Tree:6.8573155
property:Project:0.1495762
hash:Impl_:0.050389115
Name:First:26.472479
Index:lexer:0.6483971
Storage:Instance:0.28748676
Tool:Manager:2.543654
Code:Default:9.688581
Size:Panel:25.0
Object:String:6.5352416
File:Object:0.090559214
Name:Time:36.830357
Descriptor:Types:0.017619696
Project:Search:11.111112
Contains:Class:0.029020555
Types:Type:4.4009438
Project:Count:0.29368576
custom:Type:0.03069349
internal:Context:0.026286839
size:Object:0.0017494393
String:Line:10.148515
Impl_:Code:0.13573405
Wrapper:Index:0.011521979
Equal:node:100.0
Model:List:0.25737524
Name:Descriptor:57.16396
Model:Type:0.027674459
Value:Base:0.69285405
Logical:Logical:49.02345
Loader:Cache:0.08695652
internal:First:8.095952
Delegate:Base:0.015526143
Attribute:Impl_:0.008652677
internal:Path:0.0033538602
Preferred:Type:1.00634395E-4
Index:Support:0.07347538
Holder:File:0.030484352
Performed:Manager:0.2997133
Model:create:2.8691814
Width:Component:0.53568614
Proxy:Instance:0.012609068
Class:File:0.003919417
Pool:Base:0.009056916
Handler:Item:0.01608855
Type:Base:3.0043085
hash:Handler:3.1292174
action:Valid:0.9230769
Code:Valid:40.0
hash:Storage:0.004965638
Enabled:List:0.021852616
Name:Type:6.0428944
Performed:Index:1.5517818E-4
File:Wrap:60.000004
write:Order:0.42194092
Listener:action:0.21162298
String:Model:0.64316684
log4j:Hierarchy:33.333336
Adapter:Start:1.4659686
Index:hash:0.29057112
check:Base:0.041403044
File:Handler:4.1350374
hash:File:0.43418425
internal:Start:0.10471204
Code:Class:41.94921
Size:Size:25.970427
Descriptor:File:0.016113158
Empty:hash:0.020471206
File:Class:0.009673519
Storage:String:10.207939
Model:String:2.05239
hash:Value:7.2801986
Wrapper:Base:0.25035903
Code:Handler:5.5878882
internal:Model:0.026798617
Type:Layout:7.777778
Button_:Manager:0.6359135
Instance:action:0.57300997
Value:String:36.37051
Model:Handler:0.5123988
Parser:Feature:3.365149
Line:Panel:4.166667
Tree:Text:3.765801
Iterator:Index:34.56466
Object:check:1.3500482
Handler:Storage:0.42241025
Base:Item:0.112619855
Name:Namespace:82.961784
Cache:Value:6.435106
Component:Text:0.20098376
hash:Object:45.633186
File:model:2.3255813
Project:Manager:37.34167
Debug:Layer:50.0
Factory:Instance:2.7059062
Descriptor:Value:1.767716
code:Info:62.26415
Storage:State:26.666668
Model:Base:1.6380079
paint:Icon:27.494616
Base:Valid:16.0
List:Project:0.1412664
Facade:Type:6.038064E-4
Element:Instance:0.12609068
Feature:Feature:36.871952
Storage:storage:96.666664
Count:paint:0.6239826
Monitor:Adapter:0.0772325
Tool:paint:0.48833424
Code:Value:1.4653435
Renderer:Tree:0.1510422
Descriptor:Handler:0.015814777
application:Model:4.68593
paint:Type:8.0507516E-4
Pool:Bytes:0.05176175
Type:lexer:0.15814562
paint:Renderer:18.320612
Dialog:message:7.1428576
Descriptor:Index:0.0050432906
mouse:Manager:0.03127443
enter:Instance:5.8001714
File:Holder:99.71347
File:Dispatch:50.0
Type:Lexer:2.5373044
Project:List:0.017805835
Start:Start:47.53927
paint:Cell:24.242424
Abstract:Count:15.271659
Instance:Default:64.590546
Item:hash:2.6245133E-4
apache:List:0.014568411
internal:Type:0.02083132
Utils:Base:0.020701522
write:Value:0.17832223
Custom:File:0.0030484353
Layout:Preferred:26.35135
parser:Parser:3.462946
preferred:Size:0.09242144
Code:List:0.050989438
List:Performed:2.281369
Logger:Logger:3.5906315
Object:Valid:1.8461539
List:Instance:4.854491
hash:Dirty:50.0
Object:Wrapper:0.58064514
log4j:Model:0.0066996543
action:Button_:20.512821
Reference:Instance:0.10087255
hash:Default:1.384083
Parser:Parser:30.597803
Composite:List:0.03399296
State:hash:3.749305E-5
Splitter:paint:0.86814976
Name:load:100.0
Button:Dialog:0.28395647
Impl_:Value:0.031012561
File:Value:6.7684913
Index:write:11.848946
Editor:Component:9.736883
hash:List:0.050989438
Storage:action:0.0065114764
Index:Name:0.33719358
Listener:Monitor:0.40650403
Wait:application:0.073590286
List:Search:11.111112
Type:Name:0.43120527
Type:Token:0.48488024
String:invoke:100.0
Lexer:Adapter:0.033789217
preferred:Preferred:0.6756757
select:Count:0.07342144
Generator:Base:0.012938451
Line:Size:30.591497
Manager:debug:2.1164021
File:Base:2.1607215
log4j:Instance:0.011348162
Simple:Index:0.0021724945
write:write:7.376165
Mouse:action:0.022790167
debug:create:0.025080258
action:Handler:0.0063259113
Descriptor:Name:7.9227815E-5
Container:Instance:59.267662
Reference:Element:0.048780486
internal:String:1.0586011
String:Base:0.08409993
Parser:Lexer:0.084576815
hash:Index:1.3770511
Project:Logger:0.4100975
Wrap:File:0.013935704
hash:equals:48.93343
Model:Model:41.07223
Base:check:92.18901
Cache:Base:0.33187127
Manager:Mouse:10.983982
Token:Lexer:37.92424
Node:Component:0.99259496
Name:internal:0.9078212
apache:create:0.11536918
Adapter:internal:1.6061453
Tool:Listener:0.15847862
hash:Cache:0.04347826
Lexer:Token:37.08351
Order:Value:0.9071174
Base:Next:0.0063534253
Mouse:Manager:0.9278082
Iterator:Impl_:18.0505
Values:Base:0.035580743
Class:Bytes:0.06655082
Multiple:Reference:0.11901928
Count:action:0.0065114764
Parent:Listener:0.15847862
paint:Width:37.78559
Handler:Base:3.8252532
First:Simple:0.76062644
Logger:apache:1.3575505
Base:Impl_:0.03664663
Iterator:Model:0.011485121
Instance:init:0.5854801
Storage:Event:5.9907837
apache:log4j:24.16702
Attribute:File:1.4928623
File:Bytes:43.79044
First:Model:9.570935E-4
hash:unlock:1.5304661
Pool:Object:1.8710582E-5
Iterator:Next:0.011118494
hash:Element:1.890244
Code:Dirty:50.0
Adapter:Feature:0.44223005
equals:Value:0.27911305
Long:Base:0.19407678
hash:Iterator:6.2950926
Name:Base:1.8851326
Types:create:0.782504
Object:Name:0.032324947
Base:Delegate:6.4928675
Context:Context:49.053185
Enabled:Layer:50.0
Object:Reference:0.11901928
Dialog:Listener:0.15847862
enter:Container:0.05087764
Path:Adapter:0.48672566
hash:Base:16.429893
Instance:Monitor:39.024387
Feature:List:0.44919267
equals:Base:0.18243217
Impl_:Base:0.04269689
Bytes:Info:11.320755
configuration:Base:6.4692256E-4
Model:Instance:13.949412
Model:Tree:0.0503474
Object:action:0.32231808
Value:Model:0.023927337
Name:Element:10.95122
Button:Pane:24.793388
Base:Base:8.707578
Element:Handler:0.024249325
Object:size:0.7945813
Arrow:paint:0.6511123
Store:Type:0.006038064
Code:create:0.9931781
apply:Type:0.014088817
internal:Name:2.8522013E-4
hash:Reference:47.98857
Index:Attribute:0.21583441
Time:First:2.1203685
Slash:File:0.0026129445
Dialog:Tool:0.012600806
Object:Storage:64.82392
Instance:Dialog:0.047326077
action:Find:2.268431
Text:lexer:1.5656418
Internal:Editor:0.08438819
File:Index:1.093075
Horizontal:Dialog:0.023663038
Code:Storage:0.004965638
paint:Component:1.7331023
paint:Splitter:29.62963
Value:Code:0.01143094
Value:hash:0.005211534
Default:Base:0.025876902
Item:Item:45.047943
Dialog:Find:10.964083
Proxy:Base:0.4890735
write:Number:100.0
Storage:Index:0.07797704
Text:Lexer:2.7290118
Storage_:write:2.1481118
Find:Model:0.032062635
Base:Index:0.064011
Factory:Handler:0.19504893
enter:Base:0.041403044
Simple:Path:5.589767E-4
Class:Reference:0.047607712
Boolean:Base:0.0019407679
User:Iterator:5.1762466E-4
Dispatch:File:0.02395199
Button_:action:0.0065114764
size:Iterator:0.049864512
hash:Name:0.5776658
Cache:equals:0.039001137
Path:Time:7.3660717
Tree:Value:0.5582261
Token:Type:0.21133225
Type:Change:0.08237232
hash:create:1.665329
unlock:Storage:22.395027
Descriptor:Pool:3.2258062
Code:iterator:0.013503477
Value:Info:5.6603775
Listener:Tool:0.100806445
Parser:parser:50.013447
Instance:Model:0.030626992
Generator:File:0.063581645
write:List:0.019424548
File:Attribute:14.7159815
Base:Monitor:0.40650403
Storage:hash:7.49861E-5
Storage:write:41.647865
Parent:Mouse:5.034325
Name:Declaration:100.0
String:List:0.21933553
Help:Dialog:0.023663038
Type:Bytes:0.18856065
Size:Type:3.019032E-4
Change:List:0.5714055
Reference:Storage:0.009600233
action:force:100.0
Code:Name:0.7733269
create:Object:0.004387631
Attribute:Type:6.038064E-4
Index:Iterator:0.8403636
Object:Object:0.013995514
Impl_:Index:3.229995
List:Change:2.1416805
Adapter:Path:0.40991622
Storage:Cache:4.3369565
Arrow:Component:0.1890657
Wrapper:unlock:0.23874107
Index:Value:0.02325942
Text:Model:1.5160362
Class:Storage:0.032442167
Type:Type:35.56601
Type:Model:0.11676541
Descriptor:Class:0.2031439
Types:Types:0.4939388
hash:Next:9.653235
apply:Name:0.003755398
hash:Support:9.404849
Configuration:determine:100.0
Adapter:Simple:35.749443
Name:Name:47.34217
First:Context:1.8585768
Tool:Action:0.55607045
Next:Impl_:25.26276
hash:Changed:2.857143
Project:Iterator:0.009576056
parse:parser:0.3764453
Item:Object:0.005238963
Core:Model:0.0014356402
Index:size:0.19725896
List:Adapter:57.13516
String:Project:0.008309789
Impl_:Support:0.44085228
Manager:action:16.607521
File:File:6.75272
write:Check:100.0
apache:Dialog:17.534311
Facade:Types:0.0023492929
Readers:Handler:0.9393978
Base:Handler:5.025936
Code:Delegate:40.97393
Count:Abstract:2.803738
Handler:Next:2.6472606E-4
Name:Search:22.222223
Icon:paint:26.207272
apache:Default:4.4982696
Model:Core:3.5714288
Code:Element:1.890244
Index:Logical:1.4102635
Model:Order:0.84388185
Iterator:Storage:0.16237636
Performed:Find:0.18903592
Empty:Model:0.1105443
Size:Dialog:0.09465215
Storage:Object:8.9810794E-4
size:Value:1.5389982
Item:Base:0.018113833
Mouse:Action:0.18535681
Code:equals:42.745247
Parent:Tool:0.21421371
hash:_get:49.986713
Name:equals:0.10400304
Class:code:1.3333334
hash:Class:40.527206
Namespace:Handler:2.3690536
Reference:Iterator:4.3135392E-4
Dialog:Model:0.008135295
File:Store:24.590164
message:String:0.021604106
Loader:Class:0.07738815
create:Model:0.87861186
Support:Base:0.70385176
log4j:Dialog:17.534311
Child:Enabled:67.65835
Base:Utils:15.254237
Component:paint:3.2555618
Start:Adapter:0.5551086
Handler:List:0.014568411
Name:File:0.6192679
Base:Iterator:0.08575316
Base:String:0.18363489
Type:Handler:14.612854
Type:Object:1.6839523E-4
Action:Instance:2.588642
Object:Monitor:1.6260161
Child:Model:9.570935E-4
apache:Composite:0.3984064
Types:File:3.3062458
hash:size:0.07842826
Component:Model:0.19811836
Impl_:Iterator:0.014666033
Loader:Object:2.806587E-4
Object:Base:5.1689115
Component:Editor:36.455696
Code:Attribute:2.1191013
File:code:33.333336
Wrapper:Model:0.04976886
Code:unlock:32.099514
Delegate:Storage:0.031117996
Project:message:57.14286
Class:Cache:0.08695652
List:List:2.2095423
Type:Manager:2.97889
code:File:0.8814333
Tool:action:17.333551
Reference:Value:0.25585362
Listener:Manager:2.647902
apache:Item:0.009653131
Container:Handler:0.15182187
Class:Object:0.013471619
Model:Iterator:2.5881233E-4
String:Item:0.0321771
Component:Tree:3.1013997
Proxy:Object:8.419762E-4
Instance:Storage:0.44988677
hash:Item:0.01608855
Name:model:97.674416
Value:File:1.1157273
Info:code:0.6666667
Model:Text:3.0782251
Button:Component:0.0630219
enter:Object:1.4968465E-4
Class:Instance:0.08574167
internal:Call:19.71831
Width:paint:8.627238
Storage:Storage:3.407586
Type:Load:11.111112
Project:debug:95.2381
Base:Priority:68.181816
Descriptor:Parameter:3.846154
Instance:Facade:73.68421
write:Storage:0.039725102
filter:Name:0.8345541
Base:List:3.1249242
Core:Handler:0.08223684
Handler:Element:0.5487805
action:Tool:0.30241933
Class:Descriptor:1.4032496
action:Project:6.730929
Descriptor:Instance:0.045392647
action:Adapter:0.004022526
Base:Cache:0.36956522
Dialog:Dialog:29.152864
mouse:action:0.0032557382
Object:Code:2.039771
Types:Class:0.07738815
Object:Type:0.044077866
Handler:Valid:0.61538464
Wrapper:hash:0.0011247915
log4j:Item:0.009653131
Icon:Component:0.66172993
Handler:Active:10.843374
log4j:log4j:24.16702
write:Item:0.045047946
Custom:Class:0.019347038
Descriptor:Element:2.0243902
Panel:Dialog:0.16564128
File:Name:0.04848742
File:Descriptor:7.0901036
Element:Object:4.022775E-4
Search:Model:0.0023927337
log4j:apache:17.574385
Index:Object:0.5438698
Index:Index:4.393715
Proxy:Handler:46.605095
Monitor:Project:0.020774473
Impl_:Object:2.4323756E-4
Base:Class:0.029020555
Cache:hash:7.49861E-4
Code:_get:49.986713
Helper:Model:0.017227683
Cache:Cache:0.06521739
init:Item:2.7254007
Enabled:Project:1.221539
Base:Active:81.3253
Name:Parser:0.14014453
Button:paint:0.43407488
Object:hash:2.214152
First:Type:0.010264709
Type:Simple:6.800895
Iterator:Iterator:0.48518687
Find:Dialog:2.0350213
Store:Class:1.0447401
Adapter:Parameter:15.000001
Feature:Name:0.17306525
compute:Item:0.067571916
Size:String:0.12962463
Loader:release:100.0
hash:Loader:2.1978023
Item:Text:0.5870842
Context:internal:0.62849164
Lexer:Parser:21.562237
Event:Handler:0.53770244
Iterator:size:46.750374
Base:Storage:0.88487667
Element:Base:0.05563534
Simple:Type:0.011874859
Name:Index:0.018931737
List:First:1.6705933
log4j:Composite:0.3984064
List:Feature:0.10501505
Tree:Renderer:22.900763
action:Index:6.983018E-4
Bytes:Type:6.038064E-4
String:Component:2.9935403
Long:Storage:0.0019862552
Attribute:Index:6.983018E-4
Button_:Action:0.092678405
Renderer:Text:0.09520284
Name:Reference:1.1187812
create:Find:1.8903593
Base:_get:0.02657454
Reference:Next:6.618151E-4
log4j:Default:0.8073818
Index:File:17.961382
Action:Dialog:0.21296735
paint:Pane:70.661156
Configuration:Base:6.4692256E-4
Class:Class:1.064087
File:Load:24.836601
Parameter:Adapter:0.15687852
Handler:Changed:2.857143
Load:File:0.29787567
Path:Path:47.259617
Dialog:Help:66.66667
enter:Next:0.009397775
paint:Editor:9.282701
code:Class:0.2128174
Adapter:Lexer:2.232828
Name:Object:0.0018242815
String:String:4.6448827
Code:Cache:0.02173913
action:Object:0.030142747
Class:Index:4.6553454E-4
write:Active:0.6024096
Ordered:hash:0.003899277
Attribute:Name:0.19965409
Component:Button:2.095929
action:Manager:22.379463
Feature:Parser:1.331373
Monitor:List:0.0016187123
Change:Project:0.3739405
Size:Count:2.5697503
Tree:List:1.3402938
size:unlock:0.03979018
write:Base:0.9238055
String:Manager:9.25202
Name:Feature:6.468927
Wrapper:Value:0.0077531403
Model:Configuration:28.57143
State:Custom:15.384616
Manager:Listener:3.1695719
action:Listener:5.6259904
Performed:Base:6.4692256E-4
List:Monitor:3.6585364
Name:action:1.5627544
String:Values:2.2222223
Type:Project:0.09140768
create:Dialog:0.047326077
Next:Index:19.41628
Values:String:0.11882258
write:Utils:1.6949153
internal:Active:5.421687
Code:Support:9.404849
Change:Manager:0.91477716
Name:Attribute:2.2123027
Code:Reference:47.98857
Object:Item:0.6596306
Index:Simple:1.8791946
Manager:Tool:19.128025
Manager:Performed:6.4638786
Manager:Monitor:3.6585364
Code:Loader:2.1978023
String:internal:0.9776536
Logger:Hierarchy:33.333336
Impl_:unlock:0.15916072
storage:String:0.0054010265
Object:List:1.5636761
Class:Holder:0.04775549
hash:Attribute:1.589326
Object:Instance:0.06556716
Empty:Code:0.01784831
Code:Impl_:0.06718549
Performed:Dialog:0.023663038
Token:push:100.0
Node:Renderer:11.450381
Splitter:Editor:0.16877638
Code:Base:16.882092
Contents:Instance:0.022696324
Pane:Width:0.35149387
Code:size:0.026142754
Class:Base:0.5356519
Element:Model:0.001914187
Adapter:Value:13.188091
Pane:paint:0.1356484
Descriptor:Reference:0.023803856
File:Storage:0.18521829
Storage:Code:0.007052422
property:Manager:0.5707584
Token:lexer:39.188488
Impl_:hash:0.015109699
Change:hash:2.249583E-4
Cache:Code:0.0067516076
List:action:4.6589613
Results:message:7.1428576
action:internal:0.83798885
Name:Standard:6.324111
Name:Path:1.6266221
Object:Iterator:6.9016626E-4
Code:Next:9.658398
Button:Button:45.949215
Object:File:2.2070673
Code:Composite:45.418327
hash:Delegate:23.413675
Storage:Base:0.1863137
Base:equals:0.0617518
User:Elements:100.0
Dialog:Types:5.873232E-4
profile:Model:0.040197928
Editor:paint:0.5425936
Base:Code:0.008021712
Impl_:Handler:0.04849865
Path:Name:0.28110027
apache:Logger:14.708831
Dialog:Panel:37.5
Child:Debug:94.09594
Tree:Model:1.2461358
Change:Count:0.88105726
Handler:Handler:0.63259107
Cache:Object:0.060369693
Storage:Class:0.07738815
Empty:Storage:0.0039725103
Manager:log4j:0.014575304
resolve:Base:0.009703839
Value:Type:0.009057096
Manager:Parser:0.011261614
Name:Storage:0.008441584
Index:unlock:0.27853125
action:Name:3.169113E-5
Priority:Name:2.2183788E-4
Base:Event:63.59447
First:Name:0.0071146577
Type:Line:7.6732674
Logger:Default:0.8073818
Base:Wrapper:0.048387095
Dialog:Size:0.64695007
Base:write:0.7062285
Next:Storage:0.054622017
Name:Model:0.023927337
paint:Tree:1.1177123
Path:action:0.05209181
Default:Object:1.8710582E-5
action:configuration:85.71429
log4j:Logger:14.708831
Find:Find:24.385633
Ordered:Code:0.0034760754
enter:iterator:99.74568
write:Object:8.232656E-4
Iterator:Wrapper:2.3709676
size:Index:0.06529122
Code:Wrapper:2.2258065
Content:Panel:4.166667
Count:application:0.7359029
Layout:Size:4.066543
Pane:Icon:0.14357501
check:Model:0.033498272
First:Time:14.732143
action:Dialog:0.09465215
Object:Next:6.618151E-4
Component:Display:12.5
enter:Iterator:0.019669738
Tree:Component:16.007563
Parameters:Adapter:0.17377312
String:Object:0.0062586893
Adapter:Name:0.047695145
Base:Object:0.035653014
Code:Changed:54.285717
Change:Code:2.673904E-4
Wrapper:Iterator:0.00879962
Preferred:String:0.12962463
Wrapper:Wrapper:26.45161
Model:Node:0.8342023
Project:Project:15.094731
Performed:Instance:0.148787
action:List:0.4580956
size:Storage:0.44955575
application:Count:72.76065
Tree:Cell:30.303032
Bytes:File:6.5767817
Listener:Action:2.5486562
resolve:Storage:0.0016552125
equals:Storage:1.1311723
Handler:action:0.045580335
apply:Simple:1.8791946
Name:Item:3.5587878
First:User:1.3779527
Pane:Editor:0.16877638
Handler:Event:4.608295
Node:Cell:15.151516
Size:Preferred:29.054054
Logger:log4j:1.866805
Node:Support:0.44085228
Impl_:Attribute:0.3237516
Action:Find:4.15879
Renderer:Display:87.5
Base:hash:0.019121455
Adapter:List:22.821417
paint:Button:1.7734785
Type:Adapter:0.19066773
Preferred:Dialog:0.26029342
Multiple:iterator:0.04501159
Time:Call:80.28169
Start:First:0.9852217
Method:File:0.7155113
paint:paint:7.3792725
Standard:Name:0.02253239
Type:Index:0.004344989
Value:Object:0.0035550103
Handler:Iterator:1.7254156E-4
Value:Primitive:100.0
apache:Instance:0.013869975
Find:Instance:0.017652696
apache:Hierarchy:33.333336
Handler:Code:0.01724668
hash:iterator:0.013503477
Index:Base:2.4479551
Active:Base:0.0038815357
Code:Iterator:6.299578
Base:Changed:40.0
Tree:Leaf:71.31148
String:Tree:0.010069479
Object:Cache:45.36413
Adapter:Type:0.096810296
equals:Object:0.0025820602
internal:Adapter:0.30410296
Index:Storage:0.27079278
Leaf:Tree:0.17621589
equals:Support:0.29390153
Equal:Equal:33.333336
Simple:Simple:21.118568
apply:Index:0.07161473
Index:Impl_:0.87341136
Manager:apache:0.097513
create:Types:9.583353
Load:Class:0.4353083
Monitor:Manager:0.05733646
Storage:Utils:55.932205
size:hash:0.02362062
Next:size:46.684624
hash:Wrapper:6.6774197
Long:Object:1.4968465E-4
Adapter:Time:29.464287
Impl_:Wrapper:11.903226
Value:Storage:0.00529668
apache:Handler:0.57144064
Index:Code:6.2945375
True:Iterator:0.0070742043
Object:Element:13.04878
Buttons:Find:0.18903592
Iterator:apache:0.0016958782
Instance:Object:0.007446811
Lexer:Text:44.39097
Model:Object:3.3679046E-4
Manager:index:100.0
Handler:File:1.4449583
action:Instance:4.2555604
Monitor:Base:6.4692256E-4
Cache:Handler:0.002108637
Object:Impl_:7.987947
lexer:Token:9.586213
Simple:Name:9.82425E-4
action:Storage:9.931276E-4
Code:File:0.705495
Instance:internal:1.9553072
mouse:Action:0.046339203
hash:Composite:45.418327
